// Jest Snapshot v1, https://goo.gl/fbAQLP

exports[`SocialProofMessageVanilla should render correctly 1`] = `
<FadeInView>
  <Styled(View)
    bgdColor=""
  >
    <Styled(BodyCopy)
      accessibilityText=""
      color=""
      dataLocator=""
      fontFamily="secondary"
      fontSize="fs12"
      fontWeight="extrabold"
      margin={null}
      numberOfLines={null}
      text="Urgent!"
      textDecoration={null}
    />
    <Styled(BodyCopy)
      accessibilityText=""
      color=""
      dataLocator=""
      fontFamily="secondary"
      fontSize="fs12"
      margin={null}
      numberOfLines={null}
      text=" - This is a test message"
      textDecoration={null}
    />
  </Styled(View)>
</FadeInView>
`;
