// Jest Snapshot v1, https://goo.gl/fbAQLP

exports[`Added to Bag View should not render Added to Bag view with PickupBannerView  1`] = `
<ModalBox
  animationDuration={100}
  backButtonClose={false}
  backdrop={true}
  backdropColor="black"
  backdropContent={null}
  backdropOpacity={0.5}
  backdropPressToClose={true}
  coverScreen={true}
  easing={[Function]}
  entry="bottom"
  isOpen={false}
  keyboardTopOffset={22}
  onClosed={[Function]}
  position="bottom"
  startOpen={false}
  style={
    Object {
      "backgroundColor": "#f3f3f3",
      "borderTopLeftRadius": 16,
      "borderTopRightRadius": 16,
      "maxHeight": "88%",
    }
  }
  swipeThreshold={10}
  swipeToClose={false}
  useNativeDriver={true}
>
  <Styled(Component)
    accessibilityRole="button"
    isPdpNewReDesign={true}
    onPress={[Function]}
  >
    <Styled(Component)
      source={
        Object {
          "testUri": "../../../src/assets/images/isNewRedesign/close_icon_drawer.png",
        }
      }
    />
  </Styled(Component)>
  <View
    style={
      Object {
        "marginTop": 16,
        "paddingTop": 16,
      }
    }
  >
    <Styled(BodyCopy)
      accessibilityText=""
      color="gray.900"
      dataLocator=""
      fontFamily="secondary"
      fontSize="fs20"
      fontWeight="bold"
      margin={null}
      numberOfLines={null}
      text="undefined"
      textAlign="center"
      textDecoration={null}
    />
  </View>
  <Styled(View)>
    <Styled(ScrollViewMock)
      isNewReDesign={true}
    >
      <Styled(View)
        isNewReDesignEnabled={true}
      >
        <Styled(ProductInformation)
          aTbAPICallStatus={false}
          addToBagModalError={null}
          data={
            Object {
              "brand": undefined,
              "fromPage": "PLP",
              "imgConfig": "t_t_atb_m",
              "isGiftCard": false,
              "isOpenNewATBModal": true,
              "originPage": "plp",
              "productName": "Boys Basic Straight Jeans",
              "quantity": 1,
              "selectedMultipack": "1",
              "skuInfo": Object {
                "TCPMultipackProductMapping": Array [
                  "1",
                ],
                "TCPStyleQTY": "1",
                "TCPStyleType": "0001",
                "color": Object {
                  "family": "DENIM",
                  "imagePath": null,
                  "name": "INDIGO",
                  "swatchImage": "3015475_528_swatch1.jpg",
                },
                "fit": "slim",
                "imageUrl": "3015475/3015475_5287.jpg",
                "productFamily": undefined,
                "productId": "3015475_528",
                "size": "5S",
                "skuId": "1644027",
                "unbxdProdId": "3015475_528",
                "variantId": "00194936074874",
                "variantNo": "3015476002",
              },
            }
          }
          dataFromApi={
            Object {
              "pickupType": "bopis",
            }
          }
          hasDoubleItems={false}
          isATBHidePoints={false}
          isAvoidGetOrderDetails={false}
          isDoubleAddedToBag={false}
          isNewReDesignEnabled={true}
          isPlcc={false}
          labels={Object {}}
          loyaltyAPICallStatus={false}
          quantity=""
        />
        <Styled(View)
          isNewReDesignEnabled={true}
        >
          <Connect(Recommendations)
            addedToBagData={
              Object {
                "pickupType": "bopis",
              }
            }
            carouselConfigProps={
              Object {
                "infinite": true,
                "responsive": Array [
                  Object {
                    "breakpoint": 1199,
                    "settings": Object {
                      "arrows": false,
                      "slidesToScroll": 2,
                      "slidesToShow": 3,
                    },
                  },
                  Object {
                    "breakpoint": 767,
                    "settings": Object {
                      "arrows": false,
                      "slidesToScroll": 2,
                      "slidesToShow": 3,
                    },
                  },
                ],
                "slidesToScroll": 3,
                "slidesToShow": 3,
                "touchThreshold": 500,
              }
            }
            closeATBModal={[MockFunction]}
            headerLabel="You May Also Like"
            isAddedToBag={true}
            isAddedToBagOpen={true}
            isCardTypeTiles={true}
            margins="5px 6px 18px"
            navigation={
              Object {
                "getParam": [MockFunction] {
                  "calls": Array [
                    Array [
                      "headerMode",
                      false,
                    ],
                    Array [
                      "headerMode",
                      false,
                    ],
                    Array [
                      "headerMode",
                      false,
                    ],
                    Array [
                      "headerMode",
                      false,
                    ],
                  ],
                  "results": Array [
                    Object {
                      "type": "return",
                      "value": undefined,
                    },
                    Object {
                      "type": "return",
                      "value": undefined,
                    },
                    Object {
                      "type": "return",
                      "value": undefined,
                    },
                    Object {
                      "type": "return",
                      "value": undefined,
                    },
                  ],
                },
              }
            }
            paddings="0px"
            page="added_to_bag"
            partNumber="3015475_528"
            portalValue="add-to-bag-modal-carousal"
            priceOnly={true}
            productImageHeight={161}
            productImageWidth={130}
            sequence="1"
            showPeek={
              Object {
                "medium": false,
                "small": false,
              }
            }
            styleWithEligibility={false}
            styleWithView={false}
            variation="moduleO"
          />
        </Styled(View)>
      </Styled(View)>
    </Styled(ScrollViewMock)>
  </Styled(View)>
  <Styled(View)
    isAndroid={true}
  >
    <Connect(AddedToBagContainer)
      addToBagModalError={null}
      closeModal={[MockFunction]}
      fromAddedToBagModal={true}
      hideHeader={[Function]}
      isNewRedesignedModal={true}
      labels={Object {}}
      navigation={
        Object {
          "getParam": [MockFunction] {
            "calls": Array [
              Array [
                "headerMode",
                false,
              ],
              Array [
                "headerMode",
                false,
              ],
              Array [
                "headerMode",
                false,
              ],
              Array [
                "headerMode",
                false,
              ],
            ],
            "results": Array [
              Object {
                "type": "return",
                "value": undefined,
              },
              Object {
                "type": "return",
                "value": undefined,
              },
              Object {
                "type": "return",
                "value": undefined,
              },
              Object {
                "type": "return",
                "value": undefined,
              },
            ],
          },
        }
      }
      showAddTobag={true}
    />
  </Styled(View)>
</ModalBox>
`;

exports[`Added to Bag View should render Added to Bag view 1`] = `
<ModalBox
  animationDuration={100}
  backButtonClose={false}
  backdrop={true}
  backdropColor="black"
  backdropContent={null}
  backdropOpacity={0.5}
  backdropPressToClose={true}
  coverScreen={true}
  easing={[Function]}
  entry="bottom"
  isOpen={false}
  keyboardTopOffset={22}
  onClosed={[Function]}
  position="bottom"
  startOpen={false}
  style={
    Object {
      "backgroundColor": "#f3f3f3",
      "borderTopLeftRadius": 16,
      "borderTopRightRadius": 16,
      "maxHeight": "88%",
    }
  }
  swipeThreshold={10}
  swipeToClose={false}
  useNativeDriver={true}
>
  <Styled(Component)
    accessibilityRole="button"
    isPdpNewReDesign={true}
    onPress={[Function]}
  >
    <Styled(Component)
      source={
        Object {
          "testUri": "../../../src/assets/images/isNewRedesign/close_icon_drawer.png",
        }
      }
    />
  </Styled(Component)>
  <View
    style={
      Object {
        "marginTop": 16,
        "paddingTop": 16,
      }
    }
  >
    <Styled(BodyCopy)
      accessibilityText=""
      color="gray.900"
      dataLocator=""
      fontFamily="secondary"
      fontSize="fs20"
      fontWeight="bold"
      margin={null}
      numberOfLines={null}
      text="undefined"
      textAlign="center"
      textDecoration={null}
    />
  </View>
  <Styled(View)>
    <Styled(ScrollViewMock)
      isNewReDesign={true}
    >
      <Styled(View)
        isNewReDesignEnabled={true}
      >
        <Styled(ProductInformation)
          aTbAPICallStatus={false}
          addToBagModalError={null}
          data={
            Object {
              "brand": undefined,
              "fromPage": "PLP",
              "imgConfig": "t_t_atb_m",
              "isGiftCard": false,
              "isOpenNewATBModal": true,
              "originPage": "plp",
              "productName": "Boys Basic Straight Jeans",
              "quantity": 1,
              "selectedMultipack": "1",
              "skuInfo": Object {
                "TCPMultipackProductMapping": Array [
                  "1",
                ],
                "TCPStyleQTY": "1",
                "TCPStyleType": "0001",
                "color": Object {
                  "family": "DENIM",
                  "imagePath": null,
                  "name": "INDIGO",
                  "swatchImage": "3015475_528_swatch1.jpg",
                },
                "fit": "slim",
                "imageUrl": "3015475/3015475_5287.jpg",
                "productFamily": undefined,
                "productId": "3015475_528",
                "size": "5S",
                "skuId": "1644027",
                "unbxdProdId": "3015475_528",
                "variantId": "00194936074874",
                "variantNo": "3015476002",
              },
            }
          }
          dataFromApi={
            Object {
              "addedFromSBP": undefined,
              "brand": undefined,
              "cartTotalAfterPLCCDiscount": 112.1,
              "earnedReward": undefined,
              "estimatedRewards": -1,
              "fromPage": "PLP",
              "getAllMultiPack": null,
              "getAllNewMultiPack": null,
              "giftCardsTotal": 0,
              "grandTotal": [Function],
              "isBopisOrder": false,
              "isBoss": undefined,
              "isBossOrder": false,
              "isBrierleyWorking": false,
              "isECOM": true,
              "isElectiveBonus": "0",
              "isGiftCard": false,
              "isOpenNewATBModal": true,
              "isPickupOrder": false,
              "loyaltyCallEnabled": undefined,
              "loyaltyOrderItems": Array [
                Object {
                  "giftItem": false,
                  "itemBrand": "TCP",
                  "itemDstPrice": 11.66,
                  "itemPoints": -1,
                  "itemPrice": 12.95,
                  "itemUnitDstPrice": 11.66,
                  "itemUnitPrice": 12.95,
                  "multiPack": false,
                  "orderItemId": "1517691991",
                  "orderItemType": "ECOM",
                  "productPartNumber": "2043378_OM",
                  "qty": 1,
                  "variantNo": "2043378103",
                },
              ],
              "mprId": undefined,
              "multiPackCount": null,
              "multipackProduct": null,
              "orderId": "343918438",
              "orderItemId": "1517692185",
              "orderItemTotal": "73.50",
              "orderItems": Array [
                Object {
                  "itemInfo": Object {
                    "itemId": "1517691991",
                    "itemPoints": -1,
                    "listPrice": 12.95,
                    "offerPrice": 11.66,
                    "quantity": 1,
                  },
                },
              ],
              "orderSubTotal": 144.14,
              "orderSubTotalBeforeDiscount": 160.15,
              "orderSubTotalDiscount": 144.14,
              "orderSubTotalWithoutGiftCard": 144.14,
              "orderTotal": "160.15000",
              "orderTotalAfterDiscount": 144.14,
              "orderTotalListPrice": 160.15,
              "orderTotalSaving": 16.01,
              "originPage": "plp",
              "partIdInfo": null,
              "pointsApi": "brierley",
              "pointsToNextReward": 0,
              "productName": "Boys Basic Straight Jeans",
              "quantity": 1,
              "selectedMultipack": "1",
              "skuInfo": Object {
                "color": Object {
                  "family": "DENIM",
                  "imagePath": null,
                  "name": "DRY INDIGO",
                  "swatchImage": "3015475_528_swatch.jpg",
                },
                "imageUrl": "3015475/3015475_528.jpg",
                "skuId": "1644027",
                "variantId": "00194936074874",
                "variantNo": "3015476002",
              },
              "storeLocId": undefined,
              "totalItems": 10,
            }
          }
          hasDoubleItems={false}
          isATBHidePoints={false}
          isAvoidGetOrderDetails={false}
          isDoubleAddedToBag={false}
          isNewReDesignEnabled={true}
          isPlcc={false}
          labels={Object {}}
          loyaltyAPICallStatus={false}
          quantity=""
        />
        <Styled(View)
          isNewReDesignEnabled={true}
        >
          <Connect(Recommendations)
            addedToBagData={
              Object {
                "addedFromSBP": undefined,
                "brand": undefined,
                "cartTotalAfterPLCCDiscount": 112.1,
                "earnedReward": undefined,
                "estimatedRewards": -1,
                "fromPage": "PLP",
                "getAllMultiPack": null,
                "getAllNewMultiPack": null,
                "giftCardsTotal": 0,
                "grandTotal": [Function],
                "isBopisOrder": false,
                "isBoss": undefined,
                "isBossOrder": false,
                "isBrierleyWorking": false,
                "isECOM": true,
                "isElectiveBonus": "0",
                "isGiftCard": false,
                "isOpenNewATBModal": true,
                "isPickupOrder": false,
                "loyaltyCallEnabled": undefined,
                "loyaltyOrderItems": Array [
                  Object {
                    "giftItem": false,
                    "itemBrand": "TCP",
                    "itemDstPrice": 11.66,
                    "itemPoints": -1,
                    "itemPrice": 12.95,
                    "itemUnitDstPrice": 11.66,
                    "itemUnitPrice": 12.95,
                    "multiPack": false,
                    "orderItemId": "1517691991",
                    "orderItemType": "ECOM",
                    "productPartNumber": "2043378_OM",
                    "qty": 1,
                    "variantNo": "2043378103",
                  },
                ],
                "mprId": undefined,
                "multiPackCount": null,
                "multipackProduct": null,
                "orderId": "343918438",
                "orderItemId": "1517692185",
                "orderItemTotal": "73.50",
                "orderItems": Array [
                  Object {
                    "itemInfo": Object {
                      "itemId": "1517691991",
                      "itemPoints": -1,
                      "listPrice": 12.95,
                      "offerPrice": 11.66,
                      "quantity": 1,
                    },
                  },
                ],
                "orderSubTotal": 144.14,
                "orderSubTotalBeforeDiscount": 160.15,
                "orderSubTotalDiscount": 144.14,
                "orderSubTotalWithoutGiftCard": 144.14,
                "orderTotal": "160.15000",
                "orderTotalAfterDiscount": 144.14,
                "orderTotalListPrice": 160.15,
                "orderTotalSaving": 16.01,
                "originPage": "plp",
                "partIdInfo": null,
                "pointsApi": "brierley",
                "pointsToNextReward": 0,
                "productName": "Boys Basic Straight Jeans",
                "quantity": 1,
                "selectedMultipack": "1",
                "skuInfo": Object {
                  "color": Object {
                    "family": "DENIM",
                    "imagePath": null,
                    "name": "DRY INDIGO",
                    "swatchImage": "3015475_528_swatch.jpg",
                  },
                  "imageUrl": "3015475/3015475_528.jpg",
                  "skuId": "1644027",
                  "variantId": "00194936074874",
                  "variantNo": "3015476002",
                },
                "storeLocId": undefined,
                "totalItems": 10,
              }
            }
            carouselConfigProps={
              Object {
                "infinite": true,
                "responsive": Array [
                  Object {
                    "breakpoint": 1199,
                    "settings": Object {
                      "arrows": false,
                      "slidesToScroll": 2,
                      "slidesToShow": 3,
                    },
                  },
                  Object {
                    "breakpoint": 767,
                    "settings": Object {
                      "arrows": false,
                      "slidesToScroll": 2,
                      "slidesToShow": 3,
                    },
                  },
                ],
                "slidesToScroll": 3,
                "slidesToShow": 3,
                "touchThreshold": 500,
              }
            }
            closeATBModal={[MockFunction]}
            headerLabel="You May Also Like"
            isAddedToBag={true}
            isAddedToBagOpen={true}
            isCardTypeTiles={true}
            margins="5px 6px 18px"
            navigation={
              Object {
                "getParam": [MockFunction] {
                  "calls": Array [
                    Array [
                      "headerMode",
                      false,
                    ],
                  ],
                  "results": Array [
                    Object {
                      "type": "return",
                      "value": undefined,
                    },
                  ],
                },
              }
            }
            paddings="0px"
            page="added_to_bag"
            partNumber="3015475_528"
            portalValue="add-to-bag-modal-carousal"
            priceOnly={true}
            productImageHeight={161}
            productImageWidth={130}
            sequence="1"
            showPeek={
              Object {
                "medium": false,
                "small": false,
              }
            }
            styleWithEligibility={false}
            styleWithView={false}
            variation="moduleO"
          />
        </Styled(View)>
      </Styled(View)>
    </Styled(ScrollViewMock)>
  </Styled(View)>
  <Styled(View)
    isAndroid={false}
  >
    <Connect(AddedToBagContainer)
      addToBagModalError={null}
      closeModal={[MockFunction]}
      fromAddedToBagModal={true}
      hideHeader={[Function]}
      isNewRedesignedModal={true}
      labels={Object {}}
      navigation={
        Object {
          "getParam": [MockFunction] {
            "calls": Array [
              Array [
                "headerMode",
                false,
              ],
            ],
            "results": Array [
              Object {
                "type": "return",
                "value": undefined,
              },
            ],
          },
        }
      }
      showAddTobag={true}
    />
  </Styled(View)>
</ModalBox>
`;

exports[`Added to Bag View should render Added to Bag view with new experience 1`] = `
<ModalBox
  animationDuration={100}
  backButtonClose={false}
  backdrop={true}
  backdropColor="black"
  backdropContent={null}
  backdropOpacity={0.5}
  backdropPressToClose={true}
  coverScreen={true}
  easing={[Function]}
  entry="bottom"
  isOpen={false}
  keyboardTopOffset={22}
  onClosed={[Function]}
  position="bottom"
  startOpen={false}
  style={
    Object {
      "backgroundColor": "#f3f3f3",
      "borderTopLeftRadius": 16,
      "borderTopRightRadius": 16,
      "maxHeight": "88%",
    }
  }
  swipeThreshold={10}
  swipeToClose={false}
  useNativeDriver={true}
>
  <Styled(Component)
    accessibilityRole="button"
    isPdpNewReDesign={true}
    onPress={[Function]}
  >
    <Styled(Component)
      source={
        Object {
          "testUri": "../../../src/assets/images/isNewRedesign/close_icon_drawer.png",
        }
      }
    />
  </Styled(Component)>
  <View
    style={
      Object {
        "marginTop": 16,
        "paddingTop": 16,
      }
    }
  >
    <Styled(BodyCopy)
      accessibilityText=""
      color="gray.900"
      dataLocator=""
      fontFamily="secondary"
      fontSize="fs20"
      fontWeight="bold"
      margin={null}
      numberOfLines={null}
      text="undefined"
      textAlign="center"
      textDecoration={null}
    />
  </View>
  <Styled(View)>
    <Styled(ScrollViewMock)
      isNewReDesign={true}
    >
      <Styled(View)
        isNewReDesignEnabled={true}
      >
        <Styled(ProductInformation)
          aTbAPICallStatus={false}
          addToBagModalError={null}
          data={
            Object {
              "brand": undefined,
              "fromPage": "PLP",
              "imgConfig": "t_t_atb_m",
              "isGiftCard": false,
              "isOpenNewATBModal": true,
              "originPage": "plp",
              "productName": "Boys Basic Straight Jeans",
              "quantity": 1,
              "selectedMultipack": "1",
              "skuInfo": Object {
                "TCPMultipackProductMapping": Array [
                  "1",
                ],
                "TCPStyleQTY": "1",
                "TCPStyleType": "0001",
                "color": Object {
                  "family": "DENIM",
                  "imagePath": null,
                  "name": "INDIGO",
                  "swatchImage": "3015475_528_swatch1.jpg",
                },
                "fit": "slim",
                "imageUrl": "3015475/3015475_5287.jpg",
                "productFamily": undefined,
                "productId": "3015475_528",
                "size": "5S",
                "skuId": "1644027",
                "unbxdProdId": "3015475_528",
                "variantId": "00194936074874",
                "variantNo": "3015476002",
              },
            }
          }
          dataFromApi={
            Object {
              "addedFromSBP": undefined,
              "brand": undefined,
              "cartTotalAfterPLCCDiscount": 112.1,
              "earnedReward": undefined,
              "estimatedRewards": -1,
              "fromPage": "PLP",
              "getAllMultiPack": null,
              "getAllNewMultiPack": null,
              "giftCardsTotal": 0,
              "grandTotal": [Function],
              "isBopisOrder": false,
              "isBoss": undefined,
              "isBossOrder": false,
              "isBrierleyWorking": false,
              "isECOM": true,
              "isElectiveBonus": "0",
              "isGiftCard": false,
              "isOpenNewATBModal": true,
              "isPickupOrder": false,
              "loyaltyCallEnabled": undefined,
              "loyaltyOrderItems": Array [
                Object {
                  "giftItem": false,
                  "itemBrand": "TCP",
                  "itemDstPrice": 11.66,
                  "itemPoints": -1,
                  "itemPrice": 12.95,
                  "itemUnitDstPrice": 11.66,
                  "itemUnitPrice": 12.95,
                  "multiPack": false,
                  "orderItemId": "1517691991",
                  "orderItemType": "ECOM",
                  "productPartNumber": "2043378_OM",
                  "qty": 1,
                  "variantNo": "2043378103",
                },
              ],
              "mprId": undefined,
              "multiPackCount": null,
              "multipackProduct": null,
              "orderId": "343918438",
              "orderItemId": "1517692185",
              "orderItemTotal": "73.50",
              "orderItems": Array [
                Object {
                  "itemInfo": Object {
                    "itemId": "1517691991",
                    "itemPoints": -1,
                    "listPrice": 12.95,
                    "offerPrice": 11.66,
                    "quantity": 1,
                  },
                },
              ],
              "orderSubTotal": 144.14,
              "orderSubTotalBeforeDiscount": 160.15,
              "orderSubTotalDiscount": 144.14,
              "orderSubTotalWithoutGiftCard": 144.14,
              "orderTotal": "160.15000",
              "orderTotalAfterDiscount": 144.14,
              "orderTotalListPrice": 160.15,
              "orderTotalSaving": 16.01,
              "originPage": "plp",
              "partIdInfo": null,
              "pointsApi": "brierley",
              "pointsToNextReward": 0,
              "productName": "Boys Basic Straight Jeans",
              "quantity": 1,
              "selectedMultipack": "1",
              "skuInfo": Object {
                "color": Object {
                  "family": "DENIM",
                  "imagePath": null,
                  "name": "DRY INDIGO",
                  "swatchImage": "3015475_528_swatch.jpg",
                },
                "imageUrl": "3015475/3015475_528.jpg",
                "skuId": "1644027",
                "variantId": "00194936074874",
                "variantNo": "3015476002",
              },
              "storeLocId": undefined,
              "totalItems": 10,
            }
          }
          hasDoubleItems={false}
          isATBHidePoints={false}
          isAvoidGetOrderDetails={false}
          isDoubleAddedToBag={false}
          isNewReDesignEnabled={true}
          isPlcc={false}
          labels={Object {}}
          loyaltyAPICallStatus={false}
          quantity=""
        />
        <Styled(View)
          isNewReDesignEnabled={true}
        >
          <Connect(Recommendations)
            addedToBagData={
              Object {
                "addedFromSBP": undefined,
                "brand": undefined,
                "cartTotalAfterPLCCDiscount": 112.1,
                "earnedReward": undefined,
                "estimatedRewards": -1,
                "fromPage": "PLP",
                "getAllMultiPack": null,
                "getAllNewMultiPack": null,
                "giftCardsTotal": 0,
                "grandTotal": [Function],
                "isBopisOrder": false,
                "isBoss": undefined,
                "isBossOrder": false,
                "isBrierleyWorking": false,
                "isECOM": true,
                "isElectiveBonus": "0",
                "isGiftCard": false,
                "isOpenNewATBModal": true,
                "isPickupOrder": false,
                "loyaltyCallEnabled": undefined,
                "loyaltyOrderItems": Array [
                  Object {
                    "giftItem": false,
                    "itemBrand": "TCP",
                    "itemDstPrice": 11.66,
                    "itemPoints": -1,
                    "itemPrice": 12.95,
                    "itemUnitDstPrice": 11.66,
                    "itemUnitPrice": 12.95,
                    "multiPack": false,
                    "orderItemId": "1517691991",
                    "orderItemType": "ECOM",
                    "productPartNumber": "2043378_OM",
                    "qty": 1,
                    "variantNo": "2043378103",
                  },
                ],
                "mprId": undefined,
                "multiPackCount": null,
                "multipackProduct": null,
                "orderId": "343918438",
                "orderItemId": "1517692185",
                "orderItemTotal": "73.50",
                "orderItems": Array [
                  Object {
                    "itemInfo": Object {
                      "itemId": "1517691991",
                      "itemPoints": -1,
                      "listPrice": 12.95,
                      "offerPrice": 11.66,
                      "quantity": 1,
                    },
                  },
                ],
                "orderSubTotal": 144.14,
                "orderSubTotalBeforeDiscount": 160.15,
                "orderSubTotalDiscount": 144.14,
                "orderSubTotalWithoutGiftCard": 144.14,
                "orderTotal": "160.15000",
                "orderTotalAfterDiscount": 144.14,
                "orderTotalListPrice": 160.15,
                "orderTotalSaving": 16.01,
                "originPage": "plp",
                "partIdInfo": null,
                "pointsApi": "brierley",
                "pointsToNextReward": 0,
                "productName": "Boys Basic Straight Jeans",
                "quantity": 1,
                "selectedMultipack": "1",
                "skuInfo": Object {
                  "color": Object {
                    "family": "DENIM",
                    "imagePath": null,
                    "name": "DRY INDIGO",
                    "swatchImage": "3015475_528_swatch.jpg",
                  },
                  "imageUrl": "3015475/3015475_528.jpg",
                  "skuId": "1644027",
                  "variantId": "00194936074874",
                  "variantNo": "3015476002",
                },
                "storeLocId": undefined,
                "totalItems": 10,
              }
            }
            carouselConfigProps={
              Object {
                "infinite": true,
                "responsive": Array [
                  Object {
                    "breakpoint": 1199,
                    "settings": Object {
                      "arrows": false,
                      "slidesToScroll": 2,
                      "slidesToShow": 3,
                    },
                  },
                  Object {
                    "breakpoint": 767,
                    "settings": Object {
                      "arrows": false,
                      "slidesToScroll": 2,
                      "slidesToShow": 3,
                    },
                  },
                ],
                "slidesToScroll": 3,
                "slidesToShow": 3,
                "touchThreshold": 500,
              }
            }
            closeATBModal={[MockFunction]}
            headerLabel="You May Also Like"
            isAddedToBag={true}
            isAddedToBagOpen={true}
            isCardTypeTiles={true}
            margins="5px 6px 18px"
            navigation={
              Object {
                "getParam": [MockFunction] {
                  "calls": Array [
                    Array [
                      "headerMode",
                      false,
                    ],
                    Array [
                      "headerMode",
                      false,
                    ],
                  ],
                  "results": Array [
                    Object {
                      "type": "return",
                      "value": undefined,
                    },
                    Object {
                      "type": "return",
                      "value": undefined,
                    },
                  ],
                },
              }
            }
            paddings="0px"
            page="added_to_bag"
            partNumber="3015475_528"
            portalValue="add-to-bag-modal-carousal"
            priceOnly={true}
            productImageHeight={161}
            productImageWidth={130}
            sequence="1"
            showPeek={
              Object {
                "medium": false,
                "small": false,
              }
            }
            styleWithEligibility={false}
            styleWithView={false}
            variation="moduleO"
          />
        </Styled(View)>
      </Styled(View)>
    </Styled(ScrollViewMock)>
  </Styled(View)>
  <Styled(View)
    isAndroid={true}
  >
    <Connect(AddedToBagContainer)
      addToBagModalError={null}
      closeModal={[MockFunction]}
      fromAddedToBagModal={true}
      hideHeader={[Function]}
      isNewRedesignedModal={true}
      labels={Object {}}
      navigation={
        Object {
          "getParam": [MockFunction] {
            "calls": Array [
              Array [
                "headerMode",
                false,
              ],
              Array [
                "headerMode",
                false,
              ],
            ],
            "results": Array [
              Object {
                "type": "return",
                "value": undefined,
              },
              Object {
                "type": "return",
                "value": undefined,
              },
            ],
          },
        }
      }
      showAddTobag={true}
    />
  </Styled(View)>
</ModalBox>
`;

exports[`Added to Bag View should render Added to Bag view with new experience 2`] = `
<ModalBox
  animationDuration={100}
  backButtonClose={false}
  backdrop={true}
  backdropColor="black"
  backdropContent={null}
  backdropOpacity={0.5}
  backdropPressToClose={true}
  coverScreen={true}
  easing={[Function]}
  entry="bottom"
  isOpen={false}
  keyboardTopOffset={22}
  onClosed={[Function]}
  position="bottom"
  startOpen={false}
  style={
    Object {
      "backgroundColor": "#f3f3f3",
      "borderTopLeftRadius": 16,
      "borderTopRightRadius": 16,
      "maxHeight": "88%",
    }
  }
  swipeThreshold={10}
  swipeToClose={false}
  useNativeDriver={true}
>
  <Styled(Component)
    accessibilityRole="button"
    isPdpNewReDesign={true}
    onPress={[Function]}
  >
    <Styled(Component)
      source={
        Object {
          "testUri": "../../../src/assets/images/isNewRedesign/close_icon_drawer.png",
        }
      }
    />
  </Styled(Component)>
  <View
    style={
      Object {
        "marginTop": 16,
        "paddingTop": 16,
      }
    }
  >
    <Styled(BodyCopy)
      accessibilityText=""
      color="gray.900"
      dataLocator=""
      fontFamily="secondary"
      fontSize="fs20"
      fontWeight="bold"
      margin={null}
      numberOfLines={null}
      text="undefined"
      textAlign="center"
      textDecoration={null}
    />
  </View>
  <Styled(View)>
    <Styled(ScrollViewMock)
      isNewReDesign={true}
    >
      <Styled(View)
        isNewReDesignEnabled={true}
      >
        <Styled(ProductInformation)
          aTbAPICallStatus={false}
          addToBagModalError={null}
          data={
            Object {
              "brand": undefined,
              "fromPage": "PLP",
              "imgConfig": "t_t_atb_m",
              "isGiftCard": false,
              "isOpenNewATBModal": true,
              "originPage": "plp",
              "productName": "Boys Basic Straight Jeans",
              "quantity": 1,
              "selectedMultipack": "1",
              "skuInfo": Object {
                "TCPMultipackProductMapping": Array [
                  "1",
                ],
                "TCPStyleQTY": "1",
                "TCPStyleType": "0001",
                "color": Object {
                  "family": "DENIM",
                  "imagePath": null,
                  "name": "INDIGO",
                  "swatchImage": "3015475_528_swatch1.jpg",
                },
                "fit": "slim",
                "imageUrl": "3015475/3015475_5287.jpg",
                "productFamily": undefined,
                "productId": "3015475_528",
                "size": "5S",
                "skuId": "1644027",
                "unbxdProdId": "3015475_528",
                "variantId": "00194936074874",
                "variantNo": "3015476002",
              },
            }
          }
          dataFromApi={
            Object {
              "addedFromSBP": undefined,
              "brand": undefined,
              "cartTotalAfterPLCCDiscount": 112.1,
              "earnedReward": undefined,
              "estimatedRewards": -1,
              "fromPage": "PLP",
              "getAllMultiPack": null,
              "getAllNewMultiPack": null,
              "giftCardsTotal": 0,
              "grandTotal": [Function],
              "isBopisOrder": false,
              "isBoss": undefined,
              "isBossOrder": false,
              "isBrierleyWorking": false,
              "isECOM": true,
              "isElectiveBonus": "0",
              "isGiftCard": false,
              "isOpenNewATBModal": true,
              "isPickupOrder": false,
              "loyaltyCallEnabled": undefined,
              "loyaltyOrderItems": Array [
                Object {
                  "giftItem": false,
                  "itemBrand": "TCP",
                  "itemDstPrice": 11.66,
                  "itemPoints": -1,
                  "itemPrice": 12.95,
                  "itemUnitDstPrice": 11.66,
                  "itemUnitPrice": 12.95,
                  "multiPack": false,
                  "orderItemId": "1517691991",
                  "orderItemType": "ECOM",
                  "productPartNumber": "2043378_OM",
                  "qty": 1,
                  "variantNo": "2043378103",
                },
              ],
              "mprId": undefined,
              "multiPackCount": null,
              "multipackProduct": null,
              "orderId": "343918438",
              "orderItemId": "1517692185",
              "orderItemTotal": "73.50",
              "orderItems": Array [
                Object {
                  "itemInfo": Object {
                    "itemId": "1517691991",
                    "itemPoints": -1,
                    "listPrice": 12.95,
                    "offerPrice": 11.66,
                    "quantity": 1,
                  },
                },
              ],
              "orderSubTotal": 144.14,
              "orderSubTotalBeforeDiscount": 160.15,
              "orderSubTotalDiscount": 144.14,
              "orderSubTotalWithoutGiftCard": 144.14,
              "orderTotal": "160.15000",
              "orderTotalAfterDiscount": 144.14,
              "orderTotalListPrice": 160.15,
              "orderTotalSaving": 16.01,
              "originPage": "plp",
              "partIdInfo": null,
              "pointsApi": "brierley",
              "pointsToNextReward": 0,
              "productName": "Boys Basic Straight Jeans",
              "quantity": 1,
              "selectedMultipack": "1",
              "skuInfo": Object {
                "color": Object {
                  "family": "DENIM",
                  "imagePath": null,
                  "name": "DRY INDIGO",
                  "swatchImage": "3015475_528_swatch.jpg",
                },
                "imageUrl": "3015475/3015475_528.jpg",
                "skuId": "1644027",
                "variantId": "00194936074874",
                "variantNo": "3015476002",
              },
              "storeLocId": undefined,
              "totalItems": 10,
            }
          }
          hasDoubleItems={false}
          isATBHidePoints={false}
          isAvoidGetOrderDetails={false}
          isDoubleAddedToBag={false}
          isNewReDesignEnabled={true}
          isPlcc={false}
          labels={Object {}}
          loyaltyAPICallStatus={false}
          quantity=""
        />
        <Styled(View)
          isNewReDesignEnabled={true}
        >
          <Connect(Recommendations)
            addedToBagData={
              Object {
                "addedFromSBP": undefined,
                "brand": undefined,
                "cartTotalAfterPLCCDiscount": 112.1,
                "earnedReward": undefined,
                "estimatedRewards": -1,
                "fromPage": "PLP",
                "getAllMultiPack": null,
                "getAllNewMultiPack": null,
                "giftCardsTotal": 0,
                "grandTotal": [Function],
                "isBopisOrder": false,
                "isBoss": undefined,
                "isBossOrder": false,
                "isBrierleyWorking": false,
                "isECOM": true,
                "isElectiveBonus": "0",
                "isGiftCard": false,
                "isOpenNewATBModal": true,
                "isPickupOrder": false,
                "loyaltyCallEnabled": undefined,
                "loyaltyOrderItems": Array [
                  Object {
                    "giftItem": false,
                    "itemBrand": "TCP",
                    "itemDstPrice": 11.66,
                    "itemPoints": -1,
                    "itemPrice": 12.95,
                    "itemUnitDstPrice": 11.66,
                    "itemUnitPrice": 12.95,
                    "multiPack": false,
                    "orderItemId": "1517691991",
                    "orderItemType": "ECOM",
                    "productPartNumber": "2043378_OM",
                    "qty": 1,
                    "variantNo": "2043378103",
                  },
                ],
                "mprId": undefined,
                "multiPackCount": null,
                "multipackProduct": null,
                "orderId": "343918438",
                "orderItemId": "1517692185",
                "orderItemTotal": "73.50",
                "orderItems": Array [
                  Object {
                    "itemInfo": Object {
                      "itemId": "1517691991",
                      "itemPoints": -1,
                      "listPrice": 12.95,
                      "offerPrice": 11.66,
                      "quantity": 1,
                    },
                  },
                ],
                "orderSubTotal": 144.14,
                "orderSubTotalBeforeDiscount": 160.15,
                "orderSubTotalDiscount": 144.14,
                "orderSubTotalWithoutGiftCard": 144.14,
                "orderTotal": "160.15000",
                "orderTotalAfterDiscount": 144.14,
                "orderTotalListPrice": 160.15,
                "orderTotalSaving": 16.01,
                "originPage": "plp",
                "partIdInfo": null,
                "pointsApi": "brierley",
                "pointsToNextReward": 0,
                "productName": "Boys Basic Straight Jeans",
                "quantity": 1,
                "selectedMultipack": "1",
                "skuInfo": Object {
                  "color": Object {
                    "family": "DENIM",
                    "imagePath": null,
                    "name": "DRY INDIGO",
                    "swatchImage": "3015475_528_swatch.jpg",
                  },
                  "imageUrl": "3015475/3015475_528.jpg",
                  "skuId": "1644027",
                  "variantId": "00194936074874",
                  "variantNo": "3015476002",
                },
                "storeLocId": undefined,
                "totalItems": 10,
              }
            }
            carouselConfigProps={
              Object {
                "infinite": true,
                "responsive": Array [
                  Object {
                    "breakpoint": 1199,
                    "settings": Object {
                      "arrows": false,
                      "slidesToScroll": 2,
                      "slidesToShow": 3,
                    },
                  },
                  Object {
                    "breakpoint": 767,
                    "settings": Object {
                      "arrows": false,
                      "slidesToScroll": 2,
                      "slidesToShow": 3,
                    },
                  },
                ],
                "slidesToScroll": 3,
                "slidesToShow": 3,
                "touchThreshold": 500,
              }
            }
            closeATBModal={[MockFunction]}
            headerLabel="You May Also Like"
            isAddedToBag={true}
            isAddedToBagOpen={true}
            isCardTypeTiles={true}
            margins="5px 6px 18px"
            navigation={
              Object {
                "getParam": [MockFunction] {
                  "calls": Array [
                    Array [
                      "headerMode",
                      false,
                    ],
                    Array [
                      "headerMode",
                      false,
                    ],
                    Array [
                      "headerMode",
                      false,
                    ],
                  ],
                  "results": Array [
                    Object {
                      "type": "return",
                      "value": undefined,
                    },
                    Object {
                      "type": "return",
                      "value": undefined,
                    },
                    Object {
                      "type": "return",
                      "value": undefined,
                    },
                  ],
                },
              }
            }
            paddings="0px"
            page="added_to_bag"
            partNumber="3015475_528"
            portalValue="add-to-bag-modal-carousal"
            priceOnly={true}
            productImageHeight={161}
            productImageWidth={130}
            sequence="1"
            showPeek={
              Object {
                "medium": false,
                "small": false,
              }
            }
            styleWithEligibility={false}
            styleWithView={false}
            variation="moduleO"
          />
        </Styled(View)>
      </Styled(View)>
    </Styled(ScrollViewMock)>
  </Styled(View)>
  <Styled(View)
    isAndroid={true}
  >
    <Connect(AddedToBagContainer)
      addToBagModalError={null}
      closeModal={[MockFunction]}
      fromAddedToBagModal={true}
      hideHeader={[Function]}
      isNewRedesignedModal={true}
      labels={Object {}}
      navigation={
        Object {
          "getParam": [MockFunction] {
            "calls": Array [
              Array [
                "headerMode",
                false,
              ],
              Array [
                "headerMode",
                false,
              ],
              Array [
                "headerMode",
                false,
              ],
            ],
            "results": Array [
              Object {
                "type": "return",
                "value": undefined,
              },
              Object {
                "type": "return",
                "value": undefined,
              },
              Object {
                "type": "return",
                "value": undefined,
              },
            ],
          },
        }
      }
      showAddTobag={true}
    />
  </Styled(View)>
</ModalBox>
`;

exports[`Added to Bag View should render Error Added to Bag view 1`] = `
<ModalBox
  animationDuration={100}
  backButtonClose={false}
  backdrop={true}
  backdropColor="black"
  backdropContent={null}
  backdropOpacity={0.5}
  backdropPressToClose={true}
  coverScreen={true}
  easing={[Function]}
  entry="bottom"
  isOpen={false}
  keyboardTopOffset={22}
  onClosed={[Function]}
  position="bottom"
  startOpen={false}
  style={
    Object {
      "backgroundColor": "#f3f3f3",
      "borderTopLeftRadius": 16,
      "borderTopRightRadius": 16,
      "maxHeight": "88%",
    }
  }
  swipeThreshold={10}
  swipeToClose={false}
  useNativeDriver={true}
>
  <Styled(Component)
    accessibilityRole="button"
    isPdpNewReDesign={true}
    onPress={[Function]}
  >
    <Styled(Component)
      source={
        Object {
          "testUri": "../../../src/assets/images/isNewRedesign/close_icon_drawer.png",
        }
      }
    />
  </Styled(Component)>
  <View
    style={
      Object {
        "marginTop": 16,
        "paddingTop": 16,
      }
    }
  >
    <Styled(BodyCopy)
      accessibilityText=""
      color="red.500"
      dataLocator=""
      fontFamily="secondary"
      fontSize="fs20"
      fontWeight="bold"
      margin={null}
      numberOfLines={null}
      text="undefined"
      textAlign="center"
      textDecoration={null}
    />
  </View>
  <Styled(View)>
    <Styled(ScrollViewMock)
      isNewReDesign={true}
    >
      <Styled(View)
        isNewReDesignEnabled={true}
      >
        <Styled(ProductInformation)
          aTbAPICallStatus={false}
          addToBagModalError="Oops! Error"
          data={
            Object {
              "brand": undefined,
              "fromPage": "PLP",
              "imgConfig": "t_t_atb_m",
              "isGiftCard": false,
              "isOpenNewATBModal": true,
              "originPage": "plp",
              "productName": "Basic Straight Jeans",
              "quantity": 1,
              "selectedMultipack": "1",
              "skuInfo": Object {
                "TCPMultipackProductMapping": Array [
                  "1",
                ],
                "TCPStyleQTY": "1",
                "TCPStyleType": "0002",
                "color": Object {
                  "family": "DENIM",
                  "imagePath": null,
                  "name": "DRY INDIGO",
                  "swatchImage": "3015475_528_swatch.jpg",
                },
                "fit": "slim",
                "imageUrl": "3015475/3015475_528.jpg",
                "productFamily": undefined,
                "productId": "3015475_528",
                "size": "5S",
                "skuId": "1644027",
                "unbxdProdId": "3015475_528",
                "variantId": "00194936074874",
                "variantNo": "3015476002",
              },
            }
          }
          dataFromApi={Object {}}
          hasDoubleItems={false}
          isATBHidePoints={false}
          isAvoidGetOrderDetails={false}
          isDoubleAddedToBag={false}
          isNewReDesignEnabled={true}
          isPlcc={false}
          labels={Object {}}
          loyaltyAPICallStatus={false}
          quantity=""
        />
        <Styled(View)
          isNewReDesignEnabled={true}
        >
          <Connect(Recommendations)
            carouselConfigProps={
              Object {
                "infinite": true,
                "responsive": Array [
                  Object {
                    "breakpoint": 1199,
                    "settings": Object {
                      "arrows": false,
                      "slidesToScroll": 2,
                      "slidesToShow": 3,
                    },
                  },
                  Object {
                    "breakpoint": 767,
                    "settings": Object {
                      "arrows": false,
                      "slidesToScroll": 2,
                      "slidesToShow": 3,
                    },
                  },
                ],
                "slidesToScroll": 3,
                "slidesToShow": 3,
                "touchThreshold": 500,
              }
            }
            closeATBModal={[MockFunction]}
            headerLabel="We Found These Similar Items"
            isAddedToBag={true}
            isAddedToBagOpen={true}
            isCardTypeTiles={true}
            margins="5px 6px 18px"
            navigation={
              Object {
                "getParam": [MockFunction] {
                  "calls": Array [
                    Array [
                      "headerMode",
                      false,
                    ],
                  ],
                  "results": Array [
                    Object {
                      "type": "return",
                      "value": undefined,
                    },
                  ],
                },
              }
            }
            paddings="0px"
            page="added_to_bag"
            partNumber="3015475_528"
            portalValue="add-to-bag-modal-carousal"
            priceOnly={true}
            productImageHeight={161}
            productImageWidth={130}
            sequence="1"
            showPeek={
              Object {
                "medium": false,
                "small": false,
              }
            }
            styleWithEligibility={false}
            styleWithView={false}
            variation="moduleO"
          />
        </Styled(View)>
      </Styled(View)>
    </Styled(ScrollViewMock)>
  </Styled(View)>
  <Styled(View)
    isAndroid={true}
  >
    <Connect(AddedToBagContainer)
      addToBagModalError="Oops! Error"
      closeModal={[MockFunction]}
      fromAddedToBagModal={true}
      hideHeader={[Function]}
      isNewRedesignedModal={true}
      labels={Object {}}
      navigation={
        Object {
          "getParam": [MockFunction] {
            "calls": Array [
              Array [
                "headerMode",
                false,
              ],
            ],
            "results": Array [
              Object {
                "type": "return",
                "value": undefined,
              },
            ],
          },
        }
      }
      showAddTobag={true}
    />
  </Styled(View)>
</ModalBox>
`;
