// Jest Snapshot v1, https://goo.gl/fbAQLP

exports[`Component Component should render correctly 1`] = `
<View>
  <View
    style={
      Object {
        "alignItems": "center",
        "backgroundColor": "#ffffff",
        "flexDirection": "row",
        "height": 80,
        "justifyContent": "center",
        "marginBottom": 10,
        "overflow": "hidden",
        "width": "100%",
      }
    }
  >
    <Image
      style={
        Object {
          "height": 68,
          "marginLeft": "-10%",
          "resizeMode": "contain",
          "tintColor": "#28624d",
          "width": 68,
        }
      }
    />
    <View
      style={
        Object {
          "flexDirection": "row",
          "flexWrap": "wrap",
          "marginLeft": 35,
          "marginVertical": 0,
          "width": "50%",
        }
      }
    >
      <Text
        style={
          Object {
            "color": "#262626",
            "fontFamily": "Nunito-ExtraBold",
            "fontSize": 18,
            "fontWeight": "800",
            "marginLeft": -15,
          }
        }
      >
        Up to undefined% OFF Select Interest Products
      </Text>
    </View>
    <Image
      source={
        Object {
          "testUri": "../../../src/assets/images/shopByProfile/elements/category-header-arrow2x.png",
        }
      }
      style={
        Array [
          Object {
            "height": 40,
            "marginLeft": -15,
            "marginTop": "5%",
            "resizeMode": "contain",
            "tintColor": "#262626",
            "width": 40,
          },
          Object {},
        ]
      }
    />
  </View>
  <View
    style={
      Object {
        "flexDirection": "row",
        "flexWrap": "wrap",
        "marginBottom": 5,
        "marginHorizontal": 4,
      }
    }
  >
    0
  </View>
  <View
    style={
      Object {
        "marginBottom": 5,
        "marginTop": 10,
      }
    }
  >
    <View
      style={Object {}}
    />
  </View>
</View>
`;
