// Jest Snapshot v1, https://goo.gl/fbAQLP

exports[`PickupBannerView component renders correctly 1`] = `
<Fragment>
  <styled.div>
    <div
      className="pickup-banner-container"
    >
      <div
        className="content-wrap"
      >
        <Styled(BodyCopy)
          className={null}
          color=""
          component="p"
          customStyle={Object {}}
          fontFamily="secondary"
          fontSize="fs16"
          fontWeight="extrabold"
          letterSpacing="normal"
          lineHeight="normal"
          link={null}
          textAlign="left"
        />
        <Styled(BodyCopy)
          className="pickup-banner-store-text"
          color="text.primary"
          component="p"
          customStyle={Object {}}
          fontFamily="primary"
          fontSize="fs14"
          fontWeight="regular"
          letterSpacing="normal"
          lineHeight="normal"
          link={null}
          textAlign="left"
        >
          <Styled(BodyCopy)
            className={null}
            color="green.500"
            component="span"
            customStyle={Object {}}
            fontFamily="secondary"
            fontSize={12}
            fontWeight="semibold"
            letterSpacing="normal"
            lineHeight="normal"
            link={null}
            textAlign="left"
          />
          <Styled(BodyCopy)
            className={null}
            color="text.primary"
            component="span"
            customStyle={Object {}}
            fontFamily="secondary"
            fontSize={12}
            fontWeight="normal"
            letterSpacing="normal"
            lineHeight="normal"
            link={null}
            textAlign="left"
          />
          <Styled(BodyCopy)
            className="store-name"
            color="text.primary"
            component="span"
            customStyle={Object {}}
            fontFamily="secondary"
            fontSize={12}
            fontWeight="bold"
            letterSpacing="normal"
            lineHeight="normal"
            link={null}
            textAlign="left"
          />
        </Styled(BodyCopy)>
      </div>
      <Styled(Button)
        className="pickup-cta"
        fill="BLUE"
        onClick={[Function]}
        type="button"
      >
        <Styled(BodyCopy)
          className={null}
          color="white"
          component="span"
          customStyle={Object {}}
          fontFamily="secondary"
          fontSize="fs14"
          fontWeight="extrabold"
          letterSpacing="normal"
          lineHeight="normal"
          link={null}
          textAlign="left"
        />
      </Styled(Button)>
    </div>
  </styled.div>
</Fragment>
`;

exports[`PickupBannerView component renders correctly for isATBModalBackAbTestNewDesign 1`] = `
<Fragment>
  <styled.div>
    <div
      className="pickup-banner-container"
    >
      <div
        className="content-wrap"
      >
        <Styled(BodyCopy)
          className={null}
          color=""
          component="p"
          customStyle={Object {}}
          fontFamily="secondary"
          fontSize="fs16"
          fontWeight="extrabold"
          letterSpacing="normal"
          lineHeight="normal"
          link={null}
          textAlign="left"
        />
        <Styled(BodyCopy)
          className="pickup-banner-store-text"
          color="text.primary"
          component="p"
          customStyle={Object {}}
          fontFamily="primary"
          fontSize="fs12"
          fontWeight="regular"
          letterSpacing="normal"
          lineHeight="normal"
          link={null}
          textAlign="left"
        >
          <Styled(BodyCopy)
            className={null}
            color="green.500"
            component="span"
            customStyle={Object {}}
            fontFamily="secondary"
            fontSize={12}
            fontWeight="semibold"
            letterSpacing="normal"
            lineHeight="normal"
            link={null}
            textAlign="left"
          />
          <Styled(BodyCopy)
            className={null}
            color="text.primary"
            component="span"
            customStyle={Object {}}
            fontFamily="secondary"
            fontSize={12}
            fontWeight="normal"
            letterSpacing="normal"
            lineHeight="normal"
            link={null}
            textAlign="left"
          />
          <Styled(BodyCopy)
            className="store-name"
            color="text.primary"
            component="span"
            customStyle={Object {}}
            fontFamily="secondary"
            fontSize={12}
            fontWeight="bold"
            letterSpacing="normal"
            lineHeight="normal"
            link={null}
            textAlign="left"
          />
        </Styled(BodyCopy)>
      </div>
      <Styled(Button)
        className="pickup-cta"
        fill="BLUE"
        onClick={[Function]}
        type="button"
      >
        <Styled(BodyCopy)
          className={null}
          color="white"
          component="span"
          customStyle={Object {}}
          fontFamily="secondary"
          fontSize="fs13"
          fontWeight="extrabold"
          letterSpacing="normal"
          lineHeight="normal"
          link={null}
          textAlign="left"
        />
      </Styled(Button)>
    </div>
  </styled.div>
</Fragment>
`;
