// Jest Snapshot v1, https://goo.gl/fbAQLP

exports[`PickupBannerView component renders correctly 1`] = `
<Fragment>
  <Styled(View)>
    <Styled(View)
      fullWidth={false}
    >
      <Styled(BodyCopy)
        accessibilityText=""
        color=""
        dataLocator=""
        fontFamily="secondary"
        fontSize="fs16"
        fontWeight="extrabold"
        margin={null}
        mobileFontFamily="secondary"
        numberOfLines={null}
        textAlign="left"
        textDecoration={null}
      />
      <Styled(View)>
        <Styled(BodyCopy)
          accessibilityText=""
          color="green.500"
          dataLocator=""
          fontWeight="semibold"
          margin={null}
          mobileFontFamily="secondary"
          numberOfLines={null}
          textDecoration={null}
        />
        <Styled(BodyCopy)
          accessibilityText=""
          dataLocator=""
          fontFamily="secondary"
          margin={null}
          mobileFontFamily="secondary"
          numberOfLines={null}
          textDecoration={null}
        />
        <Styled(BodyCopy)
          accessibilityText=""
          dataLocator=""
          fontFamily="secondary"
          margin={null}
          mobileFontFamily="secondary"
          numberOfLines={null}
          text=""
          textDecoration={null}
        />
      </Styled(View)>
    </Styled(View)>
    <Styled(View)>
      <Styled(CustomButton)
        active={false}
        buttonVariation="fixed-width"
        color="white"
        customBorderStyle=""
        customIconStyle={Object {}}
        customStyle={Object {}}
        customTextStyle={null}
        disableButton={false}
        fill="BLUE"
        fontFamily=""
        fontSize=""
        fontWeight=""
        fullWidth=""
        iconColor="gray.800"
        iconFirst={false}
        iconName="chevron-down"
        iconSize="fs12"
        locator=""
        navigation={Object {}}
        onPress={[Function]}
        paddings="12px 32px 12px 32px"
        selected={false}
        selectedIcon="chevron-up"
        showIcon={false}
        text=""
        theme={Object {}}
        type="submit"
        url=""
        useCustomFontStyle={false}
        withNoLineHeight={false}
      />
    </Styled(View)>
  </Styled(View)>
</Fragment>
`;
