// Jest Snapshot v1, https://goo.gl/fbAQLP

exports[`ButtonList component renders correctly without props 1`] = `
<div
  className=""
>
  <div>
    <div>
      <Connect(PayPalButtonContainer)
        className="billing-payPal-button"
        isBillingPage={true}
      />
    </div>
  </div>
</div>
`;

exports[`ButtonList component renders correctly without props 2`] = `
<div
  className=""
>
  <div>
    <div>
      <Connect(PayPalButtonContainer)
        className="billing-payPal-button"
        isBillingPage={true}
      />
    </div>
  </div>
</div>
`;
