// Jest Snapshot v1, https://goo.gl/fbAQLP

exports[`Outfit Carousel component should renders correctly 1`] = `
<Styled(View)
  platform={
    Object {
      "OS": "ios",
      "Version": undefined,
      "__constants": null,
      "constants": Object {
        "reactNativeVersion": Object {
          "major": 0,
          "minor": 62,
          "patch": 2,
        },
      },
      "isPad": false,
      "isTV": false,
      "isTVOS": false,
      "isTesting": undefined,
      "select": [Function],
    }
  }
/>
`;
