// Jest Snapshot v1, https://goo.gl/fbAQLP

exports[`Order Items component should render with Canceled status 1`] = `
<div
  className=" "
>
  <Styled(Row)
    fullBleed={true}
  />
</div>
`;

exports[`Order Items component should render with In-Transit status 1`] = `
<div
  className=" "
>
  <Styled(Row)
    fullBleed={true}
  />
</div>
`;

exports[`Order Items component should render with item refunded 1`] = `
<div
  className=" "
>
  <Styled(Row)
    fullBleed={true}
  />
</div>
`;

exports[`Order Items component should render with returned status 1`] = `
<div
  className=" "
>
  <Styled(Row)
    fullBleed={true}
  />
</div>
`;

exports[`Order Items component should renders correctly 1`] = `
<div
  className=" "
>
  <Styled(Row)
    fullBleed={true}
  />
</div>
`;

exports[`Order Items component should renders selected State 1`] = `
<div
  className=" "
>
  <Styled(Row)
    fullBleed={true}
  />
</div>
`;
