// Jest Snapshot v1, https://goo.gl/fbAQLP

exports[`OrderItemHeader Component should render OrderItemHeader Native Component 1`] = `
<Styled(Styled(View))>
  <Styled(View)>
    <Styled(View)>
      <Styled(View)>
        <Styled(Component)
          color=""
        />
      </Styled(View)>
      <Styled(BodyCopy)
        accessibilityText=""
        dataLocator=""
        fontFamily="secondary"
        fontSize="fs14"
        margin={null}
        numberOfLines={null}
        text="Shipment  of 0"
        textDecoration={null}
      />
    </Styled(View)>
    <Styled(View)>
      <Styled(BodyCopy)
        accessibilityText=""
        dataLocator=""
        fontFamily="secondary"
        fontSize="fs14"
        margin={null}
        numberOfLines={null}
        text="lbl_orders_tracking-cta"
        textDecoration={null}
      />
      <Styled(Anchor)
        accessibilityLabel=""
        anchorVariation="secondary"
        asPath="/test"
        colorName={null}
        customStyle={Object {}}
        fontSize="fs14"
        hitSlop={Object {}}
        justifyContent=""
        locator=""
        margins={null}
        onPress={[Function]}
        overrideStyle={Object {}}
        target="_blank"
        text="1234567"
        to="/test"
        underlineBlue={true}
        visible={false}
      />
    </Styled(View)>
  </Styled(View)>
</Styled(Styled(View))>
`;
