// Jest Snapshot v1, https://goo.gl/fbAQLP

exports[`CardTile should render correctly with amex card 1`] = `
<div>
  <div
    className="cardTile"
  >
    <Styled(Row)
      fullBleed={true}
    >
      <Styled(Col)
        colSize={
          Object {
            "large": 7,
            "medium": 4,
            "small": 3,
          }
        }
      >
        <div
          className="cardTile__cardDetails"
        >
          <Styled(BodyCopy)
            className="cardTile__heading"
            color="text.primary"
            component="p"
            customStyle={Object {}}
            data-locator="payment-creditdebitnametitle"
            fontFamily="secondary"
            fontSize="fs16"
            fontWeight="normal"
            letterSpacing="normal"
            lineHeight="normal"
            link={null}
            tag="span"
            textAlign="left"
          >
            lbl_payment_defaultCardName
          </Styled(BodyCopy)>
          <Styled(BodyCopy)
            className="cardTile__number"
            color="text.primary"
            component="span"
            customStyle={Object {}}
            data-locator="payment-creditdebitendingtext"
            fontFamily="secondary"
            fontSize="fs14"
            fontWeight="bold"
            id={8977328}
            letterSpacing="normal"
            lineHeight="normal"
            lineHeights="lh107"
            link={null}
            textAlign="left"
          >
            lbl_payment_cardNum6765
          </Styled(BodyCopy)>
          <Styled(BodyCopy)
            className="cardTile__expiry"
            color="text.primary"
            component="p"
            customStyle={Object {}}
            data-locator="payment-creditdebitexpiretext"
            fontFamily="secondary"
            fontSize="fs14"
            fontWeight="semibold"
            letterSpacing="normal"
            lineHeight="normal"
            lineHeights="lh115"
            link={null}
            tag="span"
            textAlign="left"
          >
            lbl_payment_expDate10/2025
          </Styled(BodyCopy)>
        </div>
      </Styled(Col)>
      <Styled(Col)
        colSize={
          Object {
            "large": 5,
            "medium": 4,
            "small": 3,
          }
        }
      >
        <div
          className="cardTile__defaultSection"
        >
          <Styled(Badge)
            dataLocator="payment-carddefaultpaymentbadge"
            noMargin={true}
            showCheckmark={true}
          >
            lbl_payment_defaultPayment
          </Styled(Badge)>
          <div
            className="cardTile__img_wrapper elem-mt-XS"
          >
            <img
              alt="Amex"
              className="cardTile__img"
              data-locator="Amex"
              role="img"
              src="undefined/ecom/assets/static/icon/amex.svg"
            />
          </div>
        </div>
      </Styled(Col)>
    </Styled(Row)>
  </div>
  <div>
    <Styled(Address)
      address={
        Object {
          "addressLine1": "Yucca Street",
          "addressLine2": "",
          "city": "Los Angeles",
          "country": "US",
          "firstName": "six",
          "lastName": "test",
          "phone1": "3214567890",
          "state": "CA",
          "zipCode": "90028",
        }
      }
      dataLocatorPrefix="payment-creditcard"
      fontWeight="normal"
      showCountry={false}
      showPhone={false}
    />
  </div>
  <div
    className="cardTile__ctaLinks"
  >
    <Styled(Anchor)
      anchorVariation="primary"
      aria-describedby={8977328}
      asPath="/account/payment/edit-credit-card/8977328"
      className="cardTile__anchor"
      dataLocator="payment-creditdebiteditlink"
      fontSizeVariation="large"
      to="/account?id=payment&subSection=edit-credit-card&creditCardId=8977328"
      underline={true}
    >
      lbl_common_edit
    </Styled(Anchor)>
    <Styled(Anchor)
      anchorVariation="primary"
      aria-describedby={8977328}
      className="cardTile__anchor"
      dataLocator="payment-creditdebitdeletelink"
      fontSizeVariation="large"
      onClick={[Function]}
      to="/#"
      underline={true}
    >
      lbl_common_delete
    </Styled(Anchor)>
  </div>
</div>
`;

exports[`CardTile should render correctly with delete gift  card 1`] = `
<div>
  <div
    className="cardTile"
  >
    <Styled(Row)
      fullBleed={true}
    >
      <Styled(Col)
        colSize={
          Object {
            "large": 7,
            "medium": 4,
            "small": 3,
          }
        }
      >
        <div
          className="cardTile__cardDetails"
        >
          <Styled(BodyCopy)
            className="cardTile__heading"
            color="text.primary"
            component="p"
            customStyle={Object {}}
            data-locator="payment-creditdebitnametitle"
            fontFamily="secondary"
            fontSize="fs16"
            fontWeight="normal"
            letterSpacing="normal"
            lineHeight="normal"
            link={null}
            tag="span"
            textAlign="left"
          >
            lbl_payment_plccCard
          </Styled(BodyCopy)>
          <Styled(BodyCopy)
            className="cardTile__number"
            color="text.primary"
            component="span"
            customStyle={Object {}}
            data-locator="payment-creditdebitendingtext"
            fontFamily="secondary"
            fontSize="fs14"
            fontWeight="bold"
            id={8977328}
            letterSpacing="normal"
            lineHeight="normal"
            lineHeights="lh107"
            link={null}
            textAlign="left"
          >
            lbl_payment_cardNum6765
          </Styled(BodyCopy)>
        </div>
      </Styled(Col)>
      <Styled(Col)
        colSize={
          Object {
            "large": 5,
            "medium": 4,
            "small": 3,
          }
        }
      >
        <div
          className="cardTile__defaultSection"
        >
          <Styled(Anchor)
            anchorVariation="primary"
            dataLocator="payment-makedefault"
            fontSizeVariation="small"
            onClick={[Function]}
            to="/#"
            underline={true}
          >
            lbl_common_makeDefault
          </Styled(Anchor)>
          <div
            className="cardTile__img_wrapper elem-mt-MED"
          >
            <img
              alt="PLACE CARD"
              className="cardTile__img"
              data-locator="PLACE CARD"
              role="img"
              src="undefined/ecom/assets/static/icon/tcp-cc_2x.png"
            />
          </div>
        </div>
      </Styled(Col)>
    </Styled(Row)>
  </div>
  <div>
    <Styled(Address)
      address={
        Object {
          "addressLine1": "Yucca Street",
          "addressLine2": "",
          "city": "Los Angeles",
          "country": "US",
          "firstName": "six",
          "lastName": "test",
          "phone1": "3214567890",
          "state": "CA",
          "zipCode": "90028",
        }
      }
      dataLocatorPrefix="payment-creditcard"
      fontWeight="normal"
      showCountry={false}
      showPhone={false}
    />
  </div>
  <div
    className="cardTile__ctaLinks"
  >
    <Styled(Anchor)
      anchorVariation="primary"
      aria-describedby={8977328}
      asPath="/account/payment/edit-credit-card/8977328"
      className="cardTile__anchor"
      dataLocator="payment-creditdebiteditlink"
      fontSizeVariation="large"
      to="/account?id=payment&subSection=edit-credit-card&creditCardId=8977328"
      underline={true}
    >
      lbl_common_edit
    </Styled(Anchor)>
    <Styled(Anchor)
      anchorVariation="primary"
      aria-describedby={8977328}
      className="cardTile__anchor"
      dataLocator="payment-creditdebitdeletelink"
      fontSizeVariation="large"
      onClick={[Function]}
      to="/#"
      underline={true}
    >
      lbl_common_delete
    </Styled(Anchor)>
  </div>
</div>
`;

exports[`CardTile should render correctly with discover card 1`] = `
<div>
  <div
    className="cardTile"
  >
    <Styled(Row)
      fullBleed={true}
    >
      <Styled(Col)
        colSize={
          Object {
            "large": 7,
            "medium": 4,
            "small": 3,
          }
        }
      >
        <div
          className="cardTile__cardDetails"
        >
          <Styled(BodyCopy)
            className="cardTile__heading"
            color="text.primary"
            component="p"
            customStyle={Object {}}
            data-locator="payment-creditdebitnametitle"
            fontFamily="secondary"
            fontSize="fs16"
            fontWeight="normal"
            letterSpacing="normal"
            lineHeight="normal"
            link={null}
            tag="span"
            textAlign="left"
          >
            lbl_payment_defaultCardName
          </Styled(BodyCopy)>
          <Styled(BodyCopy)
            className="cardTile__number"
            color="text.primary"
            component="span"
            customStyle={Object {}}
            data-locator="payment-creditdebitendingtext"
            fontFamily="secondary"
            fontSize="fs14"
            fontWeight="bold"
            id={8977328}
            letterSpacing="normal"
            lineHeight="normal"
            lineHeights="lh107"
            link={null}
            textAlign="left"
          >
            lbl_payment_cardNum6765
          </Styled(BodyCopy)>
          <Styled(BodyCopy)
            className="cardTile__expiry"
            color="text.primary"
            component="p"
            customStyle={Object {}}
            data-locator="payment-creditdebitexpiretext"
            fontFamily="secondary"
            fontSize="fs14"
            fontWeight="semibold"
            letterSpacing="normal"
            lineHeight="normal"
            lineHeights="lh115"
            link={null}
            tag="span"
            textAlign="left"
          >
            lbl_payment_expDate10/2025
          </Styled(BodyCopy)>
        </div>
      </Styled(Col)>
      <Styled(Col)
        colSize={
          Object {
            "large": 5,
            "medium": 4,
            "small": 3,
          }
        }
      >
        <div
          className="cardTile__defaultSection"
        >
          <Styled(Anchor)
            anchorVariation="primary"
            dataLocator="payment-makedefault"
            fontSizeVariation="small"
            onClick={[Function]}
            to="/#"
            underline={true}
          >
            lbl_common_makeDefault
          </Styled(Anchor)>
          <div
            className="cardTile__img_wrapper elem-mt-MED"
          >
            <img
              alt="DISC"
              className="cardTile__img"
              data-locator="DISC"
              role="img"
              src="undefined/ecom/assets/static/icon/discover.svg"
            />
          </div>
        </div>
      </Styled(Col)>
    </Styled(Row)>
  </div>
  <div>
    <Styled(Address)
      address={
        Object {
          "addressLine1": "Yucca Street",
          "addressLine2": "",
          "city": "Los Angeles",
          "country": "US",
          "firstName": "six",
          "lastName": "test",
          "phone1": "3214567890",
          "state": "CA",
          "zipCode": "90028",
        }
      }
      dataLocatorPrefix="payment-creditcard"
      fontWeight="normal"
      showCountry={false}
      showPhone={false}
    />
  </div>
  <div
    className="cardTile__ctaLinks"
  >
    <Styled(Anchor)
      anchorVariation="primary"
      aria-describedby={8977328}
      asPath="/account/payment/edit-credit-card/8977328"
      className="cardTile__anchor"
      dataLocator="payment-creditdebiteditlink"
      fontSizeVariation="large"
      to="/account?id=payment&subSection=edit-credit-card&creditCardId=8977328"
      underline={true}
    >
      lbl_common_edit
    </Styled(Anchor)>
    <Styled(Anchor)
      anchorVariation="primary"
      aria-describedby={8977328}
      className="cardTile__anchor"
      dataLocator="payment-creditdebitdeletelink"
      fontSizeVariation="large"
      onClick={[Function]}
      to="/#"
      underline={true}
    >
      lbl_common_delete
    </Styled(Anchor)>
  </div>
</div>
`;

exports[`CardTile should render correctly with gift card 1`] = `
<div>
  <div
    className="cardTile"
  >
    <Styled(Row)
      fullBleed={true}
    >
      <Styled(Col)
        colSize={
          Object {
            "large": 7,
            "medium": 4,
            "small": 3,
          }
        }
      >
        <div
          className="cardTile__cardDetails"
        >
          <Styled(BodyCopy)
            className="cardTile__heading"
            color="text.primary"
            component="p"
            customStyle={Object {}}
            data-locator="payment-giftcardnametitle"
            fontFamily="secondary"
            fontSize="fs16"
            fontWeight="normal"
            letterSpacing="normal"
            lineHeight="normal"
            link={null}
            tag="span"
            textAlign="left"
          >
            lbl_payment_giftCard
          </Styled(BodyCopy)>
          <Styled(BodyCopy)
            className="cardTile__number"
            color="text.primary"
            component="span"
            customStyle={Object {}}
            data-locator="payment-giftcardendingtext"
            fontFamily="secondary"
            fontSize="fs14"
            fontWeight="bold"
            id={8977328}
            letterSpacing="normal"
            lineHeight="normal"
            lineHeights="lh107"
            link={null}
            textAlign="left"
          >
            lbl_payment_cardNum6765
          </Styled(BodyCopy)>
        </div>
      </Styled(Col)>
      <Styled(Col)
        colSize={
          Object {
            "large": 5,
            "medium": 4,
            "small": 3,
          }
        }
      >
        <div
          className="cardTile__defaultSection"
        >
          <div
            className="cardTile__img_wrapper elem-mt-XL"
          >
            <img
              alt="GC"
              className="cardTile__img"
              data-locator="GC"
              role="img"
              src="undefined/ecom/assets/static/icon/TCP-gift.svg"
            />
          </div>
        </div>
      </Styled(Col)>
    </Styled(Row)>
  </div>
  <div
    className="giftcardTile__wrapper"
  >
    <form
      autoComplete="off"
      noValidate={true}
    >
      <div
        className="giftcardTile__row"
      >
        <Styled(Button)
          buttonVariation="variable-width"
          data-locator="gift-card-checkbalance-btn"
          fill="BLUE"
          onClick={[Function]}
          type="submit"
        >
          lbl_payment_checkBalance
        </Styled(Button)>
      </div>
    </form>
  </div>
  <div
    className="cardTile__ctaLinks"
  >
    <Styled(Anchor)
      anchorVariation="primary"
      aria-describedby={8977328}
      className="cardTile__anchor"
      dataLocator="payment-giftcarddeletelink"
      fontSizeVariation="large"
      onClick={[Function]}
      to="/#"
      underline={true}
    >
      lbl_common_delete
    </Styled(Anchor)>
  </div>
</div>
`;

exports[`CardTile should render correctly with master card 1`] = `
<div>
  <div
    className="cardTile"
  >
    <Styled(Row)
      fullBleed={true}
    >
      <Styled(Col)
        colSize={
          Object {
            "large": 7,
            "medium": 4,
            "small": 3,
          }
        }
      >
        <div
          className="cardTile__cardDetails"
        >
          <Styled(BodyCopy)
            className="cardTile__heading"
            color="text.primary"
            component="p"
            customStyle={Object {}}
            data-locator="payment-creditdebitnametitle"
            fontFamily="secondary"
            fontSize="fs16"
            fontWeight="normal"
            letterSpacing="normal"
            lineHeight="normal"
            link={null}
            tag="span"
            textAlign="left"
          >
            lbl_payment_defaultCardName
          </Styled(BodyCopy)>
          <Styled(BodyCopy)
            className="cardTile__number"
            color="text.primary"
            component="span"
            customStyle={Object {}}
            data-locator="payment-creditdebitendingtext"
            fontFamily="secondary"
            fontSize="fs14"
            fontWeight="bold"
            id={8977328}
            letterSpacing="normal"
            lineHeight="normal"
            lineHeights="lh107"
            link={null}
            textAlign="left"
          >
            lbl_payment_cardNum6765
          </Styled(BodyCopy)>
          <Styled(BodyCopy)
            className="cardTile__expiry"
            color="text.primary"
            component="p"
            customStyle={Object {}}
            data-locator="payment-creditdebitexpiretext"
            fontFamily="secondary"
            fontSize="fs14"
            fontWeight="semibold"
            letterSpacing="normal"
            lineHeight="normal"
            lineHeights="lh115"
            link={null}
            tag="span"
            textAlign="left"
          >
            lbl_payment_expDate10/2025
          </Styled(BodyCopy)>
        </div>
      </Styled(Col)>
      <Styled(Col)
        colSize={
          Object {
            "large": 5,
            "medium": 4,
            "small": 3,
          }
        }
      >
        <div
          className="cardTile__defaultSection"
        >
          <Styled(Anchor)
            anchorVariation="primary"
            dataLocator="payment-makedefault"
            fontSizeVariation="small"
            onClick={[Function]}
            to="/#"
            underline={true}
          >
            lbl_common_makeDefault
          </Styled(Anchor)>
          <div
            className="cardTile__img_wrapper elem-mt-MED"
          >
            <img
              alt="MC"
              className="cardTile__img"
              data-locator="MC"
              role="img"
              src="undefined/ecom/assets/static/icon/mastercard.svg"
            />
          </div>
        </div>
      </Styled(Col)>
    </Styled(Row)>
  </div>
  <div>
    <Styled(Address)
      address={
        Object {
          "addressLine1": "Yucca Street",
          "addressLine2": "",
          "city": "Los Angeles",
          "country": "US",
          "firstName": "six",
          "lastName": "test",
          "phone1": "3214567890",
          "state": "CA",
          "zipCode": "90028",
        }
      }
      dataLocatorPrefix="payment-creditcard"
      fontWeight="normal"
      showCountry={false}
      showPhone={false}
    />
  </div>
  <div
    className="cardTile__ctaLinks"
  >
    <Styled(Anchor)
      anchorVariation="primary"
      aria-describedby={8977328}
      asPath="/account/payment/edit-credit-card/8977328"
      className="cardTile__anchor"
      dataLocator="payment-creditdebiteditlink"
      fontSizeVariation="large"
      to="/account?id=payment&subSection=edit-credit-card&creditCardId=8977328"
      underline={true}
    >
      lbl_common_edit
    </Styled(Anchor)>
    <Styled(Anchor)
      anchorVariation="primary"
      aria-describedby={8977328}
      className="cardTile__anchor"
      dataLocator="payment-creditdebitdeletelink"
      fontSizeVariation="large"
      onClick={[Function]}
      to="/#"
      underline={true}
    >
      lbl_common_delete
    </Styled(Anchor)>
  </div>
</div>
`;

exports[`CardTile should render correctly with notification  gift card 1`] = `
<div>
  <div
    className="cardTile"
  >
    <Styled(Row)
      fullBleed={true}
    >
      <Styled(Col)
        colSize={
          Object {
            "large": 7,
            "medium": 4,
            "small": 3,
          }
        }
      >
        <div
          className="cardTile__cardDetails"
        >
          <Styled(BodyCopy)
            className="cardTile__heading"
            color="text.primary"
            component="p"
            customStyle={Object {}}
            data-locator="payment-giftcardnametitle"
            fontFamily="secondary"
            fontSize="fs16"
            fontWeight="normal"
            letterSpacing="normal"
            lineHeight="normal"
            link={null}
            tag="span"
            textAlign="left"
          >
            lbl_payment_giftCard
          </Styled(BodyCopy)>
          <Styled(BodyCopy)
            className="cardTile__number"
            color="text.primary"
            component="span"
            customStyle={Object {}}
            data-locator="payment-giftcardendingtext"
            fontFamily="secondary"
            fontSize="fs14"
            fontWeight="bold"
            id={8977328}
            letterSpacing="normal"
            lineHeight="normal"
            lineHeights="lh107"
            link={null}
            textAlign="left"
          >
            lbl_payment_cardNum6765
          </Styled(BodyCopy)>
        </div>
      </Styled(Col)>
      <Styled(Col)
        colSize={
          Object {
            "large": 5,
            "medium": 4,
            "small": 3,
          }
        }
      >
        <div
          className="cardTile__defaultSection"
        >
          <div
            className="cardTile__img_wrapper elem-mt-XL"
          >
            <img
              alt="GC"
              className="cardTile__img"
              data-locator="GC"
              role="img"
              src="undefined/ecom/assets/static/icon/TCP-gift.svg"
            />
          </div>
        </div>
      </Styled(Col)>
    </Styled(Row)>
  </div>
  <div
    className="giftcardTile__wrapper"
  >
    <form
      autoComplete="off"
      noValidate={true}
    >
      <div
        className="giftcardTile__row"
      >
        <Styled(Button)
          buttonVariation="variable-width"
          data-locator="gift-card-checkbalance-btn"
          fill="BLUE"
          onClick={[Function]}
          type="submit"
        >
          lbl_payment_checkBalance
        </Styled(Button)>
      </div>
    </form>
  </div>
  <div
    className="cardTile__ctaLinks"
  >
    <Styled(Anchor)
      anchorVariation="primary"
      aria-describedby={8977328}
      className="cardTile__anchor"
      dataLocator="payment-giftcarddeletelink"
      fontSizeVariation="large"
      onClick={[Function]}
      to="/#"
      underline={true}
    >
      lbl_common_delete
    </Styled(Anchor)>
  </div>
</div>
`;

exports[`CardTile should render correctly with plcc card 1`] = `
<div>
  <div
    className="cardTile"
  >
    <Styled(Row)
      fullBleed={true}
    >
      <Styled(Col)
        colSize={
          Object {
            "large": 7,
            "medium": 4,
            "small": 3,
          }
        }
      >
        <div
          className="cardTile__cardDetails"
        >
          <Styled(BodyCopy)
            className="cardTile__heading"
            color="text.primary"
            component="p"
            customStyle={Object {}}
            data-locator="payment-creditdebitnametitle"
            fontFamily="secondary"
            fontSize="fs16"
            fontWeight="normal"
            letterSpacing="normal"
            lineHeight="normal"
            link={null}
            tag="span"
            textAlign="left"
          >
            lbl_payment_plccCard
          </Styled(BodyCopy)>
          <Styled(BodyCopy)
            className="cardTile__number"
            color="text.primary"
            component="span"
            customStyle={Object {}}
            data-locator="payment-creditdebitendingtext"
            fontFamily="secondary"
            fontSize="fs14"
            fontWeight="bold"
            id={8977328}
            letterSpacing="normal"
            lineHeight="normal"
            lineHeights="lh107"
            link={null}
            textAlign="left"
          >
            lbl_payment_cardNum6765
          </Styled(BodyCopy)>
        </div>
      </Styled(Col)>
      <Styled(Col)
        colSize={
          Object {
            "large": 5,
            "medium": 4,
            "small": 3,
          }
        }
      >
        <div
          className="cardTile__defaultSection"
        >
          <Styled(Anchor)
            anchorVariation="primary"
            dataLocator="payment-makedefault"
            fontSizeVariation="small"
            onClick={[Function]}
            to="/#"
            underline={true}
          >
            lbl_common_makeDefault
          </Styled(Anchor)>
          <div
            className="cardTile__img_wrapper elem-mt-MED"
          >
            <img
              alt="PLACE CARD"
              className="cardTile__img"
              data-locator="PLACE CARD"
              role="img"
              src="undefined/ecom/assets/static/icon/tcp-cc_2x.png"
            />
          </div>
        </div>
      </Styled(Col)>
    </Styled(Row)>
  </div>
  <div>
    <Styled(Address)
      address={
        Object {
          "addressLine1": "Yucca Street",
          "addressLine2": "",
          "city": "Los Angeles",
          "country": "US",
          "firstName": "six",
          "lastName": "test",
          "phone1": "3214567890",
          "state": "CA",
          "zipCode": "90028",
        }
      }
      dataLocatorPrefix="payment-creditcard"
      fontWeight="normal"
      showCountry={false}
      showPhone={false}
    />
  </div>
  <div
    className="cardTile__ctaLinks"
  >
    <Styled(Anchor)
      anchorVariation="primary"
      aria-describedby={8977328}
      asPath="/account/payment/edit-credit-card/8977328"
      className="cardTile__anchor"
      dataLocator="payment-creditdebiteditlink"
      fontSizeVariation="large"
      to="/account?id=payment&subSection=edit-credit-card&creditCardId=8977328"
      underline={true}
    >
      lbl_common_edit
    </Styled(Anchor)>
    <Styled(Anchor)
      anchorVariation="primary"
      aria-describedby={8977328}
      className="cardTile__anchor"
      dataLocator="payment-creditdebitdeletelink"
      fontSizeVariation="large"
      onClick={[Function]}
      to="/#"
      underline={true}
    >
      lbl_common_delete
    </Styled(Anchor)>
  </div>
</div>
`;

exports[`CardTile should render correctly with venmocard 1`] = `
<div>
  <div
    className="cardTile"
  >
    <Styled(Row)
      fullBleed={true}
    >
      <Styled(Col)
        colSize={
          Object {
            "large": 7,
            "medium": 4,
            "small": 3,
          }
        }
      >
        <div
          className="cardTile__cardDetails"
        >
          <Styled(BodyCopy)
            className="cardTile__heading"
            color="text.primary"
            component="p"
            customStyle={Object {}}
            data-locator="payment-venmonametitle"
            fontFamily="secondary"
            fontSize="fs16"
            fontWeight="normal"
            letterSpacing="normal"
            lineHeight="normal"
            link={null}
            tag="span"
            textAlign="left"
          >
            lbl_payment_venmoAccount
          </Styled(BodyCopy)>
          <Styled(BodyCopy)
            className="cardTile__heading"
            color="text.primary"
            component="p"
            customStyle={Object {}}
            data-locator="payment-venmoid"
            fontFamily="secondary"
            fontSize="fs14"
            fontWeight="extrabold"
            letterSpacing="normal"
            lineHeight="normal"
            lineHeights="lh107"
            link={null}
            tag="span"
            textAlign="left"
          >
            1234
          </Styled(BodyCopy)>
        </div>
      </Styled(Col)>
      <Styled(Col)
        colSize={
          Object {
            "large": 5,
            "medium": 4,
            "small": 3,
          }
        }
      >
        <div
          className="cardTile__defaultSection"
        >
          <div
            className="cardTile__img_wrapper elem-mt-XL"
          >
            <img
              alt="VENMO"
              className="cardTile__img"
              data-locator="VENMO"
              role="img"
              src="undefined/ecom/assets/static/icon/venmo.svg"
            />
          </div>
        </div>
      </Styled(Col)>
    </Styled(Row)>
  </div>
  <div
    className="cardTile__ctaLinks"
  >
    <Styled(Anchor)
      anchorVariation="primary"
      aria-describedby={8977328}
      className="cardTile__anchor"
      dataLocator="payment-venmodeletelink"
      fontSizeVariation="large"
      onClick={[Function]}
      to="/#"
      underline={true}
    >
      lbl_common_delete
    </Styled(Anchor)>
  </div>
</div>
`;

exports[`CardTile should render correctly with visa card 1`] = `
<div>
  <div
    className="cardTile"
  >
    <Styled(Row)
      fullBleed={true}
    >
      <Styled(Col)
        colSize={
          Object {
            "large": 7,
            "medium": 4,
            "small": 3,
          }
        }
      >
        <div
          className="cardTile__cardDetails"
        >
          <Styled(BodyCopy)
            className="cardTile__heading"
            color="text.primary"
            component="p"
            customStyle={Object {}}
            data-locator="payment-creditdebitnametitle"
            fontFamily="secondary"
            fontSize="fs16"
            fontWeight="normal"
            letterSpacing="normal"
            lineHeight="normal"
            link={null}
            tag="span"
            textAlign="left"
          >
            lbl_payment_defaultCardName
          </Styled(BodyCopy)>
          <Styled(BodyCopy)
            className="cardTile__number"
            color="text.primary"
            component="span"
            customStyle={Object {}}
            data-locator="payment-creditdebitendingtext"
            fontFamily="secondary"
            fontSize="fs14"
            fontWeight="bold"
            id={8977328}
            letterSpacing="normal"
            lineHeight="normal"
            lineHeights="lh107"
            link={null}
            textAlign="left"
          >
            lbl_payment_cardNum6765
          </Styled(BodyCopy)>
          <Styled(BodyCopy)
            className="cardTile__expiry"
            color="text.primary"
            component="p"
            customStyle={Object {}}
            data-locator="payment-creditdebitexpiretext"
            fontFamily="secondary"
            fontSize="fs14"
            fontWeight="semibold"
            letterSpacing="normal"
            lineHeight="normal"
            lineHeights="lh115"
            link={null}
            tag="span"
            textAlign="left"
          >
            lbl_payment_expDate10/2025
          </Styled(BodyCopy)>
        </div>
      </Styled(Col)>
      <Styled(Col)
        colSize={
          Object {
            "large": 5,
            "medium": 4,
            "small": 3,
          }
        }
      >
        <div
          className="cardTile__defaultSection"
        >
          <Styled(Anchor)
            anchorVariation="primary"
            dataLocator="payment-makedefault"
            fontSizeVariation="small"
            onClick={[Function]}
            to="/#"
            underline={true}
          >
            lbl_common_makeDefault
          </Styled(Anchor)>
          <div
            className="cardTile__img_wrapper elem-mt-MED"
          >
            <img
              alt="Visa"
              className="cardTile__img"
              data-locator="Visa"
              role="img"
              src="undefined/ecom/assets/static/icon/visa.svg"
            />
          </div>
        </div>
      </Styled(Col)>
    </Styled(Row)>
  </div>
  <div>
    <Styled(Address)
      address={
        Object {
          "addressLine1": "Yucca Street",
          "addressLine2": "",
          "city": "Los Angeles",
          "country": "US",
          "firstName": "six",
          "lastName": "test",
          "phone1": "3214567890",
          "state": "CA",
          "zipCode": "90028",
        }
      }
      dataLocatorPrefix="payment-creditcard"
      fontWeight="normal"
      showCountry={false}
      showPhone={false}
    />
  </div>
  <div
    className="cardTile__ctaLinks"
  >
    <Styled(Anchor)
      anchorVariation="primary"
      aria-describedby={8977328}
      asPath="/account/payment/edit-credit-card/8977328"
      className="cardTile__anchor"
      dataLocator="payment-creditdebiteditlink"
      fontSizeVariation="large"
      to="/account?id=payment&subSection=edit-credit-card&creditCardId=8977328"
      underline={true}
    >
      lbl_common_edit
    </Styled(Anchor)>
    <Styled(Anchor)
      anchorVariation="primary"
      aria-describedby={8977328}
      className="cardTile__anchor"
      dataLocator="payment-creditdebitdeletelink"
      fontSizeVariation="large"
      onClick={[Function]}
      to="/#"
      underline={true}
    >
      lbl_common_delete
    </Styled(Anchor)>
  </div>
</div>
`;

exports[`CardTile should show loading 1`] = `
<div>
  <div
    className="cardTile"
  >
    <Styled(Row)
      fullBleed={true}
    >
      <Styled(Col)
        colSize={
          Object {
            "large": 7,
            "medium": 4,
            "small": 3,
          }
        }
      >
        <div
          className="cardTile__cardDetails"
        >
          <Styled(BodyCopy)
            className="cardTile__heading"
            color="text.primary"
            component="p"
            customStyle={Object {}}
            data-locator="payment-giftcardnametitle"
            fontFamily="secondary"
            fontSize="fs16"
            fontWeight="normal"
            letterSpacing="normal"
            lineHeight="normal"
            link={null}
            tag="span"
            textAlign="left"
          >
            lbl_payment_giftCard
          </Styled(BodyCopy)>
          <Styled(BodyCopy)
            className="cardTile__number"
            color="text.primary"
            component="span"
            customStyle={Object {}}
            data-locator="payment-giftcardendingtext"
            fontFamily="secondary"
            fontSize="fs14"
            fontWeight="bold"
            id={8977328}
            letterSpacing="normal"
            lineHeight="normal"
            lineHeights="lh107"
            link={null}
            textAlign="left"
          >
            lbl_payment_cardNum6765
          </Styled(BodyCopy)>
        </div>
      </Styled(Col)>
      <Styled(Col)
        colSize={
          Object {
            "large": 5,
            "medium": 4,
            "small": 3,
          }
        }
      >
        <div
          className="cardTile__defaultSection"
        >
          <div
            className="cardTile__img_wrapper elem-mt-XL"
          >
            <img
              alt="GC"
              className="cardTile__img"
              data-locator="GC"
              role="img"
              src="undefined/ecom/assets/static/icon/TCP-gift.svg"
            />
          </div>
        </div>
      </Styled(Col)>
    </Styled(Row)>
  </div>
  <div
    className="giftcardTile__wrapper"
  >
    <form
      autoComplete="off"
      noValidate={true}
    >
      <div
        className="giftcardTile__row"
      >
        <Styled(BodyCopy)
          className=""
          color="text.primary"
          component="p"
          customStyle={Object {}}
          fontFamily="secondary"
          fontSize="fs24"
          fontWeight="extrabold"
          letterSpacing="normal"
          lineHeight="normal"
          lineHeights="lh115"
          link={null}
          tag="span"
          textAlign="left"
        >
          lbl_giftCardBalanceLoading
        </Styled(BodyCopy)>
      </div>
    </form>
  </div>
  <div
    className="cardTile__ctaLinks"
  >
    <Styled(Anchor)
      anchorVariation="primary"
      aria-describedby={8977328}
      className="cardTile__anchor"
      dataLocator="payment-giftcarddeletelink"
      fontSizeVariation="large"
      onClick={[Function]}
      to="/#"
      underline={true}
    >
      lbl_common_delete
    </Styled(Anchor)>
  </div>
</div>
`;

exports[`CardTile should show remining balance 1`] = `
<div>
  <div
    className="cardTile"
  >
    <Styled(Row)
      fullBleed={true}
    >
      <Styled(Col)
        colSize={
          Object {
            "large": 7,
            "medium": 4,
            "small": 3,
          }
        }
      >
        <div
          className="cardTile__cardDetails"
        >
          <Styled(BodyCopy)
            className="cardTile__heading"
            color="text.primary"
            component="p"
            customStyle={Object {}}
            data-locator="payment-giftcardnametitle"
            fontFamily="secondary"
            fontSize="fs16"
            fontWeight="normal"
            letterSpacing="normal"
            lineHeight="normal"
            link={null}
            tag="span"
            textAlign="left"
          >
            lbl_payment_giftCard
          </Styled(BodyCopy)>
          <Styled(BodyCopy)
            className="cardTile__number"
            color="text.primary"
            component="span"
            customStyle={Object {}}
            data-locator="payment-giftcardendingtext"
            fontFamily="secondary"
            fontSize="fs14"
            fontWeight="bold"
            id={8977328}
            letterSpacing="normal"
            lineHeight="normal"
            lineHeights="lh107"
            link={null}
            textAlign="left"
          >
            lbl_payment_cardNum6765
          </Styled(BodyCopy)>
        </div>
      </Styled(Col)>
      <Styled(Col)
        colSize={
          Object {
            "large": 5,
            "medium": 4,
            "small": 3,
          }
        }
      >
        <div
          className="cardTile__defaultSection"
        >
          <div
            className="cardTile__img_wrapper elem-mt-XL"
          >
            <img
              alt="GC"
              className="cardTile__img"
              data-locator="GC"
              role="img"
              src="undefined/ecom/assets/static/icon/TCP-gift.svg"
            />
          </div>
        </div>
      </Styled(Col)>
    </Styled(Row)>
  </div>
  <div
    className="giftcardTile__wrapper"
  >
    <form
      autoComplete="off"
      noValidate={true}
    >
      <div
        className="giftcardTile__row"
      >
        <Styled(BodyCopy)
          className=""
          color="text.primary"
          component="p"
          customStyle={Object {}}
          fontFamily="secondary"
          fontSize="fs14"
          fontWeight="semibold"
          letterSpacing="normal"
          lineHeight="normal"
          lineHeights="lh115"
          link={null}
          tag="span"
          textAlign="left"
        >
          lbl_payment_remainingBalance
        </Styled(BodyCopy)>
        <Styled(BodyCopy)
          className=""
          color="text.primary"
          component="p"
          customStyle={Object {}}
          fontFamily="secondary"
          fontSize="fs28"
          fontWeight="extrabold"
          letterSpacing="normal"
          lineHeight="normal"
          lineHeights="lh115"
          link={null}
          tag="span"
          textAlign="left"
        >
          $0
        </Styled(BodyCopy)>
      </div>
    </form>
  </div>
  <div
    className="cardTile__ctaLinks"
  >
    <Styled(Anchor)
      anchorVariation="primary"
      aria-describedby={8977328}
      className="cardTile__anchor"
      dataLocator="payment-giftcarddeletelink"
      fontSizeVariation="large"
      onClick={[Function]}
      to="/#"
      underline={true}
    >
      lbl_common_delete
    </Styled(Anchor)>
  </div>
</div>
`;
