// Jest Snapshot v1, https://goo.gl/fbAQLP

exports[`ModuleDNative should render Module D correctly when isHpNewLayoutEnabled is true 1`] = `
<Styled(View)
  style={
    Object {
      "elevation": 5,
      "shadowColor": "#979797",
      "shadowOffset": Object {
        "height": 1,
        "width": 0,
      },
      "shadowOpacity": 0.8,
      "shadowRadius": 5,
    }
  }
>
  <View
    style={
      Object {
        "backgroundColor": "#ffffff",
        "borderBottomLeftRadius": 0,
        "borderBottomRightRadius": 0,
        "borderTopLeftRadius": 0,
        "borderTopRightRadius": 0,
      }
    }
  >
    <Styled(View)>
      <PromoBanner
        promoBanner={Array []}
        promoStyle={Object {}}
        showTextUnderLine={false}
        testID="moduleD_promobanner"
        underLineStyle={Object {}}
      />
    </Styled(View)>
    <Styled(View) />
  </View>
  <Styled(View)>
    <ButtonList
      buttonsData="stackedCTAButtons"
      isContainerModule={false}
      locator="moduleA_cta_links"
    />
  </Styled(View)>
</Styled(View)>
`;

exports[`ModuleDNative should render correctly 1`] = `
<Styled(View)>
  <View
    style={Object {}}
  >
    <Styled(View)>
      <PromoBanner
        promoBanner={Array []}
        promoStyle={Object {}}
        showTextUnderLine={false}
        testID="moduleD_promobanner"
        underLineStyle={Object {}}
      />
    </Styled(View)>
    <Styled(View) />
  </View>
  <Styled(View)>
    <ButtonList
      buttonsData="stackedCTAButtons"
      isContainerModule={false}
      locator="moduleA_cta_links"
    />
  </Styled(View)>
</Styled(View)>
`;
