// Jest Snapshot v1, https://goo.gl/fbAQLP

exports[`Customer Service Help View should render CustomerSomethingElse 1`] = `
<Styled(View)
  spacingStyles="margin-right-SM margin-left-SM margin-top-LRG"
>
  <View>
    <Styled(Styled(View))>
      <Styled(BodyCopy)
        accessibilityText=""
        dataLocator=""
        fontFamily="secondary"
        fontSize="fs16"
        fontWeight="bold"
        margin={null}
        numberOfLines={null}
        text="Additional details"
        textDecoration={null}
      />
      <Styled(View)
        spacingStyles="margin-top-XXS margin-left-XXS"
      >
        <Styled(BodyCopy)
          accessibilityText=""
          dataLocator=""
          fontFamily="secondary"
          fontSize="fs12"
          margin={null}
          numberOfLines={null}
          text="lbl_optional_text"
          textDecoration={null}
        />
      </Styled(View)>
    </Styled(Styled(View))>
    <Styled(View)
      spacingStyles="margin-bottom-LRG"
    >
      <Styled(Component)
        dataLocator="something-message"
        enableSuccessCheck={false}
        inputRef={
          Object {
            "current": null,
          }
        }
        isCVVField={false}
        key="0"
        maxLength={200}
        multiline={true}
        onChangeText={[Function]}
        placeholder="lbl_placeholder_value_textArea"
        roundTextBox={true}
        showExplicitError={false}
        textAlignVertical="top"
        type="text"
        value=""
      />
      <Styled(View)>
        <Styled(Styled(BodyCopy))
          accessibilityText=""
          dataLocator=""
          fontFamily="secondary"
          fontSize="fs12"
          margin={null}
          numberOfLines={null}
          text="200 lbl_characters_left"
          textDecoration={null}
        />
      </Styled(View)>
    </Styled(View)>
  </View>
  <Styled(View)
    spacingStyles="margin-right-XXXL margin-left-XXXL margin-bottom-XXL"
  >
    <Styled(CustomButton)
      active={false}
      buttonVariation="fixed-width"
      color=""
      customBorderStyle=""
      customIconStyle={Object {}}
      customStyle={Object {}}
      customTextStyle={null}
      disableButton={false}
      fill="BLUE"
      fontFamily=""
      fontSize=""
      fontWeight=""
      fullWidth=""
      iconColor="gray.800"
      iconFirst={false}
      iconName="chevron-down"
      iconSize="fs12"
      locator=""
      navigation={Object {}}
      onPress={[Function]}
      paddings="12px 32px 12px 32px"
      selected={false}
      selectedIcon="chevron-up"
      showIcon={false}
      text="lbl_help_refund_action_btn"
      theme={Object {}}
      type="submit"
      url=""
      useCustomFontStyle={false}
      withNoLineHeight={false}
    />
  </Styled(View)>
</Styled(View)>
`;
