{
  "_comment": "9fbef606107a605d69c0edbcd8029e5d",
  "branch": {
    "name": "FORTER-RELEASE"
  },
  "id": 1,
  "trigger": "manual",
  "environmentVariables": [
    {
      "name": "APP_CENTER_CURRENT_PLATFORM",
      "value": "android"
    },
    {
      "name": "APPLICATION",
      "value": "gym"
    },
    {
      "name": "ENVIRONMENT",
      "value": "INT_4"
    }
  ],
  "signed": true,
  "testsEnabled": false,
  "badgeIsEnabled": false,
  "toolsets": {
    "buildscripts": {
      "packages/mobileapp/package.json": {
        "postBuild": "packages/mobileapp/appcenter-post-build.sh",
        "postClone": "packages/mobileapp/appcenter-post-clone.sh",
        "preBuild": "packages/mobileapp/appcenter-pre-build.sh"
      }
    },
    "android": {
      "module": "app",
      "buildVariant": "gymboreePreviewFourRelease",
      "isRoot": false,
      "runTests": false,
      "runLint": false,
      "keystorePassword": "__protected__",
      "keyAlias": "__protected__",
      "keyPassword": "__protected__",
      "keystoreFilename": "tcp.jks",
      "automaticSigning": false,
      "buildBundle": true,
      "gradleWrapperPath": "packages/mobileapp/android/gradlew"
    },
    "distribution": {
      "destinationType": "groups",
      "destinations": [
        "c75dd976-0119-4d0d-bdeb-f2854c01c99d",
        "00000000-0000-0000-0000-000000000000"
      ],
      "isSilent": false
    },
    "javascript": {
      "nodeVersion": "12.x",
      "packageJsonPath": "packages/mobileapp/package.json",
      "runTests": false
    }
  },
  "artifactVersioning": {
    "buildNumberFormat": "buildId"
  }
}
