{
  "_comment": "9fbef606107a605d69c0edbcd8029e5d",
  "branch": {
    "name": "FORTER-RELEASE"
  },
  "id": 1,
  "trigger": "manual",
  "environmentVariables": [
    {
      "name": "APP_CENTER_CURRENT_PLATFORM",
      "value": "ios"
    },
    {
      "name": "APPLICATION",
      "value": "gym"
    },
    {
      "name": "ENVIRONMENT",
      "value": "UAT_4"
    }
  ],
  "signed": true,
  "testsEnabled": false,
  "badgeIsEnabled": false,
  "toolsets": {
    "buildscripts": {
      "packages/mobileapp/package.json": {
        "postBuild": "packages/mobileapp/appcenter-post-build.sh",
        "postClone": "packages/mobileapp/appcenter-post-clone.sh",
        "preBuild": "packages/mobileapp/appcenter-pre-build.sh"
      }
    },
    "distribution": {
      "destinationType": "groups",
      "destinations": [
        "00000000-0000-0000-0000-000000000000",
        "17df17c9-1406-4b89-ab54-fa32742e7c2e"
      ],
      "isSilent": false
    },
    "javascript": {
      "nodeVersion": "12.x",
      "packageJsonPath": "packages/mobileapp/package.json",
      "runTests": false
    },
    "xcode": {
      "certificatePassword": "__protected__",
      "certificateFilename": "UAT5-cert.p12",
      "provisioningProfileFilename": "Test_TCP (1).mobileprovision",
      "certificateFileId": "28de55b1-b18e-4b93-acf4-df47ed0f989a",
      "provisioningProfileFileId": "31fb1d28-0045-41f0-821e-e0f17fff45a2",
      "appExtensionProvisioningProfileFiles": [],
      "projectOrWorkspacePath": "packages/mobileapp/ios/mobileapp.xcworkspace",
      "scheme": "gymboree_uat4_preview",
      "xcodeVersion": "13.2",
      "podfilePath": "packages/mobileapp/ios/Podfile"
    }
  },
  "artifactVersioning": {
    "buildNumberFormat": "buildId"
  }
}
