{
  "_comment": "9fbef606107a605d69c0edbcd8029e5d",
  "branch": {
    "name": "FORTER-RELEASE"
  },
  "id": 1,
  "trigger": "manual",
  "environmentVariables": [
    {
      "name": "APP_CENTER_CURRENT_PLATFORM",
      "value": "ios"
    },
    {
      "name": "APPLICATION",
      "value": "gym"
    },
    {
      "name": "ENVIRONMENT",
      "value": "INT_5"
    }
  ],
  "signed": true,
  "testsEnabled": false,
  "badgeIsEnabled": false,
  "toolsets": {
    "buildscripts": {
      "packages/mobileapp/package.json": {
        "postBuild": "packages/mobileapp/appcenter-post-build.sh",
        "postClone": "packages/mobileapp/appcenter-post-clone.sh",
        "preBuild": "packages/mobileapp/appcenter-pre-build.sh"
      }
    },
    "distribution": {
      "destinationType": "groups",
      "destinations": [
        "00000000-0000-0000-0000-000000000000",
        "b220e920-c963-479e-a5e1-ea6b4c33b728"
      ],
      "isSilent": false
    },
    "javascript": {
      "nodeVersion": "12.x",
      "packageJsonPath": "packages/mobileapp/package.json",
      "runTests": false
    },
    "xcode": {
      "certificatePassword": "__protected__",
      "certificateFilename": "Certificates-TCP-May.p12",
      "provisioningProfileFilename": "TCP_Mobile_App_Dev.mobileprovision",
      "certificateFileId": "11c0ca70-6847-4eab-8b4f-473d250dcbf0",
      "provisioningProfileFileId": "a71dff5b-467e-405a-b1fc-2a9a0b6a9339",
      "appExtensionProvisioningProfileFiles": [],
      "projectOrWorkspacePath": "packages/mobileapp/ios/mobileapp.xcworkspace",
      "scheme": "gymboree_int4",
      "xcodeVersion": "13.2",
      "podfilePath": "packages/mobileapp/ios/Podfile"
    }
  }
}
