// Jest Snapshot v1, https://goo.gl/fbAQLP

exports[`PickupMainContactEditFormVanilla component should renders correctly when data are present 1`] = `
<View>
  <Styled(View)>
    <Styled(BodyCopy)
      accessibilityText=""
      color="gray.900"
      dataLocator=""
      fontFamily="primary"
      fontSize="fs28"
      fontWeight="regular"
      margin={null}
      numberOfLines={null}
      textDecoration={null}
    />
  </Styled(View)>
  <Styled(ContactFormFields)
    className="pick-up-input toggle"
    createRefParent={[Function]}
    isAlternate={false}
    labels={Object {}}
    showEmailAddress={false}
    showPhoneNumber={true}
  />
  <Styled(CustomButton)
    active={false}
    buttonVariation="fixed-width"
    color="white"
    customBorderStyle=""
    customIconStyle={Object {}}
    customStyle={Object {}}
    customTextStyle={null}
    disableButton={false}
    fill="BLUE"
    fontFamily=""
    fontSize=""
    fontWeight=""
    fullWidth=""
    iconColor="gray.800"
    iconFirst={false}
    iconName="chevron-down"
    iconSize="fs12"
    locator=""
    navigation={Object {}}
    onPress={null}
    paddings="12px 32px 12px 32px"
    selected={false}
    selectedIcon="chevron-up"
    showIcon={false}
    text=""
    theme={Object {}}
    url=""
    useCustomFontStyle={false}
    withNoLineHeight={false}
  />
  <Styled(View)>
    <Styled(CustomButton)
      active={false}
      buttonVariation="fixed-width"
      color=""
      customBorderStyle=""
      customIconStyle={Object {}}
      customStyle={Object {}}
      customTextStyle={null}
      disableButton={false}
      fill=""
      fontFamily=""
      fontSize=""
      fontWeight=""
      fullWidth=""
      iconColor="gray.800"
      iconFirst={false}
      iconName="chevron-down"
      iconSize="fs12"
      locator=""
      navigation={Object {}}
      onPress={null}
      paddings="12px 32px 12px 32px"
      selected={false}
      selectedIcon="chevron-up"
      showIcon={false}
      text=""
      theme={Object {}}
      url=""
      useCustomFontStyle={false}
      withNoLineHeight={false}
    />
  </Styled(View)>
</View>
`;

exports[`PickupMainContactEditFormVanilla component should renders correctly when data not present 1`] = `
<View>
  <Styled(View)>
    <Styled(BodyCopy)
      accessibilityText=""
      color="gray.900"
      dataLocator=""
      fontFamily="primary"
      fontSize="fs28"
      fontWeight="regular"
      margin={null}
      numberOfLines={null}
      textDecoration={null}
    />
    <Styled(View)>
      <Styled(Anchor)
        accessibilityLabel=""
        anchorVariation="primary"
        color="gray.900"
        colorName={null}
        customStyle={Object {}}
        fontSize="fs12"
        hitSlop={Object {}}
        href="#"
        justifyContent=""
        locator=""
        margins={null}
        noLink={true}
        onPress={[Function]}
        overrideStyle={Object {}}
        target="_blank"
        text=""
        underline={true}
        visible={false}
      />
    </Styled(View)>
  </Styled(View)>
  <Styled(PickUpContactDisplay)
    formData={Object {}}
  />
</View>
`;

exports[`PickupMainContactEditFormVanilla component should renders on click 1`] = `
<View>
  <Styled(View)>
    <Styled(BodyCopy)
      accessibilityText=""
      color="gray.900"
      dataLocator=""
      fontFamily="primary"
      fontSize="fs28"
      fontWeight="regular"
      margin={null}
      numberOfLines={null}
      textDecoration={null}
    />
    <Styled(View)>
      <Styled(Anchor)
        accessibilityLabel=""
        anchorVariation="primary"
        color="gray.900"
        colorName={null}
        customStyle={Object {}}
        fontSize="fs12"
        hitSlop={Object {}}
        href="#"
        justifyContent=""
        locator=""
        margins={null}
        noLink={true}
        onPress={[Function]}
        overrideStyle={Object {}}
        target="_blank"
        text=""
        underline={true}
        visible={false}
      />
    </Styled(View)>
  </Styled(View)>
  <Styled(PickUpContactDisplay)
    formData={Object {}}
  />
</View>
`;
