// Jest Snapshot v1, https://goo.gl/fbAQLP

exports[`Confirmation Template should render Confirmation Template 1`] = `
<ScrollViewMock
  onTouchEnd={[Function]}
  onTouchStart={[Function]}
>
  <Styled(Styled(View))
    spacingStyles="margin-top-XS"
  />
  <Styled(View)>
    <RequestNotCompleted
      currencySymbol=""
      errorLabel=""
      helpMessage="lbl_help_refund_unsuccessful_message"
      imageName={
        Object {
          "testUri": "../../../src/assets/images/triangle-alert.png",
        }
      }
      labels={Object {}}
      refundTotal=""
      refundUnderReview={false}
      title="lbl_help_refund_unsuccessful_title"
    />
    <Styled(Styled(View))
      spacingStyles="padding-bottom-XXXL"
    >
      <Memo(CustomerServiceHelp)
        helpMessage="lbl_resend_with_free_shipping_help"
        isLiveChatEnabled={false}
        isUserLoggedIn={false}
        labels={Object {}}
        orderDetailsData={
          Object {
            "orderNumber": "123123",
          }
        }
        selectedOrderItems={Object {}}
        selectedReasonCode={Object {}}
      />
      <Styled(View)
        spacingStyles="padding-top-LRG padding-right-XXL padding-left-XXL"
      >
        <Styled(CustomButton)
          active={false}
          buttonVariation="variable-width"
          color=""
          customBorderStyle=""
          customIconStyle={Object {}}
          customStyle={Object {}}
          customTextStyle={null}
          disableButton={false}
          fill="WHITE"
          fontFamily=""
          fontSize="fs14"
          fontWeight="extrabold"
          fullWidth=""
          iconColor="gray.800"
          iconFirst={false}
          iconName="chevron-down"
          iconSize="fs12"
          locator=""
          navigation={Object {}}
          onPress={[Function]}
          paddings="12px 32px 12px 32px"
          selected={false}
          selectedIcon="chevron-up"
          showIcon={false}
          text="lbl_help_another_order"
          theme={Object {}}
          url=""
          useCustomFontStyle={false}
          withNoLineHeight={false}
        />
      </Styled(View)>
    </Styled(Styled(View))>
  </Styled(View)>
</ScrollViewMock>
`;
