// Jest Snapshot v1, https://goo.gl/fbAQLP

exports[`ModuleBVanilla should match snapshot 1`] = `
<Styled(View)>
  <Styled(View)>
    <View>
      <Styled(Anchor)
        accessibilityLabel=""
        anchorVariation=""
        colorName={null}
        customStyle={Object {}}
        hitSlop={Object {}}
        justifyContent=""
        locator=""
        margins={null}
        onPress={null}
        overrideStyle={Object {}}
        text=""
        url="/c/girl-t-shirts"
        visible={false}
      >
        <Styled(DamImage)
          alt="Graphic Tees"
          badgeConfig={Array []}
          cacheType="immutable"
          checkBrand=""
          crop="c_crop,g_face:center,q_auto:best,w_347,h_295"
          customStyle={null}
          disableVideoClickHandler={false}
          dynamicBadgeOverlayQty={0}
          height={340}
          host="lazyload-home"
          imgConfig="t_mod_B_img_default_m"
          imgData={
            Object {
              "alt": "Graphic Tees",
              "crop_d": "c_crop,g_face:center,q_auto:best,w_690,h_577",
              "crop_m": "c_crop,g_face:center,q_auto:best,w_347,h_295",
              "crop_t": "c_crop,g_face:center,q_auto:best,w_354,h_295",
              "title": "Graphic Tees",
              "url": "https://test5.childrensplace.com/image/upload/c_fill,g_face:center,q_auto:best,w_1410/ecom/assets/content/gym/us/home/modA/gym_hp_090519_us_hwlhjb.png",
            }
          }
          isBackground={false}
          isBorderVideo={false}
          isFastImage={true}
          isHomePage={true}
          isNewReDesignEnabled={false}
          isOptimizedVideo={false}
          isProductImage={false}
          itemBrand=""
          link={
            Object {
              "action": "",
              "external": 0,
              "target": "",
              "text": "Graphic Tees",
              "title": "Graphic Tees",
              "url": "/c/girl-t-shirts",
            }
          }
          navigation={null}
          onError={[Function]}
          onLoadStart={[Function]}
          onProgress={[Function]}
          overrideStyle={null}
          priority="normal"
          renderVideoAsImage={false}
          resizeMode="stretch"
          source=""
          swatchConfig=""
          url=""
          videoData={null}
          width={726}
        />
      </Styled(Anchor)>
    </View>
  </Styled(View)>
</Styled(View)>
`;

exports[`ModuleBVanilla should match snapshot when isHpNewLayoutEnabled is true 1`] = `
<Styled(View)
  style={
    Object {
      "elevation": 5,
      "shadowColor": "#979797",
      "shadowOffset": Object {
        "height": 1,
        "width": 0,
      },
      "shadowOpacity": 0.8,
      "shadowRadius": 5,
    }
  }
>
  <Styled(View)
    isHpNewLayoutEnabled={true}
  >
    <View>
      <Styled(Anchor)
        accessibilityLabel=""
        anchorVariation=""
        colorName={null}
        customStyle={Object {}}
        hitSlop={Object {}}
        justifyContent=""
        locator=""
        margins={null}
        onPress={null}
        overrideStyle={Object {}}
        text=""
        url="/c/girl-t-shirts"
        visible={false}
      >
        <Styled(DamImage)
          alt="Graphic Tees"
          badgeConfig={Array []}
          cacheType="immutable"
          checkBrand=""
          crop="c_crop,g_face:center,q_auto:best,w_347,h_295"
          customStyle={null}
          disableVideoClickHandler={false}
          dynamicBadgeOverlayQty={0}
          height={340}
          host="lazyload-home"
          imgConfig="t_mod_B_img_default_m"
          imgData={
            Object {
              "alt": "Graphic Tees",
              "crop_d": "c_crop,g_face:center,q_auto:best,w_690,h_577",
              "crop_m": "c_crop,g_face:center,q_auto:best,w_347,h_295",
              "crop_t": "c_crop,g_face:center,q_auto:best,w_354,h_295",
              "title": "Graphic Tees",
              "url": "https://test5.childrensplace.com/image/upload/c_fill,g_face:center,q_auto:best,w_1410/ecom/assets/content/gym/us/home/modA/gym_hp_090519_us_hwlhjb.png",
            }
          }
          isBackground={false}
          isBorderVideo={false}
          isFastImage={true}
          isHomePage={true}
          isNewReDesignEnabled={false}
          isOptimizedVideo={false}
          isProductImage={false}
          itemBrand=""
          link={
            Object {
              "action": "",
              "external": 0,
              "target": "",
              "text": "Graphic Tees",
              "title": "Graphic Tees",
              "url": "/c/girl-t-shirts",
            }
          }
          navigation={null}
          onError={[Function]}
          onLoadStart={[Function]}
          onProgress={[Function]}
          overrideStyle={
            Object {
              "borderBottomLeftRadius": 0,
              "borderBottomRightRadius": 0,
              "borderTopLeftRadius": 0,
              "borderTopRightRadius": 0,
            }
          }
          priority="normal"
          renderVideoAsImage={false}
          resizeMode="stretch"
          source=""
          swatchConfig=""
          url=""
          videoData={null}
          width={720}
        />
      </Styled(Anchor)>
    </View>
  </Styled(View)>
</Styled(View)>
`;
