// Jest Snapshot v1, https://goo.gl/fbAQLP

exports[`Espot component should renders correctly 1`] = `
<View>
  <RichText
    actionHandler={[Function]}
    domStorageEnabled={false}
    fromEspot={true}
    isApplyDeviceHeight={false}
    isNativeView={true}
    javaScriptEnabled={false}
    labels={Object {}}
    navigation={
      Object {
        "navigate": [Function],
      }
    }
    scrollEnabled={false}
    source="<b>test</b>"
    thirdPartyCookiesEnabled={false}
    togglePlccModal={[MockFunction]}
  />
</View>
`;
