// Jest Snapshot v1, https://goo.gl/fbAQLP

exports[`CheckoutPage Container should call componentDidUpdate 1`] = `
<CheckoutPage
  activeStage="shipping"
  activeStep="shipping"
  addItemToSflList={[Function]}
  availableStages={
    Array [
      "billing",
      "review",
    ]
  }
  billingProps={
    Object {
      "billingDidMount": [Function],
      "isRegisteredUserCallDone": true,
    }
  }
  currency="USD"
  currentPhoneNumber=""
  currentStage="shipping"
  currentUserId=""
  excludedIds=""
  formatPayload={[Function]}
  formattedProductsData={Array []}
  initialValues={Object {}}
  isApplePaymentInProgress={false}
  isExpressCheckout={false}
  isGuest={true}
  isMobile={false}
  isPayPalWebViewEnable={false}
  isRegisteredUserCallDone={true}
  isSmsUpdatesEnabled={true}
  isUsSite={false}
  isVenmoPaymentInProgress={false}
  isVenmoPickupBannerDisplayed={true}
  isVenmoShippingBannerDisplayed={true}
  mapboxAutocompleteTypesParam=""
  mapboxSwitch={true}
  onEditModeChange={true}
  pageData={Object {}}
  persistEddNodeAction={[Function]}
  pickupDidMount={[Function]}
  reviewProps={
    Object {
      "isRegisteredUserCallDone": true,
      "reviewDidMount": [Function],
    }
  }
  router={
    Object {
      "query": Object {
        "section": "",
      },
    }
  }
  setAfterPayProgress={[Function]}
  setAnalyticsTriggered={[Function]}
  setCouponMergeErrorAction={[Function]}
  setMaxItemErrorAction={[Function]}
  setVenmoPickupState={[Function]}
  setVenmoShippingState={[Function]}
  shippingMethod={Object {}}
  shippingProps={
    Object {
      "dispatch": undefined,
      "isRegisteredUserCallDone": true,
      "shippingDidMount": [Function],
    }
  }
  showMaxItemError={false}
  submitBilling={[Function]}
  submitReview={[Function]}
  submitShippingSection={[Function]}
  trackClickAfterPay={[Function]}
/>
`;

exports[`CheckoutPage Container should render CheckoutPage view section 1`] = `
<CheckoutPage
  activeStage="shipping"
  activeStep="shipping"
  addItemToSflList={[Function]}
  availableStages={
    Array [
      "billing",
      "review",
    ]
  }
  billingProps={
    Object {
      "billingDidMount": [Function],
      "isRegisteredUserCallDone": true,
    }
  }
  currency="USD"
  currentPhoneNumber=""
  currentStage="shipping"
  currentUserId=""
  excludedIds=""
  formatPayload={[Function]}
  formattedProductsData={Array []}
  initialValues={Object {}}
  isApplePaymentInProgress={false}
  isExpressCheckout={false}
  isGuest={true}
  isMobile={false}
  isPayPalWebViewEnable={false}
  isRegisteredUserCallDone={true}
  isSmsUpdatesEnabled={true}
  isUsSite={false}
  isVenmoPaymentInProgress={false}
  isVenmoPickupBannerDisplayed={true}
  isVenmoShippingBannerDisplayed={true}
  mapboxAutocompleteTypesParam=""
  mapboxSwitch={true}
  onEditModeChange={true}
  pageData={Object {}}
  persistEddNodeAction={[Function]}
  pickupDidMount={[Function]}
  reviewProps={
    Object {
      "isRegisteredUserCallDone": true,
      "reviewDidMount": [Function],
    }
  }
  router={
    Object {
      "query": Object {
        "section": "",
      },
    }
  }
  setAfterPayProgress={[Function]}
  setAnalyticsTriggered={[Function]}
  setCouponMergeErrorAction={[Function]}
  setMaxItemErrorAction={[Function]}
  setVenmoPickupState={[Function]}
  setVenmoShippingState={[Function]}
  shippingMethod={Object {}}
  shippingProps={
    Object {
      "dispatch": undefined,
      "isRegisteredUserCallDone": true,
      "shippingDidMount": [Function],
    }
  }
  showMaxItemError={false}
  submitBilling={[Function]}
  submitReview={[Function]}
  submitShippingSection={[Function]}
  trackClickAfterPay={[Function]}
/>
`;
