// Jest Snapshot v1, https://goo.gl/fbAQLP

exports[`QuickViewSkeletonVanilla QuickViewSkeleton should render correctly 1`] = `<BaseStructureQVSkeleton />`;

exports[`QuickViewSkeletonVanilla should render BagPageProductQVSkeleton correctly 1`] = `<BaseStructureQVSkeleton />`;
