// Jest Snapshot v1, https://goo.gl/fbAQLP

exports[`CouponSelfHelp Template should not  render MyOffersCoupons or MyRewards when isLoggedIn is false 1`] = `
<div
  className="couponSelfHelp coupon-self-help-container"
>
  <Styled(Separator) />
  <Connect(CheckCouponContainer)
    labels={Object {}}
  />
  <Styled(Separator) />
</div>
`;

exports[`CouponSelfHelp Template should render MyOffersCoupons or MyRewards when isLoggedIn is true 1`] = `
<div
  className="couponSelfHelp coupon-self-help-container"
>
  <Styled(Separator) />
  <Connect(CheckCouponContainer)
    labels={Object {}}
  />
  <Styled(Separator) />
  <Styled(BodyCopy)
    className="elem-mt-XXL"
    color="text.primary"
    component="div"
    customStyle={Object {}}
    fontFamily="primary"
    fontSize={12}
    fontWeight="regular"
    letterSpacing="normal"
    lineHeight="normal"
    link={null}
    textAlign="left"
  >
    <Connect(MyRewardsContainer)
      couponSelfHelp={true}
      labels={Object {}}
      view="all"
    />
  </Styled(BodyCopy)>
  <Styled(Separator) />
</div>
`;

exports[`CouponSelfHelp Template should render need help content 1`] = `
<div
  className="couponSelfHelp coupon-self-help-container"
>
  <Styled(Separator) />
  <Connect(CheckCouponContainer)
    labels={Object {}}
  />
  <Styled(Separator) />
</div>
`;
