// Jest Snapshot v1, https://goo.gl/fbAQLP

exports[`PasswordRequirement component should render correctly 1`] = `
<div
  className=""
>
  <Styled(BodyCopy)
    className="email-label"
    color="TEXT.DARK"
    component="p"
    customStyle={Object {}}
    fontFamily="primary"
    fontSize="fs14"
    fontWeight="bold"
    letterSpacing="normal"
    lineHeight="normal"
    link={null}
    textAlign="left"
  >
    lbl_resetPassword_page_email_label
  </Styled(BodyCopy)>
  <Styled(BodyCopy)
    className="email-value"
    color="TEXT.DARKERGRAY"
    component="p"
    customStyle={Object {}}
    fontFamily="primary"
    fontSize="fs18"
    fontWeight="regular"
    letterSpacing="normal"
    lineHeight="normal"
    link={null}
    textAlign="left"
  >
    txxxxst@test.com
  </Styled(BodyCopy)>
</div>
`;
