// Jest Snapshot v1, https://goo.gl/fbAQLP

exports[`ChangePasswordForm component should renders correctly in initial state 1`] = `
<form
  className=""
  name="ChangePasswordForm"
  noValidate={true}
>
  <Styled(BodyCopy)
    className="elem-mt-LRG"
    color="text.primary"
    component="div"
    customStyle={Object {}}
    fontFamily="primary"
    fontSize={12}
    fontWeight="regular"
    letterSpacing="normal"
    lineHeight="normal"
    link={null}
    textAlign="left"
  >
    <Styled(Row)
      fullBleed={true}
    >
      <Styled(Col)
        colSize={
          Object {
            "large": 5,
            "medium": 4,
            "small": 6,
          }
        }
      >
        <Field
          checkMarkRightMargin="40px"
          className="elem-mb-SM"
          component={
            Object {
              "$$typeof": Symbol(react.forward_ref),
              "attrs": Array [],
              "componentStyle": e {
                "baseHash": -658045346,
                "baseStyle": undefined,
                "componentId": "sc-crHmcD",
                "isStatic": false,
                "rules": Array [
                  "
  ",
                  "
  position: relative;

  .rightAlignedContent {
    position: absolute;
    right: 0;
    top: ",
                  [Function],
                  ";
    width: 30px;

    a {
      display: block;
    }

    .tooltip-bubble {
      li {
        text-align: left;
      }

      @media ",
                  [Function],
                  " {
        min-width: 350px;
      }
    }

    .tooltip-bubble li:before {
      content: '-';
      text-indent: -5px;
    }

    .tooltip {
      width: 10px;
      height: 10px;
    }
  }
  .show-hide-password {
    background: ",
                  [Function],
                  ";
  }
",
                  ";
",
                ],
                "staticRulesId": "",
              },
              "foldedComponentIds": Array [],
              "render": [Function],
              "shouldForwardProp": undefined,
              "styledComponentId": "sc-crHmcD",
              "target": [Function],
              "toString": [Function],
              "warnTooManyClasses": [Function],
              "withComponent": [Function],
            }
          }
          dataLocator="currentPasswordtxtfield"
          enableSuccessCheck={true}
          id="currentPassword"
          name="currentPassword"
          placeholder="lbl_changePassword_current_password"
          showSuccessCheck={false}
        />
        <Field
          checkMarkRightMargin="40px"
          className="elem-mb-SM"
          component={
            Object {
              "$$typeof": Symbol(react.forward_ref),
              "attrs": Array [],
              "componentStyle": e {
                "baseHash": -658045346,
                "baseStyle": undefined,
                "componentId": "sc-crHmcD",
                "isStatic": false,
                "rules": Array [
                  "
  ",
                  "
  position: relative;

  .rightAlignedContent {
    position: absolute;
    right: 0;
    top: ",
                  [Function],
                  ";
    width: 30px;

    a {
      display: block;
    }

    .tooltip-bubble {
      li {
        text-align: left;
      }

      @media ",
                  [Function],
                  " {
        min-width: 350px;
      }
    }

    .tooltip-bubble li:before {
      content: '-';
      text-indent: -5px;
    }

    .tooltip {
      width: 10px;
      height: 10px;
    }
  }
  .show-hide-password {
    background: ",
                  [Function],
                  ";
  }
",
                  ";
",
                ],
                "staticRulesId": "",
              },
              "foldedComponentIds": Array [],
              "render": [Function],
              "shouldForwardProp": undefined,
              "styledComponentId": "sc-crHmcD",
              "target": [Function],
              "toString": [Function],
              "warnTooManyClasses": [Function],
              "withComponent": [Function],
            }
          }
          dataLocator="newPasswordtxtfield"
          enableSuccessCheck={true}
          id="password"
          name="password"
          placeholder="lbl_changePassword_new_password"
          showSuccessCheck={false}
          spc={false}
          tooltipContent={
            <PasswordRequirement
              labels={Object {}}
            />
          }
        />
        <Field
          checkMarkRightMargin="40px"
          className="elem-mb-SM"
          component={
            Object {
              "$$typeof": Symbol(react.forward_ref),
              "attrs": Array [],
              "componentStyle": e {
                "baseHash": -658045346,
                "baseStyle": undefined,
                "componentId": "sc-crHmcD",
                "isStatic": false,
                "rules": Array [
                  "
  ",
                  "
  position: relative;

  .rightAlignedContent {
    position: absolute;
    right: 0;
    top: ",
                  [Function],
                  ";
    width: 30px;

    a {
      display: block;
    }

    .tooltip-bubble {
      li {
        text-align: left;
      }

      @media ",
                  [Function],
                  " {
        min-width: 350px;
      }
    }

    .tooltip-bubble li:before {
      content: '-';
      text-indent: -5px;
    }

    .tooltip {
      width: 10px;
      height: 10px;
    }
  }
  .show-hide-password {
    background: ",
                  [Function],
                  ";
  }
",
                  ";
",
                ],
                "staticRulesId": "",
              },
              "foldedComponentIds": Array [],
              "render": [Function],
              "shouldForwardProp": undefined,
              "styledComponentId": "sc-crHmcD",
              "target": [Function],
              "toString": [Function],
              "warnTooManyClasses": [Function],
              "withComponent": [Function],
            }
          }
          dataLocator="confirmPasswordtxtfield"
          enableSuccessCheck={true}
          id="confirmPassword"
          name="confirmPassword"
          placeholder="lbl_changePassword_confirm_password"
          showSuccessCheck={false}
        />
      </Styled(Col)>
    </Styled(Row)>
  </Styled(BodyCopy)>
  <Styled(BodyCopy)
    className="elem-mt-LRG elem-mb-LRG"
    color="text.primary"
    component="div"
    customStyle={Object {}}
    fontFamily="primary"
    fontSize={12}
    fontWeight="regular"
    letterSpacing="normal"
    lineHeight="normal"
    link={null}
    textAlign="center"
  >
    <Styled(Row)
      className="Cancel_Submit_Button"
    >
      <Styled(Col)
        className="ChangePasswordForm_cancel"
        colSize={
          Object {
            "large": 3,
            "medium": 3,
            "small": 6,
          }
        }
        offsetLeft={
          Object {
            "large": 3,
            "medium": 1,
          }
        }
      >
        <Styled(Anchor)
          asPath="/account/profile"
          to="/account?id=profile"
        >
          <Styled(Button)
            buttonVariation="fixed-width"
            className="elem-mb-XS"
            dataLocator="cancelBtn"
            fullWidth={true}
            type="button"
          >
            lbl_changePassword_cancelCta
          </Styled(Button)>
        </Styled(Anchor)>
      </Styled(Col)>
      <Styled(Col)
        className="ChangePasswordForm_save"
        colSize={
          Object {
            "large": 3,
            "medium": 4,
            "small": 6,
          }
        }
      >
        <Styled(Button)
          buttonVariation="fixed-width"
          className="elem-mb-XS "
          dataLocator="SaveBtn"
          disabled={false}
          fill="BLUE"
          fullWidth={true}
          type="submit"
        >
          lbl_changePassword_saveCta
        </Styled(Button)>
      </Styled(Col)>
    </Styled(Row)>
  </Styled(BodyCopy)>
</form>
`;

exports[`ChangePasswordForm component should renders correctly with success and error 1`] = `
<form
  className=""
  name="ChangePasswordForm"
  noValidate={true}
>
  <Styled(BodyCopy)
    className="elem-mt-LRG"
    color="text.primary"
    component="div"
    customStyle={Object {}}
    fontFamily="primary"
    fontSize={12}
    fontWeight="regular"
    letterSpacing="normal"
    lineHeight="normal"
    link={null}
    textAlign="left"
  >
    <Styled(Row)
      fullBleed={true}
    >
      <Styled(Col)
        colSize={
          Object {
            "large": 5,
            "medium": 4,
            "small": 6,
          }
        }
      >
        <Field
          checkMarkRightMargin="40px"
          className="elem-mb-SM"
          component={
            Object {
              "$$typeof": Symbol(react.forward_ref),
              "attrs": Array [],
              "componentStyle": e {
                "baseHash": -658045346,
                "baseStyle": undefined,
                "componentId": "sc-crHmcD",
                "isStatic": false,
                "rules": Array [
                  "
  ",
                  "
  position: relative;

  .rightAlignedContent {
    position: absolute;
    right: 0;
    top: ",
                  [Function],
                  ";
    width: 30px;

    a {
      display: block;
    }

    .tooltip-bubble {
      li {
        text-align: left;
      }

      @media ",
                  [Function],
                  " {
        min-width: 350px;
      }
    }

    .tooltip-bubble li:before {
      content: '-';
      text-indent: -5px;
    }

    .tooltip {
      width: 10px;
      height: 10px;
    }
  }
  .show-hide-password {
    background: ",
                  [Function],
                  ";
  }
",
                  ";
",
                ],
                "staticRulesId": "",
              },
              "foldedComponentIds": Array [],
              "render": [Function],
              "shouldForwardProp": undefined,
              "styledComponentId": "sc-crHmcD",
              "target": [Function],
              "toString": [Function],
              "warnTooManyClasses": [Function],
              "withComponent": [Function],
            }
          }
          dataLocator="currentPasswordtxtfield"
          enableSuccessCheck={true}
          id="currentPassword"
          name="currentPassword"
          placeholder="lbl_changePassword_current_password"
          showSuccessCheck={false}
        />
        <Field
          checkMarkRightMargin="40px"
          className="elem-mb-SM"
          component={
            Object {
              "$$typeof": Symbol(react.forward_ref),
              "attrs": Array [],
              "componentStyle": e {
                "baseHash": -658045346,
                "baseStyle": undefined,
                "componentId": "sc-crHmcD",
                "isStatic": false,
                "rules": Array [
                  "
  ",
                  "
  position: relative;

  .rightAlignedContent {
    position: absolute;
    right: 0;
    top: ",
                  [Function],
                  ";
    width: 30px;

    a {
      display: block;
    }

    .tooltip-bubble {
      li {
        text-align: left;
      }

      @media ",
                  [Function],
                  " {
        min-width: 350px;
      }
    }

    .tooltip-bubble li:before {
      content: '-';
      text-indent: -5px;
    }

    .tooltip {
      width: 10px;
      height: 10px;
    }
  }
  .show-hide-password {
    background: ",
                  [Function],
                  ";
  }
",
                  ";
",
                ],
                "staticRulesId": "",
              },
              "foldedComponentIds": Array [],
              "render": [Function],
              "shouldForwardProp": undefined,
              "styledComponentId": "sc-crHmcD",
              "target": [Function],
              "toString": [Function],
              "warnTooManyClasses": [Function],
              "withComponent": [Function],
            }
          }
          dataLocator="newPasswordtxtfield"
          enableSuccessCheck={true}
          id="password"
          name="password"
          placeholder="lbl_changePassword_new_password"
          showSuccessCheck={false}
          spc={false}
          tooltipContent={
            <PasswordRequirement
              labels={Object {}}
            />
          }
        />
        <Field
          checkMarkRightMargin="40px"
          className="elem-mb-SM"
          component={
            Object {
              "$$typeof": Symbol(react.forward_ref),
              "attrs": Array [],
              "componentStyle": e {
                "baseHash": -658045346,
                "baseStyle": undefined,
                "componentId": "sc-crHmcD",
                "isStatic": false,
                "rules": Array [
                  "
  ",
                  "
  position: relative;

  .rightAlignedContent {
    position: absolute;
    right: 0;
    top: ",
                  [Function],
                  ";
    width: 30px;

    a {
      display: block;
    }

    .tooltip-bubble {
      li {
        text-align: left;
      }

      @media ",
                  [Function],
                  " {
        min-width: 350px;
      }
    }

    .tooltip-bubble li:before {
      content: '-';
      text-indent: -5px;
    }

    .tooltip {
      width: 10px;
      height: 10px;
    }
  }
  .show-hide-password {
    background: ",
                  [Function],
                  ";
  }
",
                  ";
",
                ],
                "staticRulesId": "",
              },
              "foldedComponentIds": Array [],
              "render": [Function],
              "shouldForwardProp": undefined,
              "styledComponentId": "sc-crHmcD",
              "target": [Function],
              "toString": [Function],
              "warnTooManyClasses": [Function],
              "withComponent": [Function],
            }
          }
          dataLocator="confirmPasswordtxtfield"
          enableSuccessCheck={true}
          id="confirmPassword"
          name="confirmPassword"
          placeholder="lbl_changePassword_confirm_password"
          showSuccessCheck={false}
        />
      </Styled(Col)>
    </Styled(Row)>
  </Styled(BodyCopy)>
  <Styled(BodyCopy)
    className="elem-mt-LRG elem-mb-LRG"
    color="text.primary"
    component="div"
    customStyle={Object {}}
    fontFamily="primary"
    fontSize={12}
    fontWeight="regular"
    letterSpacing="normal"
    lineHeight="normal"
    link={null}
    textAlign="center"
  >
    <Styled(Row)
      className="Cancel_Submit_Button"
    >
      <Styled(Col)
        className="ChangePasswordForm_cancel"
        colSize={
          Object {
            "large": 3,
            "medium": 3,
            "small": 6,
          }
        }
        offsetLeft={
          Object {
            "large": 3,
            "medium": 1,
          }
        }
      >
        <Styled(Anchor)
          asPath="/account/profile"
          to="/account?id=profile"
        >
          <Styled(Button)
            buttonVariation="fixed-width"
            className="elem-mb-XS"
            dataLocator="cancelBtn"
            fullWidth={true}
            type="button"
          >
            lbl_changePassword_cancelCta
          </Styled(Button)>
        </Styled(Anchor)>
      </Styled(Col)>
      <Styled(Col)
        className="ChangePasswordForm_save"
        colSize={
          Object {
            "large": 3,
            "medium": 4,
            "small": 6,
          }
        }
      >
        <Styled(Button)
          buttonVariation="fixed-width"
          className="elem-mb-XS "
          dataLocator="SaveBtn"
          disabled={false}
          fill="BLUE"
          fullWidth={true}
          type="submit"
        >
          lbl_changePassword_saveCta
        </Styled(Button)>
      </Styled(Col)>
    </Styled(Row)>
  </Styled(BodyCopy)>
</form>
`;
