// Jest Snapshot v1, https://goo.gl/fbAQLP

exports[`MyRewardsSkeleton component should renders correctly 1`] = `
<div
  className="sample-class"
>
  <Styled(Row)
    fullBleed={true}
  >
    <Styled(Col)
      className="col-border-color elem-pt-MED elem-pr-SM elem-pb-MED elem-pl-SM"
      colSize={
        Object {
          "large": 2,
          "medium": 4,
          "small": 6,
        }
      }
    >
      <SkeletonLine
        height="300px"
        width="100%"
      />
    </Styled(Col)>
    <Styled(Col)
      className="col-border-color elem-pt-MED elem-pr-SM elem-pb-MED elem-pl-SM"
      colSize={
        Object {
          "large": 2,
          "medium": 4,
          "small": 6,
        }
      }
    >
      <SkeletonLine
        height="300px"
        width="100%"
      />
    </Styled(Col)>
    <Styled(Col)
      className="col-border-color elem-pt-MED elem-pr-SM elem-pb-MED elem-pl-SM"
      colSize={
        Object {
          "large": 2,
          "medium": 4,
          "small": 6,
        }
      }
    >
      <SkeletonLine
        height="300px"
        width="100%"
      />
    </Styled(Col)>
  </Styled(Row)>
</div>
`;
