// Jest Snapshot v1, https://goo.gl/fbAQLP

exports[`ProductDetailOld component should render correctly on SBP on open drawer 1`] = `
<View>
  <Connect(GlobalModals)
    navigation={
      Object {
        "getParam": [Function],
        "getScreenProps": [Function],
        "setParams": [MockFunction] {
          "calls": Array [
            Array [
              Object {
                "isScrolled": false,
              },
            ],
          ],
          "results": Array [
            Object {
              "type": "return",
              "value": undefined,
            },
          ],
        },
      }
    }
    onInitialModalsActionComplete={[Function]}
  />
  <ScrollViewMock
    alwaysBounceVertical={false}
    keyboardShouldPersistTaps="handled"
    name="lazyload-pdp"
    onMomentumScrollEnd={[Function]}
    onScroll={[Function]}
    onScrollEndDrag={[Function]}
  >
    <Styled(View)>
      <Styled(View)
        margins="16px 12px 0 12px"
        paddings="24px 0"
      >
        <Styled(WithTheme(ImageCarousel))
          AddToFavoriteErrorMsg=""
          accessibilityLabels={Object {}}
          currentColorEntry={
            Object {
              "color": Object {
                "name": "black",
              },
              "favoritedCount": 0,
              "fits": Array [
                Object {
                  "sizes": Array [
                    Object {
                      "sizeName": "4",
                    },
                  ],
                },
              ],
            }
          }
          currentProduct={
            Object {
              "bazaarVoice": Object {
                "totalReviewCount": 3,
              },
              "colorFitsSizesMap": Array [
                Object {
                  "color": Object {
                    "name": "black",
                  },
                  "favoritedCount": 0,
                  "fits": Array [
                    Object {
                      "sizes": Array [
                        Object {
                          "sizeName": "4",
                        },
                      ],
                    },
                  ],
                },
              ],
              "generalProductId": "12112_11",
              "name": "",
              "shortDescription": "",
            }
          }
          defaultWishListFromState={Object {}}
          deleteFavItemInProgressFlag={false}
          dynamicBadgeOverlayQty={0}
          formName="ProductAddToBag"
          imageUrls={Array []}
          imgConfig="t_plp_img_m,f_auto"
          isBrierleyPromoEnabled={false}
          isLoggedIn={false}
          isPDPImage={true}
          keepAlive={false}
          navigation={
            Object {
              "getParam": [Function],
              "getScreenProps": [Function],
              "setParams": [MockFunction] {
                "calls": Array [
                  Array [
                    Object {
                      "isScrolled": false,
                    },
                  ],
                ],
                "results": Array [
                  Object {
                    "type": "return",
                    "value": undefined,
                  },
                ],
              },
            }
          }
          onAddItemToFavorites={null}
          onImageClick={[Function]}
          onSetLastDeletedItemIdAction={[Function]}
          outOfStockLabels={Object {}}
          parentActiveIndex={[Function]}
          removeAddToFavoritesErrorMsg={[Function]}
          skuId={null}
          videoConfig="t_pdp_vid_m"
        />
        <Styled(ProductSummary)
          TCPMultipackProductMapping={Array []}
          accessibilityLabels={Object {}}
          currencyExchange={1}
          currencySymbol="USD"
          deleteFavItemInProgressFlag={false}
          dynamicBadgeOverlayQty={0}
          fromSkeleton={false}
          getProductNameAndTopbadge={[Function]}
          highListPrice={null}
          highOfferPrice={null}
          isBrierleyPromoEnabled={false}
          isBundleProduct={false}
          isFromBundleProductView={false}
          isGiftCard={false}
          isNewReDesignProductSummary={false}
          isPerUnitPriceEnabled={false}
          isPlcc={false}
          isSBP={false}
          isStyleWith={false}
          keepAlive={false}
          listPrice={null}
          navigation={
            Object {
              "getParam": [Function],
              "getScreenProps": [Function],
              "setParams": [MockFunction] {
                "calls": Array [
                  Array [
                    Object {
                      "isScrolled": false,
                    },
                  ],
                ],
                "results": Array [
                  Object {
                    "type": "return",
                    "value": undefined,
                  },
                ],
              },
            }
          }
          onSetLastDeletedItemIdAction={[Function]}
          outOfStockLabels={Object {}}
          parentExpandRatingReview={[Function]}
          pdpLabels={Object {}}
          productData={
            Object {
              "bazaarVoice": Object {
                "totalReviewCount": 3,
              },
              "colorFitsSizesMap": Array [
                Object {
                  "color": Object {
                    "name": "black",
                  },
                  "favoritedCount": 0,
                  "fits": Array [
                    Object {
                      "sizes": Array [
                        Object {
                          "sizeName": "4",
                        },
                      ],
                    },
                  ],
                },
              ],
              "generalProductId": "12112_11",
              "name": "",
              "shortDescription": "",
            }
          }
          renderRatingReview={true}
          scrollToTarget={[Function]}
          selectedMultipack="1"
          selectedSize=""
          showCompleteTheLook={false}
          showPriceRange={false}
          stylisticsProductTabList={Object {}}
        />
      </Styled(View)>
      <Styled(View)
        onLayout={[Function]}
      >
        <Connect(ProductAddToBagContainer)
          alternateSizes={Object {}}
          availableTCPmapNewStyleId={Array []}
          currentProduct={
            Object {
              "bazaarVoice": Object {
                "totalReviewCount": 3,
              },
              "colorFitsSizesMap": Array [
                Object {
                  "color": Object {
                    "name": "black",
                  },
                  "favoritedCount": 0,
                  "fits": Array [
                    Object {
                      "sizes": Array [
                        Object {
                          "sizeName": "4",
                        },
                      ],
                    },
                  ],
                },
              ],
              "generalProductId": "12112_11",
              "name": "",
              "shortDescription": "",
            }
          }
          deleteFavItemInProgressFlag={false}
          disableMultiPackTab={false}
          dynamicBadgeOverlayQty={0}
          errorOnHandleSubmit=""
          handleFormSubmit={null}
          handleSubmit={null}
          isBrierleyPromoEnabled={false}
          isKeepAliveEnabled={false}
          isPDP={true}
          navigation={
            Object {
              "getParam": [Function],
              "getScreenProps": [Function],
              "setParams": [MockFunction] {
                "calls": Array [
                  Array [
                    Object {
                      "isScrolled": false,
                    },
                  ],
                ],
                "results": Array [
                  Object {
                    "type": "return",
                    "value": undefined,
                  },
                ],
              },
            }
          }
          newColorList={Array []}
          onChangeColor={[Function]}
          onChangeSize={[Function]}
          onSetLastDeletedItemIdAction={[Function]}
          outOfStockLabels={Object {}}
          pdpLabels={Object {}}
          plpLabels={
            Object {
              "addToBag": "",
            }
          }
          sbpFit=""
          sbpSize=""
          scrollToTarget={[Function]}
          selectedColorProductId=""
          size=""
          sizeChartLinkVisibility={2}
          toastMessage={[Function]}
        />
        <Connect(ProductPickupContainer)
          availableTCPmapNewStyleId={Array []}
          formName="ProductAddToBag-12112_11"
          keepAlive={false}
          outOfStockLabels={Object {}}
          productInfo={
            Object {
              "bazaarVoice": Object {
                "totalReviewCount": 3,
              },
              "colorFitsSizesMap": Array [
                Object {
                  "color": Object {
                    "name": "black",
                  },
                  "favoritedCount": 0,
                  "fits": Array [
                    Object {
                      "sizes": Array [
                        Object {
                          "sizeName": "4",
                        },
                      ],
                    },
                  ],
                },
              ],
              "generalProductId": "12112_11",
              "name": "",
              "shortDescription": "",
            }
          }
        />
        <Styled(View)>
          <Connect(LoyaltyBannerContainer)
            navigation={
              Object {
                "getParam": [Function],
                "getScreenProps": [Function],
                "setParams": [MockFunction] {
                  "calls": Array [
                    Array [
                      Object {
                        "isScrolled": false,
                      },
                    ],
                  ],
                  "results": Array [
                    Object {
                      "type": "return",
                      "value": undefined,
                    },
                  ],
                },
              }
            }
            pageCategory="isProductDetailView"
          />
        </Styled(View)>
      </Styled(View)>
      <Styled(View)
        backgroundColor="gray.300"
        margins="0 0 0 0"
        paddings="8px  0 0 0"
      >
        <ProductDetailDescription
          accessibilityLabels={Object {}}
          backgroundColor="white"
          color=""
          defaultWishListFromState={Object {}}
          deleteFavItemInProgressFlag={false}
          dynamicBadgeOverlayQty={0}
          isBrierleyPromoEnabled={false}
          isFromBundleProductView={false}
          isNewReDesignDescription={false}
          isShowMore={false}
          itemPartNumber=""
          longDescription=""
          margins={null}
          onSetLastDeletedItemIdAction={[Function]}
          paddings="18px 12px 2px 12px"
          pdpLabels={Object {}}
          productInfo={
            Object {
              "bazaarVoice": Object {
                "totalReviewCount": 3,
              },
              "colorFitsSizesMap": Array [
                Object {
                  "color": Object {
                    "name": "black",
                  },
                  "favoritedCount": 0,
                  "fits": Array [
                    Object {
                      "sizes": Array [
                        Object {
                          "sizeName": "4",
                        },
                      ],
                    },
                  ],
                },
              ],
              "generalProductId": "12112_11",
              "name": "",
              "shortDescription": "",
            }
          }
          scrollToAccordionBottom={[Function]}
          shortDescription=""
        />
        <View
          collapsable={false}
        >
          <RelatedOutfits
            accessibilityLabels={Object {}}
            background="#ffffff"
            fromPage=""
            isNewReDesignCTL={false}
            margins="8px 0 0 0"
            navigation={
              Object {
                "getParam": [Function],
                "getScreenProps": [Function],
                "setParams": [MockFunction] {
                  "calls": Array [
                    Array [
                      Object {
                        "isScrolled": false,
                      },
                    ],
                  ],
                  "results": Array [
                    Object {
                      "type": "return",
                      "value": undefined,
                    },
                  ],
                },
              }
            }
            onRequestClose={[Function]}
            paddings="0 12px 0 12px"
            pdpLabels={Object {}}
            setShowCompleteTheLook={[Function]}
            triggerStylyticsAnalytics={[Function]}
          />
        </View>
        <Styled(View)
          collapsable={false}
        >
          <Connect(ProductReviews)
            expanded={false}
            reviewsCount={3}
          />
        </Styled(View)>
      </Styled(View)>
    </Styled(View)>
  </ScrollViewMock>
</View>
`;

exports[`ProductDetailOld component should render correctly with SBP flag 1`] = `
<View>
  <Connect(GlobalModals)
    navigation={
      Object {
        "getParam": [Function],
        "getScreenProps": [Function],
        "setParams": [MockFunction] {
          "calls": Array [
            Array [
              Object {
                "isScrolled": false,
              },
            ],
          ],
          "results": Array [
            Object {
              "type": "return",
              "value": undefined,
            },
          ],
        },
        "state": Object {
          "params": Object {
            "isSBP": true,
          },
        },
      }
    }
    onInitialModalsActionComplete={[Function]}
  />
  <ScrollViewMock
    alwaysBounceVertical={false}
    keyboardShouldPersistTaps="handled"
    name="lazyload-pdp"
    onMomentumScrollEnd={[Function]}
    onScroll={[Function]}
    onScrollEndDrag={[Function]}
  >
    <Styled(View)>
      <Styled(View)
        margins="16px 12px 0 12px"
        paddings="24px 0"
      >
        <Styled(WithTheme(ImageCarousel))
          AddToFavoriteErrorMsg=""
          accessibilityLabels={Object {}}
          currentColorEntry={
            Object {
              "color": Object {
                "name": "black",
              },
              "favoritedCount": 0,
              "fits": Array [
                Object {
                  "sizes": Array [
                    Object {
                      "sizeName": "4",
                    },
                  ],
                },
              ],
            }
          }
          currentProduct={
            Object {
              "bazaarVoice": Object {
                "totalReviewCount": 3,
              },
              "colorFitsSizesMap": Array [
                Object {
                  "color": Object {
                    "name": "black",
                  },
                  "favoritedCount": 0,
                  "fits": Array [
                    Object {
                      "sizes": Array [
                        Object {
                          "sizeName": "4",
                        },
                      ],
                    },
                  ],
                },
              ],
              "generalProductId": "12112_11",
              "name": "",
              "shortDescription": "",
            }
          }
          defaultWishListFromState={Object {}}
          deleteFavItemInProgressFlag={false}
          dynamicBadgeOverlayQty={0}
          formName="ProductAddToBag"
          imageUrls={Array []}
          imgConfig="t_plp_img_m,f_auto"
          isBrierleyPromoEnabled={false}
          isLoggedIn={false}
          isPDPImage={true}
          keepAlive={false}
          navigation={
            Object {
              "getParam": [Function],
              "getScreenProps": [Function],
              "setParams": [MockFunction] {
                "calls": Array [
                  Array [
                    Object {
                      "isScrolled": false,
                    },
                  ],
                ],
                "results": Array [
                  Object {
                    "type": "return",
                    "value": undefined,
                  },
                ],
              },
              "state": Object {
                "params": Object {
                  "isSBP": true,
                },
              },
            }
          }
          onAddItemToFavorites={null}
          onImageClick={[Function]}
          onSetLastDeletedItemIdAction={[Function]}
          outOfStockLabels={Object {}}
          parentActiveIndex={[Function]}
          removeAddToFavoritesErrorMsg={[Function]}
          skuId={null}
          videoConfig="t_pdp_vid_m"
        />
        <Styled(ProductSummary)
          TCPMultipackProductMapping={Array []}
          accessibilityLabels={Object {}}
          currencyExchange={1}
          currencySymbol="USD"
          deleteFavItemInProgressFlag={false}
          dynamicBadgeOverlayQty={0}
          fromSkeleton={false}
          getProductNameAndTopbadge={[Function]}
          highListPrice={null}
          highOfferPrice={null}
          isBrierleyPromoEnabled={false}
          isBundleProduct={false}
          isFromBundleProductView={false}
          isGiftCard={false}
          isNewReDesignProductSummary={false}
          isPerUnitPriceEnabled={false}
          isPlcc={false}
          isSBP={false}
          isStyleWith={false}
          keepAlive={false}
          listPrice={null}
          navigation={
            Object {
              "getParam": [Function],
              "getScreenProps": [Function],
              "setParams": [MockFunction] {
                "calls": Array [
                  Array [
                    Object {
                      "isScrolled": false,
                    },
                  ],
                ],
                "results": Array [
                  Object {
                    "type": "return",
                    "value": undefined,
                  },
                ],
              },
              "state": Object {
                "params": Object {
                  "isSBP": true,
                },
              },
            }
          }
          onSetLastDeletedItemIdAction={[Function]}
          outOfStockLabels={Object {}}
          parentExpandRatingReview={[Function]}
          pdpLabels={Object {}}
          productData={
            Object {
              "bazaarVoice": Object {
                "totalReviewCount": 3,
              },
              "colorFitsSizesMap": Array [
                Object {
                  "color": Object {
                    "name": "black",
                  },
                  "favoritedCount": 0,
                  "fits": Array [
                    Object {
                      "sizes": Array [
                        Object {
                          "sizeName": "4",
                        },
                      ],
                    },
                  ],
                },
              ],
              "generalProductId": "12112_11",
              "name": "",
              "shortDescription": "",
            }
          }
          renderRatingReview={true}
          scrollToTarget={[Function]}
          selectedMultipack="1"
          selectedSize=""
          showCompleteTheLook={false}
          showPriceRange={false}
          stylisticsProductTabList={Object {}}
        />
      </Styled(View)>
      <Styled(View)
        onLayout={[Function]}
      >
        <Connect(ProductAddToBagContainer)
          alternateSizes={Object {}}
          availableTCPmapNewStyleId={Array []}
          currentProduct={
            Object {
              "bazaarVoice": Object {
                "totalReviewCount": 3,
              },
              "colorFitsSizesMap": Array [
                Object {
                  "color": Object {
                    "name": "black",
                  },
                  "favoritedCount": 0,
                  "fits": Array [
                    Object {
                      "sizes": Array [
                        Object {
                          "sizeName": "4",
                        },
                      ],
                    },
                  ],
                },
              ],
              "generalProductId": "12112_11",
              "name": "",
              "shortDescription": "",
            }
          }
          deleteFavItemInProgressFlag={false}
          disableMultiPackTab={false}
          dynamicBadgeOverlayQty={0}
          errorOnHandleSubmit=""
          handleFormSubmit={null}
          handleSubmit={null}
          isBrierleyPromoEnabled={false}
          isDynamicBadgeEnabled={true}
          isKeepAliveEnabled={false}
          isPDP={true}
          navigation={
            Object {
              "getParam": [Function],
              "getScreenProps": [Function],
              "setParams": [MockFunction] {
                "calls": Array [
                  Array [
                    Object {
                      "isScrolled": false,
                    },
                  ],
                ],
                "results": Array [
                  Object {
                    "type": "return",
                    "value": undefined,
                  },
                ],
              },
              "state": Object {
                "params": Object {
                  "isSBP": true,
                },
              },
            }
          }
          newColorList={Array []}
          onChangeColor={[Function]}
          onChangeSize={[Function]}
          onSetLastDeletedItemIdAction={[Function]}
          outOfStockLabels={Object {}}
          pdpLabels={Object {}}
          plpLabels={
            Object {
              "addToBag": "",
            }
          }
          sbpFit=""
          sbpSize=""
          scrollToTarget={[Function]}
          selectedColorProductId=""
          size=""
          sizeChartLinkVisibility={2}
          toastMessage={[Function]}
        />
        <Connect(ProductPickupContainer)
          availableTCPmapNewStyleId={Array []}
          formName="ProductAddToBag-12112_11"
          keepAlive={false}
          outOfStockLabels={Object {}}
          productInfo={
            Object {
              "bazaarVoice": Object {
                "totalReviewCount": 3,
              },
              "colorFitsSizesMap": Array [
                Object {
                  "color": Object {
                    "name": "black",
                  },
                  "favoritedCount": 0,
                  "fits": Array [
                    Object {
                      "sizes": Array [
                        Object {
                          "sizeName": "4",
                        },
                      ],
                    },
                  ],
                },
              ],
              "generalProductId": "12112_11",
              "name": "",
              "shortDescription": "",
            }
          }
        />
        <Styled(View)>
          <Connect(LoyaltyBannerContainer)
            navigation={
              Object {
                "getParam": [Function],
                "getScreenProps": [Function],
                "setParams": [MockFunction] {
                  "calls": Array [
                    Array [
                      Object {
                        "isScrolled": false,
                      },
                    ],
                  ],
                  "results": Array [
                    Object {
                      "type": "return",
                      "value": undefined,
                    },
                  ],
                },
                "state": Object {
                  "params": Object {
                    "isSBP": true,
                  },
                },
              }
            }
            pageCategory="isProductDetailView"
          />
        </Styled(View)>
      </Styled(View)>
      <Styled(View)
        backgroundColor="gray.300"
        margins="0 0 0 0"
        paddings="8px  0 0 0"
      >
        <ProductDetailDescription
          accessibilityLabels={Object {}}
          backgroundColor="white"
          color=""
          defaultWishListFromState={Object {}}
          deleteFavItemInProgressFlag={false}
          dynamicBadgeOverlayQty={0}
          isBrierleyPromoEnabled={false}
          isFromBundleProductView={false}
          isNewReDesignDescription={false}
          isShowMore={false}
          itemPartNumber=""
          longDescription=""
          margins={null}
          onSetLastDeletedItemIdAction={[Function]}
          paddings="18px 12px 2px 12px"
          pdpLabels={Object {}}
          productInfo={
            Object {
              "bazaarVoice": Object {
                "totalReviewCount": 3,
              },
              "colorFitsSizesMap": Array [
                Object {
                  "color": Object {
                    "name": "black",
                  },
                  "favoritedCount": 0,
                  "fits": Array [
                    Object {
                      "sizes": Array [
                        Object {
                          "sizeName": "4",
                        },
                      ],
                    },
                  ],
                },
              ],
              "generalProductId": "12112_11",
              "name": "",
              "shortDescription": "",
            }
          }
          scrollToAccordionBottom={[Function]}
          shortDescription=""
        />
        <View
          collapsable={false}
        >
          <RelatedOutfits
            accessibilityLabels={Object {}}
            background="#ffffff"
            fromPage=""
            isNewReDesignCTL={false}
            margins="8px 0 0 0"
            navigation={
              Object {
                "getParam": [Function],
                "getScreenProps": [Function],
                "setParams": [MockFunction] {
                  "calls": Array [
                    Array [
                      Object {
                        "isScrolled": false,
                      },
                    ],
                  ],
                  "results": Array [
                    Object {
                      "type": "return",
                      "value": undefined,
                    },
                  ],
                },
                "state": Object {
                  "params": Object {
                    "isSBP": true,
                  },
                },
              }
            }
            onRequestClose={[Function]}
            paddings="0 12px 0 12px"
            pdpLabels={Object {}}
            setShowCompleteTheLook={[Function]}
            triggerStylyticsAnalytics={[Function]}
          />
        </View>
        <Styled(View)
          collapsable={false}
        >
          <Connect(ProductReviews)
            expanded={false}
            reviewsCount={3}
          />
        </Styled(View)>
      </Styled(View)>
    </Styled(View)>
  </ScrollViewMock>
</View>
`;

exports[`ProductDetailOld component should render header in sbp size drawer 1`] = `
<React.Fragment>
  <ForwardRef
    accessibilityRole="button"
    onPress={[Function]}
    style={
      Object {
        "height": 20,
        "position": "absolute",
        "right": 18,
        "top": 18,
        "width": 20,
      }
    }
  >
    <Component
      source={
        Object {
          "testUri": "../../../../core/src/assets/close.png",
        }
      }
      style={
        Object {
          "height": 20,
          "width": 20,
        }
      }
    />
  </ForwardRef>
  <View
    style={
      Object {
        "alignSelf": "center",
        "backgroundColor": "#ffffff",
        "borderRadius": 2,
        "height": 4,
        "marginVertical": 16,
        "width": 95,
      }
    }
  />
  <Component
    style={
      Object {
        "fontFamily": "Nunito-SemiBold",
        "fontSize": 14,
        "marginBottom": 16,
        "marginTop": 4,
        "textAlign": "center",
      }
    }
  >
    SELECT SIZE
  </Component>
</React.Fragment>
`;

exports[`ProductDetailOld component should render size drawer on sbp 1`] = `
<ModalBox
  animationDuration={400}
  backButtonClose={false}
  backdrop={true}
  backdropColor="black"
  backdropContent={null}
  backdropOpacity={0.5}
  backdropPressToClose={true}
  coverScreen={true}
  easing={[Function]}
  entry="bottom"
  isOpen={false}
  keyboardTopOffset={22}
  onClosed={[Function]}
  position="bottom"
  startOpen={false}
  style={
    Array [
      Object {
        "borderRadius": 16,
        "height": "39%",
        "padding": 16,
        "paddingTop": 0,
      },
      Object {
        "height": "39%",
      },
    ]
  }
  swipeArea={400}
  swipeThreshold={10}
  swipeToClose={false}
  useNativeDriver={true}
>
  <React.Fragment>
    <ForwardRef
      accessibilityRole="button"
      onPress={[Function]}
      style={
        Object {
          "height": 20,
          "position": "absolute",
          "right": 18,
          "top": 18,
          "width": 20,
        }
      }
    >
      <Component
        source={
          Object {
            "testUri": "../../../../core/src/assets/close.png",
          }
        }
        style={
          Object {
            "height": 20,
            "width": 20,
          }
        }
      />
    </ForwardRef>
    <View
      style={
        Object {
          "alignSelf": "center",
          "backgroundColor": "#ffffff",
          "borderRadius": 2,
          "height": 4,
          "marginVertical": 16,
          "width": 95,
        }
      }
    />
    <Component
      style={
        Object {
          "fontFamily": "Nunito-SemiBold",
          "fontSize": 14,
          "marginBottom": 16,
          "marginTop": 4,
          "textAlign": "center",
        }
      }
    >
      SELECT SIZE
    </Component>
  </React.Fragment>
  <Connect(ProductAddToBagContainer)
    alternateSizes={Object {}}
    availableTCPmapNewStyleId={Array []}
    currentProduct={
      Object {
        "bazaarVoice": Object {
          "totalReviewCount": 3,
        },
        "colorFitsSizesMap": Array [
          Object {
            "color": Object {
              "name": "black",
            },
            "favoritedCount": 0,
            "fits": Array [
              Object {
                "sizes": Array [
                  Object {
                    "sizeName": "4",
                  },
                ],
              },
            ],
          },
        ],
        "generalProductId": "12112_11",
        "name": "",
        "shortDescription": "",
      }
    }
    dynamicBadgeOverlayQty={0}
    errorOnHandleSubmit=""
    formValues={Object {}}
    handleFormSubmit={[MockFunction]}
    handleSubmit={null}
    hideQuatity={true}
    isKeepAliveEnabled={false}
    isPDP={true}
    navigation={
      Object {
        "getParam": [Function],
        "getScreenProps": [Function],
        "setParams": [MockFunction] {
          "calls": Array [
            Array [
              Object {
                "isScrolled": false,
              },
            ],
            Array [
              Object {
                "isScrolled": false,
              },
            ],
            Array [
              Object {
                "isScrolled": false,
              },
            ],
            Array [
              Object {
                "isScrolled": false,
              },
            ],
            Array [
              Object {
                "isScrolled": false,
              },
            ],
            Array [
              Object {
                "isScrolled": false,
              },
            ],
            Array [
              Object {
                "isScrolled": false,
              },
            ],
            Array [
              Object {
                "isScrolled": false,
              },
            ],
            Array [
              Object {
                "isScrolled": false,
              },
            ],
            Array [
              Object {
                "isScrolled": false,
              },
            ],
          ],
          "results": Array [
            Object {
              "type": "return",
              "value": undefined,
            },
            Object {
              "type": "return",
              "value": undefined,
            },
            Object {
              "type": "return",
              "value": undefined,
            },
            Object {
              "type": "return",
              "value": undefined,
            },
            Object {
              "type": "return",
              "value": undefined,
            },
            Object {
              "type": "return",
              "value": undefined,
            },
            Object {
              "type": "return",
              "value": undefined,
            },
            Object {
              "type": "return",
              "value": undefined,
            },
            Object {
              "type": "return",
              "value": undefined,
            },
            Object {
              "type": "return",
              "value": undefined,
            },
          ],
        },
        "state": Object {
          "params": Object {
            "brandId": "gym",
            "isSBP": true,
          },
        },
      }
    }
    onChangeColor={[Function]}
    onChangeSize={[Function]}
    outOfStockLabels={Object {}}
    plpLabels={
      Object {
        "addToBag": "ADD TO BAG",
      }
    }
    sbpFit=""
    sbpFormValues={null}
    sbpSize=""
    selectedColorProductId=""
    showAddToBagCTA={false}
    showColorChips={false}
    sizeChartLinkVisibility={2}
    toastMessage={[Function]}
  />
  <ForwardRef
    accessibilityRole="button"
    onPress={[Function]}
    style={
      Array [
        Object {
          "alignSelf": "center",
          "backgroundColor": "#003057",
          "borderColor": "#9c9c9c",
          "borderWidth": 1,
          "flex": 1,
          "height": 42,
          "justifyContent": "center",
          "marginLeft": 8,
          "width": "100%",
        },
        Object {},
      ]
    }
  >
    <Component
      style={
        Object {
          "color": "#ffffff",
          "fontFamily": "Nunito-ExtraBold",
          "fontSize": 14,
          "letterSpacing": 0.4,
          "textAlign": "center",
        }
      }
    >
      ADD TO BAG
    </Component>
  </ForwardRef>
</ModalBox>
`;

exports[`ProductDetailOld component should render sticky add to bag button on sbp 1`] = `
<ForwardRef
  accessibilityRole="button"
  onPress={[Function]}
  style={
    Array [
      Object {
        "alignSelf": "center",
        "backgroundColor": "#003057",
        "borderColor": "#9c9c9c",
        "borderWidth": 1,
        "flex": 1,
        "height": 42,
        "justifyContent": "center",
        "marginLeft": 8,
        "width": "100%",
      },
      Object {},
    ]
  }
>
  <Component
    style={
      Object {
        "color": "#ffffff",
        "fontFamily": "Nunito-ExtraBold",
        "fontSize": 14,
        "letterSpacing": 0.4,
        "textAlign": "center",
      }
    }
  >
    ADD TO BAG
  </Component>
</ForwardRef>
`;

exports[`ProductDetailOld component should render sticky buttons on sbp 1`] = `
<View
  style={
    Array [
      Object {
        "backgroundColor": "#ffffff",
        "borderColor": "#d8d8d8",
        "bottom": 0,
        "justifyContent": "center",
        "padding": 16,
        "position": "absolute",
        "width": "100%",
        "zIndex": 10,
      },
      Object {
        "borderRadius": 0,
        "borderWidth": 1,
        "flexDirection": "row",
        "height": 100,
      },
    ]
  }
>
  <ForwardRef
    accessibilityRole="button"
    onPress={[Function]}
    style={
      Array [
        Object {
          "alignItems": "center",
          "alignSelf": "center",
          "backgroundColor": "#f3f3f3",
          "borderColor": "#9c9c9c",
          "borderWidth": 1,
          "flex": 1,
          "flexDirection": "row",
          "height": 42,
          "justifyContent": "center",
          "marginRight": 8,
        },
        Object {},
      ]
    }
  >
    <Component
      style={
        Object {
          "color": "#595959",
          "fontFamily": "Nunito-ExtraBold",
          "fontSize": 14,
          "letterSpacing": 0.4,
          "textAlign": "center",
        }
      }
    >
      SIZE
    </Component>
    <ForwardRef(Styled(CustomIcon))
      accessibilityLabel=""
      dataLocator=""
      iconFontName="FontAwesome"
      isButton={false}
      isDisabled={false}
      margins={null}
      name="chevron-down"
      onPress={[Function]}
      size="fs14"
      style={
        Object {
          "color": "#595959",
          "marginBottom": 4,
          "marginLeft": 16,
        }
      }
    />
  </ForwardRef>
  <ForwardRef
    accessibilityRole="button"
    onPress={[Function]}
    style={
      Array [
        Object {
          "alignSelf": "center",
          "backgroundColor": "#003057",
          "borderColor": "#9c9c9c",
          "borderWidth": 1,
          "flex": 1,
          "height": 42,
          "justifyContent": "center",
          "marginLeft": 8,
          "width": "100%",
        },
        Object {},
      ]
    }
  >
    <Component
      style={
        Object {
          "color": "#ffffff",
          "fontFamily": "Nunito-ExtraBold",
          "fontSize": 14,
          "letterSpacing": 0.4,
          "textAlign": "center",
        }
      }
    >
      ADD TO BAG
    </Component>
  </ForwardRef>
</View>
`;

exports[`ProductDetailOld component should renders correctly 1`] = `
<View>
  <Connect(GlobalModals)
    navigation={
      Object {
        "getParam": [Function],
        "getScreenProps": [Function],
        "setParams": [MockFunction] {
          "calls": Array [
            Array [
              Object {
                "isScrolled": false,
              },
            ],
          ],
          "results": Array [
            Object {
              "type": "return",
              "value": undefined,
            },
          ],
        },
      }
    }
    onInitialModalsActionComplete={[Function]}
  />
  <ScrollViewMock
    alwaysBounceVertical={false}
    keyboardShouldPersistTaps="handled"
    name="lazyload-pdp"
    onMomentumScrollEnd={[Function]}
    onScroll={[Function]}
    onScrollEndDrag={[Function]}
  >
    <Styled(View)>
      <Styled(View)
        margins="16px 12px 0 12px"
        paddings="24px 0"
      >
        <Styled(WithTheme(ImageCarousel))
          AddToFavoriteErrorMsg=""
          accessibilityLabels={Object {}}
          currentColorEntry={
            Object {
              "color": Object {
                "name": "black",
              },
              "favoritedCount": 0,
              "fits": Array [
                Object {
                  "sizes": Array [
                    Object {
                      "sizeName": "4",
                    },
                  ],
                },
              ],
            }
          }
          currentProduct={
            Object {
              "bazaarVoice": Object {
                "totalReviewCount": 3,
              },
              "colorFitsSizesMap": Array [
                Object {
                  "color": Object {
                    "name": "black",
                  },
                  "favoritedCount": 0,
                  "fits": Array [
                    Object {
                      "sizes": Array [
                        Object {
                          "sizeName": "4",
                        },
                      ],
                    },
                  ],
                },
              ],
              "generalProductId": "12112_11",
              "name": "",
              "shortDescription": "",
            }
          }
          defaultWishListFromState={Object {}}
          deleteFavItemInProgressFlag={false}
          dynamicBadgeOverlayQty={0}
          formName="ProductAddToBag"
          imageUrls={Array []}
          imgConfig="t_plp_img_m,f_auto"
          isBrierleyPromoEnabled={false}
          isLoggedIn={false}
          isPDPImage={true}
          keepAlive={false}
          navigation={
            Object {
              "getParam": [Function],
              "getScreenProps": [Function],
              "setParams": [MockFunction] {
                "calls": Array [
                  Array [
                    Object {
                      "isScrolled": false,
                    },
                  ],
                ],
                "results": Array [
                  Object {
                    "type": "return",
                    "value": undefined,
                  },
                ],
              },
            }
          }
          onAddItemToFavorites={null}
          onImageClick={[Function]}
          onSetLastDeletedItemIdAction={[Function]}
          outOfStockLabels={Object {}}
          parentActiveIndex={[Function]}
          removeAddToFavoritesErrorMsg={[Function]}
          skuId={null}
          videoConfig="t_pdp_vid_m"
        />
        <Styled(ProductSummary)
          TCPMultipackProductMapping={Array []}
          accessibilityLabels={Object {}}
          currencyExchange={1}
          currencySymbol="USD"
          deleteFavItemInProgressFlag={false}
          dynamicBadgeOverlayQty={0}
          fromSkeleton={false}
          getProductNameAndTopbadge={[Function]}
          highListPrice={null}
          highOfferPrice={null}
          isBrierleyPromoEnabled={false}
          isBundleProduct={false}
          isFromBundleProductView={false}
          isGiftCard={false}
          isNewReDesignProductSummary={false}
          isPerUnitPriceEnabled={false}
          isPlcc={false}
          isSBP={false}
          isStyleWith={false}
          keepAlive={false}
          listPrice={null}
          navigation={
            Object {
              "getParam": [Function],
              "getScreenProps": [Function],
              "setParams": [MockFunction] {
                "calls": Array [
                  Array [
                    Object {
                      "isScrolled": false,
                    },
                  ],
                ],
                "results": Array [
                  Object {
                    "type": "return",
                    "value": undefined,
                  },
                ],
              },
            }
          }
          onSetLastDeletedItemIdAction={[Function]}
          outOfStockLabels={Object {}}
          parentExpandRatingReview={[Function]}
          pdpLabels={Object {}}
          productData={
            Object {
              "bazaarVoice": Object {
                "totalReviewCount": 3,
              },
              "colorFitsSizesMap": Array [
                Object {
                  "color": Object {
                    "name": "black",
                  },
                  "favoritedCount": 0,
                  "fits": Array [
                    Object {
                      "sizes": Array [
                        Object {
                          "sizeName": "4",
                        },
                      ],
                    },
                  ],
                },
              ],
              "generalProductId": "12112_11",
              "name": "",
              "shortDescription": "",
            }
          }
          renderRatingReview={true}
          scrollToTarget={[Function]}
          selectedMultipack="1"
          selectedSize=""
          showCompleteTheLook={false}
          showPriceRange={false}
          stylisticsProductTabList={Object {}}
        />
      </Styled(View)>
      <Styled(View)
        onLayout={[Function]}
      >
        <Connect(ProductAddToBagContainer)
          alternateSizes={Object {}}
          availableTCPmapNewStyleId={Array []}
          currentProduct={
            Object {
              "bazaarVoice": Object {
                "totalReviewCount": 3,
              },
              "colorFitsSizesMap": Array [
                Object {
                  "color": Object {
                    "name": "black",
                  },
                  "favoritedCount": 0,
                  "fits": Array [
                    Object {
                      "sizes": Array [
                        Object {
                          "sizeName": "4",
                        },
                      ],
                    },
                  ],
                },
              ],
              "generalProductId": "12112_11",
              "name": "",
              "shortDescription": "",
            }
          }
          deleteFavItemInProgressFlag={false}
          disableMultiPackTab={false}
          dynamicBadgeOverlayQty={0}
          errorOnHandleSubmit=""
          handleFormSubmit={null}
          handleSubmit={null}
          isBrierleyPromoEnabled={false}
          isKeepAliveEnabled={false}
          isPDP={true}
          navigation={
            Object {
              "getParam": [Function],
              "getScreenProps": [Function],
              "setParams": [MockFunction] {
                "calls": Array [
                  Array [
                    Object {
                      "isScrolled": false,
                    },
                  ],
                ],
                "results": Array [
                  Object {
                    "type": "return",
                    "value": undefined,
                  },
                ],
              },
            }
          }
          newColorList={Array []}
          onChangeColor={[Function]}
          onChangeSize={[Function]}
          onSetLastDeletedItemIdAction={[Function]}
          outOfStockLabels={Object {}}
          pdpLabels={Object {}}
          plpLabels={
            Object {
              "addToBag": "",
            }
          }
          sbpFit=""
          sbpSize=""
          scrollToTarget={[Function]}
          selectedColorProductId=""
          size=""
          sizeChartLinkVisibility={2}
          toastMessage={[Function]}
        />
        <Connect(ProductPickupContainer)
          availableTCPmapNewStyleId={Array []}
          formName="ProductAddToBag-12112_11"
          keepAlive={false}
          outOfStockLabels={Object {}}
          productInfo={
            Object {
              "bazaarVoice": Object {
                "totalReviewCount": 3,
              },
              "colorFitsSizesMap": Array [
                Object {
                  "color": Object {
                    "name": "black",
                  },
                  "favoritedCount": 0,
                  "fits": Array [
                    Object {
                      "sizes": Array [
                        Object {
                          "sizeName": "4",
                        },
                      ],
                    },
                  ],
                },
              ],
              "generalProductId": "12112_11",
              "name": "",
              "shortDescription": "",
            }
          }
        />
        <Styled(View)>
          <Connect(LoyaltyBannerContainer)
            navigation={
              Object {
                "getParam": [Function],
                "getScreenProps": [Function],
                "setParams": [MockFunction] {
                  "calls": Array [
                    Array [
                      Object {
                        "isScrolled": false,
                      },
                    ],
                  ],
                  "results": Array [
                    Object {
                      "type": "return",
                      "value": undefined,
                    },
                  ],
                },
              }
            }
            pageCategory="isProductDetailView"
          />
        </Styled(View)>
      </Styled(View)>
      <Styled(View)
        backgroundColor="gray.300"
        margins="0 0 0 0"
        paddings="8px  0 0 0"
      >
        <ProductDetailDescription
          accessibilityLabels={Object {}}
          backgroundColor="white"
          color=""
          defaultWishListFromState={Object {}}
          deleteFavItemInProgressFlag={false}
          dynamicBadgeOverlayQty={0}
          isBrierleyPromoEnabled={false}
          isFromBundleProductView={false}
          isNewReDesignDescription={false}
          isShowMore={false}
          itemPartNumber=""
          longDescription=""
          margins={null}
          onSetLastDeletedItemIdAction={[Function]}
          paddings="18px 12px 2px 12px"
          pdpLabels={Object {}}
          productInfo={
            Object {
              "bazaarVoice": Object {
                "totalReviewCount": 3,
              },
              "colorFitsSizesMap": Array [
                Object {
                  "color": Object {
                    "name": "black",
                  },
                  "favoritedCount": 0,
                  "fits": Array [
                    Object {
                      "sizes": Array [
                        Object {
                          "sizeName": "4",
                        },
                      ],
                    },
                  ],
                },
              ],
              "generalProductId": "12112_11",
              "name": "",
              "shortDescription": "",
            }
          }
          scrollToAccordionBottom={[Function]}
          shortDescription=""
        />
        <View
          collapsable={false}
        >
          <RelatedOutfits
            accessibilityLabels={Object {}}
            background="#ffffff"
            fromPage=""
            isNewReDesignCTL={false}
            margins="8px 0 0 0"
            navigation={
              Object {
                "getParam": [Function],
                "getScreenProps": [Function],
                "setParams": [MockFunction] {
                  "calls": Array [
                    Array [
                      Object {
                        "isScrolled": false,
                      },
                    ],
                  ],
                  "results": Array [
                    Object {
                      "type": "return",
                      "value": undefined,
                    },
                  ],
                },
              }
            }
            onRequestClose={[Function]}
            paddings="0 12px 0 12px"
            pdpLabels={Object {}}
            setShowCompleteTheLook={[Function]}
            triggerStylyticsAnalytics={[Function]}
          />
        </View>
        <Styled(View)
          collapsable={false}
        >
          <Connect(ProductReviews)
            expanded={false}
            reviewsCount={3}
          />
        </Styled(View)>
      </Styled(View)>
    </Styled(View)>
  </ScrollViewMock>
</View>
`;

exports[`ProductDetailOld component should return correct add to bag text for sbp 1`] = `
<Component
  style={
    Object {
      "color": "#ffffff",
      "fontFamily": "Nunito-ExtraBold",
      "fontSize": 14,
      "letterSpacing": 0.4,
      "textAlign": "center",
    }
  }
>
  ADD TO BAG
</Component>
`;

exports[`ProductDetailOld component should return correct styled view for bottom of screen when is sbp 1`] = `
<View
  style={
    Object {
      "height": 200,
    }
  }
/>
`;

exports[`ProductDetailOld component should return correct styled view for bottom of screen when sbp is not enabled 1`] = `
<View
  style={
    Object {
      "height": 200,
    }
  }
/>
`;
