// Jest Snapshot v1, https://goo.gl/fbAQLP

exports[`ProductDetailDescriptionView component should renders correctly 1`] = `
<Styled(View)
  backgroundColor={null}
  margins={null}
  paddings={null}
  renderToHardwareTextureAndroid={true}
>
  <Styled(Component)
    accessibilityRole="button"
    accessibilityState={
      Object {
        "expanded": false,
      }
    }
    accessible={true}
    onPress={[Function]}
  >
    <Styled(BodyCopy)
      accessibilityText=""
      dataLocator=""
      fontFamily="secondary"
      fontSize="fs14"
      fontWeight="black"
      isAccordionOpen={false}
      margin={null}
      numberOfLines={null}
      textAlign="center"
      textDecoration={null}
    />
    <Styled(View)>
      <Styled(Anchor)
        accessibilityLabel=""
        anchorVariation=""
        colorName={null}
        customStyle={Object {}}
        hitSlop={Object {}}
        justifyContent=""
        locator=""
        margins={null}
        onPress={[Function]}
        overrideStyle={Object {}}
        text=""
        visible={false}
      >
        <Component
          source={
            Object {
              "testUri": "../../../src/assets/images/carrot-small-down.png",
            }
          }
        />
      </Styled(Anchor)>
    </Styled(View)>
  </Styled(Component)>
</Styled(View)>
`;

exports[`ProductDetailDescriptionView native should render correctly should match snapshot 1`] = `
<Styled(View)
  backgroundColor={null}
  margins={null}
  paddings={null}
  renderToHardwareTextureAndroid={true}
>
  <Styled(Component)
    accessibilityRole="button"
    accessibilityState={
      Object {
        "expanded": false,
      }
    }
    accessible={true}
    onPress={[Function]}
  >
    <Styled(BodyCopy)
      accessibilityText=""
      dataLocator=""
      fontFamily="secondary"
      fontSize="fs14"
      fontWeight="black"
      isAccordionOpen={false}
      margin={null}
      numberOfLines={null}
      textAlign="center"
      textDecoration={null}
    />
    <Styled(View)>
      <Styled(Anchor)
        accessibilityLabel=""
        anchorVariation=""
        colorName={null}
        customStyle={Object {}}
        hitSlop={Object {}}
        justifyContent=""
        locator=""
        margins={null}
        onPress={[Function]}
        overrideStyle={Object {}}
        text=""
        visible={false}
      >
        <Component
          source={
            Object {
              "testUri": "../../../src/assets/images/carrot-small-down.png",
            }
          }
        />
      </Styled(Anchor)>
    </Styled(View)>
  </Styled(Component)>
</Styled(View)>
`;

exports[`ProductDetailDescriptionView native should render correctly with isFromBundleProductView prop should renders correctly 1`] = `
<Styled(View)
  backgroundColor={null}
  margins={null}
  paddings={null}
  renderToHardwareTextureAndroid={true}
>
  <Styled(Component)
    accessibilityRole="button"
    accessibilityState={
      Object {
        "expanded": true,
      }
    }
    accessible={true}
    onPress={[Function]}
  >
    <Styled(BodyCopy)
      accessibilityText=""
      dataLocator=""
      fontFamily="secondary"
      fontSize="fs14"
      fontWeight="black"
      isAccordionOpen={true}
      margin={null}
      numberOfLines={null}
      textAlign="center"
      textDecoration={null}
    />
    <Styled(View)>
      <Styled(Anchor)
        accessibilityLabel=""
        anchorVariation=""
        colorName={null}
        customStyle={Object {}}
        hitSlop={Object {}}
        justifyContent=""
        locator=""
        margins={null}
        onPress={[Function]}
        overrideStyle={Object {}}
        text=""
        visible={false}
      >
        <Component
          source={
            Object {
              "testUri": "../../../src/assets/images/carrot-small-up.png",
            }
          }
        />
      </Styled(Anchor)>
    </Styled(View)>
  </Styled(Component)>
  <Styled(Styled(BodyCopy))
    accessibilityText=""
    dataLocator=""
    fontFamily="secondary"
    fontSize="fs14"
    fontWeight="regular"
    margin={null}
    numberOfLines={null}
    spacingStyles="padding-top-LRG"
    textDecoration={null}
  />
  <Styled(View)>
    <Styled(BodyCopy)
      accessibilityText=""
      dataLocator=""
      fontFamily="secondary"
      fontSize="fs10"
      fontWeight="regular"
      margin={null}
      numberOfLines={null}
      text="undefined "
      textDecoration={null}
    />
  </Styled(View)>
</Styled(View)>
`;
