// Jest Snapshot v1, https://goo.gl/fbAQLP

exports[`ProductDetailNew component describe two should render pick up in store button correctly 1`] = `
<ForwardRef
  isPdpNewReDesign={true}
>
  <ForwardRef
    accessibilityText=""
    color="black"
    dataLocator=""
    fontFamily="secondary"
    fontSize="fs14"
    fontWeight="semibold"
    margin={null}
    numberOfLines={null}
    textDecoration={null}
  />
  <ForwardRef
    accessibilityLabel="Find In Store"
    accessibilityRole="link"
    anchorVariation="custom"
    colorName="gray.900"
    customStyle={Object {}}
    fontSizeVariation="large"
    hitSlop={Object {}}
    justifyContent=""
    locator=""
    margins={null}
    noLink={true}
    onPress={[Function]}
    overrideStyle={Object {}}
    text="Find In Store"
    underline={true}
    visible={false}
  />
  <ForwardRef>
    <ForwardRef
      alt=""
      cacheType="immutable"
      height={12}
      host=""
      isFastImage={false}
      onError={[Function]}
      onLoadStart={[Function]}
      onProgress={[Function]}
      priority="normal"
      resizeMode="contain"
      source={
        Object {
          "testUri": "../../../src/assets/images/isNewRedesign/icons-medium-left.png",
        }
      }
      url=""
      width={12}
    />
  </ForwardRef>
</ForwardRef>
`;

exports[`ProductDetailNew component describe two should render related outfits correctly 1`] = `
<View
  collapsable={false}
>
  <RelatedOutfits
    accessibilityLabels={Object {}}
    background="#ffffff"
    fromPage="pdp"
    isNewReDesignCTL={false}
    isSBP={false}
    margins="8px 0 0 0"
    navigation={
      Object {
        "getParam": [Function],
        "getScreenProps": [Function],
        "setParams": [MockFunction] {
          "calls": Array [
            Array [
              Object {
                "isScrolled": false,
              },
            ],
          ],
          "results": Array [
            Object {
              "type": "return",
              "value": undefined,
            },
          ],
        },
      }
    }
    onRequestClose={[Function]}
    paddings="0 12px 0 12px"
    pdpLabels={Object {}}
    setShowCompleteTheLook={[Function]}
    showSmallImage={true}
    triggerStylyticsAnalytics={[Function]}
  />
</View>
`;

exports[`ProductDetailNew component describe two should render share icon correctly 1`] = `
<UNDEFINED
  defaultPositions={
    Object {
      "left": 692,
      "top": 86,
    }
  }
  left={false}
  top={false}
>
  <UNDEFINED
    accessibilityLabel="favorite"
    accessibilityRole="button"
    accessibilityState={
      Object {
        "selected": true,
      }
    }
    onPress={[Function]}
  >
    <UNDEFINED
      dataLocator="pdp_social_connect"
      source={
        Object {
          "testUri": "../../../src/assets/images/icons_standard_share_3x.png",
        }
      }
      style={
        Object {
          "height": 24,
          "width": 24,
        }
      }
    />
  </UNDEFINED>
</UNDEFINED>
`;

exports[`ProductDetailNew component describe two should render sticky buttons correctly 1`] = `
<View
  style={
    Array [
      Object {
        "backgroundColor": "#ffffff",
        "borderColor": "#d8d8d8",
        "bottom": 0,
        "justifyContent": "center",
        "padding": 16,
        "position": "absolute",
        "width": "100%",
        "zIndex": 10,
      },
      Object {
        "borderRadius": 0,
        "borderWidth": 1,
        "flexDirection": "row",
        "height": 80,
        "paddingBottom": 25,
        "zIndex": 100,
      },
    ]
  }
>
  <ForwardRef
    accessibilityRole="button"
    disabled={false}
    onPress={[Function]}
    style={
      Array [
        Object {
          "alignItems": "center",
          "alignSelf": "center",
          "backgroundColor": "#ffffff",
          "borderRadius": 16,
          "elevation": 22,
          "flex": 1,
          "flexDirection": "row",
          "height": 46,
          "justifyContent": "center",
          "marginRight": 8,
          "shadowColor": "#000000",
          "shadowOffset": Object {
            "height": 10,
            "width": 0,
          },
          "shadowOpacity": 0.2,
          "shadowRadius": 15,
        },
        Object {},
        Object {},
      ]
    }
  >
    <ForwardRef
      accessibilityText=""
      color="gray.900"
      dataLocator=""
      fontFamily="secondary"
      fontSize="fs16"
      fontWeight="bold"
      letterSpacing="ls02"
      margin={null}
      numberOfLines={null}
      textAlign="center"
      textDecoration={null}
    />
    <ForwardRef>
      <ForwardRef
        alt=""
        cacheType="immutable"
        height={12}
        host=""
        isFastImage={false}
        onError={[Function]}
        onLoadStart={[Function]}
        onProgress={[Function]}
        priority="normal"
        resizeMode="contain"
        source={
          Object {
            "testUri": "../../../src/assets/images/isNewRedesign/icon-carrot-down.png",
          }
        }
        url=""
        width={12}
      />
    </ForwardRef>
  </ForwardRef>
  <ForwardRef>
    <ForwardRef
      active={false}
      borderRadius={[Function]}
      buttonSoftDisable={false}
      buttonVariation="variable-width"
      color=""
      customBorderStyle=""
      customIconStyle={Object {}}
      customLeftImageStyle={Object {}}
      customRightImageStyle={Object {}}
      customStyle={Object {}}
      customTextStyle={null}
      disableButton={false}
      disabled={false}
      fill="BLUE"
      fontFamily="secondary"
      fontSize="fs16"
      fontWeight="regular"
      fullWidth=""
      height="46px"
      hitSlop={
        Object {
          "bottom": 0,
          "left": 0,
          "right": 0,
          "top": 0,
        }
      }
      iconColor="gray.800"
      iconFirst={false}
      iconName="chevron-down"
      iconSize="fs12"
      imageAlignLeft={false}
      imageAlignRight={false}
      imageLeftName=""
      imageLeftShow={false}
      imageLeftSize={16}
      imageRightName=""
      imageRightShow={false}
      imageRightSize={16}
      locator=""
      margin="10px 0px 0px"
      navigation={Object {}}
      onPress={[Function]}
      paddings="10px"
      selected={false}
      selectedIcon="chevron-up"
      showBorder={false}
      showIcon={false}
      showShadow={true}
      sizeCharacterLength={0}
      text=""
      textPadding="0px 5px"
      theme={Object {}}
      url=""
      useCustomFontStyle={false}
      withNoLineHeight={false}
      wrapContent={false}
    />
  </ForwardRef>
</View>
`;

exports[`ProductDetailNew component should render AddToBag button correctly 1`] = `
<ForwardRef>
  <ForwardRef
    active={false}
    borderRadius={[Function]}
    buttonSoftDisable={false}
    buttonVariation="variable-width"
    color=""
    customBorderStyle=""
    customIconStyle={Object {}}
    customLeftImageStyle={Object {}}
    customRightImageStyle={Object {}}
    customStyle={Object {}}
    customTextStyle={null}
    disableButton={false}
    disabled={false}
    fill="BLUE"
    fontFamily="secondary"
    fontSize="fs16"
    fontWeight="regular"
    fullWidth=""
    height="46px"
    hitSlop={
      Object {
        "bottom": 0,
        "left": 0,
        "right": 0,
        "top": 0,
      }
    }
    iconColor="gray.800"
    iconFirst={false}
    iconName="chevron-down"
    iconSize="fs12"
    imageAlignLeft={false}
    imageAlignRight={false}
    imageLeftName=""
    imageLeftShow={false}
    imageLeftSize={16}
    imageRightName=""
    imageRightShow={false}
    imageRightSize={16}
    locator=""
    margin="10px 0px 0px"
    navigation={Object {}}
    onPress={[Function]}
    paddings="10px"
    selected={false}
    selectedIcon="chevron-up"
    showBorder={false}
    showIcon={false}
    showShadow={true}
    sizeCharacterLength={0}
    text=""
    textPadding="0px 5px"
    theme={Object {}}
    url=""
    useCustomFontStyle={false}
    withNoLineHeight={false}
    wrapContent={false}
  />
</ForwardRef>
`;

exports[`ProductDetailNew component should render badge and title correctly 1`] = `<ForwardRef />`;

exports[`ProductDetailNew component should render correctly 1`] = `undefined`;

exports[`ProductDetailNew component should render correctly with SBP flag 1`] = `
<Fragment>
  <Styled(View)>
    <BottomSheetBehavior
      callbackNode={mockConstructor {}}
      callbackThreshold={0.01}
      enabledBottomClamp={true}
      enabledBottomInitialAnimation={false}
      enabledContentGestureInteraction={true}
      enabledContentTapInteraction={true}
      enabledGestureInteraction={true}
      enabledHeaderGestureInteraction={true}
      enabledImperativeSnapping={true}
      enabledInnerScrolling={true}
      initialSnap={0}
      innerGestureHandlerRefs={
        Array [
          Object {
            "current": null,
          },
          Object {
            "current": null,
          },
          Object {
            "current": null,
          },
        ]
      }
      onCloseEnd={[Function]}
      onCloseStart={[Function]}
      onOpenEnd={[Function]}
      overdragResistanceFactor={1}
      renderContent={[Function]}
      renderHeader={[Function]}
      snapPoints={
        Array [
          253,
          343,
          1206,
        ]
      }
      springConfig={Object {}}
    />
    <Styled(View)>
      <Styled(View)
        margins="12px 12px 0 12px"
        paddings="0 0 12px 0"
      >
        <Component
          defaultPositions={
            Object {
              "left": 692,
              "top": 86,
            }
          }
          left={false}
          top={false}
        >
          <Component
            accessibilityLabel="favorite"
            accessibilityRole="button"
            accessibilityState={
              Object {
                "selected": true,
              }
            }
            onPress={[Function]}
          >
            <[object Object]
              dataLocator="pdp_social_connect"
              source={
                Object {
                  "testUri": "../../../src/assets/images/icons_standard_share_3x.png",
                }
              }
              style={
                Object {
                  "height": 24,
                  "width": 24,
                }
              }
            />
          </Component>
        </Component>
        <Component
          defaultPositions={
            Object {
              "left": 692,
              "top": 132,
            }
          }
          left={false}
          top={false}
        >
          <Styled(View)>
            <Component
              accessibilityLabel="set as favorite"
              accessibilityRole="button"
              accessibilityState={
                Object {
                  "selected": false,
                }
              }
              onPress={[Function]}
            >
              <[object Object]
                dataLocator="pdp_favorite_icon"
                source={
                  Object {
                    "testUri": "../../../src/assets/images/favorites_3x.png",
                  }
                }
                style={
                  Object {
                    "height": 24,
                    "width": 24,
                  }
                }
              />
            </Component>
          </Styled(View)>
        </Component>
      </Styled(View)>
    </Styled(View)>
    <Styled(View)
      margins="12px 12px 0 12px"
      paddings="0 0"
    />
  </Styled(View)>
  <Styled(View)>
    <View
      style={
        Array [
          Object {
            "backgroundColor": "#ffffff",
            "borderColor": "#d8d8d8",
            "bottom": 0,
            "justifyContent": "center",
            "padding": 16,
            "position": "absolute",
            "width": "100%",
            "zIndex": 10,
          },
          Object {
            "borderRadius": 0,
            "borderWidth": 1,
            "flexDirection": "row",
            "height": 80,
            "paddingBottom": 25,
            "zIndex": 100,
          },
        ]
      }
    >
      <ForwardRef
        accessibilityRole="button"
        disabled={false}
        onPress={[Function]}
        style={
          Array [
            Object {
              "alignItems": "center",
              "alignSelf": "center",
              "backgroundColor": "#ffffff",
              "borderRadius": 16,
              "elevation": 22,
              "flex": 1,
              "flexDirection": "row",
              "height": 46,
              "justifyContent": "center",
              "marginRight": 8,
              "shadowColor": "#000000",
              "shadowOffset": Object {
                "height": 10,
                "width": 0,
              },
              "shadowOpacity": 0.2,
              "shadowRadius": 15,
            },
            Object {},
            Object {},
          ]
        }
      >
        <Styled(BodyCopy)
          accessibilityText=""
          color="gray.900"
          dataLocator=""
          fontFamily="secondary"
          fontSize="fs16"
          fontWeight="bold"
          letterSpacing="ls02"
          margin={null}
          numberOfLines={null}
          textAlign="center"
          textDecoration={null}
        />
        <Styled(View)>
          <Styled(ImageComp)
            alt=""
            cacheType="immutable"
            height={12}
            host=""
            isFastImage={false}
            onError={[Function]}
            onLoadStart={[Function]}
            onProgress={[Function]}
            priority="normal"
            resizeMode="contain"
            source={
              Object {
                "testUri": "../../../src/assets/images/isNewRedesign/icon-carrot-down.png",
              }
            }
            url=""
            width={12}
          />
        </Styled(View)>
      </ForwardRef>
      <Styled(View)>
        <Styled(CustomButton)
          active={false}
          borderRadius={[Function]}
          buttonSoftDisable={false}
          buttonVariation="variable-width"
          color=""
          customBorderStyle=""
          customIconStyle={Object {}}
          customLeftImageStyle={Object {}}
          customRightImageStyle={Object {}}
          customStyle={Object {}}
          customTextStyle={null}
          disableButton={false}
          disabled={false}
          fill="BLUE"
          fontFamily="secondary"
          fontSize="fs16"
          fontWeight="regular"
          fullWidth=""
          height="46px"
          hitSlop={
            Object {
              "bottom": 0,
              "left": 0,
              "right": 0,
              "top": 0,
            }
          }
          iconColor="gray.800"
          iconFirst={false}
          iconName="chevron-down"
          iconSize="fs12"
          imageAlignLeft={false}
          imageAlignRight={false}
          imageLeftName=""
          imageLeftShow={false}
          imageLeftSize={16}
          imageRightName=""
          imageRightShow={false}
          imageRightSize={16}
          locator=""
          margin="10px 0px 0px"
          navigation={Object {}}
          onPress={[Function]}
          paddings="10px"
          selected={false}
          selectedIcon="chevron-up"
          showBorder={false}
          showIcon={false}
          showShadow={true}
          sizeCharacterLength={0}
          text=""
          textPadding="0px 5px"
          theme={Object {}}
          url=""
          useCustomFontStyle={false}
          withNoLineHeight={false}
          wrapContent={false}
        />
      </Styled(View)>
    </View>
  </Styled(View)>
  <Connect(AddedToBagContainer)
    navigation={
      Object {
        "getParam": [Function],
        "getScreenProps": [Function],
        "setParams": [MockFunction] {
          "calls": Array [
            Array [
              Object {
                "isScrolled": false,
              },
            ],
          ],
          "results": Array [
            Object {
              "type": "return",
              "value": undefined,
            },
          ],
        },
        "state": Object {
          "params": Object {
            "isSBP": true,
          },
        },
      }
    }
  />
</Fragment>
`;

exports[`ProductDetailNew component should render favorite count correctly 1`] = `
<ForwardRef
  accessibilityText=""
  color="gray.900"
  dataLocator="pdp_favorite_icon_count"
  fontSize="fs10"
  fontWeight="regular"
  margin="0px"
  mobileFontFamily="secondary"
  numberOfLines={null}
  text={null}
  textDecoration={null}
/>
`;

exports[`ProductDetailNew component should render selected heart icon correctly 1`] = `
<UNDEFINED
  accessibilityLabel="favorite"
  accessibilityRole="button"
  accessibilityState={
    Object {
      "selected": true,
    }
  }
  onPress={[Function]}
>
  <UNDEFINED
    dataLocator="pdp_favorite_icon"
    source={
      Object {
        "testUri": "../../../src/assets/images/favorites_solid_3x.png",
      }
    }
    style={
      Object {
        "height": 24,
        "width": 24,
      }
    }
  />
</UNDEFINED>
`;

exports[`ProductDetailNew component should render top badge if available correctly 1`] = `
<ForwardRef
  accessibilityText=""
  color="gray.900"
  dataLocator="pdp_product_badges"
  fontFamily="secondary"
  fontSize="fs12"
  fontWeight="regular"
  margin={null}
  numberOfLines={null}
  text="Online"
  textAlign="left"
  textDecoration={null}
/>
`;

exports[`ProductDetailNew component should render unselected heart icon correctly 1`] = `
<UNDEFINED
  accessibilityLabel="set as favorite"
  accessibilityRole="button"
  accessibilityState={
    Object {
      "selected": false,
    }
  }
  onPress={[Function]}
>
  <UNDEFINED
    dataLocator="pdp_favorite_icon"
    source={
      Object {
        "testUri": "../../../src/assets/images/favorites_3x.png",
      }
    }
    style={
      Object {
        "height": 24,
        "width": 24,
      }
    }
  />
</UNDEFINED>
`;
