// Jest Snapshot v1, https://goo.gl/fbAQLP

exports[`CreditCardTextBox component render enableSuccessCheck on validation fail 1`] = `
<View>
  <View>
    <View>
      <Styled(Component)
        isFocused="foo"
      >
        input
      </Styled(Component)>
      <Styled(Component)
        accessibilityLabel="input"
        data-locator="input-field"
        enableSuccessCheck={false}
        error="food"
        id="input"
        keyboardType="default"
        maxLength={16}
        meta={
          Object {
            "error": "food",
            "touched": "foo",
          }
        }
        onBlur={[Function]}
        onEndEditing={[Function]}
        onFocus={[Function]}
        others={
          Object {
            "ariaLabel": "input",
            "cardType": "",
            "customStyle": Object {},
            "dataLocator": "input-field",
            "enableSuccessCheck": false,
            "id": "input",
            "keyboardType": "default",
            "label": "input",
            "maxLength": 16,
            "meta": Object {
              "error": "food",
              "touched": "foo",
            },
            "secureTextEntry": false,
            "showErrorIcon": true,
          }
        }
        returnKeyType="next"
        secureTextEntry={false}
        type="text"
        value="foo"
      />
      <Styled(View)>
        <Styled(ImageComp)
          alt=""
          cacheType="immutable"
          height="25"
          host=""
          isFastImage={false}
          onError={[Function]}
          onLoadStart={[Function]}
          onProgress={[Function]}
          priority="normal"
          resizeMode="contain"
          source={
            Object {
              "testUri": "../../../src/assets/images/visa-small.png",
            }
          }
          url=""
          width="40"
        />
      </Styled(View)>
    </View>
    <Styled(View)>
      <Styled(View)>
        <Styled(View)>
          <Styled(ImageComp)
            alt=""
            cacheType="immutable"
            height="14px"
            host=""
            isFastImage={false}
            onError={[Function]}
            onLoadStart={[Function]}
            onProgress={[Function]}
            priority="normal"
            resizeMode="contain"
            source={
              Object {
                "testUri": "../../../src/assets/images/alert-triangle.png",
              }
            }
            url=""
            width="16px"
          />
        </Styled(View)>
        <Styled(BodyCopy)
          accessibilityText=""
          color="error"
          dataLocator=""
          fontFamily="secondary"
          fontSize="fs12"
          fontWeight="extrabold"
          margin={null}
          numberOfLines={null}
          text="food"
          textDecoration={null}
        />
      </Styled(View)>
    </Styled(View)>
  </View>
</View>
`;

exports[`CreditCardTextBox component render enableSuccessCheck on validation true 1`] = `
<View>
  <View>
    <View>
      <Styled(Component)
        isFocused="foo"
      >
        input
      </Styled(Component)>
      <Styled(Component)
        accessibilityLabel="input"
        data-locator="input-field"
        enableSuccessCheck={true}
        error=""
        id="input"
        keyboardType="default"
        maxLength={16}
        meta={
          Object {
            "error": "",
            "touched": "",
          }
        }
        onBlur={[Function]}
        onEndEditing={[Function]}
        onFocus={[Function]}
        others={
          Object {
            "ariaLabel": "input",
            "cardType": "",
            "customStyle": Object {},
            "dataLocator": "input-field",
            "enableSuccessCheck": true,
            "id": "input",
            "keyboardType": "default",
            "label": "input",
            "maxLength": 16,
            "meta": Object {
              "error": "",
              "touched": "",
            },
            "secureTextEntry": false,
            "showErrorIcon": true,
          }
        }
        returnKeyType="next"
        secureTextEntry={false}
        type="text"
        value="foo"
      />
      <Styled(View)>
        <Styled(ImageComp)
          alt=""
          cacheType="immutable"
          height="25"
          host=""
          isFastImage={false}
          onError={[Function]}
          onLoadStart={[Function]}
          onProgress={[Function]}
          priority="normal"
          resizeMode="contain"
          source={
            Object {
              "testUri": "../../../src/assets/images/visa-small.png",
            }
          }
          url=""
          width="40"
        />
      </Styled(View)>
    </View>
    <Styled(View) />
  </View>
</View>
`;

exports[`CreditCardTextBox component renders correctly 1`] = `
<View>
  <View>
    <View>
      <Styled(Component)
        isFocused="foo"
      >
        input
      </Styled(Component)>
      <Styled(Component)
        accessibilityLabel="input"
        data-locator="input-field"
        enableSuccessCheck={false}
        error=""
        id="input"
        keyboardType="default"
        maxLength={16}
        meta={
          Object {
            "error": "",
            "touched": "",
          }
        }
        onBlur={[Function]}
        onEndEditing={[Function]}
        onFocus={[Function]}
        others={
          Object {
            "ariaLabel": "input",
            "cardType": "",
            "customStyle": Object {},
            "dataLocator": "input-field",
            "enableSuccessCheck": false,
            "id": "input",
            "keyboardType": "default",
            "label": "input",
            "maxLength": 16,
            "meta": Object {
              "error": "",
              "touched": "",
            },
            "secureTextEntry": false,
            "showErrorIcon": true,
          }
        }
        returnKeyType="next"
        secureTextEntry={false}
        type="text"
        value="foo"
      />
      <Styled(View)>
        <Styled(ImageComp)
          alt=""
          cacheType="immutable"
          height="25"
          host=""
          isFastImage={false}
          onError={[Function]}
          onLoadStart={[Function]}
          onProgress={[Function]}
          priority="normal"
          resizeMode="contain"
          source={
            Object {
              "testUri": "../../../src/assets/images/visa-small.png",
            }
          }
          url=""
          width="40"
        />
      </Styled(View)>
    </View>
    <Styled(View) />
  </View>
</View>
`;

exports[`CreditCardTextBox component renders correctly hidden textbox 1`] = `
<View>
  <View>
    <View>
      <Styled(Component)
        isFocused="foo"
      >
        input
      </Styled(Component)>
      <Styled(Component)
        accessibilityLabel="input"
        data-locator="input-field"
        enableSuccessCheck={false}
        error=""
        id="input"
        keyboardType="default"
        maxLength={16}
        meta={
          Object {
            "error": "",
            "touched": "",
          }
        }
        onBlur={[Function]}
        onEndEditing={[Function]}
        onFocus={[Function]}
        others={
          Object {
            "ariaLabel": "input",
            "cardType": "",
            "customStyle": Object {},
            "dataLocator": "input-field",
            "enableSuccessCheck": false,
            "id": "input",
            "keyboardType": "default",
            "label": "input",
            "maxLength": 16,
            "meta": Object {
              "error": "",
              "touched": "",
            },
            "secureTextEntry": false,
            "showErrorIcon": true,
          }
        }
        returnKeyType="next"
        secureTextEntry={false}
        type="hidden"
        value="foo"
      />
      <Styled(View)>
        <Styled(ImageComp)
          alt=""
          cacheType="immutable"
          height="25"
          host=""
          isFastImage={false}
          onError={[Function]}
          onLoadStart={[Function]}
          onProgress={[Function]}
          priority="normal"
          resizeMode="contain"
          source={
            Object {
              "testUri": "../../../src/assets/images/visa-small.png",
            }
          }
          url=""
          width="40"
        />
      </Styled(View)>
    </View>
    <Styled(View) />
  </View>
</View>
`;
