// Jest Snapshot v1, https://goo.gl/fbAQLP

exports[`Create Account Page should render correctly 1`] = `
<View
  className=""
>
  <Styled(Component)
    className=""
    confirmHideShowPwd=""
    createAccountAction={[MockFunction]}
    error={Object {}}
    existingUserInformation={Object {}}
    hideShowPwd=""
    isIAgreeChecked=""
    labels={Object {}}
    loyaltyPageName="account"
    onAlreadyHaveAnAccountClick={[Function]}
    onRequestClose={[Function]}
    showForgotPasswordForm={[Function]}
    toastMessage={[Function]}
    userplccCardId=""
    userplccCardNumber=""
  />
</View>
`;

exports[`Create Account Page should render correctly Forgot Password 1`] = `
<View
  className=""
>
  <Connect(ForgotPasswordContainer)
    labels={Object {}}
    onRequestClose={[Function]}
    resetPassword={true}
    showForgotPasswordForm={[Function]}
    showNewPassword={[Function]}
    toastMessage={[Function]}
    updateHeader={[Function]}
  />
  <Styled(View)>
    <Styled(Component)>
      <Styled(BodyCopy)
        accessibilityText=""
        color="gray.900"
        dataLocator=""
        fontFamily="secondary"
        fontSize="fs12"
        fontWeight="regular"
        margin={null}
        numberOfLines={null}
        text="lbl_login_createAccountHelp_1"
        textDecoration={null}
      />
      <Styled(BodyCopy)
        accessibilityText=""
        color="gray.900"
        dataLocator=""
        fontFamily="secondary"
        fontSize="fs12"
        fontWeight="regular"
        margin={null}
        numberOfLines={null}
        text="lbl_login_createAccountHelp_2"
        textDecoration={null}
      />
    </Styled(Component)>
    <Styled(CustomButton)
      active={false}
      buttonVariation="fixed-width"
      color="#575757"
      customBorderStyle=""
      customIconStyle={Object {}}
      customStyle={Object {}}
      customTextStyle={null}
      data-locator=""
      disableButton={false}
      fill="WHITE"
      fontFamily=""
      fontSize=""
      fontWeight=""
      fullWidth=""
      iconColor="gray.800"
      iconFirst={false}
      iconName="chevron-down"
      iconSize="fs12"
      locator=""
      navigation={Object {}}
      onPress={[Function]}
      paddings="12px 32px 12px 32px"
      selected={false}
      selectedIcon="chevron-up"
      showIcon={false}
      text="lbl_login_createAccountCTA"
      theme={Object {}}
      type="submit"
      url=""
      useCustomFontStyle={false}
      withNoLineHeight={false}
    />
  </Styled(View)>
</View>
`;

exports[`Create Account Page should render correctly OTP Forgot Password view 1`] = `
<View
  className=""
>
  <Connect(ForgotPasswordContainer)
    isResetPassCodeValidationEnabled={true}
    labels={[Function]}
    onRequestClose={[Function]}
    resetPassword={true}
    showForgotPasswordForm={[Function]}
    showNewPassword={[Function]}
    toastMessage={[Function]}
    updateHeader={[Function]}
  />
</View>
`;
