// Jest Snapshot v1, https://goo.gl/fbAQLP

exports[`PageHeadingWithLinks native View should empty render correctly 1`] = `
<View>
  <Styled(Component)
    noTopPadding={false}
  >
    <Styled(BodyCopy)
      accessibilityText=""
      dataLocator="Page_Heading_link_header"
      fontSize="fs16"
      fontWeight="extrabold"
      margin={null}
      numberOfLines={null}
      text=""
      textDecoration={null}
    />
  </Styled(Component)>
  <Styled(LineComp)
    borderColor="black"
    borderWidth={1}
    marginBottom={28}
    marginLeft={0}
    marginRight={0}
    marginTop={0}
  />
  <Styled(View)>
    <Connect(withNavigation(ContentLink))
      anchorVariation="primary"
      dataLocator="my-rewards-program-details"
      fontSizeVariation="medium"
      text=""
      underline={true}
      urlKey="lbl_rewardprogram_link"
    />
    <Styled(View)>
      <Connect(withNavigation(ContentLink))
        anchorVariation="primary"
        dataLocator="my-rewards-tnc"
        fontSizeVariation="medium"
        text=""
        underline={true}
        urlKey="lbl_termcondition_link"
      />
    </Styled(View)>
  </Styled(View)>
</View>
`;

exports[`PageHeadingWithLinks native View should render correctly 1`] = `
<View>
  <Styled(Component)
    noTopPadding={false}
  >
    <Styled(BodyCopy)
      accessibilityText=""
      dataLocator="Page_Heading_link_header"
      fontSize="fs16"
      fontWeight="extrabold"
      margin={null}
      numberOfLines={null}
      text="Test"
      textDecoration={null}
    />
  </Styled(Component)>
  <Styled(LineComp)
    borderColor="black"
    borderWidth={1}
    marginBottom={28}
    marginLeft={0}
    marginRight={0}
    marginTop={0}
  />
  <Styled(View)>
    <Connect(withNavigation(ContentLink))
      anchorVariation="primary"
      dataLocator="my-rewards-program-details"
      fontSizeVariation="medium"
      text="test"
      underline={true}
      urlKey="lbl_rewardprogram_link"
    />
    <Styled(View)>
      <Connect(withNavigation(ContentLink))
        anchorVariation="primary"
        dataLocator="my-rewards-tnc"
        fontSizeVariation="medium"
        text="test"
        underline={true}
        urlKey="lbl_termcondition_link"
      />
    </Styled(View)>
  </Styled(View)>
</View>
`;
