// Jest Snapshot v1, https://goo.gl/fbAQLP

exports[`Logout container should render logout view section 1`] = `
<Styled(LogOutView)
  accountDrawer={false}
  labels={
    Object {
      "CREATE_ACC_SIGN_OUT": "hello",
    }
  }
  triggerLogout={[MockFunction]}
  underline={false}
/>
`;
