// Jest Snapshot v1, https://goo.gl/fbAQLP

exports[`EmptyBirthdayCard should render correctly for edit view 1`] = `
<div
  className="test"
>
  <Styled(BodyCopy)
    className="emptyBirthdayCard emptyBirthdayCard__active"
    color="text.primary"
    component="div"
    customStyle={Object {}}
    fontFamily="primary"
    fontSize={12}
    fontWeight="regular"
    letterSpacing="normal"
    lineHeight="normal"
    link={null}
    textAlign="center"
  >
    <div>
      <Styled(BodyCopy)
        className="elem-mr-XXS"
        color="text.primary"
        component="span"
        customStyle={Object {}}
        fontFamily="primary"
        fontSize="fs14"
        fontWeight="regular"
        letterSpacing="normal"
        lineHeight="normal"
        link={null}
        textAlign="left"
      >
        +
      </Styled(BodyCopy)>
      <Styled(Anchor)
        anchorVariation="primary"
        data-locator="addAChildLnk"
        fontSizeVariation="large"
        noLink={true}
        onClick={[Function]}
        underline={true}
      >
        lbl_profile_addChildBirthdayCta
      </Styled(Anchor)>
    </div>
  </Styled(BodyCopy)>
</div>
`;

exports[`EmptyBirthdayCard should render correctly for read view as well 1`] = `
<div
  className="test"
>
  <Styled(BodyCopy)
    className="emptyBirthdayCard emptyBirthdayCard__active"
    color="text.primary"
    component="div"
    customStyle={Object {}}
    fontFamily="primary"
    fontSize={12}
    fontWeight="regular"
    letterSpacing="normal"
    lineHeight="normal"
    link={null}
    textAlign="center"
  />
</div>
`;

exports[`EmptyBirthdayCard should render correctly for selected box 1`] = `
<div
  className="test"
>
  <Styled(BodyCopy)
    className="emptyBirthdayCard emptyBirthdayCard__active"
    color="text.primary"
    component="div"
    customStyle={Object {}}
    fontFamily="primary"
    fontSize={12}
    fontWeight="regular"
    letterSpacing="normal"
    lineHeight="normal"
    link={null}
    textAlign="center"
  />
</div>
`;
