// Jest Snapshot v1, https://goo.gl/fbAQLP

exports[`ReviewPageVanilla component should renders correctly props not present 1`] = `
<Fragment>
  <form
    id="expressReviewPage"
    name="expressReviewPage"
  >
    <Styled(CheckoutSectionTitleDisplay)
      dataLocator="review-title"
    />
    <[object Object] />
    <FormSection
      name="expressReviewShippingSection"
    />
    <Connect(BillingSectionContainer)
      afterPayInProgress={false}
      bagLoading={false}
      checkoutRoutingDone={true}
      isExpressCheckout={false}
    />
    <Connect(CheckoutCartItemList)
      bagLoading={false}
      checkoutRoutingDone={true}
      disableProductRedirect={true}
    />
    <Styled(CheckoutOrderInfo)
      fullPageInfo={true}
      isCheckoutFlow={true}
      pageCategory=""
      showAccordian={true}
    />
    <Styled(CheckoutFooter)
      afterPayMaxOrderAmount={1000}
      afterPayMinOrderAmount={30}
      appliedExpiredCoupon={Array []}
      backLinkHandler={[Function]}
      bagLoading={false}
      disableNext={false}
      footerBody={
        Array [
          undefined,
          <ForwardRef(Styled(Anchor))
            dataLocator="termAndConditionText"
            onClick={[Function]}
            to="/#"
            underline={true}
          />,
          undefined,
          <ForwardRef(Styled(Anchor))
            dataLocator="PrivacyText"
            onClick={[Function]}
            to="/#"
            underline={true}
          />,
        ]
      }
      hideBackLink={true}
      orderBalanceTotal={0}
      pageCategory=""
      pageName=""
      showCheckoutWithAfterPay={false}
      submitForm="expressReviewPage"
      submitOrderRichText={null}
      trackClickAfterPay={[Function]}
    />
  </form>
  <Connect(Styled(AddressVerification))
    fromReviewPage={true}
    onEditAddressClick={[Function]}
    onError={[Function]}
    onSuccess={[Function]}
  />
</Fragment>
`;

exports[`ReviewPageVanilla component should renders correctly when not routing done  1`] = `
<Fragment>
  <form
    id="expressReviewPage"
    name="expressReviewPage"
  >
    <Styled(CheckoutSectionTitleDisplay)
      dataLocator="review-title"
    />
    <div
      className="review-pickup"
    >
      <Connect(PickUpReviewContainer)
        bagLoading={false}
        checkoutRoutingDone={false}
        isExpressCheckout={false}
        onEdit={[Function]}
      />
    </div>
    <FormSection
      name="expressReviewShippingSection"
    />
    <Connect(BillingSectionContainer)
      afterPayInProgress={false}
      bagLoading={false}
      checkoutRoutingDone={false}
      isExpressCheckout={false}
    />
    <Connect(CheckoutCartItemList)
      bagLoading={false}
      checkoutRoutingDone={false}
      disableProductRedirect={true}
    />
    <Styled(CheckoutOrderInfo)
      fullPageInfo={true}
      isCheckoutFlow={true}
      pageCategory=""
      showAccordian={true}
    />
    <Styled(CheckoutFooter)
      afterPayMaxOrderAmount={1000}
      afterPayMinOrderAmount={30}
      appliedExpiredCoupon={Array []}
      backLinkHandler={[Function]}
      bagLoading={false}
      disableNext={false}
      footerBody={
        Array [
          undefined,
          <ForwardRef(Styled(Anchor))
            dataLocator="termAndConditionText"
            onClick={[Function]}
            to="/#"
            underline={true}
          />,
          undefined,
          <ForwardRef(Styled(Anchor))
            dataLocator="PrivacyText"
            onClick={[Function]}
            to="/#"
            underline={true}
          />,
        ]
      }
      hideBackLink={true}
      orderBalanceTotal={0}
      pageCategory=""
      pageName=""
      showCheckoutWithAfterPay={false}
      submitForm="expressReviewPage"
      submitOrderRichText={null}
      trackClickAfterPay={[Function]}
    />
  </form>
  <Connect(Styled(AddressVerification))
    fromReviewPage={true}
    onEditAddressClick={[Function]}
    onError={[Function]}
    onSuccess={[Function]}
  />
</Fragment>
`;

exports[`ReviewPageVanilla component should renders correctly when order has shipping  1`] = `
<Fragment>
  <form
    id="expressReviewPage"
    name="expressReviewPage"
  >
    <Styled(CheckoutSectionTitleDisplay)
      dataLocator="review-title"
    />
    <FormSection
      name="expressReviewShippingSection"
    >
      <div
        className="review-shipping"
      >
        <Connect(ShippingReviewContainer)
          bagLoading={false}
          checkoutRoutingDone={false}
          formName="expressReviewPage"
          formSection="expressReviewShippingSection"
          isExpressCheckout={false}
          onEdit={[Function]}
        />
      </div>
    </FormSection>
    <Connect(BillingSectionContainer)
      afterPayInProgress={false}
      bagLoading={false}
      checkoutRoutingDone={false}
      isExpressCheckout={false}
    />
    <Connect(CheckoutCartItemList)
      bagLoading={false}
      checkoutRoutingDone={false}
      disableProductRedirect={true}
    />
    <Styled(CheckoutOrderInfo)
      fullPageInfo={true}
      isCheckoutFlow={true}
      pageCategory=""
      showAccordian={true}
    />
    <Styled(CheckoutFooter)
      afterPayMaxOrderAmount={1000}
      afterPayMinOrderAmount={30}
      appliedExpiredCoupon={Array []}
      backLinkHandler={[Function]}
      bagLoading={false}
      disableNext={false}
      footerBody={
        Array [
          undefined,
          <ForwardRef(Styled(Anchor))
            dataLocator="termAndConditionText"
            onClick={[Function]}
            to="/#"
            underline={true}
          />,
          undefined,
          <ForwardRef(Styled(Anchor))
            dataLocator="PrivacyText"
            onClick={[Function]}
            to="/#"
            underline={true}
          />,
        ]
      }
      hideBackLink={true}
      orderBalanceTotal={0}
      pageCategory=""
      pageName=""
      showCheckoutWithAfterPay={false}
      submitForm="expressReviewPage"
      submitOrderRichText={null}
      trackClickAfterPay={[Function]}
    />
  </form>
  <Connect(Styled(AddressVerification))
    fromReviewPage={true}
    onEditAddressClick={[Function]}
    onError={[Function]}
    onSuccess={[Function]}
  />
</Fragment>
`;
