// Jest Snapshot v1, https://goo.gl/fbAQLP

exports[`AccountDrawerHeading should render correctly 1`] = `
<div
  className=" elem-pl-MED elem-pr-MED elem-pt-LRG elem-pb-LRG"
>
  <span>
    <Styled(Image)
      src="undefined/ecom/assets/static/icon/user-icon.png"
    />
    <span
      className="userName"
    />
  </span>
  <span
    className="viewAccAnchor"
    role="link"
    tabIndex={-1}
  >
    <Styled(Anchor)
      anchorVariation="primary"
      asPath="/account"
      fontSizeVariation="medium"
      text="lbl_acc_drawer_view_my_acc"
      to="/account?id=account-overview"
      underline={true}
    />
  </span>
</div>
`;
