// Jest Snapshot v1, https://goo.gl/fbAQLP

exports[`#ThemeWrapper.container should render correctly 1`] = `
<ThemeProvider
  appType="tcp"
  theme={
    Object {
      "brand": "tcp",
      "breakpoints": Object {
        "keys": Array [
          "xs",
          "sm",
          "lg",
        ],
        "large": "1200px",
        "largeMax": "1439px",
        "maxWidth": 1440,
        "medium": "768px",
        "mediumMax": "1199px",
        "small": "360px",
        "smallMax": "767px",
        "values": Object {
          "lg": 1200,
          "sm": 768,
          "xs": 0,
        },
        "xlarge": "1440px",
      },
      "colorPalette": Object {
        "BUTTON": Object {
          "BLACK": Object {
            "ALT_FOCUS": "#ffffff",
            "ALT_HOVER": "#ffffff",
            "BORDER": "#1a1a1a",
            "FOCUS": "#595959",
            "HOVER": "#595959",
            "NORMAL": "#1a1a1a",
            "TEXT": "#ffffff",
          },
          "BLUE": Object {
            "ALT_FOCUS": "#1f4862",
            "ALT_HOVER": "#1f4862",
            "BORDER": "#2e6a91",
            "FOCUS": "#1f4862",
            "HOVER": "#1f4862",
            "NORMAL": "#2e6a91",
            "TEXT": "#fff",
          },
          "RED": Object {
            "ALT_FOCUS": "#e19999",
            "ALT_HOVER": "#e19999",
            "BORDER": "#c84747",
            "FOCUS": "#e19999",
            "HOVER": "#f3d7d7",
            "NORMAL": "#ffffff",
            "TEXT": "#c84747",
          },
          "WHITE": Object {
            "ALT_FOCUS": "#e2ecf3",
            "ALT_HOVER": "#f2f9fe",
            "BORDER": "#9B9B9B",
            "FOCUS": "#d8d8d8",
            "HOVER": "#f3f3f3",
            "NORMAL": "#ffffff",
            "TEXT": "#595959",
          },
        },
        "black": "#000",
        "blue": Object {
          "100": "#dbebf8",
          "1000": "#439ad4",
          "1100": "#71c1e6",
          "200": "#254f6e",
          "300": "#93c5ea",
          "50": "#edf5fb",
          "500": "#4b9fdd",
          "600": "#1ba5e0",
          "700": "#3c7fb0",
          "800": "#254f6e",
          "900": "#162f42",
          "A100": "#5e9ed6",
          "B100": "#00A7E0",
          "C900": "#003057",
          "D100": "#2AA9DD",
          "E100": "#164b88",
          "G100": "#2e6a91",
        },
        "error": "#c8102e",
        "gray": Object {
          "1000": "#6d7278",
          "1100": "#4a4a4a",
          "1200": "#eeeeee",
          "1300": "#9c9c9c",
          "1400": "#90939b",
          "1500": "#c3c3c3",
          "1600": "#979797",
          "1700": "#333333",
          "1800": "#f1f0f0",
          "1900": "#4c4848",
          "2000": "#e6e6e6",
          "2100": "#111111",
          "2200": "#c5c5c5",
          "2300": "#848484",
          "2400": "#c4c4c4",
          "2500": "#254f6e",
          "2600": "#8f4300",
          "2700": "#e3e3e3",
          "2800": "#c6c6c6",
          "300": "#f3f3f3",
          "400": "#4a4a4a",
          "500": "#d8d8d8",
          "600": "#9b9b9b",
          "700": "#575757",
          "800": "#595959",
          "900": "#1a1a1a",
        },
        "green": Object {
          "200": "#d8edca",
          "300": "#7dc24c",
          "400": "#4b742d",
          "500": "#26762c",
          "600": "#19711f",
          "700": "#3c7f2e",
        },
        "newpurple": "#C7389C",
        "orange": Object {
          "100": "#fdead2",
          "1000": "#dd7f4e",
          "300": "#fbd5a5",
          "50": "#fef4e8",
          "500": "#fac078",
          "700": "#f9b662",
          "800": "#f7971f",
          "900": "#c25621",
        },
        "pink": Object {
          "400": "#f78cc6",
          "500": "#df4b9a",
          "600": "#d564a1",
        },
        "primary": Object {
          "dark": "#3c7fb0",
          "light": "#93c5ea",
          "main": "#4b9fdd",
          "navyBlue": "#162f42",
        },
        "purple": "#b976cc",
        "purpleCollection": Object {
          "100": "#dbd9ff",
          "300": "#beb3ff",
          "50": "#ededfc",
          "500": "#a189ff",
          "700": "#7b6cd3",
          "800": "#7247b5",
          "900": "#5c2c8f",
        },
        "red": Object {
          "100": "#f3d7d7",
          "200": "#f3d7d7",
          "300": "#c84747",
          "400": "#f53d3d",
          "500": "#c8102e",
          "600": "#c01f1f",
          "700": "#3f3356",
          "800": "#c70202",
          "900": "#f4cfd5",
        },
        "secondary": Object {
          "dark": "#c84747",
          "light": "#f3d7d7",
          "main": "#c84747",
        },
        "success": "#26762c",
        "text": Object {
          "darkgray": "#595959",
          "disabled": "#d8d8d8",
          "hint": "#9b9b9b",
          "lightgray": "#f3f3f3",
          "primary": "#1a1a1a",
          "secondary": "#575757",
        },
        "userTheme": Object {
          "mpr": "#f7971f",
          "mprLight": "#fdead2",
          "mprPrimary": "#fbd5a5",
          "noMprPlcc": "#6d7278",
          "plcc": "#00A7E0",
          "plccLight": "#dbebf8",
        },
        "venmoBorder": "#2c2e2f",
        "white": "#fff",
        "yellow": Object {
          "500": "#ffe700",
          "600": "#f6d343",
          "700": "#f79e1b",
        },
      },
      "colors": Object {
        "ACCORDION": Object {
          "ACTIVE_HEADER": "#f7f7f7",
          "COLLAPSE_EXPAND_ICON": "#9b9b9b",
          "INACTIVE_HEADER": "#e5e5e5",
          "TEXT": "#1a1a1a",
        },
        "AFTERPAY": Object {
          "MINT": "#b2fce4",
        },
        "ANCHOR": Object {
          "GRAYED": "#9b9b9b",
          "LIGHT_GRAY": "#595959",
          "PRIMARY": "#1a1a1a",
          "SECONDARY": "#2e6a91",
          "TERTIARY": "#c84747",
        },
        "BLACK": "#000000",
        "BORDER": Object {
          "BLUE": "#2e6a91",
          "GRAY": "#e3e3e3",
          "NORMAL": "#979797",
        },
        "BOX_SHADOW_LIGHT": "rgba(0, 0, 0, 0.1)",
        "BRAND": Object {
          "BOYS": "#e76829",
          "GIRLS": "#ce43a6",
          "PRIMARY": "#4b9fdd",
        },
        "BUTTON": Object {
          "BLACK": Object {
            "ALT_FOCUS": "#ffffff",
            "ALT_HOVER": "#ffffff",
            "BORDER": "#1a1a1a",
            "FOCUS": "#595959",
            "HOVER": "#595959",
            "NORMAL": "#1a1a1a",
            "TEXT": "#ffffff",
          },
          "BLUE": Object {
            "ALT_FOCUS": "#1f4862",
            "ALT_HOVER": "#1f4862",
            "BORDER": "#2e6a91",
            "FOCUS": "#1f4862",
            "HOVER": "#1f4862",
            "NEW_FILTER_BTN": "#254f6e",
            "NORMAL": "#2e6a91",
            "TEXT": "#fff",
          },
          "RED": Object {
            "ALT_FOCUS": "#e19999",
            "ALT_HOVER": "#e19999",
            "BORDER": "#c84747",
            "FOCUS": "#e19999",
            "HOVER": "#f3d7d7",
            "NORMAL": "#ffffff",
            "TEXT": "#c84747",
          },
          "WHITE": Object {
            "ALT_FOCUS": "#e2ecf3",
            "ALT_HOVER": "#f2f9fe",
            "BORDER": "#979797",
            "FOCUS": "#d8d8d8",
            "HOVER": "#f3f3f3",
            "NORMAL": "#ffffff",
            "TEXT": "#4a4a4a",
          },
        },
        "BUTTON_HOVER": "rgba(24, 24, 24, 0.8)",
        "CHECKBOX": Object {
          "BORDER": "#575757",
          "CHECKED_BORDER": "#1a1a1a",
          "TICK_COLOR": "#fff",
        },
        "COUNT_ICON_DISABLE": "rgba(0, 0, 0, 0.3)",
        "CULTURED": "#f4f4f4",
        "CUSTOM": Object {
          "ORDER_SUCCESS": "#137b17",
        },
        "DEFAULT_ACCENT_GYM": "#f7971f",
        "DEFAULT_ACCENT_TCP": "#c0e9f9",
        "DISABLED_BG": "rgba(239, 239, 239, 0.3)",
        "EMPTY_CART_BOX": "rgba(0, 0, 0, 0.07)",
        "FOOTER": Object {
          "DIVIDER": "#c3c3c3",
        },
        "GHOST_OVERLAY": "rgba(255, 255, 255, 0.9)",
        "HP_BG_COLOR": "#efefef",
        "MODAL_OVERLAY": "rgba(0, 0, 0, 0.6)",
        "NAVIGATION": Object {
          "CIRCULAR_BORDER": "#6b6b6b",
          "GREEN": "#93DE6E",
          "L1_BACKGROUND": "#f6f6f6",
          "YELLOW": "#FFE600",
        },
        "NEWDESIGN_BOX_SHADOW_1": "rgba(0, 0, 0, 0.25)",
        "NEWDESIGN_BOX_SHADOW_2": "rgba(37, 79, 110, 0.2)",
        "NEWDESIGN_BOX_SHADOW_3": "rgba(0, 0, 0, 0.12)",
        "NOTIFICATION": Object {
          "ERROR": "#c8102e",
          "SUCCESS": "#26762c",
        },
        "PLCC_BACKGROUND": "#00a7e0",
        "PRIMARY": Object {
          "BLUE": "#2e6a91",
          "COLOR1": "#edf5fb",
          "COLOR2": "#dbebf8",
          "COLOR3": "#3b7cab",
          "DARK": "#1a1a1a",
          "DARKBLUE": "#162f42",
          "GRAY": "#9b9b9b",
          "GREEN": "#7dc24c",
          "GYMORANGE": "#f7971f",
          "LIGHTBLUE": "#21a9e2",
          "LIGHTERGRAY": "#e3e3e3",
          "LIGHTGRAY": "#d8d8d8",
          "NAVY": "#24465e",
          "PALEBLUE": "#ebf7ff",
          "PALEGRAY": "#f3f3f3",
        },
        "PRODUCT_TILE_SHADOW": "rgba(146, 146, 146,.5)",
        "PROMO": Object {
          "BLUE": "#3C7FB0",
          "FUCHSIA": "#ff3db4",
          "ORANGE": "#F06D22",
          "PINK": "#e2499a",
          "PLCCBLUE": "#018cc9",
          "PLCCBLUELIGHT": "#44b8e7",
          "PURPLE": "#b976cc",
          "RED": "#ED0505",
          "YELLOW": "#F6D343",
        },
        "RECOMMENDATION_BANNER": Object {
          "PLP": "#e8e4db",
        },
        "REWARDS": Object {
          "NON_PLCC": "#F7971F",
          "PLACE_CASH": "#7EE475",
          "PLACE_CASH_BACKGROUND": "#ECFFEA",
          "PLCC": "#00A7E0",
        },
        "REWARDS_OVERLAY": "rgba(25, 25, 25, 0.7)",
        "TEXT": Object {
          "BLUE": "#2e6a91",
          "BRANDGRAY": "#737373",
          "DARK": "#1a1a1a",
          "DARKBLUE": "#162f42",
          "DARKERBLUE": "#439ad4",
          "DARKERGRAY": "#595959",
          "DARKGRAY": "#575757",
          "GRAY": "#9b9b9b",
          "GREEN": "#7dc24c",
          "LIGHTERGRAY": "#e3e3e3",
          "LIGHTGRAY": "#d8d8d8",
          "PALEGRAY": "#f9f9f9",
          "PINK": "#e19999",
          "RED": "#c84747",
        },
        "TEXTBOX": Object {
          "BACKGROUND": "#f2f2f2",
          "COLOR": "#1a1a1a",
          "ERROR_BORDER": "#c84747",
          "FOCUS_BORDER": "#439ad4",
          "SUCCESS_BORDER": "#6dc927",
        },
        "TRANSLUCENT": "#ffffffcc",
        "TRANSPARENT": "#ffffff99",
        "VENMO": "#3d95ce",
        "WARNING_BACKGROUND": "#f3f0f0",
        "WHITE": "#ffffff",
        "WHITE_ALPHA": "rgba(255, 255, 255, 0.88)",
      },
      "fonts": Object {
        "fontSize": Object {
          "anchor": Object {
            "large": 14,
            "medium": 12,
            "small": 10,
            "xlarge": 16,
          },
          "body": Object {
            "bodytext": Object {
              "copy1": 10,
              "copy10": 32,
              "copy11": 36,
              "copy12": 42,
              "copy13": 48,
              "copy2": 12,
              "copy3": 14,
              "copy4": 16,
              "copy5": 18,
              "copy6": 20,
              "copy7": 22,
              "copy8": 24,
              "copy9": 28,
              "copy_small": 8,
            },
            "large": Object {
              "primary": 10,
              "secondary": 13,
              "tertiary": 11,
            },
            "small": Object {
              "primary": 10,
              "secondary": 12,
              "tertiary": 11,
            },
          },
          "button": Object {
            "size": 14,
          },
          "heading": Object {
            "large": Object {
              "h1": 64,
              "h2": 48,
              "h3": 36,
              "h4": 28,
              "h5": 28,
              "h6": 16,
            },
            "small": Object {
              "h1": 48,
              "h2": 32,
              "h3": 24,
              "h4": 18,
              "h5": 18,
              "h6": 16,
            },
          },
          "listmenu": Object {
            "large": 14,
            "small": 13,
          },
          "nav": 15,
          "promo1": Object {
            "large": 15,
            "small": 15,
          },
          "promo2": Object {
            "large": 14,
            "small": 11,
          },
          "textbox": 13,
          "textbox_input": 16,
        },
        "fontWeight": Object {
          "black": "900",
          "bold": "700",
          "extrabold": "800",
          "light": "300",
          "medium": "500",
          "normal": "400",
          "semiBold": "600",
        },
        "letterSpacing": Object {
          "medium": "1px",
          "normal": "normal",
          "wide": "2px",
        },
        "lineHeight": Object {
          "medium": 1.15,
          "normal": "normal",
          "snug": 1,
          "tight": 1.07,
        },
        "nunitoBold": "Nunito-Bold",
        "nunitoExtraBold": "Nunito-ExtraBold",
        "primaryFontBlackFamily": "Montserrat-Black, Arial, Helvetica, sans-serif",
        "primaryFontExtraBoldFamily": "Montserrat-ExtraBold , Arial, Helvetica, sans-serif",
        "primaryFontFamily": "Montserrat, Arial, Helvetica, sans-serif",
        "primaryFontSemilBoldFamily": "Montserrat-SemiBold , Arial, Helvetica, sans-serif",
        "quaternary": "Tofino Wide",
        "quinary": "TCPSansRegular-Normal",
        "secondaryFontBlackFamily": "Nunito-Black, Arial, Helvetica, sans-serif",
        "secondaryFontExtraBoldFamily": "Nunito-ExtraBold, Arial, Helvetica, sans-serif",
        "secondaryFontFamily": "Nunito, Arial, Helvetica, sans-serif",
        "secondaryFontSemilBoldFamily": "Nunito-SemiBold, Arial, Helvetica, sans-serif",
        "tertiary": "Tofino Cond",
      },
      "gridDimensions": Object {
        "availableMaxWidthObj": Object {
          "large": 998,
          "medium": 740,
          "small": 347,
        },
        "columnGutterObj": Object {
          "large": 22,
          "medium": 30,
          "small": 19,
        },
        "columnWidthObj": Object {
          "large": 63,
          "medium": 66,
          "small": 42,
        },
        "gridBreakPointsKeys": Array [
          "small",
          "medium",
          "large",
        ],
        "gridOffsetObj": Object {
          "large": 13,
          "medium": 15,
          "small": 14,
        },
        "numberOfColumnsObj": Object {
          "large": 12,
          "medium": 8,
          "small": 6,
        },
      },
      "isGymboree": false,
      "mediaQuery": Object {
        "large": "(min-width: 1200px)",
        "largeMax": "(max-width: 1439px)",
        "largeOnly": "
    (min-width: 1200px)
    and
    (max-width: 1439px)
  ",
        "medium": "(min-width: 768px)",
        "mediumMax": "(max-width: 1199px)",
        "mediumOnly": "
    (min-width: 768px)
    and
    (max-width: 1199px)
  ",
        "mediumOnlyPortrait": "
    (min-width: 768px)
    and
    (max-width: 1199px)
    and
    (orientation: portrait)
  ",
        "small": "(min-width: 360px)",
        "smallMax": "(max-width: 767px)",
        "smallOnly": "
    (min-width: 360px)
    and
    (max-width: 767px)
  ",
        "xlarge": "(min-width: 1440px)",
      },
      "opacity": Object {
        "opacity": Object {
          "high": 0.8,
          "low": 0.3,
          "medium": 0.5,
        },
      },
      "shadow": Object {
        "NEW_DESIGN": Object {
          "BOX_SHADOW": "0 10px 10px rgba(0,0,0,0.1)",
        },
      },
      "spacing": Object {
        "APP_LAYOUT_SPACING": Object {
          "SM": "30px",
          "XS": "20px",
          "XXS": "10px",
        },
        "CREDIT_CARD_ICON_WIDTH": "50px",
        "ELEM_SPACING": Object {
          "LRCX": "25px",
          "LRG": "24px",
          "LRG_1": "28px",
          "LRG_2": "30px",
          "MED": "16px",
          "MED_1": "18px",
          "MED_2": "22px",
          "REG": "14px",
          "SM": "12px",
          "XL": "32px",
          "XS": "8px",
          "XS_6": "6px",
          "XXL": "40px",
          "XXM": "5px",
          "XXML": "38px",
          "XXS": "4px",
          "XXXL": "48px",
          "XXXS": "2px",
        },
        "FORM_FIELD_HEIGHT": "70px",
        "LAYOUT_SPACING": Object {
          "LRG": "64px",
          "LRGS": "110px",
          "MED": "48px",
          "SM": "32px",
          "XL": "96px",
          "XS": "24px",
          "XXL": "160px",
          "XXS": "16px",
          "XXXL": "320px",
        },
        "MODAL_WIDTH": Object {
          "MEDIUM": "600px",
          "SMALL": "458px",
        },
        "MODULE_SPACING": Object {
          "MED": "30px",
        },
      },
      "typography": Object {
        "androidFonts": Object {
          "primary": "tofino",
          "quaternary": "tofinowide",
          "quinary": "TCPSansRegular-Normal",
          "secondary": "nunito",
          "tertiary": "tofinocond",
        },
        "fontSizes": Object {
          "fs10": "10px",
          "fs11": "11px",
          "fs12": "12px",
          "fs13": "13px",
          "fs14": "14px",
          "fs15": "15px",
          "fs16": "16px",
          "fs18": "18px",
          "fs20": "20px",
          "fs21": "21px",
          "fs22": "22px",
          "fs24": "24px",
          "fs25": "25px",
          "fs26": "26px",
          "fs28": "28px",
          "fs30": "30px",
          "fs32": "32px",
          "fs36": "36px",
          "fs38": "38px",
          "fs40": "40px",
          "fs42": "42px",
          "fs48": "48px",
          "fs52": "52px",
          "fs60": "60px",
          "fs62": "62px",
          "fs64": "64px",
          "fs8": "8px",
          "fs9": "9px",
        },
        "fontWeights": Object {
          "black": "900",
          "bold": "700",
          "extrabold": "800",
          "light": "300",
          "medium": "500",
          "regular": "400",
          "semibold": "600",
        },
        "fontWeightsNames": Object {
          "black": "Black",
          "bold": "Bold",
          "extrabold": "ExtraBold",
          "light": "Light",
          "medium": "Medium",
          "regular": "Regular",
          "semiBold": "SemiBold",
          "semibold": "SemiBold",
        },
        "fonts": Object {
          "primary": "Tofino",
          "secondary": "Nunito",
        },
        "h1": Object {
          "fontFamily": "primary",
          "fontSize": Array [
            "fs48",
            "fs48",
            "fs64",
          ],
          "fontWeight": "black",
          "letterSpacing": "normal",
          "lineHeight": "normal",
        },
        "h2": Object {
          "fontFamily": "primary",
          "fontSize": Array [
            "fs32",
            "fs32",
            "fs48",
          ],
          "fontWeight": "black",
          "letterSpacing": "normal",
          "lineHeight": "normal",
        },
        "h3": Object {
          "fontFamily": "primary",
          "fontSize": Array [
            "fs20",
            "fs20",
            "fs36",
          ],
          "fontWeight": "black",
          "letterSpacing": Array [
            "ls167",
            "ls167",
            "ls271",
          ],
          "lineHeight": "normal",
        },
        "h4": Object {
          "fontFamily": "primary",
          "fontSize": Array [
            "fs20",
            "fs20",
            "fs32",
          ],
          "fontWeight": "semibold",
          "letterSpacing": Array [
            "ls222",
            "ls222",
            "ls257",
          ],
          "lineHeight": "normal",
        },
        "h5": Object {
          "fontFamily": "primary",
          "fontSize": Array [
            "fs14",
            "fs16",
            "fs20",
          ],
          "fontWeight": "normal",
          "letterSpacing": "normal",
          "lineHeight": "normal",
        },
        "h6": Object {
          "fontFamily": "secondary",
          "fontSize": "fs16",
          "fontWeight": "semibold",
          "letterSpacing": "normal",
          "lineHeight": "normal",
        },
        "iosFonts": Object {
          "primary": "Tofino",
          "quaternary": "Tofino Wide",
          "quinary": "TCPSansRegular-Normal",
          "secondary": "Nunito",
          "tertiary": "Tofino Cond",
        },
        "letterSpacings": Object {
          "ls02": "0.2px",
          "ls038": "0.38px",
          "ls05": "0.5px",
          "ls064": "0.64px",
          "ls071": "0.71px",
          "ls1": "1px",
          "ls167": "1.67px",
          "ls2": "2px",
          "ls222": "2.22px",
          "ls257": "2.57px",
          "ls271": "2.71px",
          "ls317": "3.17px",
          "ls400": "4px",
          "normal": "normal",
        },
        "lineHeights": Object {
          "lh1": "1",
          "lh107": "1.07",
          "lh115": "1.15",
          "lh125": "1.25",
          "normal": "normal",
        },
        "listMenu": Object {
          "fontFamily": "secondary",
          "fontSize": "fs14",
          "fontWeight": "semibold",
          "letterSpacing": "normal",
          "lineHeight": Array [
            "lh115",
            "lh115",
            "lh107",
          ],
        },
        "nav": Object {
          "fontFamily": "secondary",
          "fontSize": "fs15",
          "fontWeight": "semibold",
          "letterSpacing": "normal",
          "lineHeight": "normal",
        },
        "navMinified": Object {
          "fontFamily": "secondary",
          "fontSize": "fs13",
          "fontWeight": "semibold",
          "letterSpacing": "normal",
          "lineHeight": Array [
            "lh115",
            "lh115",
            "lh107",
          ],
        },
        "textAligns": Object {
          "center": "center",
          "left": "left",
          "right": "right",
        },
      },
      "zindex": Object {
        "zCondensedHeader": 1100,
        "zDrawer": 1200,
        "zEnlargedImage": 100,
        "zGoogleAutosuggest": 100000,
        "zIndexMiniBag": 1200,
        "zIndexQuickView": 10000,
        "zLoader": 1000,
        "zModal": 1300,
        "zModule": 200,
        "zOverlay": 900,
        "zPLPFilterDropDown": 9,
      },
    }
  }
>
  <Component />
</ThemeProvider>
`;
