// Jest Snapshot v1, https://goo.gl/fbAQLP

exports[`Gift Card tile component should render correctly should renders correctly 1`] = `
<Styled(Component)
  accentColor="#fff"
  accessibilityLabel="Gift Card"
  accessibilityRole={Object {}}
  accessible={true}
  onPress={[Function]}
>
  <Styled(View)>
    <Styled(BodyCopy)
      accessibilityText=""
      color="text.primary"
      dataLocator=""
      fontFamily="primary"
      fontSize="fs16"
      fontWeight="medium"
      margin={null}
      numberOfLines={2}
      text="Gift Card"
      textAlign="left"
      textDecoration={null}
    />
    <Styled(View)>
      <Styled(ImageComp)
        alt=""
        cacheType="immutable"
        height={18}
        host=""
        isFastImage={false}
        onError={[Function]}
        onLoadStart={[Function]}
        onProgress={[Function]}
        priority="normal"
        resizeMode="contain"
        source={
          Object {
            "testUri": "../../../src/assets/images/icons-carets-medium-right.png",
          }
        }
        url=""
        width={10}
      />
    </Styled(View)>
  </Styled(View)>
</Styled(Component)>
`;
