// Jest Snapshot v1, https://goo.gl/fbAQLP

exports[`ResetPassword component should renders correctly 1`] = `
<Styled(View)
  showOnPlccModal={false}
>
  <Styled(Styled(BodyCopy))
    accessibilityText=""
    dataLocator=""
    fontFamily="secondary"
    fontSize="fs28"
    margin={null}
    numberOfLines={null}
    spacingStyles="margin-bottom-SM margin-top-LRG"
    text="lbl_resetPassword_page_heading"
    textAlign="left"
    textDecoration={null}
  />
  <Styled(Component)>
    <Component>
      lbl_resetPassword_email_received
    </Component>
  </Styled(Component)>
  <Styled(Styled(BodyCopy))
    accessibilityText=""
    dataLocator=""
    fontFamily="secondary"
    fontSize="fs13"
    margin={null}
    numberOfLines={null}
    text="lbl_resetPassword_check_junk_email"
    textAlign="left"
    textDecoration={null}
  />
  <Styled(Styled(BodyCopy))
    accessibilityText=""
    dataLocator=""
    fontFamily="secondary"
    fontSize="fs14"
    margin={null}
    numberOfLines={null}
    spacingStyles="margin-top-LRG"
    text="lbl_forgotPassword_emailAddress"
    textAlign="left"
    textDecoration={null}
  />
  <Styled(Styled(BodyCopy))
    accessibilityText=""
    dataLocator=""
    fontFamily="secondary"
    fontSize="fs18"
    margin={null}
    numberOfLines={null}
    text="sxxxxev@yopmail.com"
    textAlign="left"
    textDecoration={null}
  />
  <Styled(Styled(BodyCopy))
    accessibilityText=""
    dataLocator=""
    fontFamily="secondary"
    fontSize="fs14"
    margin={null}
    numberOfLines={null}
    spacingStyles="margin-top-LRG"
    text="lbl_resetPassword_page_enter_code"
    textAlign="left"
    textDecoration={null}
  />
  <Styled(View)>
    <OTPInput
      handleResetPinField={[Function]}
      onChange={[Function]}
      otpLength={6}
      resetPinField={false}
    />
  </Styled(View)>
  <ReduxForm
    confirmHideShowPwd={false}
    destroyOnUnmount={true}
    enableReinitialize={true}
    errorMessage="ERROR"
    forceUnregisterOnUnmount={false}
    form="ResetPasswordNativeForm"
    fullPageView={true}
    getFormState={[Function]}
    hideShowPwd={false}
    isResetPassCodeValidationEnabled={true}
    isSmsSelected={false}
    keepDirtyOnReinitialize={false}
    labels={
      Object {
        "lbl_ResetPassword_backLogin": "back to login",
        "lbl_ResetPassword_requirementNote": "note:",
        "lbl_ResetPassword_requirementTips_1": "requirement tip 1",
        "lbl_ResetPassword_requirementTips_2": "requirement tip 2",
        "lbl_ResetPassword_requirementTips_3": "requirement tip 3",
      }
    }
    onAppBackToLogin={[MockFunction]}
    onConfirmPwdHideShowClick={[Function]}
    onPwdHideShowClick={[Function]}
    onSubmit={[Function]}
    otpValue=""
    persistentSubmitErrors={false}
    pure={true}
    selectedPassResetOption=""
    setRecaptchaCode={[MockFunction]}
    shouldAsyncValidate={[Function]}
    shouldError={[Function]}
    shouldValidate={[Function]}
    shouldWarn={[Function]}
    showRecaptcha={false}
    submitAsSideEffect={false}
    successMessage="SUCCESS"
    touchOnBlur={true}
    touchOnChange={false}
    updateUnregisteredFields={false}
    validate={[Function]}
  />
  <Styled(View)
    spacingStyles="margin-top-XXL margin-bottom-MED"
  >
    <Styled(View)>
      <Styled(Styled(BodyCopy))
        accessibilityText=""
        dataLocator=""
        fontFamily="secondary"
        fontSize="fs12"
        margin={null}
        numberOfLines={null}
        spacingStyles="margin-right-XXS"
        text="lbl_resetPassword_code_not_received"
        textAlign="left"
        textDecoration={null}
      />
      <Styled(Anchor)
        accessibilityLabel=""
        anchorVariation="secondary"
        colorName={null}
        customStyle={Object {}}
        fontSize="fs12"
        fontSizeVariation="medium"
        hitSlop={Object {}}
        justifyContent=""
        locator=""
        margins={null}
        onPress={[Function]}
        overrideStyle={Object {}}
        text="lbl_resetPassword_resend_code"
        underline={true}
        visible={false}
      />
    </Styled(View)>
  </Styled(View)>
  <Styled(View)
    spacingStyles="margin-top-SM margin-bottom-MED"
  >
    <Styled(View)>
      <Styled(Styled(BodyCopy))
        accessibilityText=""
        dataLocator=""
        fontFamily="secondary"
        fontSize="fs12"
        margin={null}
        numberOfLines={null}
        spacingStyles="margin-right-XXS"
        text="lbl_didnt_receive_otp_sent_to_phone"
        textAlign="left"
        textDecoration={null}
      />
      <Styled(Anchor)
        accessibilityLabel=""
        anchorVariation="secondary"
        colorName={null}
        customStyle={Object {}}
        fontSize="fs12"
        fontSizeVariation="medium"
        hitSlop={Object {}}
        justifyContent=""
        locator=""
        margins={null}
        onPress={[Function]}
        overrideStyle={Object {}}
        text="lbl_send_code_via_phone"
        underline={true}
        visible={false}
      />
    </Styled(View)>
  </Styled(View)>
</Styled(View)>
`;

exports[`ResetPassword component should renders correctly with otp view 1`] = `
<Styled(View)
  showOnPlccModal={false}
>
  <Styled(Styled(BodyCopy))
    accessibilityText=""
    dataLocator=""
    fontFamily="secondary"
    fontSize="fs28"
    margin={null}
    numberOfLines={null}
    spacingStyles="margin-bottom-SM margin-top-LRG"
    text="lbl_resetPassword_page_heading"
    textAlign="left"
    textDecoration={null}
  />
  <Styled(Component)>
    <Component>
      lbl_resetPassword_email_received
    </Component>
  </Styled(Component)>
  <Styled(Styled(BodyCopy))
    accessibilityText=""
    dataLocator=""
    fontFamily="secondary"
    fontSize="fs13"
    margin={null}
    numberOfLines={null}
    text="lbl_resetPassword_check_junk_email"
    textAlign="left"
    textDecoration={null}
  />
  <Styled(Styled(BodyCopy))
    accessibilityText=""
    dataLocator=""
    fontFamily="secondary"
    fontSize="fs14"
    margin={null}
    numberOfLines={null}
    spacingStyles="margin-top-LRG"
    text="lbl_forgotPassword_emailAddress"
    textAlign="left"
    textDecoration={null}
  />
  <Styled(Styled(BodyCopy))
    accessibilityText=""
    dataLocator=""
    fontFamily="secondary"
    fontSize="fs18"
    margin={null}
    numberOfLines={null}
    text="sxxxxev@yopmail.com"
    textAlign="left"
    textDecoration={null}
  />
  <Styled(Styled(BodyCopy))
    accessibilityText=""
    dataLocator=""
    fontFamily="secondary"
    fontSize="fs14"
    margin={null}
    numberOfLines={null}
    spacingStyles="margin-top-LRG"
    text="lbl_resetPassword_page_enter_code"
    textAlign="left"
    textDecoration={null}
  />
  <Styled(View)>
    <OTPInput
      handleResetPinField={[Function]}
      onChange={[Function]}
      otpLength={6}
      resetPinField={false}
    />
  </Styled(View)>
  <ReduxForm
    confirmHideShowPwd={false}
    destroyOnUnmount={true}
    enableReinitialize={true}
    errorMessage="ERROR"
    forceUnregisterOnUnmount={false}
    form="ResetPasswordNativeForm"
    fullPageView={true}
    getFormState={[Function]}
    hideShowPwd={false}
    isResetPassCodeValidationEnabled={true}
    isSmsSelected={false}
    keepDirtyOnReinitialize={false}
    labels={
      Object {
        "lbl_ResetPassword_backLogin": "back to login",
        "lbl_ResetPassword_requirementNote": "note:",
        "lbl_ResetPassword_requirementTips_1": "requirement tip 1",
        "lbl_ResetPassword_requirementTips_2": "requirement tip 2",
        "lbl_ResetPassword_requirementTips_3": "requirement tip 3",
      }
    }
    onAppBackToLogin={[MockFunction]}
    onConfirmPwdHideShowClick={[Function]}
    onPwdHideShowClick={[Function]}
    onSubmit={[Function]}
    otpValue=""
    persistentSubmitErrors={false}
    pure={true}
    selectedPassResetOption=""
    setRecaptchaCode={[MockFunction]}
    shouldAsyncValidate={[Function]}
    shouldError={[Function]}
    shouldValidate={[Function]}
    shouldWarn={[Function]}
    showRecaptcha={false}
    submitAsSideEffect={false}
    successMessage="SUCCESS"
    touchOnBlur={true}
    touchOnChange={false}
    updateUnregisteredFields={false}
    validate={[Function]}
  />
  <Styled(View)
    spacingStyles="margin-top-XXL margin-bottom-MED"
  >
    <Styled(View)>
      <Styled(Styled(BodyCopy))
        accessibilityText=""
        dataLocator=""
        fontFamily="secondary"
        fontSize="fs12"
        margin={null}
        numberOfLines={null}
        spacingStyles="margin-right-XXS"
        text="lbl_resetPassword_code_not_received"
        textAlign="left"
        textDecoration={null}
      />
      <Styled(Anchor)
        accessibilityLabel=""
        anchorVariation="secondary"
        colorName={null}
        customStyle={Object {}}
        fontSize="fs12"
        fontSizeVariation="medium"
        hitSlop={Object {}}
        justifyContent=""
        locator=""
        margins={null}
        onPress={[Function]}
        overrideStyle={Object {}}
        text="lbl_resetPassword_resend_code"
        underline={true}
        visible={false}
      />
    </Styled(View)>
  </Styled(View)>
  <Styled(View)
    spacingStyles="margin-top-SM margin-bottom-MED"
  >
    <Styled(View)>
      <Styled(Styled(BodyCopy))
        accessibilityText=""
        dataLocator=""
        fontFamily="secondary"
        fontSize="fs12"
        margin={null}
        numberOfLines={null}
        spacingStyles="margin-right-XXS"
        text="lbl_didnt_receive_otp_sent_to_phone"
        textAlign="left"
        textDecoration={null}
      />
      <Styled(Anchor)
        accessibilityLabel=""
        anchorVariation="secondary"
        colorName={null}
        customStyle={Object {}}
        fontSize="fs12"
        fontSizeVariation="medium"
        hitSlop={Object {}}
        justifyContent=""
        locator=""
        margins={null}
        onPress={[Function]}
        overrideStyle={Object {}}
        text="lbl_send_code_via_phone"
        underline={true}
        visible={false}
      />
    </Styled(View)>
  </Styled(View)>
</Styled(View)>
`;
