// Jest Snapshot v1, https://goo.gl/fbAQLP

exports[`CustomImage component should renders CustomImage correctly 1`] = `
<StyledNativeComponent
  forwardedComponent={
    Object {
      "$$typeof": Symbol(react.forward_ref),
      "_foldedDefaultProps": Object {
        "imageSource": "",
        "width": "",
      },
      "attrs": Array [],
      "inlineStyle": InlineStyle {
        "rules": Array [
          "
    ",
          "
  ",
          [Function],
          "
",
          ";
  ",
        ],
      },
      "render": [Function],
      "shouldForwardProp": undefined,
      "styledComponentId": "StyledNativeComponent",
      "target": [Function],
      "withComponent": [Function],
    }
  }
  forwardedRef={null}
  imageSource=""
  width=""
/>
`;
