// Jest Snapshot v1, https://goo.gl/fbAQLP

exports[`CreditCardFields component should renders correctly when isExpirationRequired is true 1`] = `
<Styled(CustomSelect)
  activeValue=""
  clickHandler={[Function]}
  customSelectClassName=""
  dataLocatorObj={
    Object {
      "dropDownList": "drop-down-list",
      "heading": "drop-down-heading",
    }
  }
  displayShadow={true}
  labels={Object {}}
  options={
    Array [
      Object {},
    ]
  }
  selectListTitle="Select Address"
/>
`;
