// Jest Snapshot v1, https://goo.gl/fbAQLP

exports[`TileOption should render correctly 1`] = `
<Styled(Component)
  isSelected={false}
  onPress={[Function]}
>
  <Styled(View)>
    <Styled(BodyCopy)
      accessibilityText=""
      dataLocator=""
      fontFamily="secondary"
      fontSize="fs14"
      fontWeight="regular"
      margin={null}
      numberOfLines={null}
      text="Parent"
      textDecoration={null}
    />
  </Styled(View)>
</Styled(Component)>
`;

exports[`TileOption should render with selected tile 1`] = `
<Styled(Component)
  isSelected={true}
  onPress={[Function]}
>
  <Styled(View)>
    <Styled(BodyCopy)
      accessibilityText=""
      dataLocator=""
      fontFamily="secondary"
      fontSize="fs14"
      fontWeight="regular"
      margin={null}
      numberOfLines={null}
      text="Parent"
      textDecoration={null}
    />
  </Styled(View)>
</Styled(Component)>
`;
