// Jest Snapshot v1, https://goo.gl/fbAQLP

exports[`RecentOrders component should renders correctly 1`] = `
<Styled(BodyCopy)
  className=""
  color="text.primary"
  component="p"
  customStyle={Object {}}
  fontFamily="primary"
  fontSize={12}
  fontWeight="regular"
  letterSpacing="normal"
  lineHeight="normal"
  link={null}
  textAlign="left"
>
  <Styled(BodyCopy)
    className="elem-mt-SM"
    color="text.primary"
    component="h3"
    customStyle={Object {}}
    dataLocator="recent-order_heading"
    fontFamily="secondary"
    fontSize="fs16"
    fontWeight="semibold"
    letterSpacing="normal"
    lineHeight="normal"
    link={null}
    textAlign="left"
  >
    lbl_orders_recentOrder
  </Styled(BodyCopy)>
  <EmptyOrdersList
    className=""
    labels={Object {}}
  />
</Styled(BodyCopy)>
`;
