{
"_comment":"9fbef606107a605d69c0edbcd8029e5d",  
  "project_info": {
    "project_number": "1073959635513",
    "firebase_url": "https://tcp-android-736bd.firebaseio.com",
    "project_id": "tcp-android-736bd",
    "storage_bucket": "tcp-android-736bd.appspot.com"
  },
  "client": [
    {
      "client_info": {
        "mobilesdk_app_id": "1:1073959635513:android:575d99ed76fd29f8521be8",
        "android_client_info": {
          "package_name": "com.childrensplace.gym.dev"
        }
      },
      "oauth_client": [
        {
          "client_id": "1073959635513-52q1bcrvdc7alntthk1moakq6dp2q0h6.apps.googleusercontent.com",
          "client_type": 3
        }
      ],
      "api_key": [
        {
          "current_key": "AIzaSyD7gi1cGvIUnwdvCZcQ0QKhya-sFD5Y2lk"
        }
      ],
      "services": {
        "appinvite_service": {
          "other_platform_oauth_client": [
            {
              "client_id": "1073959635513-52q1bcrvdc7alntthk1moakq6dp2q0h6.apps.googleusercontent.com",
              "client_type": 3
            },
            {
              "client_id": "1073959635513-58nte5a5pqhpabnifjvjb4gvk96l18o8.apps.googleusercontent.com",
              "client_type": 2,
              "ios_info": {
                "bundle_id": "com.childrensplace.gym-ios"
              }
            }
          ]
        }
      }
    },
    {
      "client_info": {
        "mobilesdk_app_id": "1:1073959635513:android:00b8aa95481e8e06521be8",
        "android_client_info": {
          "package_name": "com.childrensplace.gym.int"
        }
      },
      "oauth_client": [
        {
          "client_id": "1073959635513-52q1bcrvdc7alntthk1moakq6dp2q0h6.apps.googleusercontent.com",
          "client_type": 3
        }
      ],
      "api_key": [
        {
          "current_key": "AIzaSyD7gi1cGvIUnwdvCZcQ0QKhya-sFD5Y2lk"
        }
      ],
      "services": {
        "appinvite_service": {
          "other_platform_oauth_client": [
            {
              "client_id": "1073959635513-52q1bcrvdc7alntthk1moakq6dp2q0h6.apps.googleusercontent.com",
              "client_type": 3
            },
            {
              "client_id": "1073959635513-58nte5a5pqhpabnifjvjb4gvk96l18o8.apps.googleusercontent.com",
              "client_type": 2,
              "ios_info": {
                "bundle_id": "com.childrensplace.gym-ios"
              }
            }
          ]
        }
      }
    },
    {
      "client_info": {
        "mobilesdk_app_id": "1:1073959635513:android:1175f8143e0317aa521be8",
        "android_client_info": {
          "package_name": "com.childrensplace.gym.prod"
        }
      },
      "oauth_client": [
        {
          "client_id": "1073959635513-52q1bcrvdc7alntthk1moakq6dp2q0h6.apps.googleusercontent.com",
          "client_type": 3
        }
      ],
      "api_key": [
        {
          "current_key": "AIzaSyD7gi1cGvIUnwdvCZcQ0QKhya-sFD5Y2lk"
        }
      ],
      "services": {
        "appinvite_service": {
          "other_platform_oauth_client": [
            {
              "client_id": "1073959635513-52q1bcrvdc7alntthk1moakq6dp2q0h6.apps.googleusercontent.com",
              "client_type": 3
            },
            {
              "client_id": "1073959635513-58nte5a5pqhpabnifjvjb4gvk96l18o8.apps.googleusercontent.com",
              "client_type": 2,
              "ios_info": {
                "bundle_id": "com.childrensplace.gym-ios"
              }
            }
          ]
        }
      }
    },
    {
      "client_info": {
        "mobilesdk_app_id": "1:1073959635513:android:19abab632002e8d8521be8",
        "android_client_info": {
          "package_name": "com.childrensplace.gym.qa"
        }
      },
      "oauth_client": [
        {
          "client_id": "1073959635513-52q1bcrvdc7alntthk1moakq6dp2q0h6.apps.googleusercontent.com",
          "client_type": 3
        }
      ],
      "api_key": [
        {
          "current_key": "AIzaSyD7gi1cGvIUnwdvCZcQ0QKhya-sFD5Y2lk"
        }
      ],
      "services": {
        "appinvite_service": {
          "other_platform_oauth_client": [
            {
              "client_id": "1073959635513-52q1bcrvdc7alntthk1moakq6dp2q0h6.apps.googleusercontent.com",
              "client_type": 3
            },
            {
              "client_id": "1073959635513-58nte5a5pqhpabnifjvjb4gvk96l18o8.apps.googleusercontent.com",
              "client_type": 2,
              "ios_info": {
                "bundle_id": "com.childrensplace.gym-ios"
              }
            }
          ]
        }
      }
    },
    {
      "client_info": {
        "mobilesdk_app_id": "1:1073959635513:android:f730b9272d9f029a521be8",
        "android_client_info": {
          "package_name": "com.childrensplace.gym.uat"
        }
      },
      "oauth_client": [
        {
          "client_id": "1073959635513-52q1bcrvdc7alntthk1moakq6dp2q0h6.apps.googleusercontent.com",
          "client_type": 3
        }
      ],
      "api_key": [
        {
          "current_key": "AIzaSyD7gi1cGvIUnwdvCZcQ0QKhya-sFD5Y2lk"
        }
      ],
      "services": {
        "appinvite_service": {
          "other_platform_oauth_client": [
            {
              "client_id": "1073959635513-52q1bcrvdc7alntthk1moakq6dp2q0h6.apps.googleusercontent.com",
              "client_type": 3
            },
            {
              "client_id": "1073959635513-58nte5a5pqhpabnifjvjb4gvk96l18o8.apps.googleusercontent.com",
              "client_type": 2,
              "ios_info": {
                "bundle_id": "com.childrensplace.gym-ios"
              }
            }
          ]
        }
      }
    },
    {
      "client_info": {
        "mobilesdk_app_id": "1:1073959635513:android:56b9af2a34909752521be8",
        "android_client_info": {
          "package_name": "com.childrensplace.gymmobileapp"
        }
      },
      "oauth_client": [
        {
          "client_id": "1073959635513-52q1bcrvdc7alntthk1moakq6dp2q0h6.apps.googleusercontent.com",
          "client_type": 3
        }
      ],
      "api_key": [
        {
          "current_key": "AIzaSyD7gi1cGvIUnwdvCZcQ0QKhya-sFD5Y2lk"
        }
      ],
      "services": {
        "appinvite_service": {
          "other_platform_oauth_client": [
            {
              "client_id": "1073959635513-52q1bcrvdc7alntthk1moakq6dp2q0h6.apps.googleusercontent.com",
              "client_type": 3
            },
            {
              "client_id": "1073959635513-58nte5a5pqhpabnifjvjb4gvk96l18o8.apps.googleusercontent.com",
              "client_type": 2,
              "ios_info": {
                "bundle_id": "com.childrensplace.gym-ios"
              }
            }
          ]
        }
      }
    },
    {
      "client_info": {
        "mobilesdk_app_id": "1:1073959635513:android:2b9cdeddd1bce176521be8",
        "android_client_info": {
          "package_name": "com.childrensplace.tcp.dev"
        }
      },
      "oauth_client": [
        {
          "client_id": "1073959635513-52q1bcrvdc7alntthk1moakq6dp2q0h6.apps.googleusercontent.com",
          "client_type": 3
        }
      ],
      "api_key": [
        {
          "current_key": "AIzaSyD7gi1cGvIUnwdvCZcQ0QKhya-sFD5Y2lk"
        }
      ],
      "services": {
        "appinvite_service": {
          "other_platform_oauth_client": [
            {
              "client_id": "1073959635513-52q1bcrvdc7alntthk1moakq6dp2q0h6.apps.googleusercontent.com",
              "client_type": 3
            },
            {
              "client_id": "1073959635513-58nte5a5pqhpabnifjvjb4gvk96l18o8.apps.googleusercontent.com",
              "client_type": 2,
              "ios_info": {
                "bundle_id": "com.childrensplace.gym-ios"
              }
            }
          ]
        }
      }
    },
    {
      "client_info": {
        "mobilesdk_app_id": "1:1073959635513:android:eaf4bf08e9d1cc8f521be8",
        "android_client_info": {
          "package_name": "com.childrensplace.tcp.int"
        }
      },
      "oauth_client": [
        {
          "client_id": "1073959635513-52q1bcrvdc7alntthk1moakq6dp2q0h6.apps.googleusercontent.com",
          "client_type": 3
        }
      ],
      "api_key": [
        {
          "current_key": "AIzaSyD7gi1cGvIUnwdvCZcQ0QKhya-sFD5Y2lk"
        }
      ],
      "services": {
        "appinvite_service": {
          "other_platform_oauth_client": [
            {
              "client_id": "1073959635513-52q1bcrvdc7alntthk1moakq6dp2q0h6.apps.googleusercontent.com",
              "client_type": 3
            },
            {
              "client_id": "1073959635513-58nte5a5pqhpabnifjvjb4gvk96l18o8.apps.googleusercontent.com",
              "client_type": 2,
              "ios_info": {
                "bundle_id": "com.childrensplace.gym-ios"
              }
            }
          ]
        }
      }
    },
    {
      "client_info": {
        "mobilesdk_app_id": "1:1073959635513:android:f9313c540cceced4521be8",
        "android_client_info": {
          "package_name": "com.childrensplace.tcp.prod"
        }
      },
      "oauth_client": [
        {
          "client_id": "1073959635513-52q1bcrvdc7alntthk1moakq6dp2q0h6.apps.googleusercontent.com",
          "client_type": 3
        }
      ],
      "api_key": [
        {
          "current_key": "AIzaSyD7gi1cGvIUnwdvCZcQ0QKhya-sFD5Y2lk"
        }
      ],
      "services": {
        "appinvite_service": {
          "other_platform_oauth_client": [
            {
              "client_id": "1073959635513-52q1bcrvdc7alntthk1moakq6dp2q0h6.apps.googleusercontent.com",
              "client_type": 3
            },
            {
              "client_id": "1073959635513-58nte5a5pqhpabnifjvjb4gvk96l18o8.apps.googleusercontent.com",
              "client_type": 2,
              "ios_info": {
                "bundle_id": "com.childrensplace.gym-ios"
              }
            }
          ]
        }
      }
    },
    {
      "client_info": {
        "mobilesdk_app_id": "1:1073959635513:android:f4c43ebebd8d738a521be8",
        "android_client_info": {
          "package_name": "com.childrensplace.tcp.qa"
        }
      },
      "oauth_client": [
        {
          "client_id": "1073959635513-52q1bcrvdc7alntthk1moakq6dp2q0h6.apps.googleusercontent.com",
          "client_type": 3
        }
      ],
      "api_key": [
        {
          "current_key": "AIzaSyD7gi1cGvIUnwdvCZcQ0QKhya-sFD5Y2lk"
        }
      ],
      "services": {
        "appinvite_service": {
          "other_platform_oauth_client": [
            {
              "client_id": "1073959635513-52q1bcrvdc7alntthk1moakq6dp2q0h6.apps.googleusercontent.com",
              "client_type": 3
            },
            {
              "client_id": "1073959635513-58nte5a5pqhpabnifjvjb4gvk96l18o8.apps.googleusercontent.com",
              "client_type": 2,
              "ios_info": {
                "bundle_id": "com.childrensplace.gym-ios"
              }
            }
          ]
        }
      }
    },
    {
      "client_info": {
        "mobilesdk_app_id": "1:1073959635513:android:0e1db2fb2f4241e5521be8",
        "android_client_info": {
          "package_name": "com.childrensplace.tcp.uat"
        }
      },
      "oauth_client": [
        {
          "client_id": "1073959635513-52q1bcrvdc7alntthk1moakq6dp2q0h6.apps.googleusercontent.com",
          "client_type": 3
        }
      ],
      "api_key": [
        {
          "current_key": "AIzaSyD7gi1cGvIUnwdvCZcQ0QKhya-sFD5Y2lk"
        }
      ],
      "services": {
        "appinvite_service": {
          "other_platform_oauth_client": [
            {
              "client_id": "1073959635513-52q1bcrvdc7alntthk1moakq6dp2q0h6.apps.googleusercontent.com",
              "client_type": 3
            },
            {
              "client_id": "1073959635513-58nte5a5pqhpabnifjvjb4gvk96l18o8.apps.googleusercontent.com",
              "client_type": 2,
              "ios_info": {
                "bundle_id": "com.childrensplace.gym-ios"
              }
            }
          ]
        }
      }
    },
    {
      "client_info": {
        "mobilesdk_app_id": "1:1073959635513:android:cf11c502c26803ce521be8",
        "android_client_info": {
          "package_name": "com.childrensplace.tcpmobileapp"
        }
      },
      "oauth_client": [
        {
          "client_id": "1073959635513-52q1bcrvdc7alntthk1moakq6dp2q0h6.apps.googleusercontent.com",
          "client_type": 3
        }
      ],
      "api_key": [
        {
          "current_key": "AIzaSyD7gi1cGvIUnwdvCZcQ0QKhya-sFD5Y2lk"
        }
      ],
      "services": {
        "appinvite_service": {
          "other_platform_oauth_client": [
            {
              "client_id": "1073959635513-52q1bcrvdc7alntthk1moakq6dp2q0h6.apps.googleusercontent.com",
              "client_type": 3
            },
            {
              "client_id": "1073959635513-58nte5a5pqhpabnifjvjb4gvk96l18o8.apps.googleusercontent.com",
              "client_type": 2,
              "ios_info": {
                "bundle_id": "com.childrensplace.gym-ios"
              }
            }
          ]
        }
      }
    },
    {
      "client_info": {
        "mobilesdk_app_id": "1:1073959635513:android:315e2c8a6dd1abc6521be8",
        "android_client_info": {
          "package_name": "com.mobileapp"
        }
      },
      "oauth_client": [
        {
          "client_id": "1073959635513-52q1bcrvdc7alntthk1moakq6dp2q0h6.apps.googleusercontent.com",
          "client_type": 3
        }
      ],
      "api_key": [
        {
          "current_key": "AIzaSyD7gi1cGvIUnwdvCZcQ0QKhya-sFD5Y2lk"
        }
      ],
      "services": {
        "appinvite_service": {
          "other_platform_oauth_client": [
            {
              "client_id": "1073959635513-52q1bcrvdc7alntthk1moakq6dp2q0h6.apps.googleusercontent.com",
              "client_type": 3
            },
            {
              "client_id": "1073959635513-58nte5a5pqhpabnifjvjb4gvk96l18o8.apps.googleusercontent.com",
              "client_type": 2,
              "ios_info": {
                "bundle_id": "com.childrensplace.gym-ios"
              }
            }
          ]
        }
      }
    },
    {
      "client_info": {
        "mobilesdk_app_id": "1:1073959635513:android:f8c480ce5d04b4e3521be8",
        "android_client_info": {
          "package_name": "com.mobileapp.tcp"
        }
      },
      "oauth_client": [
        {
          "client_id": "1073959635513-52q1bcrvdc7alntthk1moakq6dp2q0h6.apps.googleusercontent.com",
          "client_type": 3
        }
      ],
      "api_key": [
        {
          "current_key": "AIzaSyD7gi1cGvIUnwdvCZcQ0QKhya-sFD5Y2lk"
        }
      ],
      "services": {
        "appinvite_service": {
          "other_platform_oauth_client": [
            {
              "client_id": "1073959635513-52q1bcrvdc7alntthk1moakq6dp2q0h6.apps.googleusercontent.com",
              "client_type": 3
            },
            {
              "client_id": "1073959635513-58nte5a5pqhpabnifjvjb4gvk96l18o8.apps.googleusercontent.com",
              "client_type": 2,
              "ios_info": {
                "bundle_id": "com.childrensplace.gym-ios"
              }
            }
          ]
        }
      }
    }
  ],
  "configuration_version": "1"
}
