// Jest Snapshot v1, https://goo.gl/fbAQLP

exports[`Component Component should render correctly 1`] = `
<Component
  animationType="slide"
  hardwareAccelerated={false}
  transparent={false}
  visible={false}
>
  <View
    style={
      Object {
        "backgroundColor": "#ffffff",
        "flex": 1,
        "height": "100%",
      }
    }
  >
    <ForwardRef
      accessibilityRole="button"
      onPress={[MockFunction]}
      style={
        Object {
          "height": 25,
          "left": "7%",
          "top": "8%",
          "width": 25,
          "zIndex": 100,
        }
      }
    >
      <Component
        source={
          Object {
            "testUri": "../../../src/assets/images/shopByProfile/elements/close3x.png",
          }
        }
        style={
          Object {
            "height": 15,
            "width": 15,
          }
        }
      />
    </ForwardRef>
    <View
      style={
        Object {
          "alignItems": "center",
          "flex": 1,
          "justifyContent": "center",
          "padding": 32,
        }
      }
    >
      <ProfileIcon
        shadow={true}
        size={86}
        theme={1}
      />
      <Component
        style={
          Object {
            "color": "#1a1a1a",
            "fontFamily": "Tofino-Bold",
            "fontSize": 14,
            "fontWeight": "bold",
            "marginTop": 15,
          }
        }
      >
        Name
      </Component>
      <Component
        style={
          Object {
            "color": "#1a1a1a",
            "fontFamily": "Tofino-Bold",
            "fontSize": 22,
            "fontWeight": "bold",
            "marginVertical": 30,
            "textAlign": "center",
          }
        }
      >
        Are you sure you want to delete this profile?
      </Component>
      <Component
        style={
          Object {
            "color": "#1a1a1a",
            "fontFamily": "Nunito-Regular",
            "fontSize": 14,
            "fontWeight": "300",
            "marginVertical": 30,
            "textAlign": "center",
          }
        }
      >
        You will no longer receive personalized shopping recommendations for Name.
      </Component>
    </View>
    <View
      style={
        Object {
          "flexDirection": "row",
          "height": 100,
          "paddingBottom": 34,
        }
      }
    >
      <ForwardRef
        accessibilityRole="button"
        onPress={[MockFunction]}
        style={
          Object {
            "backgroundColor": "#1a1a1a",
            "flex": 1,
            "height": 42,
            "justifyContent": "center",
            "marginHorizontal": 14,
          }
        }
      >
        <Component
          style={
            Object {
              "color": "#ffffff",
              "fontFamily": "Nunito-ExtraBold",
              "fontSize": 13,
              "fontWeight": "800",
              "letterSpacing": 1,
              "textAlign": "center",
            }
          }
        >
          DELETE
        </Component>
      </ForwardRef>
      <ForwardRef
        accessibilityRole="button"
        onPress={[MockFunction]}
        style={
          Object {
            "backgroundColor": "#ffffff",
            "borderColor": "#9b9b9b",
            "borderWidth": 1,
            "flex": 1,
            "height": 42,
            "justifyContent": "center",
            "marginRight": 14,
          }
        }
      >
        <Component
          style={
            Object {
              "color": "#595959",
              "fontFamily": "Nunito-ExtraBold",
              "fontSize": 13,
              "fontWeight": "800",
              "letterSpacing": 1,
              "textAlign": "center",
            }
          }
        >
          CANCEL
        </Component>
      </ForwardRef>
    </View>
  </View>
</Component>
`;

exports[`Component Component to match snapshot 1`] = `
<Component
  animationType="slide"
  hardwareAccelerated={false}
  transparent={false}
  visible={true}
>
  <View
    style={
      Object {
        "backgroundColor": "#ffffff",
        "flex": 1,
        "height": "100%",
      }
    }
  >
    <ForwardRef
      accessibilityRole="button"
      onPress={[MockFunction]}
      style={
        Object {
          "height": 25,
          "left": "7%",
          "top": "8%",
          "width": 25,
          "zIndex": 100,
        }
      }
    >
      <Component
        source={
          Object {
            "testUri": "../../../src/assets/images/shopByProfile/elements/close3x.png",
          }
        }
        style={
          Object {
            "height": 15,
            "width": 15,
          }
        }
      />
    </ForwardRef>
    <View
      style={
        Object {
          "alignItems": "center",
          "flex": 1,
          "justifyContent": "center",
          "padding": 32,
        }
      }
    >
      <ProfileIcon
        shadow={true}
        size={86}
        theme={1}
      />
      <Component
        style={
          Object {
            "color": "#1a1a1a",
            "fontFamily": "Tofino-Bold",
            "fontSize": 14,
            "fontWeight": "bold",
            "marginTop": 15,
          }
        }
      >
        Name
      </Component>
      <Component
        style={
          Object {
            "color": "#1a1a1a",
            "fontFamily": "Tofino-Bold",
            "fontSize": 22,
            "fontWeight": "bold",
            "marginVertical": 30,
            "textAlign": "center",
          }
        }
      >
        Are you sure you want to delete this profile?
      </Component>
      <Component
        style={
          Object {
            "color": "#1a1a1a",
            "fontFamily": "Nunito-Regular",
            "fontSize": 14,
            "fontWeight": "300",
            "marginVertical": 30,
            "textAlign": "center",
          }
        }
      >
        You will no longer receive personalized shopping recommendations for Name.
      </Component>
    </View>
    <View
      style={
        Object {
          "flexDirection": "row",
          "height": 100,
          "paddingBottom": 34,
        }
      }
    >
      <ForwardRef
        accessibilityRole="button"
        onPress={[MockFunction]}
        style={
          Object {
            "backgroundColor": "#1a1a1a",
            "flex": 1,
            "height": 42,
            "justifyContent": "center",
            "marginHorizontal": 14,
          }
        }
      >
        <Component
          style={
            Object {
              "color": "#ffffff",
              "fontFamily": "Nunito-ExtraBold",
              "fontSize": 13,
              "fontWeight": "800",
              "letterSpacing": 1,
              "textAlign": "center",
            }
          }
        >
          DELETE
        </Component>
      </ForwardRef>
      <ForwardRef
        accessibilityRole="button"
        onPress={[MockFunction]}
        style={
          Object {
            "backgroundColor": "#ffffff",
            "borderColor": "#9b9b9b",
            "borderWidth": 1,
            "flex": 1,
            "height": 42,
            "justifyContent": "center",
            "marginRight": 14,
          }
        }
      >
        <Component
          style={
            Object {
              "color": "#595959",
              "fontFamily": "Nunito-ExtraBold",
              "fontSize": 13,
              "fontWeight": "800",
              "letterSpacing": 1,
              "textAlign": "center",
            }
          }
        >
          CANCEL
        </Component>
      </ForwardRef>
    </View>
  </View>
</Component>
`;
