// Jest Snapshot v1, https://goo.gl/fbAQLP

exports[`Return Method View should render correctly 1`] = `
<Styled(Col)
  colSize={
    Object {
      "large": 12,
      "medium": 7,
      "small": 6,
    }
  }
>
  <Styled(BodyCopy)
    className=" return-item-container elem-mt-XL"
    color="text.primary"
    component="div"
    customStyle={Object {}}
    fontFamily="primary"
    fontSize={12}
    fontWeight="regular"
    letterSpacing="normal"
    lineHeight="normal"
    link={null}
    textAlign="left"
  >
    <Styled(BodyCopy)
      className="steps"
      color="text.primary"
      component="p"
      customStyle={Object {}}
      fontFamily="secondary"
      fontSize="fs16"
      fontWeight="bold"
      letterSpacing="normal"
      lineHeight="normal"
      link={null}
      textAlign="left"
    >
      lbl_initiate_return_step_1
    </Styled(BodyCopy)>
    <Styled(BodyCopy)
      className="top-heading-container"
      color="text.primary"
      component="div"
      customStyle={Object {}}
      fontFamily="primary"
      fontSize={12}
      fontWeight="regular"
      letterSpacing="normal"
      lineHeight="normal"
      link={null}
      textAlign="left"
    >
      <Styled(BodyCopy)
        className={null}
        color="text.primary"
        component="p"
        customStyle={Object {}}
        fontFamily="secondary"
        fontSize="fs16"
        fontWeight="bold"
        letterSpacing="normal"
        lineHeight="normal"
        link={null}
        textAlign="left"
      >
        lbl_returns_selected_text
      </Styled(BodyCopy)>
      <Styled(Button)
        className="edit-option"
        color="blue"
        link={true}
        nohover={true}
        onClick={[Function]}
        type="button"
        underline={true}
      >
        lbl_returns_edit_items_btn
      </Styled(Button)>
    </Styled(BodyCopy)>
    <Styled(BodyCopy)
      className="return-item-heading elem-mt-MED_1"
      color="text.primary"
      component="div"
      customStyle={Object {}}
      fontFamily="primary"
      fontSize={12}
      fontWeight="regular"
      id="initiate-return-step2"
      letterSpacing="normal"
      lineHeight="normal"
      link={null}
      textAlign="left"
    >
      <Styled(BodyCopy)
        className="heading-line"
        color="text.primary"
        component="p"
        customStyle={Object {}}
        fontFamily="secondary"
        fontSize="fs18"
        fontWeight="bold"
        letterSpacing="normal"
        lineHeight="normal"
        link={null}
        textAlign="left"
      >
        lbl_returns_step_two_heading
      </Styled(BodyCopy)>
    </Styled(BodyCopy)>
    <Styled(BodyCopy)
      className="elem-mb-XS"
      color="text.primary"
      component="p"
      customStyle={Object {}}
      fontFamily="secondary"
      fontSize="fs16"
      fontWeight="bold"
      letterSpacing="normal"
      lineHeight="normal"
      link={null}
      textAlign="left"
    >
      lbl_returns_step_two_subheading
    </Styled(BodyCopy)>
    <Styled(BodyCopy)
      className="return-item-desc"
      color="text.primary"
      component="div"
      customStyle={Object {}}
      fontFamily="primary"
      fontSize={12}
      fontWeight="regular"
      letterSpacing="normal"
      lineHeight="normal"
      link={null}
      textAlign="left"
    >
      <span>
        <Styled(BodyCopy)
          className=""
          color="text.primary"
          component="p"
          customStyle={Object {}}
          fontFamily="secondary"
          fontSize="fs14"
          fontWeight="normal"
          letterSpacing="normal"
          lineHeight="normal"
          link={null}
          textAlign="left"
        >
          lbl_returns_step_two_description_one
           
          <Styled(Anchor)
            anchorVariation="primary"
            className="return-policy"
            dataLocator="navigationToReturnPolicy"
            fontFamily="secondary"
            fontSizeVariation="large"
            fontWeight="normal"
            target="_blank"
            to="/help-center/returns-exchanges#returnsandexchanges"
          >
            lbl_returns_return_policy
          </Styled(Anchor)>
          .
        </Styled(BodyCopy)>
      </span>
      <br />
      <Styled(BodyCopy)
        className=""
        color="text.primary"
        component="p"
        customStyle={Object {}}
        fontFamily="secondary"
        fontSize="fs14"
        fontWeight="normal"
        letterSpacing="normal"
        lineHeight="normal"
        link={null}
        textAlign="left"
      >
        lbl_returns_step_two_description_two
      </Styled(BodyCopy)>
    </Styled(BodyCopy)>
    <div
      className="return-method-container elem-mb-XL"
    >
      <Styled(ReturnMethods)
        item={
          Object {
            "iconPath": "fav-store-icon",
            "id": 1,
            "key": "IN_STORE",
            "returnDesc": "lbl_returns_instore_returnMethod_desc",
            "returnText": "lbl_returns_instore_returnMethod_text",
            "returnTextCost": "lbl_free_of_charge",
            "shortDesc": Object {
              "shortDescIcon": "location-icon",
              "shortDescText": "lbl_returns_instore_returnMethod_shortDescText",
            },
          }
        }
        key="1"
        selected={false}
        setReturnMethod={[Function]}
      />
      <Styled(ReturnMethods)
        item={
          Object {
            "iconPath": "fast-shipping",
            "id": 2,
            "key": "BY_MAIL",
            "returnDesc": "lbl_returns_bymail_returnMethod_desc",
            "returnText": "lbl_returns_bymail_returnMethod_text",
            "returnTextCost": "lbl_shipping_fees_apply",
          }
        }
        key="2"
        selected={false}
        setReturnMethod={[Function]}
      />
    </div>
    <Styled(BodyCopy)
      className="btn-container"
      color="text.primary"
      component="div"
      customStyle={Object {}}
      fontFamily="primary"
      fontSize={12}
      fontWeight="regular"
      id="return-next-button"
      letterSpacing="normal"
      lineHeight="normal"
      link={null}
      textAlign="left"
    >
      <Styled(Button)
        buttonVariation="variable-width"
        className="next-button"
        disabled={true}
        fill="BLUE"
        onClick={[Function]}
        type="submit"
      >
        lbl_returns_button_next
      </Styled(Button)>
    </Styled(BodyCopy)>
  </Styled(BodyCopy)>
</Styled(Col)>
`;
