// Jest Snapshot v1, https://goo.gl/fbAQLP

exports[`Footer component Footer component renders correctly with props 1`] = `
<footer
  className="footer-class footer-global"
>
  <Styled(Row)
    className="footer-candidate-wrapper"
    fullBleed={true}
  >
    <Styled(FooterTopCandidateA)
      className="footer-class"
      copyrightText=""
      defaultStore={Object {}}
      emailSignup={Object {}}
      fullPageAuthEnabled={false}
      isEmailModalOpen={false}
      isGuest={false}
      isLocationEnabledForGuest={true}
      isLocationEnabledForLoggedInUser={true}
      isLoggedIn={false}
      isNavigationFooter={false}
      isPlcc={false}
      isRegisteredUserCallDone={false}
      isSMSModalOpen={false}
      legalLinks={Array []}
      navLinks={Array []}
      openEmailSignUpModal={[Function]}
      openPlccOfferModal={[Function]}
      openSmsSignUpModal={[Function]}
      pageName=""
      referenceID=""
      smsSignup={Object {}}
    />
  </Styled(Row)>
  <Styled(Row)
    className="footer-middle mobile"
    fullBleed={true}
  >
    <FooterMiddleMobile
      className="footer-class"
      defaultStore={Object {}}
      fullPageAuthEnabled={false}
      isGuest={false}
      isLoggedIn={false}
      isPlcc={false}
      navLinkItems={Array []}
    />
  </Styled(Row)>
  <Styled(Row)
    className="content-wrapper"
    fullBleed={true}
  >
    <Styled(Row)
      className="footer-middle desktop"
    >
      <FooterMiddleDesktop
        className="footer-class"
        defaultStore={Object {}}
        fullPageAuthEnabled={false}
        isGuest={false}
        isLoggedIn={false}
        isPlcc={false}
        navLinks={Array []}
      />
    </Styled(Row)>
  </Styled(Row)>
  <div
    className="footer-bottom"
  >
    <Styled(Row)
      className="content-wrapper"
    >
      <Styled(Row)
        className="fullbleed-mobile"
      >
        <Styled(Col)
          className="footer-bottom__slot--1 default-offset"
          colSize={
            Object {
              "large": 2,
              "medium": 8,
              "small": 6,
            }
          }
        >
          <Styled(Copyright) />
          <div
            className="poc-hide"
          >
            <Styled(Button)>
              Get Registered User Info
            </Styled(Button)>
            <Styled(Button)>
              Get Order detail
            </Styled(Button)>
          </div>
        </Styled(Col)>
        <Styled(Col)
          className="footer-bottom__slot--2 default-offset"
          colSize={
            Object {
              "large": 8,
              "medium": 8,
              "small": 6,
            }
          }
        >
          <Styled(LegalLinks)
            className="footer-legel-links"
            links={Array []}
          />
        </Styled(Col)>
        <Styled(Col)
          className="footer-bottom__slot--3 default-offset"
          colSize={
            Object {
              "large": 2,
              "medium": 8,
              "small": 6,
            }
          }
        >
          <Connect(Styled(CountrySelector))
            showInFooter={true}
          />
        </Styled(Col)>
      </Styled(Row)>
      <Styled(Row)
        fullBleed={true}
      >
        <Styled(Col)
          colSize={
            Object {
              "large": 12,
              "medium": 8,
              "small": 6,
            }
          }
        >
          <Styled(BodyCopy)
            className="reference-id"
            color="text.primary"
            component="p"
            customStyle={Object {}}
            fontFamily="primary"
            fontSize="fs32"
            fontWeight="regular"
            letterSpacing="normal"
            lineHeight="normal"
            link={null}
            textAlign="left"
          >
             | undefined
             | 9711
             | tier1
          </Styled(BodyCopy)>
        </Styled(Col)>
      </Styled(Row)>
    </Styled(Row)>
  </div>
</footer>
`;

exports[`Footer component Footer component renders correctly without props 1`] = `
<footer
  className="undefined footer-global"
>
  <Styled(Row)
    className="footer-candidate-wrapper"
    fullBleed={true}
  >
    <Styled(FooterTopCandidateA)
      copyrightText=""
      defaultStore={Object {}}
      emailSignup={Object {}}
      fullPageAuthEnabled={false}
      isEmailModalOpen={false}
      isGuest={false}
      isLocationEnabledForGuest={true}
      isLocationEnabledForLoggedInUser={true}
      isLoggedIn={false}
      isNavigationFooter={false}
      isPlcc={false}
      isRegisteredUserCallDone={false}
      isSMSModalOpen={false}
      legalLinks={Array []}
      navLinks={Array []}
      openEmailSignUpModal={[Function]}
      openPlccOfferModal={[Function]}
      openSmsSignUpModal={[Function]}
      pageName=""
      referenceID=""
      smsSignup={Object {}}
    />
  </Styled(Row)>
  <Styled(Row)
    className="footer-middle mobile"
    fullBleed={true}
  >
    <FooterMiddleMobile
      defaultStore={Object {}}
      fullPageAuthEnabled={false}
      isGuest={false}
      isLoggedIn={false}
      isPlcc={false}
      navLinkItems={Array []}
    />
  </Styled(Row)>
  <Styled(Row)
    className="content-wrapper"
    fullBleed={true}
  >
    <Styled(Row)
      className="footer-middle desktop"
    >
      <FooterMiddleDesktop
        defaultStore={Object {}}
        fullPageAuthEnabled={false}
        isGuest={false}
        isLoggedIn={false}
        isPlcc={false}
        navLinks={Array []}
      />
    </Styled(Row)>
  </Styled(Row)>
  <div
    className="footer-bottom"
  >
    <Styled(Row)
      className="content-wrapper"
    >
      <Styled(Row)
        className="fullbleed-mobile"
      >
        <Styled(Col)
          className="footer-bottom__slot--1 default-offset"
          colSize={
            Object {
              "large": 2,
              "medium": 8,
              "small": 6,
            }
          }
        >
          <Styled(Copyright) />
          <div
            className="poc-hide"
          >
            <Styled(Button)>
              Get Registered User Info
            </Styled(Button)>
            <Styled(Button)>
              Get Order detail
            </Styled(Button)>
          </div>
        </Styled(Col)>
        <Styled(Col)
          className="footer-bottom__slot--2 default-offset"
          colSize={
            Object {
              "large": 8,
              "medium": 8,
              "small": 6,
            }
          }
        >
          <Styled(LegalLinks)
            className="footer-legel-links"
            links={Array []}
          />
        </Styled(Col)>
        <Styled(Col)
          className="footer-bottom__slot--3 default-offset"
          colSize={
            Object {
              "large": 2,
              "medium": 8,
              "small": 6,
            }
          }
        >
          <Connect(Styled(CountrySelector))
            showInFooter={true}
          />
        </Styled(Col)>
      </Styled(Row)>
      <Styled(Row)
        fullBleed={true}
      >
        <Styled(Col)
          colSize={
            Object {
              "large": 12,
              "medium": 8,
              "small": 6,
            }
          }
        >
          <Styled(BodyCopy)
            className="reference-id"
            color="text.primary"
            component="p"
            customStyle={Object {}}
            fontFamily="primary"
            fontSize="fs32"
            fontWeight="regular"
            letterSpacing="normal"
            lineHeight="normal"
            link={null}
            textAlign="left"
          >
             | 9711
             | tier1
          </Styled(BodyCopy)>
        </Styled(Col)>
      </Styled(Row)>
    </Styled(Row)>
  </div>
</footer>
`;
