// Jest Snapshot v1, https://goo.gl/fbAQLP

exports[`BundleProductItemsVanilla should render correctly 1`] = `
<Styled(View)
  margins={null}
>
  <Field
    autoCapitalize="none"
    bottomBorderColor="gray.600"
    component={
      Object {
        "$$typeof": Symbol(react.forward_ref),
        "_foldedDefaultProps": Object {
          "ariaLabel": "input",
          "autoCapitalize": "sentences",
          "dataLocator": "input-field",
          "disabled": false,
          "enableSuccessCheck": false,
          "id": "input",
          "isCVVFieldError": false,
          "keyboardType": "default",
          "label": "input",
          "marginBottom": true,
          "meta": Object {
            "error": "",
            "touched": "",
          },
          "onChangeText": [Function],
          "onPasswordFocus": false,
          "secureTextEntry": false,
          "showAnimatedBorder": false,
          "showErrorIcon": true,
          "showExplicitError": "",
          "showSuccessCheck": false,
          "successText": "",
          "type": "text",
        },
        "attrs": Array [],
        "inlineStyle": InlineStyle {
          "rules": Array [
            "
    ",
            "
  ",
            [Function],
            ";
",
            ";
  ",
          ],
        },
        "render": [Function],
        "shouldForwardProp": undefined,
        "styledComponentId": "StyledNativeComponent",
        "target": [Function],
        "withComponent": [Function],
      }
    }
    dataLocator="listName"
    id="listName"
    label="lbl_fav_list_name"
    maxLength={50}
    name="listName"
    type="text"
  />
  <Styled(View)
    margins="20px 0 0 0"
  >
    <Field
      component={[Function]}
      dataLocator="default_checkbox"
      disabled={false}
      inputVariation="inputVariation-1"
      name="default_checkbox"
      rightText="lbl_fav_default_list"
      textMargin="4px 0 0 0"
    />
    <Styled(CustomIcon)
      accessibilityLabel=""
      color="gray.900"
      dataLocator=""
      iconFontName="Icomoon"
      isButton={false}
      isDisabled={false}
      margins="0 0 0 8px"
      name="heart"
      onPress={[Function]}
      size="fs12"
    />
  </Styled(View)>
  <Styled(CustomButton)
    active={false}
    buttonVariation="fixed-width"
    color="white"
    customBorderStyle=""
    customIconStyle={Object {}}
    customStyle={Object {}}
    customTextStyle={null}
    disableButton={false}
    fill="BLUE"
    fontFamily=""
    fontSize=""
    fontWeight=""
    fullWidth=""
    iconColor="gray.800"
    iconFirst={false}
    iconName="chevron-down"
    iconSize="fs12"
    locator=""
    margin="40px 0 0 0"
    navigation={Object {}}
    onPress={[Function]}
    paddings="12px 32px 12px 32px"
    selected={false}
    selectedIcon="chevron-up"
    showIcon={false}
    text="btn_fav_save"
    theme={Object {}}
    type="submit"
    url=""
    useCustomFontStyle={false}
    withNoLineHeight={false}
  />
  <Styled(CustomButton)
    active={false}
    buttonVariation="fixed-width"
    color=""
    customBorderStyle=""
    customIconStyle={Object {}}
    customStyle={Object {}}
    customTextStyle={null}
    disableButton={false}
    fill="WHITE"
    fontFamily=""
    fontSize=""
    fontWeight=""
    fullWidth=""
    iconColor="gray.800"
    iconFirst={false}
    iconName="chevron-down"
    iconSize="fs12"
    locator=""
    margin="24px 0 0 0"
    navigation={Object {}}
    onPress={[Function]}
    paddings="12px 32px 12px 32px"
    selected={false}
    selectedIcon="chevron-up"
    showIcon={false}
    text="btn_fav_cancel"
    theme={Object {}}
    type="submit"
    url=""
    useCustomFontStyle={false}
    withNoLineHeight={false}
  />
</Styled(View)>
`;
