// Jest Snapshot v1, https://goo.gl/fbAQLP

exports[`NameTextInput NameTextInput should render correctly 1`] = `
<Fragment>
  <Component
    allowFontScaling={true}
    autoCorrect={false}
    maxLength={13}
    onChangeText={[Function]}
    placeholder="Name"
    rejectResponderTermination={true}
    style={
      Object {
        "borderBottomColor": "#000000",
        "borderBottomWidth": 1,
        "color": "#1c1c1c",
        "fontFamily": "Nunito-Regular",
        "fontSize": 16,
        "fontWeight": "bold",
        "padding": 4,
        "width": "85%",
      }
    }
    underlineColorAndroid="transparent"
  />
  <View
    style={
      Object {
        "borderBottomColor": "#000000",
        "borderBottomWidth": 1,
      }
    }
  >
    <Component
      style={
        Object {
          "color": "#595959",
          "fontFamily": "Nunito-Regular",
          "fontSize": 14,
          "marginTop": 5,
        }
      }
    >
      0/13
    </Component>
  </View>
  <View />
</Fragment>
`;
