// Jest Snapshot v1, https://goo.gl/fbAQLP

exports[`AddedToBagActions native component AddedToBagActions native component renders correctly 1`] = `
<Fragment>
  <Connect(ToastContainer) />
  <ForwardRef(AnimatedComponentWrapper)
    style={
      Object {
        "height": 68,
      }
    }
  >
    <Styled(View)>
      <Styled(Component)
        onPress={[Function]}
      >
        <Styled(View)>
          <Styled(View)>
            <Styled(Component)
              accessibilityLabel="Active test (10)"
              accessibilityRole="link"
              accessible={true}
            >
              test (10)
            </Styled(Component)>
            <Styled(Component)>
              undefined: $0.00
            </Styled(Component)>
          </Styled(View)>
        </Styled(View)>
      </Styled(Component)>
    </Styled(View)>
  </ForwardRef(AnimatedComponentWrapper)>
  <Styled(View)
    selectedTab={true}
  >
    <WithKeyboardAvoidingViewHOC
      extraCustomScrollHeight={120}
      keyboardAwareScrollViewRef={null}
      onMomentumScrollEnd={[Function]}
      onScroll={[Function]}
      onScrollEndDrag={[Function]}
    >
      <Styled(ScrollViewMock)
        keyboardShouldPersistTaps="handled"
        viewHeight="65%"
      >
        <Styled(View)>
          <Connect(ProductTileWrapperContainer)
            bagLabels={
              Object {
                "bagHeading": "test",
                "checkout": "",
                "savedLaterButton": "savedLaterButton",
                "tagLine": "tagline",
                "viewBag": "",
              }
            }
            navigation={
              Object {
                "getParam": [MockFunction],
                "getScreenProps": [Function],
              }
            }
            pageView="myBag"
          />
        </Styled(View)>
      </Styled(ScrollViewMock)>
    </WithKeyboardAvoidingViewHOC>
  </Styled(View)>
  <Styled(View)>
    <Connect(AddedToBagContainer)
      hideHeader={[Function]}
      isNoNEmptyBag={false}
      labels={
        Object {
          "bagHeading": "test",
          "checkout": "",
          "savedLaterButton": "savedLaterButton",
          "tagLine": "tagline",
          "viewBag": "",
        }
      }
      navigation={
        Object {
          "getParam": [MockFunction],
          "getScreenProps": [Function],
        }
      }
      orderBalanceTotal={0}
      payPalTop={30}
    />
  </Styled(View)>
</Fragment>
`;

exports[`AddedToBagActions native component AddedToBagActions native component renders correctly from checkout cart icon navigation 1`] = `
<Fragment>
  <Connect(ToastContainer) />
  <ForwardRef(AnimatedComponentWrapper)
    style={
      Object {
        "height": 68,
      }
    }
  >
    <Styled(View)>
      <Styled(Component)
        onPress={[Function]}
      >
        <Styled(View)>
          <Styled(View)>
            <Styled(Component)
              accessibilityLabel="Active test (0)"
              accessibilityRole="link"
              accessible={true}
            >
              test (0)
            </Styled(Component)>
            <Styled(Component) />
          </Styled(View)>
        </Styled(View)>
      </Styled(Component)>
      <Styled(Component)
        onPress={[Function]}
      >
        <Styled(View)>
          <Styled(View)>
            <Styled(Component)
              accessibilityLabel="Inactive savedLaterButton (undefined)"
              accessibilityRole="link"
              accessible={true}
            >
              savedLaterButton (undefined)
            </Styled(Component)>
            <Styled(Component) />
          </Styled(View)>
        </Styled(View)>
      </Styled(Component)>
    </Styled(View)>
  </ForwardRef(AnimatedComponentWrapper)>
  <Styled(View)
    selectedTab={true}
  >
    <WithKeyboardAvoidingViewHOC
      extraCustomScrollHeight={120}
      keyboardAwareScrollViewRef={null}
      onMomentumScrollEnd={[Function]}
      onScroll={[Function]}
      onScrollEndDrag={[Function]}
    >
      <Styled(ScrollViewMock)
        keyboardShouldPersistTaps="handled"
        viewHeight="60%"
      >
        <Styled(View)>
          <Connect(ProductTileWrapperContainer)
            bagLabels={
              Object {
                "bagHeading": "test",
                "checkout": "",
                "itemUpdated": "",
                "savedLaterButton": "savedLaterButton",
                "tagLine": "tagline",
                "viewBag": "",
              }
            }
            navigation={
              Object {
                "getParam": [MockFunction] {
                  "calls": Array [
                    Array [
                      "fromAppCheckout",
                    ],
                  ],
                  "results": Array [
                    Object {
                      "type": "return",
                      "value": true,
                    },
                  ],
                },
                "getScreenProps": [Function],
              }
            }
            pageView="myBag"
          />
          <Styled(View)>
            <Connect(OrderLedgerContainer)
              navigation={
                Object {
                  "getParam": [MockFunction] {
                    "calls": Array [
                      Array [
                        "fromAppCheckout",
                      ],
                    ],
                    "results": Array [
                      Object {
                        "type": "return",
                        "value": true,
                      },
                    ],
                  },
                  "getScreenProps": [Function],
                }
              }
              pageCategory="bagPage"
            />
          </Styled(View)>
          <Connect(Styled(PlaceCashBanner)) />
          <Styled(View)>
            <Connect(CouponContainer)
              measurePositionHandler={[Function]}
              pageName="shopping bag"
              showAccordian={false}
            />
          </Styled(View)>
        </Styled(View)>
      </Styled(ScrollViewMock)>
    </WithKeyboardAvoidingViewHOC>
  </Styled(View)>
  <Styled(View)>
    <Connect(AddedToBagContainer)
      hideHeader={[Function]}
      isNoNEmptyBag={true}
      labels={
        Object {
          "bagHeading": "test",
          "checkout": "",
          "itemUpdated": "",
          "savedLaterButton": "savedLaterButton",
          "tagLine": "tagline",
          "viewBag": "",
        }
      }
      navigation={
        Object {
          "getParam": [MockFunction] {
            "calls": Array [
              Array [
                "fromAppCheckout",
              ],
            ],
            "results": Array [
              Object {
                "type": "return",
                "value": true,
              },
            ],
          },
          "getScreenProps": [Function],
        }
      }
      orderBalanceTotal={0}
      payPalTop={30}
      showAddTobag={true}
    />
  </Styled(View)>
</Fragment>
`;

exports[`AddedToBagActions native component AddedToBagActions native component renders correctly with SFL section 1`] = `
<Fragment>
  <Connect(ToastContainer) />
  <ForwardRef(AnimatedComponentWrapper)
    style={
      Object {
        "height": 68,
      }
    }
  >
    <Styled(View)>
      <Styled(Component)
        onPress={[Function]}
      >
        <Styled(View)>
          <Styled(View)>
            <Styled(Component)
              accessibilityLabel="Inactive test (0)"
              accessibilityRole="link"
              accessible={true}
            >
              test (0)
            </Styled(Component)>
            <Styled(Component) />
          </Styled(View)>
        </Styled(View)>
      </Styled(Component)>
    </Styled(View)>
  </ForwardRef(AnimatedComponentWrapper)>
  <Styled(View)
    selectedTab={false}
  >
    <WithKeyboardAvoidingViewHOC
      extraCustomScrollHeight={120}
      keyboardAwareScrollViewRef={null}
      onMomentumScrollEnd={[Function]}
      onScroll={[Function]}
      onScrollEndDrag={[Function]}
    >
      <Styled(ScrollViewMock)
        keyboardShouldPersistTaps="handled"
        viewHeight="65%"
      >
        <Styled(View)>
          <Connect(ProductTileWrapperContainer)
            bagLabels={
              Object {
                "bagHeading": "test",
                "checkout": "",
                "savedLaterButton": "savedLaterButton",
                "tagLine": "tagline",
                "viewBag": "",
              }
            }
            isBagPageSflSection={true}
            navigation={
              Object {
                "getParam": [MockFunction] {
                  "calls": Array [
                    Array [
                      "fromAppCheckout",
                    ],
                  ],
                  "results": Array [
                    Object {
                      "type": "return",
                      "value": undefined,
                    },
                  ],
                },
                "getScreenProps": [Function],
              }
            }
            sflItems={Object {}}
          />
        </Styled(View)>
      </Styled(ScrollViewMock)>
    </WithKeyboardAvoidingViewHOC>
  </Styled(View)>
</Fragment>
`;

exports[`AddedToBagActions native component AddedToBagActions native component renders correctly with active BAG section 1`] = `
<Fragment>
  <Connect(ToastContainer) />
  <ForwardRef(AnimatedComponentWrapper)
    style={
      Object {
        "height": 68,
      }
    }
  >
    <Styled(View)>
      <Styled(Component)
        onPress={[Function]}
      >
        <Styled(View)>
          <Styled(View)>
            <Styled(Component)
              accessibilityLabel="Active test (0)"
              accessibilityRole="link"
              accessible={true}
            >
              test (0)
            </Styled(Component)>
            <Styled(Component) />
          </Styled(View)>
        </Styled(View)>
      </Styled(Component)>
    </Styled(View)>
  </ForwardRef(AnimatedComponentWrapper)>
  <Styled(View)
    selectedTab={true}
  >
    <WithKeyboardAvoidingViewHOC
      extraCustomScrollHeight={120}
      keyboardAwareScrollViewRef={null}
      onMomentumScrollEnd={[Function]}
      onScroll={[Function]}
      onScrollEndDrag={[Function]}
    >
      <Styled(ScrollViewMock)
        keyboardShouldPersistTaps="handled"
        viewHeight="60%"
      >
        <Styled(View)>
          <Connect(ProductTileWrapperContainer)
            bagLabels={
              Object {
                "bagHeading": "test",
                "checkout": "",
                "savedLaterButton": "savedLaterButton",
                "tagLine": "",
                "viewBag": "",
              }
            }
            navigation={
              Object {
                "getParam": [MockFunction] {
                  "calls": Array [
                    Array [
                      "fromAppCheckout",
                    ],
                  ],
                  "results": Array [
                    Object {
                      "type": "return",
                      "value": undefined,
                    },
                  ],
                },
                "getScreenProps": [Function],
              }
            }
            pageView="myBag"
          />
          <Styled(View)>
            <Connect(OrderLedgerContainer)
              navigation={
                Object {
                  "getParam": [MockFunction] {
                    "calls": Array [
                      Array [
                        "fromAppCheckout",
                      ],
                    ],
                    "results": Array [
                      Object {
                        "type": "return",
                        "value": undefined,
                      },
                    ],
                  },
                  "getScreenProps": [Function],
                }
              }
              pageCategory="bagPage"
            />
          </Styled(View)>
          <Connect(Styled(PlaceCashBanner)) />
          <Styled(View)>
            <Connect(CouponContainer)
              measurePositionHandler={[Function]}
              pageName="shopping bag"
              showAccordian={false}
            />
          </Styled(View)>
        </Styled(View)>
        <Connect(Styled(ErrorBoundary))
          navigation={
            Object {
              "getParam": [MockFunction] {
                "calls": Array [
                  Array [
                    "fromAppCheckout",
                  ],
                ],
                "results": Array [
                  Object {
                    "type": "return",
                    "value": undefined,
                  },
                ],
              },
              "getScreenProps": [Function],
            }
          }
        />
      </Styled(ScrollViewMock)>
    </WithKeyboardAvoidingViewHOC>
  </Styled(View)>
  <Styled(View)>
    <Connect(AddedToBagContainer)
      hideHeader={[Function]}
      isNoNEmptyBag={true}
      labels={
        Object {
          "bagHeading": "test",
          "checkout": "",
          "savedLaterButton": "savedLaterButton",
          "tagLine": "",
          "viewBag": "",
        }
      }
      navigation={
        Object {
          "getParam": [MockFunction] {
            "calls": Array [
              Array [
                "fromAppCheckout",
              ],
            ],
            "results": Array [
              Object {
                "type": "return",
                "value": undefined,
              },
            ],
          },
          "getScreenProps": [Function],
        }
      }
      orderBalanceTotal={0}
      payPalTop={30}
      showAddTobag={true}
    />
  </Styled(View)>
</Fragment>
`;

exports[`AddedToBagActions native component AddedToBagActions native component renders correctly with active SFL section 1`] = `
<Fragment>
  <Connect(ToastContainer) />
  <ForwardRef(AnimatedComponentWrapper)
    style={
      Object {
        "height": 68,
      }
    }
  >
    <Styled(View)>
      <Styled(Component)
        onPress={[Function]}
      >
        <Styled(View)>
          <Styled(View)>
            <Styled(Component)
              accessibilityLabel="Inactive test (0)"
              accessibilityRole="link"
              accessible={true}
            >
              test (0)
            </Styled(Component)>
            <Styled(Component) />
          </Styled(View)>
        </Styled(View)>
      </Styled(Component)>
    </Styled(View)>
  </ForwardRef(AnimatedComponentWrapper)>
  <Styled(View)
    selectedTab={false}
  >
    <WithKeyboardAvoidingViewHOC
      extraCustomScrollHeight={120}
      keyboardAwareScrollViewRef={null}
      onMomentumScrollEnd={[Function]}
      onScroll={[Function]}
      onScrollEndDrag={[Function]}
    >
      <Styled(ScrollViewMock)
        keyboardShouldPersistTaps="handled"
        viewHeight="60%"
      >
        <Styled(View)>
          <Connect(ProductTileWrapperContainer)
            bagLabels={
              Object {
                "bagHeading": "test",
                "checkout": "",
                "savedLaterButton": "savedLaterButton",
                "tagLine": "tagline",
                "viewBag": "",
              }
            }
            isBagPageSflSection={true}
            navigation={
              Object {
                "getParam": [MockFunction] {
                  "calls": Array [
                    Array [
                      "fromAppCheckout",
                    ],
                  ],
                  "results": Array [
                    Object {
                      "type": "return",
                      "value": undefined,
                    },
                  ],
                },
                "getScreenProps": [Function],
              }
            }
            sflItems={Object {}}
          />
        </Styled(View)>
      </Styled(ScrollViewMock)>
    </WithKeyboardAvoidingViewHOC>
  </Styled(View)>
</Fragment>
`;

exports[`AddedToBagActions native component AddedToBagActions native component renders correctly with bag section 1`] = `
<Fragment>
  <Connect(ToastContainer) />
  <ForwardRef(AnimatedComponentWrapper)
    style={
      Object {
        "height": 68,
      }
    }
  >
    <Styled(View)>
      <Styled(Component)
        onPress={[Function]}
      >
        <Styled(View)>
          <Styled(View)>
            <Styled(Component)
              accessibilityLabel="Active test (0)"
              accessibilityRole="link"
              accessible={true}
            >
              test (0)
            </Styled(Component)>
            <Styled(Component) />
          </Styled(View)>
        </Styled(View)>
      </Styled(Component)>
    </Styled(View)>
  </ForwardRef(AnimatedComponentWrapper)>
  <Styled(View)
    selectedTab={true}
  >
    <WithKeyboardAvoidingViewHOC
      extraCustomScrollHeight={120}
      keyboardAwareScrollViewRef={null}
      onMomentumScrollEnd={[Function]}
      onScroll={[Function]}
      onScrollEndDrag={[Function]}
    >
      <Styled(ScrollViewMock)
        keyboardShouldPersistTaps="handled"
        viewHeight="60%"
      >
        <Styled(View)>
          <Connect(ProductTileWrapperContainer)
            bagLabels={
              Object {
                "bagHeading": "test",
                "checkout": "",
                "savedLaterButton": "savedLaterButton",
                "tagLine": "tagline",
                "viewBag": "",
              }
            }
            navigation={
              Object {
                "getParam": [MockFunction] {
                  "calls": Array [
                    Array [
                      "fromAppCheckout",
                    ],
                  ],
                  "results": Array [
                    Object {
                      "type": "return",
                      "value": undefined,
                    },
                  ],
                },
                "getScreenProps": [Function],
              }
            }
            pageView="myBag"
          />
          <Styled(View)>
            <Connect(OrderLedgerContainer)
              navigation={
                Object {
                  "getParam": [MockFunction] {
                    "calls": Array [
                      Array [
                        "fromAppCheckout",
                      ],
                    ],
                    "results": Array [
                      Object {
                        "type": "return",
                        "value": undefined,
                      },
                    ],
                  },
                  "getScreenProps": [Function],
                }
              }
              pageCategory="bagPage"
            />
          </Styled(View)>
          <Connect(Styled(PlaceCashBanner)) />
          <Styled(View)>
            <Connect(CouponContainer)
              measurePositionHandler={[Function]}
              pageName="shopping bag"
              showAccordian={false}
            />
          </Styled(View)>
        </Styled(View)>
      </Styled(ScrollViewMock)>
    </WithKeyboardAvoidingViewHOC>
  </Styled(View)>
  <Styled(View)>
    <Connect(AddedToBagContainer)
      hideHeader={[Function]}
      isNoNEmptyBag={true}
      labels={
        Object {
          "bagHeading": "test",
          "checkout": "",
          "savedLaterButton": "savedLaterButton",
          "tagLine": "tagline",
          "viewBag": "",
        }
      }
      navigation={
        Object {
          "getParam": [MockFunction] {
            "calls": Array [
              Array [
                "fromAppCheckout",
              ],
            ],
            "results": Array [
              Object {
                "type": "return",
                "value": undefined,
              },
            ],
          },
          "getScreenProps": [Function],
        }
      }
      orderBalanceTotal={0}
      payPalTop={30}
      showAddTobag={true}
    />
  </Styled(View)>
</Fragment>
`;

exports[`AddedToBagActions native component AddedToBagActions native component renders correctly with merge cart message 1`] = `
<Fragment>
  <Connect(ToastContainer) />
  <ForwardRef(AnimatedComponentWrapper)
    style={
      Object {
        "height": 68,
      }
    }
  >
    <Styled(View)>
      <Styled(Component)
        onPress={[Function]}
      >
        <Styled(View)>
          <Styled(View)>
            <Styled(Component)
              accessibilityLabel="Active test (10)"
              accessibilityRole="link"
              accessible={true}
            >
              test (10)
            </Styled(Component)>
            <Styled(Component)>
              undefined: $0.00
            </Styled(Component)>
          </Styled(View)>
        </Styled(View)>
      </Styled(Component)>
    </Styled(View)>
  </ForwardRef(AnimatedComponentWrapper)>
  <Styled(View)
    selectedTab={true}
  >
    <WithKeyboardAvoidingViewHOC
      extraCustomScrollHeight={120}
      keyboardAwareScrollViewRef={null}
      onMomentumScrollEnd={[Function]}
      onScroll={[Function]}
      onScrollEndDrag={[Function]}
    >
      <Styled(ScrollViewMock)
        keyboardShouldPersistTaps="handled"
        viewHeight="65%"
      >
        <Styled(View)>
          <Connect(ProductTileWrapperContainer)
            bagLabels={
              Object {
                "bagHeading": "test",
                "checkout": "",
                "savedLaterButton": "savedLaterButton",
                "tagLine": "tagline",
                "viewBag": "",
              }
            }
            navigation={
              Object {
                "getParam": [MockFunction],
                "getScreenProps": [Function],
              }
            }
            pageView="myBag"
          />
        </Styled(View)>
      </Styled(ScrollViewMock)>
    </WithKeyboardAvoidingViewHOC>
  </Styled(View)>
  <Styled(View)>
    <Connect(AddedToBagContainer)
      hideHeader={[Function]}
      isNoNEmptyBag={false}
      labels={
        Object {
          "bagHeading": "test",
          "checkout": "",
          "savedLaterButton": "savedLaterButton",
          "tagLine": "tagline",
          "viewBag": "",
        }
      }
      navigation={
        Object {
          "getParam": [MockFunction],
          "getScreenProps": [Function],
        }
      }
      orderBalanceTotal={0}
      payPalTop={30}
    />
  </Styled(View)>
</Fragment>
`;
