// Jest Snapshot v1, https://goo.gl/fbAQLP

exports[`Bag page Container should render modal when open true 1`] = `
<ModalNative
  clickOutsideToClose={false}
  customTransparent={true}
  inheritedStyles=""
  isFromChangeStore={false}
  isOpen={true}
  isOverlay={false}
  overrideCSS={Object {}}
  roundedModal={false}
  showOnlyCloseIcon={false}
  stickyCloseIcon={true}
>
  <ForwardRef
    accessibilityLabel="Tap to close it"
    accessibilityRole="none"
    onPress={[MockFunction]}
    style={
      Object {
        "alignItems": "center",
        "backgroundColor": "rgba(0, 0, 0, 0.5)",
        "flex": 1,
        "justifyContent": "center",
      }
    }
  >
    <View>
      <TouchableWithoutFeedback
        accessibilityRole="none"
      >
        <Styled(View)>
          <Styled(View)>
            <Styled(Component)
              onPress={[MockFunction]}
            >
              <Styled(Component)
                source={
                  Object {
                    "testUri": "../../../src/assets/images/close.png",
                  }
                }
              />
            </Styled(Component)>
          </Styled(View)>
          <Styled(View)>
            <Styled(BodyCopy)
              accessibilityText=""
              dataLocator=""
              fontFamily="secondary"
              fontSize="fs16"
              fontWeight="extrabold"
              margin={null}
              numberOfLines={null}
              textAlign="center"
              textDecoration={null}
            />
          </Styled(View)>
          <Styled(View)>
            <Styled(BodyCopy)
              accessibilityText=""
              dataLocator=""
              fontFamily="secondary"
              fontSize="fs16"
              fontWeight="regular"
              margin={null}
              numberOfLines={null}
              textAlign="center"
              textDecoration={null}
            />
          </Styled(View)>
          <Styled(View)>
            <Styled(CustomButton)
              active={false}
              buttonVariation="fixed-width"
              color="white"
              customBorderStyle=""
              customIconStyle={Object {}}
              customStyle={Object {}}
              customTextStyle={null}
              disableButton={false}
              fill="BLUE"
              fontFamily=""
              fontSize=""
              fontWeight=""
              fullWidth=""
              iconColor="gray.800"
              iconFirst={false}
              iconName="chevron-down"
              iconSize="fs12"
              locator=""
              navigation={Object {}}
              onPress={null}
              paddings="12px 32px 12px 32px"
              selected={false}
              selectedIcon="chevron-up"
              showIcon={false}
              text=""
              theme={Object {}}
              type="submit"
              url=""
              useCustomFontStyle={false}
              withNoLineHeight={false}
            />
          </Styled(View)>
          <Styled(View)>
            <Styled(CustomButton)
              active={false}
              buttonVariation="fixed-width"
              color="gray"
              customBorderStyle=""
              customIconStyle={Object {}}
              customStyle={Object {}}
              customTextStyle={null}
              disableButton={false}
              fill="WHITE"
              fontFamily=""
              fontSize=""
              fontWeight="extrabold"
              fullWidth=""
              iconColor="gray.800"
              iconFirst={false}
              iconName="chevron-down"
              iconSize="fs12"
              locator=""
              navigation={Object {}}
              onPress={null}
              paddings="12px 32px 12px 32px"
              selected={false}
              selectedIcon="chevron-up"
              showIcon={false}
              text=""
              theme={Object {}}
              type="submit"
              url=""
              useCustomFontStyle={false}
              withNoLineHeight={false}
            />
          </Styled(View)>
        </Styled(View)>
      </TouchableWithoutFeedback>
    </View>
  </ForwardRef>
</ModalNative>
`;

exports[`Bag page Container should render no modal when isOpen is false 1`] = `
<ModalNative
  clickOutsideToClose={false}
  customTransparent={true}
  inheritedStyles=""
  isFromChangeStore={false}
  isOpen={false}
  isOverlay={false}
  overrideCSS={Object {}}
  roundedModal={false}
  showOnlyCloseIcon={false}
  stickyCloseIcon={true}
>
  <ForwardRef
    accessibilityLabel="Tap to close it"
    accessibilityRole="none"
    onPress={[MockFunction]}
    style={
      Object {
        "alignItems": "center",
        "backgroundColor": "rgba(0, 0, 0, 0.5)",
        "flex": 1,
        "justifyContent": "center",
      }
    }
  >
    <View>
      <TouchableWithoutFeedback
        accessibilityRole="none"
      >
        <Styled(View)>
          <Styled(View)>
            <Styled(Component)
              onPress={[MockFunction]}
            >
              <Styled(Component)
                source={
                  Object {
                    "testUri": "../../../src/assets/images/close.png",
                  }
                }
              />
            </Styled(Component)>
          </Styled(View)>
          <Styled(View)>
            <Styled(BodyCopy)
              accessibilityText=""
              dataLocator=""
              fontFamily="secondary"
              fontSize="fs16"
              fontWeight="extrabold"
              margin={null}
              numberOfLines={null}
              textAlign="center"
              textDecoration={null}
            />
          </Styled(View)>
          <Styled(View)>
            <Styled(BodyCopy)
              accessibilityText=""
              dataLocator=""
              fontFamily="secondary"
              fontSize="fs16"
              fontWeight="regular"
              margin={null}
              numberOfLines={null}
              textAlign="center"
              textDecoration={null}
            />
          </Styled(View)>
          <Styled(View)>
            <Styled(CustomButton)
              active={false}
              buttonVariation="fixed-width"
              color="white"
              customBorderStyle=""
              customIconStyle={Object {}}
              customStyle={Object {}}
              customTextStyle={null}
              disableButton={false}
              fill="BLUE"
              fontFamily=""
              fontSize=""
              fontWeight=""
              fullWidth=""
              iconColor="gray.800"
              iconFirst={false}
              iconName="chevron-down"
              iconSize="fs12"
              locator=""
              navigation={Object {}}
              onPress={null}
              paddings="12px 32px 12px 32px"
              selected={false}
              selectedIcon="chevron-up"
              showIcon={false}
              text=""
              theme={Object {}}
              type="submit"
              url=""
              useCustomFontStyle={false}
              withNoLineHeight={false}
            />
          </Styled(View)>
          <Styled(View)>
            <Styled(CustomButton)
              active={false}
              buttonVariation="fixed-width"
              color="gray"
              customBorderStyle=""
              customIconStyle={Object {}}
              customStyle={Object {}}
              customTextStyle={null}
              disableButton={false}
              fill="WHITE"
              fontFamily=""
              fontSize=""
              fontWeight="extrabold"
              fullWidth=""
              iconColor="gray.800"
              iconFirst={false}
              iconName="chevron-down"
              iconSize="fs12"
              locator=""
              navigation={Object {}}
              onPress={null}
              paddings="12px 32px 12px 32px"
              selected={false}
              selectedIcon="chevron-up"
              showIcon={false}
              text=""
              theme={Object {}}
              type="submit"
              url=""
              useCustomFontStyle={false}
              withNoLineHeight={false}
            />
          </Styled(View)>
        </Styled(View)>
      </TouchableWithoutFeedback>
    </View>
  </ForwardRef>
</ModalNative>
`;
