// Jest Snapshot v1, https://goo.gl/fbAQLP

exports[`Coupon component should renders correctly when Coupon are not present 1`] = `
<StyledNativeComponent
  appliedCouponList={Immutable.List []}
  availableCouponList={Immutable.List []}
  currentUserId=""
  forwardedComponent={
    Object {
      "$$typeof": Symbol(react.forward_ref),
      "_foldedDefaultProps": Object {
        "currentUserId": "",
        "isNeedHelpModalOpen": false,
        "measurePositionHandler": [Function],
        "onHoldCouponList": Array [],
        "setMaxItemErrorDisplayedAction": [Function],
        "showAccordian": true,
        "showCouponMergeError": false,
        "showExpiredMessage": false,
        "showMaxItemErrorDisplayed": false,
        "toastMessage": [Function],
      },
      "attrs": Array [],
      "inlineStyle": InlineStyle {
        "rules": Array [
          "
    ",
          "
  .coupon_list {
    margin-top: 0px;
  }
",
          ";
  ",
        ],
      },
      "render": [Function],
      "shouldForwardProp": undefined,
      "styledComponentId": "StyledNativeComponent",
      "target": [Function],
      "withComponent": [Function],
    }
  }
  forwardedRef={null}
  handleApplyCoupon={[Function]}
  isFetching={false}
  isNeedHelpModalOpen={false}
  labels={
    Object {
      "APPLIED_REWARDS_HEADING": "Applied",
      "AVAILABLE_REWARDS_HEADING": "Available",
    }
  }
  measurePositionHandler={[Function]}
  onHoldCouponList={Array []}
  setMaxItemErrorDisplayedAction={[Function]}
  showAccordian={true}
  showCouponMergeError={false}
  showExpiredMessage={false}
  showMaxItemErrorDisplayed={false}
  toastMessage={[Function]}
/>
`;
