// Jest Snapshot v1, https://goo.gl/fbAQLP

exports[`Detail Coupon Modal should render correctly 1`] = `
<ModalNative
  clickOutsideToClose={false}
  closeIconDataLocator="added-to-bg-close"
  closeIconLeftAligned={false}
  fixedWidth={true}
  headerStyle={
    Object {
      "width": "100%",
    }
  }
  headingFontFamily="secondary"
  horizontalBar={false}
  inheritedStyles=""
  isFromChangeStore={false}
  isOpen={true}
  isOverlay={false}
  onRequestClose={[Function]}
  overlayClassName="TCPModal__Overlay"
  overrideCSS={Object {}}
  roundedModal={false}
  showOnlyCloseIcon={false}
  stickyCloseIcon={true}
>
  <ScrollViewMock
    keyboardShouldPersistTaps="handled"
    showsVerticalScrollIndicator={false}
  >
    <Styled(View)>
      <Styled(BodyCopy)
        accessibilityText=""
        data-locator="couponDetailModal_applied_NameLbl"
        dataLocator=""
        fontFamily="primary"
        fontSize="fs40"
        fontWeight="black"
        margin={null}
        numberOfLines={null}
        text="$10 OFF On $80"
        textAlign="center"
        textDecoration={null}
      />
      <Styled(View)
        spacingStyles="margin-top-XS"
      >
        <Styled(BodyCopy)
          accessibilityText=""
          data-locator="couponDetailModal_applied_ValidityDateLbl"
          dataLocator=""
          fontFamily="secondary"
          fontSize="fs22"
          fontWeight="extrabold"
          margin={null}
          numberOfLines={null}
          text="USE_BY_TEXT 8/10/19"
          textDecoration={null}
        />
      </Styled(View)>
      <Styled(View) />
      <View
        data-locator="couponDetailModal_applied_BarCode"
      >
        <ScreenViewShot
          options={
            Object {
              "format": "png",
              "quality": 0.9,
              "result": "base64",
            }
          }
          setScreenViewShotRef={[Function]}
        >
          <BarcodeView
            displayValue={true}
            fontSize="fs12"
            fontWeight="extrabold"
            format="CODE128"
            height={50}
            value="Y00105578"
            width="1"
          />
        </ScreenViewShot>
      </View>
      <Styled(View) />
      <Styled(View)
        spacingStyles="margin-bottom-LRG"
      >
        <Styled(Styled(CustomButton))
          active={false}
          buttonVariation="variable-width"
          color=""
          customBorderStyle=""
          customIconStyle={Object {}}
          customStyle={Object {}}
          customTextStyle={null}
          data-locator="couponDetailModal_applied_AddToBagBtn"
          disableButton={false}
          disabled={true}
          fill="BLUE"
          fontFamily=""
          fontSize=""
          fontWeight=""
          fullWidth=""
          iconColor="gray.800"
          iconFirst={false}
          iconName="chevron-down"
          iconSize="fs12"
          locator=""
          navigation={Object {}}
          onPress={[Function]}
          paddings="12px 32px 12px 32px"
          selected={false}
          selectedIcon="chevron-up"
          showIcon={false}
          text="APPLIED_TO_BAG"
          theme={Object {}}
          url=""
          useCustomFontStyle={false}
          width={225}
          withNoLineHeight={false}
        />
      </Styled(View)>
      <Styled(Anchor)
        accessibilityLabel=""
        anchorVariation="primary"
        class="clickhere"
        colorName={null}
        customStyle={Object {}}
        dataLocator="couponDetailModal_applied_printAch"
        fontSizeVariation="large"
        hitSlop={Object {}}
        justifyContent=""
        locator=""
        margins={null}
        onPress={[Function]}
        overrideStyle={Object {}}
        text="PRINT_ANCHOR_TEXT"
        underline={true}
        visible={false}
      />
      <Styled(View)
        data-locator="couponDetailModal_applied_LongDesc"
      >
        <RichText
          actionHandler={[Function]}
          domStorageEnabled={false}
          fromEspot={false}
          isApplyDeviceHeight={false}
          isNativeView={false}
          javaScriptEnabled={false}
          scrollEnabled={false}
          source={
            Object {
              "html": "$10 OFF On $50",
            }
          }
          thirdPartyCookiesEnabled={false}
        />
      </Styled(View)>
      <Styled(View)>
        <Styled(BodyCopy)
          accessibilityText=""
          data-locator="couponDetailModal_applied_ShortDesc"
          dataLocator=""
          fontFamily="secondary"
          fontSize="fs12"
          fontWeight="regular"
          margin={null}
          numberOfLines={null}
          text="MODAL_SHORT_DESCRIPTION"
          textDecoration={null}
        />
        <Connect(withNavigation(ContentLink))
          anchorVariation="primary"
          dataLocator="couponDetailModal_applied_tAndC"
          fontFamily="primary"
          fontSizeVariation="medium"
          text="TERMS_AND_CONDITIONS"
          underline={true}
          urlKey="lbl_termcondition_link"
        />
        <Styled(BodyCopy)
          accessibilityText=""
          data-locator="couponDetailModal_applied_and"
          dataLocator=""
          fontFamily="secondary"
          fontSize="fs12"
          fontWeight="regular"
          margin={null}
          numberOfLines={null}
          text=" and "
          textDecoration={null}
        />
        <Connect(withNavigation(ContentLink))
          anchorVariation="primary"
          dataLocator="couponDetailModal_applied_pp"
          fontFamily="primary"
          fontSizeVariation="medium"
          text="PRIVACY_POLICY"
          underline={true}
          urlKey="lbl_privacyPolicy_link"
        />
      </Styled(View)>
    </Styled(View)>
  </ScrollViewMock>
</ModalNative>
`;

exports[`Detail Coupon Modal should render correctly for confirmarion 1`] = `
<ModalNative
  clickOutsideToClose={false}
  closeIconDataLocator="added-to-bg-close"
  closeIconLeftAligned={false}
  fixedWidth={true}
  headerStyle={
    Object {
      "width": "100%",
    }
  }
  headingFontFamily="secondary"
  horizontalBar={false}
  inheritedStyles=""
  isFromChangeStore={false}
  isOpen={true}
  isOverlay={false}
  onRequestClose={[Function]}
  overlayClassName="TCPModal__Overlay"
  overrideCSS={Object {}}
  roundedModal={false}
  showOnlyCloseIcon={false}
  stickyCloseIcon={true}
>
  <ScrollViewMock
    keyboardShouldPersistTaps="handled"
    showsVerticalScrollIndicator={false}
  >
    <Styled(View)>
      <Styled(BodyCopy)
        accessibilityText=""
        data-locator="couponDetailModal_applied_NameLbl"
        dataLocator=""
        fontFamily="primary"
        fontSize="fs40"
        fontWeight="black"
        margin={null}
        numberOfLines={null}
        text="$10 OFF On $80"
        textAlign="center"
        textDecoration={null}
      />
      <Styled(View) />
      <View
        data-locator="couponDetailModal_applied_BarCode"
      >
        <ScreenViewShot
          options={
            Object {
              "format": "png",
              "quality": 0.9,
              "result": "base64",
            }
          }
          setScreenViewShotRef={[Function]}
        >
          <BarcodeView
            displayValue={true}
            fontSize="fs12"
            fontWeight="extrabold"
            format="CODE128"
            height={50}
            value="Y00105578"
            width="1"
          />
        </ScreenViewShot>
      </View>
      <Styled(View) />
      <Styled(Anchor)
        accessibilityLabel=""
        anchorVariation="primary"
        class="clickhere"
        colorName={null}
        customStyle={Object {}}
        dataLocator="couponDetailModal_applied_printAch"
        fontSizeVariation="large"
        hitSlop={Object {}}
        justifyContent=""
        locator=""
        margins={null}
        onPress={[Function]}
        overrideStyle={Object {}}
        text="PRINT_ANCHOR_TEXT"
        underline={true}
        visible={false}
      />
      <Styled(View)
        data-locator="couponDetailModal_applied_LongDesc"
      >
        <RichText
          actionHandler={[Function]}
          domStorageEnabled={false}
          fromEspot={false}
          isApplyDeviceHeight={false}
          isNativeView={false}
          javaScriptEnabled={false}
          scrollEnabled={false}
          source={
            Object {
              "html": "$10 OFF On $50",
            }
          }
          thirdPartyCookiesEnabled={false}
        />
      </Styled(View)>
    </Styled(View)>
  </ScrollViewMock>
</ModalNative>
`;
