// Jest Snapshot v1, https://goo.gl/fbAQLP

exports[`AddEditAddress Native should render correctly 1`] = `
<View
  addressFormLabels={Object {}}
  addressLine1=""
  countryState=""
  currentForm="AddAddress"
  initialValues={Object {}}
  isEdit={false}
  isMakeDefaultDisabled={false}
  mapboxAutocompleteTypesParam=""
  mapboxSwitch={true}
  onCancel={[Function]}
  setAddressLine1={[Function]}
  setModalHeading={[Function]}
  submitAddressFormAction={[Function]}
  submitErrors={Object {}}
  toggleAddressModal={[Function]}
  verificationResult=""
  verifyAddressAction={[Function]}
>
  <ScrollViewMock
    keyboardShouldPersistTaps="handled"
    showsVerticalScrollIndicator={false}
  >
    <ReduxForm
      addressFormLabels={Object {}}
      addressLine1=""
      countryState=""
      currentForm="AddAddress"
      destroyOnUnmount={true}
      enableReinitialize={false}
      forceUnregisterOnUnmount={false}
      form="AddressForm"
      getFormState={[Function]}
      initialValues={Object {}}
      isEdit={false}
      isMakeDefaultDisabled={false}
      keepDirtyOnReinitialize={false}
      mapboxAutocompleteTypesParam=""
      mapboxSwitch={true}
      onCancel={[Function]}
      onSubmit={[Function]}
      persistentSubmitErrors={false}
      pure={true}
      setModalHeading={[Function]}
      shouldAsyncValidate={[Function]}
      shouldError={[Function]}
      shouldValidate={[Function]}
      shouldWarn={[Function]}
      submitAddressFormAction={[Function]}
      submitAsSideEffect={false}
      toggleAddressModal={[Function]}
      touchOnBlur={true}
      touchOnChange={false}
      updateUnregisteredFields={false}
      validate={[Function]}
    />
  </ScrollViewMock>
</View>
`;

exports[`AddEditAddress Native should show submit error message 1`] = `
<View
  addressFormLabels={Object {}}
  addressLine1=""
  countryState=""
  currentForm={null}
  initialValues={Object {}}
  isEdit={false}
  isMakeDefaultDisabled={false}
  mapboxAutocompleteTypesParam=""
  mapboxSwitch={true}
  onCancel={[Function]}
  setAddressLine1={[Function]}
  setModalHeading={[Function]}
  submitAddressFormAction={[Function]}
  submitErrors={
    Object {
      "address": Object {
        "formGeneric": "Some Error Occurred",
      },
    }
  }
  toggleAddressModal={[Function]}
  verificationResult=""
  verifyAddressAction={[Function]}
>
  <ScrollViewMock
    keyboardShouldPersistTaps="handled"
    showsVerticalScrollIndicator={false}
  >
    <Styled(Notification)
      disableSpace={true}
      fontWeight="bold"
      isErrorTriangleIcon={true}
      isWhiteBgColor={false}
      message="Some Error Occurred"
      status="error"
    />
  </ScrollViewMock>
</View>
`;

exports[`AddEditAddress Native should test with verification modal 1`] = `
<View
  addressFormLabels={Object {}}
  addressLine1=""
  countryState=""
  currentForm="VerificationModal"
  initialValues={Object {}}
  isEdit={false}
  isMakeDefaultDisabled={false}
  mapboxAutocompleteTypesParam=""
  mapboxSwitch={true}
  onCancel={[Function]}
  setAddressLine1={[Function]}
  setModalHeading={[Function]}
  submitAddressFormAction={[Function]}
  submitErrors={Object {}}
  toggleAddressModal={[Function]}
  verificationResult=""
  verifyAddressAction={[Function]}
>
  <ScrollViewMock
    keyboardShouldPersistTaps="handled"
    showsVerticalScrollIndicator={false}
  >
    <ReduxForm
      addressFormLabels={Object {}}
      addressLine1=""
      countryState=""
      currentForm="VerificationModal"
      destroyOnUnmount={true}
      enableReinitialize={false}
      forceUnregisterOnUnmount={false}
      form="AddressForm"
      getFormState={[Function]}
      initialValues={Object {}}
      isEdit={false}
      isMakeDefaultDisabled={false}
      keepDirtyOnReinitialize={false}
      mapboxAutocompleteTypesParam=""
      mapboxSwitch={true}
      onCancel={[Function]}
      onSubmit={[Function]}
      persistentSubmitErrors={false}
      pure={true}
      setModalHeading={[Function]}
      shouldAsyncValidate={[Function]}
      shouldError={[Function]}
      shouldValidate={[Function]}
      shouldWarn={[Function]}
      submitAddressFormAction={[Function]}
      submitAsSideEffect={false}
      toggleAddressModal={[Function]}
      touchOnBlur={true}
      touchOnChange={false}
      updateUnregisteredFields={false}
      validate={[Function]}
    />
  </ScrollViewMock>
</View>
`;
