// Jest Snapshot v1, https://goo.gl/fbAQLP

exports[`Appsplash component test cases should match snapshot 1`] = `
<ContextProvider
  value={
    Object {
      "cellularGeneration": "",
      "isConnected": false,
      "type": "",
    }
  }
>
  <View />
</ContextProvider>
`;
