// Jest Snapshot v1, https://goo.gl/fbAQLP

exports[`BirthdaySaving component should render correctly 1`] = `
<MyProfileTile
  birthdaySaving={true}
  clickEventdata={
    Object {
      "pageName": "myplace",
      "pageNavigationText": "my account-profile information-add birthday info",
      "pageSection": "myplace",
      "pageSubSection": "myplace",
      "pageType": "myplace",
      "storeId": undefined,
    }
  }
  ctaLink="accountOverviewMobile"
  ctaTitle=""
  dataLocator="pi-addbirthdayinfo"
  handleComponentChange={[Function]}
  isPageNavigation={false}
  title=""
>
  <Connect(BirthdaySavings)
    labels={
      Object {
        "lbl_profile_add_birthday_info": "",
        "lbl_profile_birthday_saving_info": "",
        "lbl_profile_birthday_savings": "",
      }
    }
    view="read"
  />
</MyProfileTile>
`;
