// Jest Snapshot v1, https://goo.gl/fbAQLP

exports[`PasswordRequirement component should render with resetPassword props 1`] = `
<Fragment>
  <Styled(Styled(BodyCopy))
    accessibilityText=""
    dataLocator=""
    fontFamily="secondary"
    fontSize="fs14"
    fontWeight="extrabold"
    margin={null}
    numberOfLines={null}
    spacingStyles="margin-top-SM margin-bottom-SM"
    text="Requirement Heading"
    textAlign="center"
    textDecoration={null}
  />
  <Styled(BodyCopy)
    accessibilityText=""
    color="text.primary"
    dataLocator=""
    fontFamily="secondary"
    fontSize="fs14"
    key="lbl_resetPassword_requirementTips_1"
    margin={null}
    numberOfLines={null}
    style={
      Object {
        "width": "100%",
      }
    }
    text="- requirement tip line1 "
    textAlign="start"
    textDecoration={null}
  />
  <Styled(BodyCopy)
    accessibilityText=""
    color="text.primary"
    dataLocator=""
    fontFamily="secondary"
    fontSize="fs14"
    key="lbl_resetPassword_requirementTips_2"
    margin={null}
    numberOfLines={null}
    style={
      Object {
        "width": "100%",
      }
    }
    text="- requirement tip line 2"
    textAlign="start"
    textDecoration={null}
  />
  <Styled(BodyCopy)
    accessibilityText=""
    color="text.primary"
    dataLocator=""
    fontFamily="secondary"
    fontSize="fs14"
    key="lbl_resetPassword_requirementTips_3"
    margin={null}
    numberOfLines={null}
    style={
      Object {
        "width": "100%",
      }
    }
    text="- requirement tip line 3"
    textAlign="start"
    textDecoration={null}
  />
</Fragment>
`;

exports[`PasswordRequirement component should renders correctly 1`] = `
<Fragment>
  <Styled(Styled(BodyCopy))
    accessibilityText=""
    dataLocator=""
    fontFamily="secondary"
    fontSize="fs14"
    fontWeight="extrabold"
    margin={null}
    numberOfLines={null}
    spacingStyles="margin-top-SM margin-bottom-SM"
    text="Requirement Heading"
    textAlign="center"
    textDecoration={null}
  />
  <Styled(BodyCopy)
    accessibilityText=""
    color="text.primary"
    dataLocator=""
    fontFamily="secondary"
    fontSize="fs14"
    key="lbl_resetPassword_requirementTips_1"
    margin={null}
    numberOfLines={null}
    style={
      Object {
        "width": "100%",
      }
    }
    text="- requirement tip line1 "
    textAlign="start"
    textDecoration={null}
  />
  <Styled(BodyCopy)
    accessibilityText=""
    color="text.primary"
    dataLocator=""
    fontFamily="secondary"
    fontSize="fs14"
    key="lbl_resetPassword_requirementTips_2"
    margin={null}
    numberOfLines={null}
    style={
      Object {
        "width": "100%",
      }
    }
    text="- requirement tip line 2"
    textAlign="start"
    textDecoration={null}
  />
  <Styled(BodyCopy)
    accessibilityText=""
    color="text.primary"
    dataLocator=""
    fontFamily="secondary"
    fontSize="fs14"
    key="lbl_resetPassword_requirementTips_3"
    margin={null}
    numberOfLines={null}
    style={
      Object {
        "width": "100%",
      }
    }
    text="- requirement tip line 3"
    textAlign="start"
    textDecoration={null}
  />
</Fragment>
`;
