// Jest Snapshot v1, https://goo.gl/fbAQLP

exports[`Gift Cards Container should render Gift Card view section 1`] = `
<Styled(BillingSection)
  address={null}
  afterPayInProgress={false}
  appliedGiftCards={Immutable.List []}
  card={null}
  getCVVCodeInfo={[MockFunction]}
  labels={Object {}}
  saveVenmoPaymentOption={[Function]}
/>
`;
