// Jest Snapshot v1, https://goo.gl/fbAQLP

exports[`testing block for VideoPlayer VideoPlayer should be rendered correclty  1`] = `
<StyledNativeComponent
  autoplay="1"
  controls="1"
  disableVideoClickHandler={false}
  forwardedComponent={
    Object {
      "$$typeof": Symbol(react.forward_ref),
      "_foldedDefaultProps": Object {
        "autoplay": "1",
        "controls": "0",
        "disableVideoClickHandler": false,
        "isHomePage": false,
        "link": null,
        "loop": "1",
        "muted": "1",
        "navigation": null,
        "poster": "",
        "videoHeight": 400,
        "videoWidth": 750,
      },
      "attrs": Array [],
      "inlineStyle": InlineStyle {
        "rules": Array [
          "
    ",
          ";
  ",
        ],
      },
      "render": [Function],
      "shouldForwardProp": undefined,
      "styledComponentId": "StyledNativeComponent",
      "target": [Function],
      "withComponent": [Function],
    }
  }
  forwardedRef={null}
  isAnchor={true}
  isHomePage={false}
  link={null}
  loop="1"
  muted="1"
  navigation={null}
  poster=""
  videoHeight={400}
  videoWidth={400}
/>
`;
