// Jest Snapshot v1, https://goo.gl/fbAQLP

exports[`GiftCardForm component Should renders correctly 1`] = `
<Styled(View)>
  <Styled(BodyCopy)
    accessibilityText=""
    dataLocator="Page_Heading_link_header"
    fontFamily="secondary"
    fontSize="fs18"
    fontWeight="bold"
    margin={null}
    numberOfLines={null}
    testId="pageHeading"
    text="How to check your gift card balance"
    textAlign="center"
    textDecoration={null}
  />
  <Styled(Component)
    source={
      Object {
        "testUri": "../../../src/assets/images/e-giftcard-balance-card.png",
      }
    }
    testId="gift-card-image"
  />
  <Styled(View)>
    <Styled(BodyCopy)
      accessibilityText=""
      color="gray.900"
      dataLocator=""
      fontFamily="secondary"
      fontSize="fs14"
      fontWeight="bold"
      margin={null}
      numberOfLines={null}
      text="Step 1"
      textDecoration={null}
    />
    <Styled(View)>
      <Styled(BodyCopy)
        accessibilityText=""
        color="gray.900"
        dataLocator=""
        fontFamily="secondary"
        fontSize="fs14"
        margin={null}
        numberOfLines={null}
        text="Enter gift card number."
        textDecoration={null}
      />
    </Styled(View)>
  </Styled(View)>
  <Styled(View)>
    <Styled(BodyCopy)
      accessibilityText=""
      color="gray.900"
      dataLocator=""
      fontFamily="secondary"
      fontSize="fs14"
      fontWeight="bold"
      margin={null}
      numberOfLines={null}
      text="Step 2"
      textDecoration={null}
    />
    <Styled(View)>
      <Styled(BodyCopy)
        accessibilityText=""
        color="gray.900"
        dataLocator=""
        fontFamily="secondary"
        fontSize="fs14"
        margin={null}
        numberOfLines={null}
        text="Enter PIN number"
        textDecoration={null}
      />
      <Styled(BodyCopy)
        accessibilityText=""
        color="gray.900"
        dataLocator=""
        fontFamily="secondary"
        fontSize="fs12"
        margin={null}
        numberOfLines={null}
        text="(Refer to the example for PIN location)"
        textDecoration={null}
      />
    </Styled(View)>
  </Styled(View)>
  <Styled(View)>
    <Styled(BodyCopy)
      accessibilityText=""
      color="gray.900"
      dataLocator=""
      fontFamily="secondary"
      fontSize="fs14"
      fontWeight="bold"
      margin={null}
      numberOfLines={null}
      text="Step 3"
      textDecoration={null}
    />
    <Styled(View)>
      <Styled(BodyCopy)
        accessibilityText=""
        color="gray.900"
        dataLocator=""
        fontFamily="secondary"
        fontSize="fs14"
        margin={null}
        numberOfLines={null}
        text="Click Check Balance Button"
        textDecoration={null}
      />
    </Styled(View)>
  </Styled(View)>
  <Styled(View)>
    <Styled(BodyCopy)
      accessibilityText=""
      color="gray.900"
      dataLocator=""
      fontFamily="secondary"
      fontSize="fs14"
      fontWeight="bold"
      margin={null}
      numberOfLines={null}
      text="Step 4"
      textDecoration={null}
    />
    <Styled(View)>
      <Styled(BodyCopy)
        accessibilityText=""
        color="gray.900"
        dataLocator=""
        fontFamily="secondary"
        fontSize="fs14"
        margin={null}
        numberOfLines={null}
        text="To check balances on additional gift cards, repeat steps 1-3"
        textDecoration={null}
      />
    </Styled(View)>
  </Styled(View)>
</Styled(View)>
`;
