// Jest Snapshot v1, https://goo.gl/fbAQLP

exports[`GiftCardForm component Should renders correctly 1`] = `
<Hoc
  change={[MockFunction]}
  className="testclass"
  destroyOnUnmount={true}
  enableReinitialize={false}
  forceUnregisterOnUnmount={false}
  form="GiftCard"
  forwardedRef={null}
  getFormState={[Function]}
  giftcardBalanceError=""
  handleSubmit={[MockFunction]}
  keepDirtyOnReinitialize={false}
  labels={Object {}}
  persistentSubmitErrors={false}
  pure={true}
  shouldAsyncValidate={[Function]}
  shouldError={[Function]}
  shouldValidate={[Function]}
  shouldWarn={[Function]}
  submitAsSideEffect={false}
  touchOnBlur={true}
  touchOnChange={false}
  updateUnregisteredFields={false}
  validate={[Function]}
/>
`;

exports[`GiftCardForm component Should renders correctly with error 1`] = `
<Hoc
  change={[MockFunction]}
  className="testclass"
  destroyOnUnmount={true}
  enableReinitialize={false}
  forceUnregisterOnUnmount={false}
  form="GiftCard"
  forwardedRef={null}
  getFormState={[Function]}
  giftcardBalanceError="test error"
  handleSubmit={[MockFunction]}
  keepDirtyOnReinitialize={false}
  labels={Object {}}
  persistentSubmitErrors={false}
  pure={true}
  shouldAsyncValidate={[Function]}
  shouldError={[Function]}
  shouldValidate={[Function]}
  shouldWarn={[Function]}
  submitAsSideEffect={false}
  touchOnBlur={true}
  touchOnChange={false}
  updateUnregisteredFields={false}
  validate={[Function]}
/>
`;
