// Jest Snapshot v1, https://goo.gl/fbAQLP

exports[`ProductRating should render should render correctly 1`] = `
<Styled(View)
  inGridPlpRecommendation={false}
  isNewReDesignProductTile={false}
>
  <View>
    <Styled(View)>
      <Styled(Component)
        isPlaceCashReward={false}
        source={
          Object {
            "testUri": "../../../src/assets/images/stars-rating.png",
          }
        }
      />
    </Styled(View)>
    <Styled(View)
      width="91.99999999999999%"
    >
      <Styled(Component)
        isPlaceCashReward={false}
        source={
          Object {
            "testUri": "../../../src/assets/images/stars-rating.png",
          }
        }
      />
    </Styled(View)>
  </View>
</Styled(View)>
`;
