// Jest Snapshot v1, https://goo.gl/fbAQLP

exports[`FilterButtons component should renders FilterButtons correctly 1`] = `
<Styled(View)>
  <Styled(CustomButton)
    active={false}
    buttonVariation="mobileApp-filter-icon"
    color=""
    customBorderStyle=""
    customIconStyle={Object {}}
    customStyle={Object {}}
    customTextStyle={null}
    data-locator="view_gallery_button"
    disableButton={false}
    fill=""
    fontFamily=""
    fontSize=""
    fontWeight=""
    fullWidth=""
    height={34}
    iconColor="gray.800"
    iconFirst={false}
    iconName="chevron-down"
    iconSize="fs12"
    locator=""
    navigation={Object {}}
    onPress={[Function]}
    paddings="12px 32px 12px 32px"
    selected={false}
    selectedIcon="chevron-up"
    showIcon={true}
    text="FILTER"
    theme={Object {}}
    type="button"
    url=""
    useCustomFontStyle={false}
    width="48%"
    withNoLineHeight={false}
  />
  <Styled(CustomButton)
    active={false}
    buttonVariation="mobileApp-filter-icon"
    color=""
    customBorderStyle=""
    customIconStyle={Object {}}
    customStyle={Object {}}
    customTextStyle={null}
    data-locator="view_gallery_button"
    disableButton={false}
    fill=""
    fontFamily=""
    fontSize=""
    fontWeight=""
    fullWidth=""
    height={34}
    iconColor="gray.800"
    iconFirst={false}
    iconName="chevron-down"
    iconSize="fs12"
    locator=""
    navigation={Object {}}
    onPress={[Function]}
    paddings="12px 32px 12px 32px"
    selected={false}
    selectedIcon="chevron-up"
    showIcon={true}
    text="SORT"
    theme={Object {}}
    type="button"
    url=""
    useCustomFontStyle={false}
    width="48%"
    withNoLineHeight={false}
  />
</Styled(View)>
`;
