// Jest Snapshot v1, https://goo.gl/fbAQLP

exports[`GuidedShoppingColors Shop should render correctly 1`] = `
<div
  className="sc-cugefK eXDlTQ"
>
  <div
    className="guided-shopping-color"
  >
    <Field
      childComponent={
        Object {
          "$$typeof": Symbol(react.forward_ref),
          "attrs": Array [],
          "componentStyle": e {
            "baseHash": 1047419637,
            "baseStyle": undefined,
            "componentId": "sc-bkkeKt",
            "isStatic": false,
            "rules": Array [
              "
  ",
              "
  align-items: ",
              [Function],
              ";

  & .checkBoxLabelAlign {
    display: flex;
  }

  & .labelStyle {
    margin-bottom: 0;
    min-height: 30px;
    display: table;
    margin-top: -3px;

    ",
              [Function],
              "
  }

  & .CheckBox__input {
    flex: 0 0 auto;
    position: relative;
    top: 0;
    appearance: none;
    border: 0;
    height: ",
              "25px",
              ";
    width: ",
              "25px",
              ";
    margin: 0;
    margin-right: ",
              [Function],
              ";
    display: inline-block;
    vertical-align: top;
  }

  & .CheckBox__input:before {
    content: '';
    position: absolute;
    height: 100%;
    width: 100%;
    left: 0;
    border: 1px solid ",
              [Function],
              ";
  }

  & .CheckBox__input:checked:before {
    background: ",
              [Function],
              ";
    border: 1px solid ",
              [Function],
              ";
  }

  & .CheckBox__input:checked:after {
    transform: rotate(225deg);
    content: '';
    border: 2px solid ",
              [Function],
              ";
    font-size: ",
              [Function],
              "px;
    width: ",
              [Function],
              ";
    height: 10px;
    border-right: 0;
    border-bottom: 0;
    left: 10px;
    top: 5px;
    position: absolute;
  }

  & .CheckBox__text {
    display: table-cell;
    vertical-align: middle;

    ",
              [Function],
              "
  }

  & .CheckBox__text a {
    color: ",
              [Function],
              ";
  }

  & .disabled {
    opacity: ",
              [Function],
              ";
  }

  & .Checkbox__error {
    display: flex;
    flex-direction: row;
    padding-left: ",
              [Function],
              ";
  }
  & .warning-icon {
    background: transparent url('",
              [Function],
              "') no-repeat 0
      0;
    background-size: contain;
    border: none;
    height: ",
              [Function],
              ";
    width: ",
              [Function],
              ";
    margin-right: 4px;
    margin-top: 2px;
  }
  & #checkbox__error__iAgree {
    margin-top: 4px;
  }
",
              ";
",
            ],
            "staticRulesId": "",
          },
          "foldedComponentIds": Array [],
          "render": [Function],
          "shouldForwardProp": undefined,
          "styledComponentId": "sc-bkkeKt",
          "target": [Function],
          "toString": [Function],
          "warnTooManyClasses": [Function],
          "withComponent": [Function],
        }
      }
      component={[Function]}
      id="essential_color"
      name="TCPColor_uFilter"
      options={
        Array [
          Object {
            "displayName": "BLUE",
            "facetName": "TCPColor_uFilter",
            "id": "BLUE",
            "imagePath": "https://test4.childrensplace.com/wcsstore/GlobalSAS/images/tcp/category/color-swatches/BLUE.gif",
          },
          Object {
            "displayName": "BLACK",
            "facetName": "TCPColor_uFilter",
            "id": "BLACK",
            "imagePath": "https://test4.childrensplace.com/wcsstore/GlobalSAS/images/tcp/category/color-swatches/BLACK.gif",
          },
          Object {
            "displayName": "RED",
            "facetName": "TCPColor_uFilter",
            "id": "RED",
            "imagePath": "https://test4.childrensplace.com/wcsstore/GlobalSAS/images/tcp/category/color-swatches/RED.gif",
          },
          Object {
            "displayName": "TAN",
            "facetName": "TCPColor_uFilter",
            "id": "TAN",
            "imagePath": "https://test4.childrensplace.com/wcsstore/GlobalSAS/images/tcp/category/color-swatches/TAN.gif",
          },
          Object {
            "displayName": "WHITE",
            "facetName": "TCPColor_uFilter",
            "id": "WHITE",
            "imagePath": "https://test4.childrensplace.com/wcsstore/GlobalSAS/images/tcp/category/color-swatches/WHITE.gif",
          },
          Object {
            "displayName": "GRAY",
            "facetName": "TCPColor_uFilter",
            "id": "GRAY",
            "imagePath": "https://test4.childrensplace.com/wcsstore/GlobalSAS/images/tcp/category/color-swatches/GRAY.gif",
          },
          Object {
            "displayName": "GREEN",
            "facetName": "TCPColor_uFilter",
            "id": "GREEN",
            "imagePath": "https://test4.childrensplace.com/wcsstore/GlobalSAS/images/tcp/category/color-swatches/GREEN.gif",
          },
          Object {
            "displayName": "YELLOW",
            "facetName": "TCPColor_uFilter",
            "id": "YELLOW",
            "imagePath": "https://test4.childrensplace.com/wcsstore/GlobalSAS/images/tcp/category/color-swatches/YELLOW.gif",
          },
          Object {
            "displayName": "ORANGE",
            "facetName": "TCPColor_uFilter",
            "id": "ORANGE",
            "imagePath": "https://test4.childrensplace.com/wcsstore/GlobalSAS/images/tcp/category/color-swatches/ORANGE.gif",
          },
        ]
      }
      type="checkbox"
    />
    <Styled(Col)
      className="button-row"
      colSize={
        Object {
          "large": 12,
          "medium": 8,
          "small": 6,
        }
      }
    >
      <Styled(Button)
        buttonVariation="variable-width"
        fill="BLUE"
        type="submit"
      />
    </Styled(Col)>
  </div>
</div>
`;
