// Jest Snapshot v1, https://goo.gl/fbAQLP

exports[`Account View should render Account Correctly 1`] = `
<Styled(KeyboardAvoidingView)
  behavior="padding"
  enabled={true}
  keyboardVerticalOffset={82}
>
  <Styled(ScrollViewMock)
    keyboardShouldPersistTaps="handled"
  >
    <Styled(MyAccountLayoutView)
      component="addressBookMobile"
      globalLabels={Object {}}
      handleComponentChange={[Function]}
      isUserLoggedIn={false}
      labels={
        Object {
          "account": Object {},
          "common": Object {
            "referred": Array [],
          },
        }
      }
      navData={Array []}
      navigation={Object {}}
    />
  </Styled(ScrollViewMock)>
</Styled(KeyboardAvoidingView)>
`;
