// Jest Snapshot v1, https://goo.gl/fbAQLP

exports[`MyAccountDropdownNav should render correctly 1`] = `
<View
  className=""
  component="Account"
  handleComponentChange={[Function]}
  navData={
    Array [
      Object {
        "component": "overview",
      },
    ]
  }
>
  <Styled(DropDown)
    arrowImageStyle={
      Object {
        "position": "absolute",
        "right": 20,
      }
    }
    bounces={false}
    customDropDownHeight=""
    data={
      Array [
        Object {
          "component": "overview",
        },
      ]
    }
    disabled={false}
    dropDownItemFontWeight="regular"
    dropDownStyle={
      Object {
        "border": 1,
        "height": 49,
      }
    }
    heading=""
    highlightStyle=""
    isAnimateList={true}
    itemStyle={
      Object {
        "color": "gray.800",
        "height": 49,
      }
    }
    onPressOut={[Function]}
    onValueChange={[Function]}
    openDropdownOnLoad={false}
    selectedItemFontWeight="black"
    selectedValue="Account"
    showAnimatedBorder={false}
    variation="primary"
  />
</View>
`;
