// Jest Snapshot v1, https://goo.gl/fbAQLP

exports[`SearchProduct should render correctly should match snapshot 1`] = `
<ScrollViewMock
  keyboardShouldPersistTaps="handled"
>
  <PromoModules
    asPath=""
    navigation={null}
    plpTopPromos={null}
  />
  <Styled(FlatList)
    ItemSeparatorComponent={[Function]}
    contentContainerStyle={
      Object {
        "paddingBottom": 32,
      }
    }
    data={Array []}
    keyExtractor={[Function]}
    renderItem={[Function]}
  />
</ScrollViewMock>
`;
