// Jest Snapshot v1, https://goo.gl/fbAQLP

exports[`RecomStyleWith component should renders correctly 1`] = `
<div
  className=""
>
  <Styled(BodyCopy)
    className="section-styled-heading"
    color="text.primary"
    component="h2"
    customStyle={Object {}}
    fontFamily="secondary"
    fontSize="fs16"
    fontWeight="semibold"
    id="recommendation"
    letterSpacing="normal"
    lineHeight="normal"
    link={null}
    textAlign="left"
  >
    <Styled(BodyCopy)
      className={null}
      color="black"
      component="span"
      customStyle={Object {}}
      fontFamily="secondary"
      fontSize="fs16"
      fontWeight="semibold"
      letterSpacing="normal"
      lineHeight="normal"
      link={null}
      textAlign="left"
    />
  </Styled(BodyCopy)>
  <Styled(Row)>
    <Styled(Col)
      className="product-breadcrumb-wrapper"
      colSize={
        Object {
          "large": 6,
          "medium": 4,
          "small": 3,
        }
      }
    >
      <Styled(BodyCopy)
        className={null}
        color="text.primary"
        component="div"
        customStyle={Object {}}
        fontFamily="primary"
        fontSize={12}
        fontWeight="regular"
        letterSpacing="normal"
        lineHeight="normal"
        link={null}
        textAlign="center"
      >
        <ProductImageWrapper
          TCPStyleQTY={0}
          TCPStyleType=""
          accessibilityLabels={Object {}}
          checkForOOSForVariant={false}
          completeLookSlotTile={Object {}}
          currentColorEntry={Object {}}
          currentProduct={
            Object {
              "imagesByColor": Array [],
            }
          }
          deleteFavItemInProgressFlag={false}
          formName="ProductAddToBag"
          fromPLPPage={false}
          hasABTestForPDPColorOrImageSwatchHover={false}
          images={
            Array [
              Object {
                "regularSizeImageUrl": undefined,
              },
            ]
          }
          imagesByColor={Object {}}
          imgConfigVal={Array []}
          initialValues={Object {}}
          isCompleteTheLookTestEnabled={false}
          isDynamicBadgeEnabled={false}
          isGiftCard={false}
          isInWishList={false}
          isLoggedIn={false}
          isNewPDPEnabled={false}
          isNewQVEnabled={false}
          isPDPSmoothScrollEnabled={false}
          isStyleWith={true}
          itemPartNumber=""
          keepAlive={false}
          largeImageNameOnHover=""
          onAddItemToFavorites={[Function]}
          onChangeColor={[Function]}
          onSetLastDeletedItemIdAction={[Function]}
          outOfStockLabels={
            Object {
              "outOfStockCaps": "",
            }
          }
          pageName=""
          pdpLabels={Array []}
          productInfo={Object {}}
          productMiscInfo={
            Object {
              "isInDefaultWishlist": false,
            }
          }
          productName=""
          selectedColorProductId=""
          skuId=""
          wishList={Object {}}
        />
        <Styled(Anchor)
          className="view-product-details"
          fontSizeVariation="medium"
          noLink={true}
          onClick={[Function]}
          underline={true}
        />
      </Styled(BodyCopy)>
    </Styled(Col)>
    <Styled(Col)
      className="product-breadcrumb-wrapper"
      colSize={
        Object {
          "large": 6,
          "medium": 4,
          "small": 3,
        }
      }
    >
      <Product
        AddToFavoriteErrorMsg=""
        TCPStyleQTY=""
        countUpdated={false}
        currencySign=""
        currencySymbol=""
        deleteFavItemInProgressFlag={false}
        errorMessages={Object {}}
        handleRatingClick={[Function]}
        hideItemProp={false}
        hidePriceDisplay={false}
        isAfterPayDisplay={false}
        isBrierleyPromoEnabled={false}
        isBundleProduct={false}
        isOutfitPage={false}
        isPerUnitPriceEnabled={false}
        isShowBrandNameEnabled={false}
        isStyleWith={true}
        keepAlive={false}
        onSetLastDeletedItemIdAction={[Function]}
        openModal={[Function]}
        outOfStockLabels={
          Object {
            "itemSoldOutMessage": "",
          }
        }
        pdpLabels={Object {}}
        productDetails={
          Object {
            "currentProduct": Object {
              "imagesByColor": Array [],
            },
          }
        }
        productObj={Object {}}
        removeAddToFavoritesErrorMsg={[Function]}
        selectedMultipack="1"
        socialProofMessage=""
        wishList={Object {}}
      />
      <Connect(ProductAddToBagContainer)
        addToBagErrorId=""
        currentProduct={
          Object {
            "imagesByColor": Array [],
          }
        }
        customFormName="styleWithForm"
        errorOnHandleSubmit=""
        handleFormSubmit={[Function]}
        initialFormValues={
          Object {
            "Fit": "",
            "Quantity": 1,
            "Size": "",
            "color": undefined,
          }
        }
        isKeepAliveEnabled={true}
        isStyleWith={true}
        onChangeColor={[Function]}
        onChangeSize={[Function]}
        plpLabels={Array []}
        renderReceiveProps={false}
      />
    </Styled(Col)>
  </Styled(Row)>
</div>
`;
