// Jest Snapshot v1, https://goo.gl/fbAQLP

exports[`EmailSignupModal component renders correctly 1`] = `
<div
  className=""
  id="sign-up-modal-confirm-view"
>
  <Styled(BodyCopy)
    className="thank-you__label"
    color="text.primary"
    component="p"
    customStyle={Object {}}
    data-locator="sms_thank_you_message"
    fontFamily="primary"
    fontSize={
      Array [
        "fs28",
        "fs28",
        "fs38",
      ]
    }
    fontWeight="black"
    letterSpacing="normal"
    lineHeight="normal"
    link={null}
    textAlign="center"
  />
  <Styled(BodyCopy)
    className="confirmation-label"
    color="text.primary"
    component="p"
    customStyle={Object {}}
    data-locator="sms_copy_text_01"
    fontFamily="secondary"
    fontSize={
      Array [
        "fs18",
        "fs18",
        "fs22",
      ]
    }
    fontWeight="regular"
    letterSpacing="normal"
    lineHeight="normal"
    link={null}
    textAlign="center"
  />
  <Styled(Image)
    alt="sms-icon"
    aria-hidden="true"
    className="confirmation-image"
    data-locator="sms_icon"
    src="undefined/ecom/assets/static/icon/chat-blue.png"
  />
  <Styled(BodyCopy)
    className="first-label"
    color="primary.dark"
    component="p"
    customStyle={Object {}}
    data-locator="sms_copy_text_02"
    fontFamily="secondary"
    fontSize={
      Array [
        "fs22",
        "fs22",
        "fs28",
      ]
    }
    fontWeight="semibold"
    letterSpacing="normal"
    lineHeight="normal"
    link={null}
    textAlign="center"
  />
  <Styled(BodyCopy)
    className="redeem-label"
    color="text.primary"
    component="p"
    customStyle={Object {}}
    data-locator="sms_copy_text_03"
    fontFamily="secondary"
    fontSize={
      Array [
        "fs16",
        "f16",
        "fs18",
      ]
    }
    fontWeight="regular"
    letterSpacing="normal"
    lineHeight="normal"
    link={null}
    textAlign="center"
  />
  <Styled(RichText)
    className="tnc-label"
    data-locator="sms_copy_text_04"
    fontFamily="secondary"
  />
</div>
`;
