// Jest Snapshot v1, https://goo.gl/fbAQLP

exports[`ProductCustomizeFormPart component should renders correctly 1`] = `
<Styled(View)
  borderBottomColor="#979797"
  borderBottomWidth={0}
>
  <Styled(View)
    pointerEvents="none"
  >
    <Styled(View)>
      <Styled(View)>
        <Styled(DamImage)
          alt=""
          badgeConfig={
            Array [
              "g_west,w_0.22,fl_relative",
              "g_west,w_0.22,fl_relative",
              "g_west,w_0.22,fl_relative",
            ]
          }
          cacheType="immutable"
          checkBrand=""
          crop=""
          customStyle={null}
          disableVideoClickHandler={false}
          dynamicBadgeOverlayQty={0}
          height={198}
          host=""
          imgConfig="t_plp_img_m"
          imgData={null}
          isBackground={true}
          isBorderVideo={false}
          isFastImage={false}
          isHomePage={false}
          isNewReDesignEnabled={false}
          isOptimizedVideo={false}
          isProductImage={true}
          itemBrand={null}
          link={null}
          navigation={null}
          onError={[Function]}
          onLoadStart={[Function]}
          onProgress={[Function]}
          overrideStyle={null}
          priority="normal"
          renderVideoAsImage={false}
          resizeMode="contain"
          source=""
          swatchConfig=""
          url=""
          videoData={null}
          videoTransformation="t_plp_gif_app,dpr_2.0"
          width={161}
        />
        <Styled(Anchor)
          accessibilityLabel=""
          anchorVariation=""
          colorName={null}
          customStyle={Object {}}
          hitSlop={Object {}}
          justifyContent=""
          locator=""
          margins={null}
          noLink={true}
          onPress={[Function]}
          overrideStyle={Object {}}
          text=""
          visible={false}
        >
          <Styled(BodyCopy)
            accessibilityText=""
            dataLocator=""
            fontFamily="secondary"
            fontSize="fs14"
            fontWeight="regular"
            margin={null}
            numberOfLines={null}
            textDecoration="underline"
          />
        </Styled(Anchor)>
      </Styled(View)>
      <Styled(View)>
        <Styled(Styled(BodyCopy))
          accessibilityText=""
          dataLocator=""
          fontFamily="secondary"
          fontSize="fs18"
          fontWeight="extrabold"
          margin={null}
          numberOfLines={null}
          spacingStyles="padding-bottom-SM"
          text="Boys Uniform V Neck Sweater"
          textDecoration={null}
        />
        <Styled(View)>
          <Styled(BodyCopy)
            accessibilityText=""
            color="red.500"
            dataLocator="pdp_current_product_price"
            fontFamily="secondary"
            fontSize="fs22"
            fontWeight="black"
            margin={null}
            numberOfLines={null}
            text="18.71"
            textDecoration={null}
          />
          <Styled(View)>
            <Styled(BodyCopy)
              accessibilityText="undefined 24.95"
              color="gray.800"
              dataLocator="pdp_discounted_product_price"
              fontFamily="secondary"
              fontSize="fs14"
              fontWeight="regular"
              margin={null}
              numberOfLines={null}
              text="24.95"
              textDecoration="line-through"
            />
            <Styled(BodyCopy)
              accessibilityText=""
              color="red.500"
              dataLocator="pdp_discounted_percentage"
              fontFamily="secondary"
              fontSize="fs14"
              fontWeight="regular"
              margin="0 0 0 4px"
              numberOfLines={null}
              text="25% OFF"
              textDecoration={null}
            />
          </Styled(View)>
        </Styled(View)>
        <Styled(View)>
          <Connect(AfterPayMessagingContainer)
            offerPrice="18.71"
          />
        </Styled(View)>
      </Styled(View)>
    </Styled(View)>
    <Connect(ProductAddToBagContainer)
      availableTCPmapNewStyleId={Array []}
      badge2="25% OFF"
      className=""
      colorFitsSizesMap={
        Array [
          Object {
            "categoryEntity": "Boy:School Uniforms",
            "color": Object {
              "family": "BLUE",
              "imagePath": "https://test4.childrensplace.com/wcsstore/GlobalSAS/images/tcp/products/swatches/2100606_IV.jpg",
              "name": "TIDAL",
            },
            "colorDisplayId": "2100606_IV",
            "colorProductId": "1118007",
            "favoritedCount": 1529,
            "fits": Array [
              Object {
                "fitNameVal": "",
                "isDefault": true,
                "maxAvailable": 1.7976931348623157e+308,
                "sizes": Array [
                  Object {
                    "listPrice": 24.95,
                    "maxAvailable": 191,
                    "offerPrice": 18.71,
                    "position": 0,
                    "sizeName": "XS (4)",
                    "skuId": "1118991",
                    "variantId": "00191755242996",
                    "variantNo": "2100606007",
                  },
                  Object {
                    "listPrice": 24.95,
                    "maxAvailable": 2238,
                    "offerPrice": 18.71,
                    "position": 1,
                    "sizeName": "S (5/6)",
                    "skuId": "1119731",
                    "variantId": "00191755243009",
                    "variantNo": "2100606008",
                  },
                  Object {
                    "listPrice": 24.95,
                    "maxAvailable": 3493,
                    "offerPrice": 18.71,
                    "position": 2,
                    "sizeName": "M (7/8)",
                    "skuId": "1118373",
                    "variantId": "00191755243016",
                    "variantNo": "2100606009",
                  },
                  Object {
                    "listPrice": 24.95,
                    "maxAvailable": 2641,
                    "offerPrice": 18.71,
                    "position": 3,
                    "sizeName": "L (10/12)",
                    "skuId": "1118587",
                    "variantId": "00191755243023",
                    "variantNo": "2100606010",
                  },
                  Object {
                    "listPrice": 24.95,
                    "maxAvailable": 991,
                    "offerPrice": 18.71,
                    "position": 4,
                    "sizeName": "XL (14)",
                    "skuId": "1118691",
                    "variantId": "00191755243030",
                    "variantNo": "2100606011",
                  },
                  Object {
                    "listPrice": 24.95,
                    "maxAvailable": 822,
                    "offerPrice": 18.71,
                    "position": 5,
                    "sizeName": "XXL (16)",
                    "skuId": "1118794",
                    "variantId": "00191755243047",
                    "variantNo": "2100606012",
                  },
                ],
              },
            ],
            "hasFits": false,
            "imageName": "2100606_IV",
            "listPrice": 24.95,
            "maxAvailable": 10376,
            "maxAvailableBoss": 0,
            "miscInfo": Object {
              "badge1": Object {
                "defaultBadge": "ONLINE EXCLUSIVE",
                "matchBadge": false,
              },
              "badge2": "25% OFF",
              "isBopisEligible": false,
              "isBossEligible": false,
              "keepAlive": false,
            },
            "offerPrice": 18.71,
            "pdpUrl": "/p/2100606_IV",
          },
        ]
      }
      currencyExchange=""
      currencySymbol=""
      currentProduct={
        Object {
          "alternateSizes": Object {},
          "bundleProducts": Array [],
          "categoryId": "47503>47539",
          "colorFitSizeDisplayNames": null,
          "colorFitsSizesMap": Array [
            Object {
              "color": Object {
                "family": "GRAY",
                "imagePath": "https://test4.childrensplace.com/wcsstore/GlobalSAS/images/tcp/products/swatches/2100606_1137.jpg",
                "name": "SMOKEB10",
              },
              "colorDisplayId": "2100606_1137",
              "colorProductId": "1118006",
              "favoritedCount": 991,
              "fits": Array [
                Object {
                  "fitNameVal": "",
                  "isDefault": true,
                  "maxAvailable": 1.7976931348623157e+308,
                  "sizes": Array [
                    Object {
                      "listPrice": 24.95,
                      "maxAvailable": 218,
                      "offerPrice": 18.71,
                      "position": 0,
                      "sizeName": "XS (4)",
                      "skuId": "1118990",
                      "variantId": "00191755242934",
                      "variantNo": "2100606001",
                    },
                    Object {
                      "listPrice": 24.95,
                      "maxAvailable": 1065,
                      "offerPrice": 18.71,
                      "position": 1,
                      "sizeName": "S (5/6)",
                      "skuId": "1119730",
                      "variantId": "00191755242941",
                      "variantNo": "2100606002",
                    },
                    Object {
                      "listPrice": 24.95,
                      "maxAvailable": 1730,
                      "offerPrice": 18.71,
                      "position": 2,
                      "sizeName": "M (7/8)",
                      "skuId": "1118372",
                      "variantId": "00191755242958",
                      "variantNo": "2100606003",
                    },
                    Object {
                      "listPrice": 24.95,
                      "maxAvailable": 1417,
                      "offerPrice": 18.71,
                      "position": 3,
                      "sizeName": "L (10/12)",
                      "skuId": "1118586",
                      "variantId": "00191755242965",
                      "variantNo": "2100606004",
                    },
                    Object {
                      "listPrice": 24.95,
                      "maxAvailable": 630,
                      "offerPrice": 18.71,
                      "position": 4,
                      "sizeName": "XL (14)",
                      "skuId": "1118690",
                      "variantId": "00191755242972",
                      "variantNo": "2100606005",
                    },
                    Object {
                      "listPrice": 24.95,
                      "maxAvailable": 375,
                      "offerPrice": 18.71,
                      "position": 5,
                      "sizeName": "XXL (16)",
                      "skuId": "1118793",
                      "variantId": "00191755242989",
                      "variantNo": "2100606006",
                    },
                  ],
                },
              ],
              "hasFits": false,
              "imageName": "2100606_1137",
              "listPrice": 24.95,
              "maxAvailable": 5435,
              "maxAvailableBoss": 0,
              "miscInfo": Object {
                "badge1": Object {
                  "defaultBadge": "ONLINE EXCLUSIVE",
                  "matchBadge": false,
                },
                "badge2": "25% OFF",
                "isBopisEligible": false,
                "isBossEligible": false,
                "keepAlive": false,
              },
              "offerPrice": 18.71,
              "pdpUrl": "/p/2100606_1137",
            },
          ],
          "generalProductId": "2100606_IV",
          "highListPrice": 0,
          "highOfferPrice": 0,
          "imagesByColor": Object {
            "SMOKEB10": Object {
              "basicImageUrl": "https://test4.childrensplace.com/wcsstore/GlobalSAS/images/tcp/products/500/2100606_1137.jpg",
              "extraImages": Array [
                Object {
                  "bigSizeImageUrl": "https://test4.childrensplace.com/wcsstore/GlobalSAS/images/tcp/products/900/2100606_1137.jpg",
                  "iconSizeImageUrl": "https://test4.childrensplace.com/wcsstore/GlobalSAS/images/tcp/products/125/2100606_1137.jpg",
                  "isOnModalImage": false,
                  "listingSizeImageUrl": "https://test4.childrensplace.com/wcsstore/GlobalSAS/images/tcp/products/380/2100606_1137.jpg",
                  "regularSizeImageUrl": "https://test4.childrensplace.com/wcsstore/GlobalSAS/images/tcp/products/500/2100606_1137.jpg",
                  "superSizeImageUrl": "https://test4.childrensplace.com/wcsstore/GlobalSAS/images/tcp/products/900/2100606_1137.jpg",
                },
                Object {
                  "bigSizeImageUrl": "https://test4.childrensplace.com/wcsstore/GlobalSAS/images/tcp/products/900/2100606_1137-1.jpg",
                  "iconSizeImageUrl": "https://test4.childrensplace.com/wcsstore/GlobalSAS/images/tcp/products/125/2100606_1137-1.jpg",
                  "isOnModalImage": false,
                  "listingSizeImageUrl": "https://test4.childrensplace.com/wcsstore/GlobalSAS/images/tcp/products/380/2100606_1137-1.jpg",
                  "regularSizeImageUrl": "https://test4.childrensplace.com/wcsstore/GlobalSAS/images/tcp/products/500/2100606_1137-1.jpg",
                  "superSizeImageUrl": "https://test4.childrensplace.com/wcsstore/GlobalSAS/images/tcp/products/900/2100606_1137-1.jpg",
                },
              ],
            },
            "TIDAL": Object {
              "basicImageUrl": "https://test4.childrensplace.com/wcsstore/GlobalSAS/images/tcp/products/500/2100606_IV.jpg",
              "extraImages": Array [
                Object {
                  "bigSizeImageUrl": "https://test4.childrensplace.com/wcsstore/GlobalSAS/images/tcp/products/900/2100606_IV.jpg",
                  "iconSizeImageUrl": "https://test4.childrensplace.com/wcsstore/GlobalSAS/images/tcp/products/125/2100606_IV.jpg",
                  "isOnModalImage": false,
                  "listingSizeImageUrl": "https://test4.childrensplace.com/wcsstore/GlobalSAS/images/tcp/products/380/2100606_IV.jpg",
                  "regularSizeImageUrl": "https://test4.childrensplace.com/wcsstore/GlobalSAS/images/tcp/products/500/2100606_IV.jpg",
                  "superSizeImageUrl": "https://test4.childrensplace.com/wcsstore/GlobalSAS/images/tcp/products/900/2100606_IV.jpg",
                },
                Object {
                  "bigSizeImageUrl": "https://test4.childrensplace.com/wcsstore/GlobalSAS/images/tcp/products/900/2100606_IV-1.jpg",
                  "iconSizeImageUrl": "https://test4.childrensplace.com/wcsstore/GlobalSAS/images/tcp/products/125/2100606_IV-1.jpg",
                  "isOnModalImage": false,
                  "listingSizeImageUrl": "https://test4.childrensplace.com/wcsstore/GlobalSAS/images/tcp/products/380/2100606_IV-1.jpg",
                  "regularSizeImageUrl": "https://test4.childrensplace.com/wcsstore/GlobalSAS/images/tcp/products/500/2100606_IV-1.jpg",
                  "superSizeImageUrl": "https://test4.childrensplace.com/wcsstore/GlobalSAS/images/tcp/products/900/2100606_IV-1.jpg",
                },
              ],
            },
          },
          "isGiftCard": false,
          "listPrice": 24.95,
          "longDescription": "<li>Made of 100% cotton in a sweater knit</li><li>Rib-knit V neck, sleeve cuffs and hem</li><li>Fully-fashioned sleeves for ease of movement</li><li>Pre-washed for added softness and to reduce shrinkage</li><li>Imported</li>",
          "long_product_title": "Boys Uniform Long Sleeve V Neck Sweater",
          "lowListPrice": 24.95,
          "lowOfferPrice": 18.71,
          "name": "Boys Uniform V Neck Sweater",
          "offerPrice": 18.71,
          "pdpUrl": "/p/2100606_IV",
          "productId": "2100606_IV",
          "promotionalMessage": "",
          "promotionalPLCCMessage": "",
          "ratings": 0,
          "ratingsProductId": "2100606",
          "reviewsCount": 0,
          "shortDescription": "School-approved style for your super cool dude!",
          "unbxdProdId": "2100606_IV",
        }
      }
      errorOnHandleSubmit=""
      formValues={
        Object {
          "Fit": "regular",
          "Quantity": 1,
          "Size": "",
          "color": "SMOKEB10",
        }
      }
      hideAlternateSizes={true}
      initialFormValues={
        Object {
          "Fit": "regular",
          "Quantity": 1,
          "Size": "",
          "color": "SMOKEB10",
        }
      }
      isCanada={false}
      isDynamicBadgeEnabled={Object {}}
      isFavoriteEdit={false}
      isFromBagProductSfl={false}
      isHasPlcc={false}
      isInternationalShipping={false}
      itemBrand={null}
      navigation={Object {}}
      onChangeSize={[Function]}
      onCloseClick={[Function]}
      onFitChange={[Function]}
      plpLabels={Object {}}
      priceCurrency=""
      showAddToBagCTA={true}
      showColorChips={true}
      toastMessage={[Function]}
    />
  </Styled(View)>
</Styled(View)>
`;
