// Jest Snapshot v1, https://goo.gl/fbAQLP

exports[`Gift Cards Container should render Gift Card view section 1`] = `
<Styled(GiftCards)
  ServerErrors={Object {}}
  appliedGiftCards={
    Immutable.List [
      Immutable.Map {
        "creditCardId": 123,
        "name": "test",
        "onFileCardId": 123,
      },
      Immutable.Map {
        "creditCardId": 124,
        "name": "test",
        "onFileCardId": 124,
      },
    ]
  }
  applyExistingGiftCardToOrder={[Function]}
  enableAddGiftCard={false}
  getAddGiftCardError={[Function]}
  giftCardErrors={Object {}}
  giftCardList={Array []}
  handleRemoveGiftCard={[MockFunction]}
  hideAddGiftCard={[MockFunction]}
  isExpressCheckout={false}
  isFetching={false}
  isFromReview={false}
  isGuestUser={false}
  isLoading={false}
  isPaymentDisabled={false}
  isRecapchaEnabled={false}
  labels={Object {}}
  maxGiftCards={0}
  onAddGiftCardClick={[Function]}
  onClearError={[Function]}
  orderBalanceTotal={50}
  showAddGiftCard={[Function]}
  toastMessage={[MockFunction]}
/>
`;
