// Jest Snapshot v1, https://goo.gl/fbAQLP

exports[`ModuleComponent component should render correctly 1`] = `
<React.Fragment>
  <ForwardRef(styled.div)
    className="  styled-container"
  >
    <React.Fragment>
      <ForwardRef(styled.div)
        bkgColor={null}
        bkgImgUrl={
          Object {
            "bkgImgDUrl": undefined,
            "bkgImgMUrl": undefined,
            "bkgImgTUrl": undefined,
          }
        }
        borderUrl={
          Object {
            "desktopUrl": undefined,
            "mobileUrl": undefined,
            "tabletUrl": undefined,
          }
        }
        borderWidth={
          Object {
            "width": undefined,
            "widthM": undefined,
            "widthT": undefined,
          }
        }
        className="styled-column"
        headerVariationValue={
          Object {
            "position": undefined,
            "positionDLeft": undefined,
            "positionDRight": undefined,
            "positionDTop": undefined,
            "positionTLeft": undefined,
            "positionTRight": undefined,
            "positionTTop": undefined,
            "variation": undefined,
          }
        }
        isOverlayVariation={false}
        spacing={
          Object {
            "spacingD": "medium",
            "spacingM": "medium",
            "spacingT": "medium",
          }
        }
        style={Object {}}
        widthT="33.33"
      >
        <React.Fragment />
        <React.Fragment />
        <ForwardRef(Styled(TextComponent))
          headerTextLine={
            Object {
              "icon": Object {
                "icon": "",
                "placement": "",
              },
              "link": Object {
                "action": "",
                "external": 0,
                "target": "",
                "text": "Let's See",
                "title": "",
                "url": "/search/graphic-tees?icid=hp_s2_text_all_051120_shorts",
              },
              "textItems": Array [
                Object {
                  "style": "spaced_text",
                  "text": "some test",
                },
                Object {
                  "style": "medium_text_black",
                  "text": "Sub Header Text",
                },
              ],
            }
          }
        />
        <ForwardRef(Styled(BodyCopy))
          className="medium_text_regular"
          color="text.primary"
          component="p"
          customStyle={Object {}}
          fontFamily="primary"
          fontSize={12}
          fontWeight="regular"
          letterSpacing="normal"
          lineHeight="normal"
          link={null}
          textAlign="left"
        >
          Simple Text
        </ForwardRef(Styled(BodyCopy))>
      </ForwardRef(styled.div)>
    </React.Fragment>
    <React.Fragment>
      <ForwardRef(styled.div)
        bkgColor={null}
        bkgImgUrl={
          Object {
            "bkgImgDUrl": undefined,
            "bkgImgMUrl": undefined,
            "bkgImgTUrl": undefined,
          }
        }
        borderUrl={
          Object {
            "desktopUrl": undefined,
            "mobileUrl": undefined,
            "tabletUrl": undefined,
          }
        }
        borderWidth={
          Object {
            "width": undefined,
            "widthM": undefined,
            "widthT": undefined,
          }
        }
        className="styled-column"
        headerVariationValue={
          Object {
            "position": undefined,
            "positionDLeft": undefined,
            "positionDRight": undefined,
            "positionDTop": undefined,
            "positionTLeft": undefined,
            "positionTRight": undefined,
            "positionTTop": undefined,
            "variation": undefined,
          }
        }
        isOverlayVariation={false}
        spacing={
          Object {
            "spacingD": "medium",
            "spacingM": "medium",
            "spacingT": "medium",
          }
        }
        style={Object {}}
        widthT="50.00"
      >
        <React.Fragment />
        <DamImage
          imgData={
            Object {
              "alt": "Sample",
              "crop_d": "",
              "crop_m": "",
              "crop_t": "",
              "title": "Sample",
              "url": "/ecom/assets/content/tcp/us/homepage/042320/tile-2_3x.png",
              "url_m": "",
              "url_t": "",
            }
          }
          width="100%"
        />
        <React.Fragment />
        <ForwardRef(Styled(Styled(Button)))
          buttonVariation="fixed-width"
          cta={
            Object {
              "action": "",
              "external": 0,
              "target": "",
              "text": "GIRL",
              "title": "",
              "url": "/c/girls-clothing-school-uniforms?icid=hp_s8_button_g_070820_uniform",
            }
          }
        >
          GIRL
        </ForwardRef(Styled(Styled(Button)))>
        <React.Fragment />
      </ForwardRef(styled.div)>
    </React.Fragment>
    <React.Fragment>
      <ForwardRef(styled.div)
        bkgColor={null}
        bkgImgUrl={
          Object {
            "bkgImgDUrl": undefined,
            "bkgImgMUrl": undefined,
            "bkgImgTUrl": undefined,
          }
        }
        borderUrl={
          Object {
            "desktopUrl": undefined,
            "mobileUrl": undefined,
            "tabletUrl": undefined,
          }
        }
        borderWidth={
          Object {
            "width": undefined,
            "widthM": undefined,
            "widthT": undefined,
          }
        }
        className="styled-column"
        headerVariationValue={
          Object {
            "position": undefined,
            "positionDLeft": undefined,
            "positionDRight": undefined,
            "positionDTop": undefined,
            "positionTLeft": undefined,
            "positionTRight": undefined,
            "positionTTop": undefined,
            "variation": undefined,
          }
        }
        isCtaItems={
          Array [
            Object {
              "button": Object {
                "action": "",
                "external": 0,
                "target": "",
                "text": "GIRLS",
                "title": "",
                "url": "/search/girl-all?icid=hp_s2_button_g_072120_main",
              },
              "ctaType": "linkList",
              "featured": "true",
            },
            Object {
              "button": Object {
                "action": "",
                "external": 0,
                "target": "",
                "text": "BOYS",
                "title": "",
                "url": "/search/boy-all?icid=hp_s2_button_b_072120_main",
              },
              "ctaType": "linkList",
            },
          ]
        }
        isOverlayVariation={false}
        spacing={
          Object {
            "spacingD": "medium",
            "spacingM": "medium",
            "spacingT": "medium",
          }
        }
        style={Object {}}
        widthT="33.33"
      >
        <React.Fragment />
        <React.Fragment />
        <ForwardRef(styled.div)
          className="styled-cta-container"
          ctaBgImageObj={false}
          ctaTypeValue="linkList"
          style={Object {}}
        >
          <ForwardRef(styled.div)
            className="styled-cta-items"
            ctaEnableVariation={
              Array [
                Object {
                  "button": Object {
                    "action": "",
                    "external": 0,
                    "target": "",
                    "text": "GIRLS",
                    "title": "",
                    "url": "/search/girl-all?icid=hp_s2_button_g_072120_main",
                  },
                  "ctaType": "linkList",
                  "featured": "true",
                },
                Object {
                  "button": Object {
                    "action": "",
                    "external": 0,
                    "target": "",
                    "text": "BOYS",
                    "title": "",
                    "url": "/search/boy-all?icid=hp_s2_button_b_072120_main",
                  },
                  "ctaType": "linkList",
                },
              ]
            }
            ctaTypeValue="linkList"
            style={Object {}}
          >
            <ForwardRef(Styled(CTAItems))
              ctaItems={
                Array [
                  Object {
                    "button": Object {
                      "action": "",
                      "external": 0,
                      "target": "",
                      "text": "GIRLS",
                      "title": "",
                      "url": "/search/girl-all?icid=hp_s2_button_g_072120_main",
                    },
                    "ctaType": "linkList",
                    "featured": "true",
                  },
                  Object {
                    "button": Object {
                      "action": "",
                      "external": 0,
                      "target": "",
                      "text": "BOYS",
                      "title": "",
                      "url": "/search/boy-all?icid=hp_s2_button_b_072120_main",
                    },
                    "ctaType": "linkList",
                  },
                ]
              }
              styleOverrides={
                Object {
                  "button": Object {},
                  "col1-cta-bottom": Object {},
                  "col1-cta-top": Object {},
                  "col1-header1-bottom": Object {},
                  "col1-header1-bottom-left": Object {},
                  "col1-header1-bottom-right": Object {},
                  "col1-header1-top": Object {},
                  "col1-header1-top-left": Object {},
                  "col1-header1-top-right": Object {},
                  "col1-header2-bottom": Object {},
                  "col1-header2-bottom-left": Object {},
                  "col1-header2-bottom-right": Object {},
                  "col1-header2-top": Object {},
                  "col1-header2-top-left": Object {},
                  "col1-header2-top-right": Object {},
                  "col1-imgHeight": Object {},
                  "col1-media-bottom": Object {},
                  "col1-media-bottom-left": Object {},
                  "col1-media-bottom-right": Object {},
                  "col1-media-top": Object {},
                  "col1-media-top-left": Object {},
                  "col1-media-top-right": Object {},
                  "col2-cta-bottom": Object {},
                  "col2-cta-top": Object {},
                  "col2-header1-bottom": Object {},
                  "col2-header1-bottom-left": Object {},
                  "col2-header1-bottom-right": Object {},
                  "col2-header1-top": Object {},
                  "col2-header1-top-left": Object {},
                  "col2-header1-top-right": Object {},
                  "col2-header2-bottom": Object {},
                  "col2-header2-bottom-left": Object {},
                  "col2-header2-bottom-right": Object {},
                  "col2-header2-top": Object {},
                  "col2-header2-top-left": Object {},
                  "col2-header2-top-right": Object {},
                  "col2-imgHeight": Object {},
                  "col2-media-bottom": Object {},
                  "col2-media-bottom-left": Object {},
                  "col2-media-bottom-right": Object {},
                  "col2-media-top": Object {},
                  "col2-media-top-left": Object {},
                  "col2-media-top-right": Object {},
                  "col3-cta-bottom": Object {},
                  "col3-cta-top": Object {},
                  "col3-header1-bottom": Object {},
                  "col3-header1-bottom-left": Object {},
                  "col3-header1-bottom-right": Object {},
                  "col3-header1-top": Object {},
                  "col3-header1-top-left": Object {},
                  "col3-header1-top-right": Object {},
                  "col3-header2-bottom": Object {},
                  "col3-header2-bottom-left": Object {},
                  "col3-header2-bottom-right": Object {},
                  "col3-header2-top": Object {},
                  "col3-header2-top-left": Object {},
                  "col3-header2-top-right": Object {},
                  "col3-imgHeight": Object {},
                  "col3-media-bottom": Object {},
                  "col3-media-bottom-left": Object {},
                  "col3-media-bottom-right": Object {},
                  "col3-media-top": Object {},
                  "col3-media-top-left": Object {},
                  "col3-media-top-right": Object {},
                  "col4-cta-bottom": Object {},
                  "col4-cta-top": Object {},
                  "col4-header1-bottom": Object {},
                  "col4-header1-bottom-left": Object {},
                  "col4-header1-bottom-right": Object {},
                  "col4-header1-top": Object {},
                  "col4-header1-top-left": Object {},
                  "col4-header1-top-right": Object {},
                  "col4-header2-bottom": Object {},
                  "col4-header2-bottom-left": Object {},
                  "col4-header2-bottom-right": Object {},
                  "col4-header2-top": Object {},
                  "col4-header2-top-left": Object {},
                  "col4-header2-top-right": Object {},
                  "col4-imgHeight": Object {},
                  "col4-media-bottom": Object {},
                  "col4-media-bottom-left": Object {},
                  "col4-media-bottom-right": Object {},
                  "col4-media-top": Object {},
                  "col4-media-top-left": Object {},
                  "col4-media-top-right": Object {},
                  "col5-cta-bottom": Object {},
                  "col5-cta-top": Object {},
                  "header-fs": Object {},
                  "imgCmpHeight": Object {},
                  "nav-bg": Object {},
                  "offer-fs": Object {},
                  "promo": Object {},
                  "slider-fade": Object {},
                  "subHeader-fs": Object {},
                  "subPromoFW": Object {},
                  "subPromoHeader-fs": Object {},
                  "subPromoTitle": Object {},
                  "subTitle": Object {},
                  "title": Object {},
                }
              }
            />
          </ForwardRef(styled.div)>
        </ForwardRef(styled.div)>
        <DamImage
          isHomePage={true}
          isOptimizedVideo={true}
          videoData={
            Object {
              "autoplay": "1",
              "controls": "0",
              "inline": "1",
              "loop": "1",
              "muted": "1",
              "title": "Sample Bunny",
              "url": "/v1574204032/SampleBunnyVideo.mp4",
              "url_m": "",
              "url_t": "",
            }
          }
        />
        <ForwardRef(Styled(Anchor))
          accessibilityLabel="ALL SHORTS"
          text="ALL SHORTS"
          url="/search/graphic-tees?icid=hp_s2_text_all_051120_shorts"
        />
      </ForwardRef(styled.div)>
    </React.Fragment>
  </ForwardRef(styled.div)>
</React.Fragment>
`;
