// Jest Snapshot v1, https://goo.gl/fbAQLP

exports[`Order Items component should renders correctly 1`] = `
<Fragment>
  <Styled(BodyCopy)
    className=""
    color="text.primary"
    component="div"
    customStyle={Object {}}
    fontFamily="primary"
    fontSize={12}
    fontWeight="regular"
    letterSpacing="normal"
    lineHeight="normal"
    link={null}
    textAlign="left"
  >
    <Styled(Row)
      className="row-stlyler"
      fullBleed={true}
    >
      <Styled(Col)
        colSize={
          Object {
            "large": 2,
            "medium": 2,
            "small": 2,
          }
        }
      >
        <Styled(BodyCopy)
          className={null}
          color="text.primary"
          component="div"
          customStyle={Object {}}
          fontFamily="primary"
          fontSize={12}
          fontWeight="regular"
          letterSpacing="normal"
          lineHeight="normal"
          link={null}
          textAlign="left"
        >
          <Styled(Image)
            data-locator="order_item_image"
            src="test"
          />
        </Styled(BodyCopy)>
        <Styled(BodyCopy)
          className="brand-logo"
          color="text.primary"
          component="div"
          customStyle={Object {}}
          fontFamily="primary"
          fontSize={12}
          fontWeight="regular"
          letterSpacing="normal"
          lineHeight="normal"
          link={null}
          textAlign="left"
        >
          <Styled(Image)
            alt="TCP"
            className="brand-image"
            data-locator="order_item_brand_logo"
            src="undefined/ecom/assets/static/icon/tcp-logo.svg"
          />
        </Styled(BodyCopy)>
      </Styled(Col)>
      <Styled(Col)
        className="elem-mr-MED"
        colSize={
          Object {
            "large": 9,
            "medium": 5,
            "small": 4,
          }
        }
        ignoreGutter={
          Object {
            "large": true,
            "medium": true,
            "small": true,
          }
        }
        offsetLeft={
          Object {
            "large": 1,
            "medium": 1,
          }
        }
      >
        <Styled(BodyCopy)
          className="product-name"
          color="text.primary"
          component="div"
          customStyle={Object {}}
          fontFamily="primary"
          fontSize={12}
          fontWeight="regular"
          letterSpacing="normal"
          lineHeight="normal"
          link={null}
          textAlign="left"
        >
          <Styled(BodyCopy)
            className="product-name"
            color="text.primary"
            component="div"
            customStyle={Object {}}
            fontFamily="secondary"
            fontSize="fs14"
            fontWeight="extrabold"
            letterSpacing="normal"
            lineHeight="normal"
            link={null}
            textAlign="left"
          >
            test product
          </Styled(BodyCopy)>
        </Styled(BodyCopy)>
        <Styled(BodyCopy)
          className="quantity-spacing"
          color="text.primary"
          component="div"
          customStyle={Object {}}
          fontFamily="secondary"
          fontSize="fs14"
          fontWeight="regular"
          letterSpacing="normal"
          lineHeight="normal"
          link={null}
          textAlign="left"
        >
          lbl_orderDetails_itemnumber
          <span>
            <Styled(BodyCopy)
              className="itemInfo_details_items_leftMargin"
              color="text.primary"
              component="span"
              customStyle={Object {}}
              fontFamily="secondary"
              fontSize="fs14"
              fontWeight="regular"
              letterSpacing="normal"
              lineHeight="normal"
              link={null}
              textAlign="left"
            />
          </span>
        </Styled(BodyCopy)>
        <Styled(BodyCopy)
          className="quantity-spacing"
          color="text.primary"
          component="div"
          customStyle={Object {}}
          fontFamily="secondary"
          fontSize="fs14"
          fontWeight="regular"
          letterSpacing="normal"
          lineHeight="normal"
          link={null}
          textAlign="left"
        >
          lbl_orderDetails_quantity
          <span>
            <Styled(BodyCopy)
              className="itemInfo_details_items_leftMargin"
              color="text.primary"
              component="span"
              customStyle={Object {}}
              fontFamily="secondary"
              fontSize="fs14"
              fontWeight="regular"
              letterSpacing="normal"
              lineHeight="normal"
              link={null}
              textAlign="left"
            />
          </span>
        </Styled(BodyCopy)>
        <Styled(BodyCopy)
          className="status-spacing"
          color="text.primary"
          component="div"
          customStyle={Object {}}
          fontFamily="secondary"
          fontSize="fs14"
          fontWeight="regular"
          letterSpacing="normal"
          lineHeight="normal"
          link={null}
          textAlign="left"
        >
          lbl_orders_orderStatus
          <span>
            :
          </span>
          <span>
            <Styled(BodyCopy)
              className="itemInfo_details_items_leftMargin"
              color="text.primary"
              component="span"
              customStyle={Object {}}
              fontFamily="secondary"
              fontSize="fs14"
              fontWeight="regular"
              letterSpacing="normal"
              lineHeight="normal"
              link={null}
              textAlign="left"
            />
          </span>
        </Styled(BodyCopy)>
      </Styled(Col)>
    </Styled(Row)>
  </Styled(BodyCopy)>
</Fragment>
`;
