// Jest Snapshot v1, https://goo.gl/fbAQLP

exports[`CreditCardList Component should render correctly 1`] = `
<div
  className="abc"
>
  <Styled(Heading)
    className="cardList__heading"
    component={null}
    dataLocator="payment-creditAndDebitCardsLabel"
    id=""
    variant="h6"
  >
    lbl_payment_ccHeading
  </Styled(Heading)>
  <Styled(EmptyCard)
    alt="card icon"
    icon="credit_card"
    labels={
      Object {
        "common": Object {},
        "creditCardHeading": "heading",
        "paymentGC": Object {},
      }
    }
    prefix="CC"
  />
  <Styled(Row)
    fullBleed={true}
  >
    <Styled(Col)
      className=""
      colSize={
        Object {
          "large": 4,
          "medium": 4,
          "small": 6,
        }
      }
    >
      <Connect(Component)
        clickData={
          Object {
            "customEvents": Array [],
            "eventName": "paymentclickevent",
            "pageNavigationText": "my account-payment & gift cards-add new card",
          }
        }
      >
        <Styled(Button)
          buttonVariation="fixed-width"
          className="cardList__ccAddCta"
          dataLocator="payment-addcreditcard"
          fill="BLUE"
          onClick={null}
        >
          lbl_payment_ccEmptyAddBtn
        </Styled(Button)>
      </Connect(Component)>
    </Styled(Col)>
  </Styled(Row)>
</div>
`;

exports[`CreditCardList Component should render correctly if list is present 1`] = `
<div
  className="abc"
>
  <Styled(Heading)
    className="cardList__heading"
    component={null}
    dataLocator="payment-creditAndDebitCardsLabel"
    id=""
    variant="h6"
  >
    lbl_payment_ccHeading
  </Styled(Heading)>
  <Styled(Row)
    fullBleed={true}
  >
    <Styled(Col)
      className="payment__addBtn__cont"
      colSize={
        Object {
          "large": 4,
          "medium": 4,
          "small": 6,
        }
      }
    >
      <Connect(Component)
        clickData={
          Object {
            "customEvents": Array [],
            "eventName": "paymentclickevent",
            "pageNavigationText": "my account-payment & gift cards-add new card",
          }
        }
      >
        <Styled(Button)
          buttonVariation="fixed-width"
          className="cardList__ccAddCta"
          dataLocator="payment-addcreditcard"
          fill="BLUE"
          onClick={null}
        >
          lbl_payment_addBtn
        </Styled(Button)>
      </Connect(Component)>
    </Styled(Col)>
  </Styled(Row)>
  <CardView
    cardList={
      Immutable.List [
        Object {
          "accountNo": "************1111",
          "addressDetails": Object {
            "addressLine1": "111 3rd Ave",
            "addressLine2": "",
            "city": "New York",
            "country": "US",
            "firstName": "new",
            "lastName": "address",
            "phone1": "9878909876",
            "state": "NY",
            "zipCode": "10003",
          },
          "billingAddressId": 160685,
          "ccBrand": "Visa",
          "ccType": "COMPASSVISA",
          "creditCardId": 73501,
          "defaultInd": false,
          "expMonth": "5 ",
          "expYear": "2024",
          "nameOnAccount": ".",
          "properties": null,
        },
      ]
    }
    commonLabels={Object {}}
    deleteModalMountedState={false}
    editCreditCard={null}
    labels={
      Object {
        "common": Object {},
        "creditCardHeading": "heading",
        "paymentGC": Object {},
      }
    }
  />
</div>
`;
