// Jest Snapshot v1, https://goo.gl/fbAQLP

exports[`GiftCardModalInfo Component should render correctly 1`] = `
<div>
  <Styled(BodyCopy)
    bodySize="seven"
    className="deleteCardModal__modalTitle"
    color="text.primary"
    component="p"
    customStyle={Object {}}
    data-locator="deletegcmodalheadinng"
    fontFamily="secondaryFontFamily"
    fontSize={12}
    fontWeight="bold"
    letterSpacing="normal"
    lineHeight="normal"
    link={null}
    textAlign="left"
  />
  <Styled(Row)
    className="elem-mt-XS card-details-mobile"
    fullBleed={true}
  >
    <Styled(Col)
      colSize={
        Object {
          "large": 3,
          "medium": 8,
          "small": 2,
        }
      }
      offsetLeft={
        Object {
          "large": 1,
        }
      }
    >
      <Styled(BodyCopy)
        className={null}
        color="text.primary"
        component="p"
        customStyle={Object {}}
        data-locator="deletecreditmodalcardicon"
        fontFamily="primary"
        fontSize={12}
        fontWeight="regular"
        letterSpacing="normal"
        lineHeight="normal"
        link={null}
        textAlign="center"
      >
        <Styled(Image)
          className="deleteCardModal__img"
          data-locator="deletegcmodalicon"
          src="undefined/ecom/assets/static/icon/TCP-gift.svg"
        />
      </Styled(BodyCopy)>
    </Styled(Col)>
    <Styled(Col)
      colSize={
        Object {
          "large": 8,
          "medium": 5,
          "small": 4,
        }
      }
      offsetLeft={
        Object {
          "medium": 3,
        }
      }
    >
      <Styled(Row)
        fullBleed={true}
      >
        <Styled(Col)
          colSize={
            Object {
              "large": 6,
              "medium": 8,
              "small": 6,
            }
          }
        >
          <Styled(BodyCopy)
            className="cardName-spacing-tablet"
            color="text.primary"
            component="p"
            customStyle={Object {}}
            data-locator="deletecreditmodacardendingtxt"
            fontFamily="secondary"
            fontSize="fs14"
            fontWeight="extrabold"
            letterSpacing="normal"
            lineHeight="normal"
            link={null}
            textAlign="left"
          >
            111
          </Styled(BodyCopy)>
        </Styled(Col)>
      </Styled(Row)>
    </Styled(Col)>
  </Styled(Row)>
</div>
`;
