// Jest Snapshot v1, https://goo.gl/fbAQLP

exports[`ProgressbarVanilla should render correctly 1`] = `
<Styled(View)>
  <Styled(View)>
    <Component>
      <Styled(BodyCopy)
        accessibilityText=""
        dataLocator=""
        fontFamily="primary"
        fontSize="fs14"
        fontWeight="regular"
        margin={null}
        numberOfLines={null}
        text="Spend another "
        textAlign="center"
        textDecoration={null}
      />
      <Styled(BodyCopy)
        accessibilityText=""
        dataLocator=""
        fontFamily="primary"
        fontSize="fs14"
        fontWeight="bold"
        margin={null}
        numberOfLines={null}
        text="$undefined"
        textAlign="center"
        textDecoration={null}
      />
      <Styled(BodyCopy)
        accessibilityText=""
        dataLocator=""
        fontFamily="primary"
        fontSize="fs14"
        fontWeight="regular"
        margin={null}
        numberOfLines={null}
        text=" to get a "
        textAlign="center"
        textDecoration={null}
      />
      <Styled(BodyCopy)
        accessibilityText=""
        dataLocator=""
        fontFamily="primary"
        fontSize="fs14"
        fontWeight="bold"
        margin={null}
        numberOfLines={null}
        text="$undefined"
        textAlign="center"
        textDecoration={null}
      />
      <Styled(BodyCopy)
        accessibilityText=""
        dataLocator=""
        fontFamily="primary"
        fontSize="fs14"
        fontWeight="bold"
        margin={null}
        numberOfLines={null}
        text="Place Bucks "
        textAlign="center"
        textDecoration={null}
      />
      <Styled(BodyCopy)
        accessibilityText=""
        dataLocator=""
        fontFamily="primary"
        fontSize="fs14"
        fontWeight="regular"
        margin={null}
        numberOfLines={null}
        text="coupon"
        textAlign="center"
        textDecoration={null}
      />
      <Styled(BodyCopy)
        accessibilityText=""
        dataLocator=""
        fontFamily="primary"
        fontSize="fs14"
        fontWeight="bold"
        margin={null}
        numberOfLines={null}
        text="to use"
        textAlign="center"
        textDecoration={null}
      />
      <Styled(BodyCopy)
        accessibilityText=""
        dataLocator=""
        fontFamily="primary"
        fontSize="fs14"
        fontWeight="bold"
        margin={null}
        numberOfLines={null}
        text="("
        textAlign="center"
        textDecoration={null}
      />
      <Styled(BodyCopy)
        accessibilityText=""
        dataLocator=""
        fontFamily="primary"
        fontSize="fs14"
        fontWeight="bold"
        margin={null}
        numberOfLines={null}
        textAlign="center"
        textDecoration={null}
      />
      <Styled(BodyCopy)
        accessibilityText=""
        dataLocator=""
        fontFamily="primary"
        fontSize="fs14"
        fontWeight="bold"
        margin={null}
        numberOfLines={null}
        text="-"
        textAlign="center"
        textDecoration={null}
      />
      <Styled(BodyCopy)
        accessibilityText=""
        dataLocator=""
        fontFamily="primary"
        fontSize="fs14"
        fontWeight="bold"
        margin={null}
        numberOfLines={null}
        textAlign="center"
        textDecoration={null}
      />
      <Styled(BodyCopy)
        accessibilityText=""
        dataLocator=""
        fontFamily="primary"
        fontSize="fs14"
        fontWeight="bold"
        margin={null}
        numberOfLines={null}
        text=")"
        textAlign="center"
        textDecoration={null}
      />
    </Component>
  </Styled(View)>
  <Styled(View)>
    <ImageBackground
      imageStyle={
        Object {
          "resizeMode": "repeat",
          "width": "70%",
        }
      }
      source={
        Object {
          "testUri": "../../../src/assets/images/progress-bar-image.png",
        }
      }
      style={
        Object {
          "borderRadius": 5,
          "height": 28,
        }
      }
    />
  </Styled(View)>
</Styled(View)>
`;

exports[`ProgressbarVanilla should render correctly without left progress bar 1`] = `
<Styled(View)>
  <Styled(View)>
    <Component>
      <Styled(BodyCopy)
        accessibilityText=""
        dataLocator=""
        fontFamily="primary"
        fontSize="fs14"
        margin={null}
        numberOfLines={null}
        text="Spend another "
        textAlign="center"
        textDecoration={null}
      />
      <Styled(BodyCopy)
        accessibilityText=""
        dataLocator=""
        fontFamily="primary"
        fontSize="fs14"
        fontWeight="bold"
        margin={null}
        numberOfLines={null}
        text="$undefined"
        textAlign="center"
        textDecoration={null}
      />
      <Styled(BodyCopy)
        accessibilityText=""
        dataLocator=""
        fontFamily="primary"
        fontSize="fs14"
        margin={null}
        numberOfLines={null}
        text=" to get a "
        textAlign="center"
        textDecoration={null}
      />
    </Component>
    <Component>
      <Styled(BodyCopy)
        accessibilityText=""
        dataLocator=""
        fontFamily="primary"
        fontSize="fs14"
        fontWeight="bold"
        margin={null}
        numberOfLines={null}
        text="$undefined"
        textAlign="center"
        textDecoration={null}
      />
      <Styled(BodyCopy)
        accessibilityText=""
        dataLocator=""
        fontFamily="primary"
        fontSize="fs14"
        fontWeight="bold"
        margin={null}
        numberOfLines={null}
        text="Place Bucks "
        textAlign="center"
        textDecoration={null}
      />
      <Styled(BodyCopy)
        accessibilityText=""
        dataLocator=""
        fontFamily="primary"
        fontSize="fs14"
        fontWeight="bold"
        margin={null}
        numberOfLines={null}
        text="coupon"
        textAlign="center"
        textDecoration={null}
      />
    </Component>
  </Styled(View)>
  <Styled(View)>
    <Styled(BodyCopy)
      accessibilityText=""
      dataLocator=""
      fontFamily="primary"
      fontSize="fs14"
      fontWeight="bold"
      margin={null}
      numberOfLines={null}
      text="$0"
      textAlign="left"
      textDecoration={null}
    />
    <Styled(View)
      isLeftProgressBar={true}
      isPlaceReward={false}
      isPlcc={false}
    >
      <Styled(ImageBackground)
        progressWidth="70%"
        resizeMode="repeat"
        source={
          Object {
            "testUri": "../../../src/assets/images/progressimage.png",
          }
        }
      />
    </Styled(View)>
    <Styled(BodyCopy)
      accessibilityText=""
      dataLocator=""
      fontFamily="primary"
      fontSize="fs14"
      fontWeight="bold"
      margin={null}
      numberOfLines={null}
      text="$0"
      textAlign="left"
      textDecoration={null}
    />
  </Styled(View)>
</Styled(View)>
`;
