// Jest Snapshot v1, https://goo.gl/fbAQLP

exports[`Header Component Header should render correctly 1`] = `
<withOrientation
  forceInset={
    Object {
      "bottom": "never",
      "top": "always",
    }
  }
  style={
    Object {
      "backgroundColor": "#fff",
    }
  }
>
  <Styled(withOrientation)>
    <Connect(ToastContainer) />
    <Styled(View)>
      <Styled(View)
        data-locator="global_headerpanel"
      >
        <Styled(View)>
          <Styled(View)>
            <Styled(BodyCopy)
              accessibilityText=""
              color="black"
              data-locator="global_headerpanelwelcometext"
              dataLocator=""
              fontFamily="secondary"
              fontSize="fs14"
              fontWeight="semibold"
              margin={null}
              numberOfLines={null}
              text=""
              textAlign="center"
              textDecoration={null}
            />
            <Styled(Component)
              numberOfLines={1}
            >
              <Styled(BodyCopy)
                accessibilityText=""
                color="black"
                data-locator="global_headerpanelwelcometext"
                dataLocator=""
                fontFamily="secondary"
                fontSize="fs14"
                fontWeight="extrabold"
                margin={null}
                numberOfLines={null}
                text=""
                textAlign="center"
                textDecoration={null}
              />
            </Styled(Component)>
          </Styled(View)>
          <Styled(Component)
            accessibilityRole="button"
            onPress={[Function]}
          >
            <Styled(BodyCopy)
              accessibilityText=""
              color="text.primary"
              data-locator="global_findastoretext"
              dataLocator=""
              ellipsizeMode="tail"
              fontFamily="secondary"
              fontSize="fs12"
              fontWeight="regular"
              margin={null}
              numberOfLines={1}
              textAlign="center"
              textDecoration={null}
            />
            <Styled(Component)
              data-locator="global_headerpanelcollapsedicon"
              source={
                Object {
                  "testUri": "../../../src/assets/images/carrot-small-down.png",
                }
              }
              style={
                Object {
                  "tintColor": "gray",
                }
              }
            />
          </Styled(Component)>
        </Styled(View)>
        <Styled(View)
          searchIconVisible={false}
        >
          <Styled(Component)
            accessibilityRole="button"
            onPress={[Function]}
          >
            <Styled(Component)
              data-locator="global_headerpanelbagicon"
              source={
                Object {
                  "testUri": "../../../src/assets/images/empty-bag.png",
                }
              }
            />
            <Styled(View)>
              <Styled(View)>
                <Styled(BodyCopy)
                  accessibilityText="Mini bag with count"
                  color="white"
                  data-locator="obal_headerpanelbagicon"
                  dataLocator=""
                  fontSize="fs10"
                  fontWeight="extrabold"
                  margin={null}
                  numberOfLines={null}
                  style={
                    Object {
                      "paddingLeft": 4,
                      "paddingTop": 1.5,
                    }
                  }
                  textDecoration={null}
                />
              </Styled(View)>
            </Styled(View)>
          </Styled(Component)>
        </Styled(View)>
      </Styled(View)>
    </Styled(View)>
  </Styled(withOrientation)>
</withOrientation>
`;
