// Jest Snapshot v1, https://goo.gl/fbAQLP

exports[`ForgotPasswordView component should render full page view  1`] = `
<ForgotPasswordFullPageView
  className=""
  email=""
  fullPageAuthEnabled={false}
  handleSubmit={[Function]}
  isResetViaText={false}
  labels={
    Object {
      "password": Object {},
    }
  }
  onFormSubmit={[Function]}
  openOverlay={[Function]}
  resetPasswordSuccessMsg=""
  showNotification=""
  successFullResetEmail=""
  triggerPassResetApi={[Function]}
/>
`;

exports[`ForgotPasswordView component should renders correctly 1`] = `
<Fragment
  className=""
>
  <div>
    <Styled(Anchor)
      anchorVariation="secondary"
      className="elem-pb-SM"
      dataLocator="addnewaddress-back"
      fontSizeVariation="xlarge"
      onClick={[Function]}
      to="/account?id=address-book"
    >
      <span
        className="left-arrow"
      >
         
      </span>
      lbl_forgotPassword_backLogin
    </Styled(Anchor)>
  </div>
  <form
    className=" forgot-password-form"
  >
    <Styled(BodyCopy)
      className={null}
      color="gray.700"
      component="p"
      customStyle={Object {}}
      fontFamily="secondary"
      fontSize="fs16"
      fontWeight="extrabold"
      letterSpacing="normal"
      lineHeight="normal"
      link={null}
      textAlign="center"
    >
      <span
        className="forgot-password-text"
      >
        lbl_forgotPassword_content1
      </span>
      <span>
        lbl_forgotPassword_content3
      </span>
    </Styled(BodyCopy)>
    <Styled(BodyCopy)
      className="elem-mb-SM"
      color="text.primary"
      component="p"
      customStyle={Object {}}
      fontFamily="secondary"
      fontSize="fs12"
      fontWeight="semibold"
      letterSpacing="normal"
      lineHeight="normal"
      link={null}
      textAlign="center"
    >
      lbl_forgotPassword_content2
    </Styled(BodyCopy)>
    <Styled(BodyCopy)
      className="elem-mb-LRG"
      color="text.primary"
      component="div"
      customStyle={Object {}}
      fontFamily="primary"
      fontSize={12}
      fontWeight="regular"
      letterSpacing="normal"
      lineHeight="normal"
      link={null}
      textAlign="left"
    >
      <Field
        component={
          Object {
            "$$typeof": Symbol(react.forward_ref),
            "attrs": Array [],
            "componentStyle": e {
              "baseHash": -1179868038,
              "baseStyle": undefined,
              "componentId": "sc-dkPtRN",
              "isStatic": false,
              "rules": Array [
                "
  ",
                "
  position: relative;
  display: ",
                [Function],
                ";
  width: ",
                [Function],
                ";

  &.input-fields-wrapper {
    ",
                [Function],
                "
  }

  .TextBox__label {
    font-size: ",
                [Function],
                ";
    padding: 0;
    position: absolute;
    top: ",
                [Function],
                ";
    ",
                [Function],
                "
    left: ",
                [Function],
                ";
    &.nonActive {
      ",
                [Function],
                ";
    }
  }
  .TextBox__placeholder {
    color: ",
                [Function],
                ";
  }

  .TextBox__view {
    font-size: 16px;
    position: absolute;
    top: 10px;
    padding: 5px;
    color: ",
                [Function],
                ";
  }
  .TextBox__input {
    margin: 0;
    outline: 0;
    font-size: ",
                [Function],
                "px;
    color: ",
                [Function],
                ";
    width: ",
                [Function],
                ";
    background-position: left top;
    background-repeat: no-repeat;
    background-size: contain;
    margin-bottom: ",
                [Function],
                ";

    ",
                [Function],
                "

    ",
                [Function],
                ";

    ",
                [Function],
                "

    ",
                [Function],
                "

    ",
                [Function],
                ";

    &:focus ~ .TextBox__label {
      font-weight: ",
                [Function],
                ";
      ",
                [Function],
                ";
    }
    &:focus {
      border-color: ",
                [Function],
                ";

      ",
                [Function],
                "
    }
  }

  &.textbox_validation_success .checkmark-container {
    ",
                [Function],
                "
  }

  .success__checkmark {
    display: none;
  }
  &.textbox_validation_success .TextBox__input {
    ",
                [Function],
                ";
  }

  &.textbox_validation_success .success__checkmark {
    display: ",
                [Function],
                ";
    width: 15px;
    height: 8px;
    margin-left: ",
                [Function],
                ";
    transform: rotate(-45deg);
    transform-origin: left;
    position: absolute;
    right: ",
                [Function],
                ";
    top: ",
                [Function],
                ";

    &:before {
      content: '';
      position: absolute;
      width: 3px;
      height: 100%;
      background-color: ",
                [Function],
                ";
    }

    &:after {
      content: '';
      position: absolute;
      width: 100%;
      height: 3px;
      background-color: ",
                [Function],
                ";
      bottom: 0;
    }

    &.success__checkmark--date {
      right: 25px;
      top: 35px;
    }
  }

  ",
                [Function],
                ";

  .TextBox__error {
    display: flex;
    flex-direction: row;
    padding-bottom: ",
                [Function],
                ";
  }
  .warning-icon {
    background: transparent url('",
                [Function],
                "') no-repeat 0
      0;
    background-size: contain;
    border: none;
    height: 14px;
    width: 16px;
    margin-right: 7px;
    flex-shrink: 0;
  }

  .custom-icon {
    display: none;
    background-size: contain;
    border: none;
    height: ",
                [Function],
                ";
    width: ",
                [Function],
                ";
    margin-right: 7px;
    flex-shrink: 0;
    position: absolute;
    top: 22%;
    right: -",
                [Function],
                ";
  }

  .custom-search-icon {
    display: block;
    background: transparent url('",
                [Function],
                "') no-repeat 0 0;
  }

  .input-right-err-icon {
    background: transparent url('",
                [Function],
                "') no-repeat
      0 0;
    background-size: contain;
    border: none;
    height: 16px;
    width: 16px;
    margin-right: 7px;
    flex-shrink: 0;
    position: absolute;
    top: 25%;
    right: -7%;
  }

  .hide-err {
    display: none;
  }

  .TextBox_view {
    border: 1px solid gray;
    border-radius: 4px;
    height: 140px;
    width: 100%;
    margin-bottom: 10px;
  }
  .TextBox_view_border {
    border: 1px solid red;
    border-radius: 4px;
    height: 140px;
    width: 100%;
    margin-bottom: 10px;
  }
  .TextBox__input[type='hidden'] ~ .checkmark-container {
    display: none;
  }
",
                ";
",
              ],
              "staticRulesId": "",
            },
            "foldedComponentIds": Array [],
            "render": [Function],
            "shouldForwardProp": undefined,
            "styledComponentId": "sc-dkPtRN",
            "target": [Function],
            "toString": [Function],
            "warnTooManyClasses": [Function],
            "withComponent": [Function],
          }
        }
        id="Email"
        name="Email"
        placeholder="lbl_forgotPassword_emailAddress"
        type="text"
        value=""
      />
    </Styled(BodyCopy)>
    <Styled(Button)
      buttonVariation="fixed-width"
      fill="BLUE"
      type="submit"
    >
      lbl_forgotPassword_resetPassword
    </Styled(Button)>
  </form>
</Fragment>
`;
