// Jest Snapshot v1, https://goo.gl/fbAQLP

exports[`ContactInformationFormWrapper component should renders correctly 1`] = `
<styled.div>
  <Styled(Heading)
    className="contactFormTitle"
    component="h2"
    dataLocator=""
    fontFamily="secondary"
    fontSize="fs16"
    fontWeight="semiBold"
    id=""
    tabIndex="0"
    variant="h1"
  >
    contact information
  </Styled(Heading)>
  <Styled(Row)
    fullBleed={true}
  >
    <Styled(Col)
      className="contact_information_form columnWrapper"
      colSize={
        Object {
          "large": 5,
          "medium": 4,
          "small": 6,
        }
      }
      key="contact_information_form"
    >
      <Styled(Row)
        fullBleed={true}
      >
        <Styled(Col)
          className="contact_information_form"
          colSize={
            Object {
              "large": 10,
              "medium": 6,
              "small": 4,
            }
          }
          key="contact_information_form_First Name"
        >
          <Field
            component={
              Object {
                "$$typeof": Symbol(react.forward_ref),
                "attrs": Array [],
                "componentStyle": e {
                  "baseHash": -225017612,
                  "baseStyle": undefined,
                  "componentId": "sc-egiyK",
                  "isStatic": false,
                  "rules": Array [
                    "
  ",
                    "
  position: relative;
  display: ",
                    [Function],
                    ";
  width: ",
                    [Function],
                    ";

  &.input-fields-wrapper {
    ",
                    [Function],
                    "
  }

  .TextBox__label {
    font-size: ",
                    [Function],
                    ";
    padding: 0;
    position: absolute;
    top: ",
                    [Function],
                    ";
    ",
                    [Function],
                    "
    left: ",
                    [Function],
                    ";
    &.nonActive {
      ",
                    [Function],
                    ";
    }
  }
  .TextBox__placeholder {
    color: ",
                    [Function],
                    ";
  }

  .TextBox__view {
    font-size: 16px;
    position: absolute;
    top: 10px;
    padding: 5px;
    color: ",
                    [Function],
                    ";
  }
  .TextBox__input {
    margin: 0;
    outline: 0;
    font-size: ",
                    [Function],
                    "px;
    color: ",
                    [Function],
                    ";
    width: ",
                    [Function],
                    ";
    background-position: left top;
    background-repeat: no-repeat;
    background-size: contain;
    margin-bottom: ",
                    [Function],
                    ";

    ",
                    [Function],
                    "

    ",
                    [Function],
                    ";

    ",
                    [Function],
                    "

    ",
                    [Function],
                    "

    ",
                    [Function],
                    ";

    &:focus ~ .TextBox__label {
      font-weight: ",
                    [Function],
                    ";
      ",
                    [Function],
                    ";
    }
    &:focus {
      border-color: ",
                    [Function],
                    ";

      ",
                    [Function],
                    "
    }
  }

  &.textbox_validation_success .checkmark-container {
    ",
                    [Function],
                    "
  }

  .success__checkmark {
    display: none;
  }
  &.textbox_validation_success .TextBox__input {
    ",
                    [Function],
                    ";
  }

  &.textbox_validation_success .success__checkmark {
    display: ",
                    [Function],
                    ";
    width: 15px;
    height: 8px;
    margin-left: ",
                    [Function],
                    ";
    transform: rotate(-45deg);
    transform-origin: left;
    position: absolute;
    right: ",
                    [Function],
                    ";
    top: ",
                    [Function],
                    ";

    &:before {
      content: '';
      position: absolute;
      width: 3px;
      height: 100%;
      background-color: ",
                    [Function],
                    ";
    }

    &:after {
      content: '';
      position: absolute;
      width: 100%;
      height: 3px;
      background-color: ",
                    [Function],
                    ";
      bottom: 0;
    }

    &.success__checkmark--date {
      right: 25px;
      top: 35px;
    }
  }

  ",
                    [Function],
                    ";

  .TextBox__error {
    display: flex;
    flex-direction: row;
    padding-bottom: ",
                    [Function],
                    ";
  }
  .warning-icon {
    background: transparent url('",
                    [Function],
                    "') no-repeat 0
      0;
    background-size: contain;
    border: none;
    height: 14px;
    width: 16px;
    margin-right: 7px;
    flex-shrink: 0;
  }

  .custom-icon {
    display: none;
    background-size: contain;
    border: none;
    height: ",
                    [Function],
                    ";
    width: ",
                    [Function],
                    ";
    margin-right: 7px;
    flex-shrink: 0;
    position: absolute;
    top: 22%;
    right: -",
                    [Function],
                    ";
  }

  .custom-search-icon {
    display: block;
    background: transparent url('",
                    [Function],
                    "') no-repeat 0 0;
  }

  .input-right-err-icon {
    background: transparent url('",
                    [Function],
                    "') no-repeat
      0 0;
    background-size: contain;
    border: none;
    height: 16px;
    width: 16px;
    margin-right: 7px;
    flex-shrink: 0;
    position: absolute;
    top: 25%;
    right: -7%;
  }

  .hide-err {
    display: none;
  }

  .TextBox_view {
    border: 1px solid gray;
    border-radius: 4px;
    height: 140px;
    width: 100%;
    margin-bottom: 10px;
  }
  .TextBox_view_border {
    border: 1px solid red;
    border-radius: 4px;
    height: 140px;
    width: 100%;
    margin-bottom: 10px;
  }
  .TextBox__input[type='hidden'] ~ .checkmark-container {
    display: none;
  }
",
                    ";
",
                  ],
                  "staticRulesId": "",
                },
                "foldedComponentIds": Array [],
                "render": [Function],
                "shouldForwardProp": undefined,
                "styledComponentId": "sc-egiyK",
                "target": [Function],
                "toString": [Function],
                "warnTooManyClasses": [Function],
                "withComponent": [Function],
              }
            }
            data-locator="plcc_first_name"
            id="firstName"
            maxLength="15"
            name="firstName"
            placeholder="First Name"
            title="First Name"
          />
        </Styled(Col)>
        <Styled(Col)
          className="contact_information_form"
          colSize={
            Object {
              "large": 2,
              "medium": 2,
              "small": 2,
            }
          }
          key="contact_information_form_M.I."
        >
          <Field
            component={
              Object {
                "$$typeof": Symbol(react.forward_ref),
                "attrs": Array [],
                "componentStyle": e {
                  "baseHash": -225017612,
                  "baseStyle": undefined,
                  "componentId": "sc-egiyK",
                  "isStatic": false,
                  "rules": Array [
                    "
  ",
                    "
  position: relative;
  display: ",
                    [Function],
                    ";
  width: ",
                    [Function],
                    ";

  &.input-fields-wrapper {
    ",
                    [Function],
                    "
  }

  .TextBox__label {
    font-size: ",
                    [Function],
                    ";
    padding: 0;
    position: absolute;
    top: ",
                    [Function],
                    ";
    ",
                    [Function],
                    "
    left: ",
                    [Function],
                    ";
    &.nonActive {
      ",
                    [Function],
                    ";
    }
  }
  .TextBox__placeholder {
    color: ",
                    [Function],
                    ";
  }

  .TextBox__view {
    font-size: 16px;
    position: absolute;
    top: 10px;
    padding: 5px;
    color: ",
                    [Function],
                    ";
  }
  .TextBox__input {
    margin: 0;
    outline: 0;
    font-size: ",
                    [Function],
                    "px;
    color: ",
                    [Function],
                    ";
    width: ",
                    [Function],
                    ";
    background-position: left top;
    background-repeat: no-repeat;
    background-size: contain;
    margin-bottom: ",
                    [Function],
                    ";

    ",
                    [Function],
                    "

    ",
                    [Function],
                    ";

    ",
                    [Function],
                    "

    ",
                    [Function],
                    "

    ",
                    [Function],
                    ";

    &:focus ~ .TextBox__label {
      font-weight: ",
                    [Function],
                    ";
      ",
                    [Function],
                    ";
    }
    &:focus {
      border-color: ",
                    [Function],
                    ";

      ",
                    [Function],
                    "
    }
  }

  &.textbox_validation_success .checkmark-container {
    ",
                    [Function],
                    "
  }

  .success__checkmark {
    display: none;
  }
  &.textbox_validation_success .TextBox__input {
    ",
                    [Function],
                    ";
  }

  &.textbox_validation_success .success__checkmark {
    display: ",
                    [Function],
                    ";
    width: 15px;
    height: 8px;
    margin-left: ",
                    [Function],
                    ";
    transform: rotate(-45deg);
    transform-origin: left;
    position: absolute;
    right: ",
                    [Function],
                    ";
    top: ",
                    [Function],
                    ";

    &:before {
      content: '';
      position: absolute;
      width: 3px;
      height: 100%;
      background-color: ",
                    [Function],
                    ";
    }

    &:after {
      content: '';
      position: absolute;
      width: 100%;
      height: 3px;
      background-color: ",
                    [Function],
                    ";
      bottom: 0;
    }

    &.success__checkmark--date {
      right: 25px;
      top: 35px;
    }
  }

  ",
                    [Function],
                    ";

  .TextBox__error {
    display: flex;
    flex-direction: row;
    padding-bottom: ",
                    [Function],
                    ";
  }
  .warning-icon {
    background: transparent url('",
                    [Function],
                    "') no-repeat 0
      0;
    background-size: contain;
    border: none;
    height: 14px;
    width: 16px;
    margin-right: 7px;
    flex-shrink: 0;
  }

  .custom-icon {
    display: none;
    background-size: contain;
    border: none;
    height: ",
                    [Function],
                    ";
    width: ",
                    [Function],
                    ";
    margin-right: 7px;
    flex-shrink: 0;
    position: absolute;
    top: 22%;
    right: -",
                    [Function],
                    ";
  }

  .custom-search-icon {
    display: block;
    background: transparent url('",
                    [Function],
                    "') no-repeat 0 0;
  }

  .input-right-err-icon {
    background: transparent url('",
                    [Function],
                    "') no-repeat
      0 0;
    background-size: contain;
    border: none;
    height: 16px;
    width: 16px;
    margin-right: 7px;
    flex-shrink: 0;
    position: absolute;
    top: 25%;
    right: -7%;
  }

  .hide-err {
    display: none;
  }

  .TextBox_view {
    border: 1px solid gray;
    border-radius: 4px;
    height: 140px;
    width: 100%;
    margin-bottom: 10px;
  }
  .TextBox_view_border {
    border: 1px solid red;
    border-radius: 4px;
    height: 140px;
    width: 100%;
    margin-bottom: 10px;
  }
  .TextBox__input[type='hidden'] ~ .checkmark-container {
    display: none;
  }
",
                    ";
",
                  ],
                  "staticRulesId": "",
                },
                "foldedComponentIds": Array [],
                "render": [Function],
                "shouldForwardProp": undefined,
                "styledComponentId": "sc-egiyK",
                "target": [Function],
                "toString": [Function],
                "warnTooManyClasses": [Function],
                "withComponent": [Function],
              }
            }
            data-locator="plcc_middle_name"
            id="middleNameInitial"
            maxLength="15"
            name="middleNameInitial"
            placeholder="M.I."
            title="M.I."
          />
        </Styled(Col)>
      </Styled(Row)>
    </Styled(Col)>
    <Styled(Col)
      className="contact_information_form columnWrapper"
      colSize={
        Object {
          "large": 5,
          "medium": 4,
          "small": 6,
        }
      }
      key="contact_information_form_Last Name"
    >
      <Field
        component={
          Object {
            "$$typeof": Symbol(react.forward_ref),
            "attrs": Array [],
            "componentStyle": e {
              "baseHash": -225017612,
              "baseStyle": undefined,
              "componentId": "sc-egiyK",
              "isStatic": false,
              "rules": Array [
                "
  ",
                "
  position: relative;
  display: ",
                [Function],
                ";
  width: ",
                [Function],
                ";

  &.input-fields-wrapper {
    ",
                [Function],
                "
  }

  .TextBox__label {
    font-size: ",
                [Function],
                ";
    padding: 0;
    position: absolute;
    top: ",
                [Function],
                ";
    ",
                [Function],
                "
    left: ",
                [Function],
                ";
    &.nonActive {
      ",
                [Function],
                ";
    }
  }
  .TextBox__placeholder {
    color: ",
                [Function],
                ";
  }

  .TextBox__view {
    font-size: 16px;
    position: absolute;
    top: 10px;
    padding: 5px;
    color: ",
                [Function],
                ";
  }
  .TextBox__input {
    margin: 0;
    outline: 0;
    font-size: ",
                [Function],
                "px;
    color: ",
                [Function],
                ";
    width: ",
                [Function],
                ";
    background-position: left top;
    background-repeat: no-repeat;
    background-size: contain;
    margin-bottom: ",
                [Function],
                ";

    ",
                [Function],
                "

    ",
                [Function],
                ";

    ",
                [Function],
                "

    ",
                [Function],
                "

    ",
                [Function],
                ";

    &:focus ~ .TextBox__label {
      font-weight: ",
                [Function],
                ";
      ",
                [Function],
                ";
    }
    &:focus {
      border-color: ",
                [Function],
                ";

      ",
                [Function],
                "
    }
  }

  &.textbox_validation_success .checkmark-container {
    ",
                [Function],
                "
  }

  .success__checkmark {
    display: none;
  }
  &.textbox_validation_success .TextBox__input {
    ",
                [Function],
                ";
  }

  &.textbox_validation_success .success__checkmark {
    display: ",
                [Function],
                ";
    width: 15px;
    height: 8px;
    margin-left: ",
                [Function],
                ";
    transform: rotate(-45deg);
    transform-origin: left;
    position: absolute;
    right: ",
                [Function],
                ";
    top: ",
                [Function],
                ";

    &:before {
      content: '';
      position: absolute;
      width: 3px;
      height: 100%;
      background-color: ",
                [Function],
                ";
    }

    &:after {
      content: '';
      position: absolute;
      width: 100%;
      height: 3px;
      background-color: ",
                [Function],
                ";
      bottom: 0;
    }

    &.success__checkmark--date {
      right: 25px;
      top: 35px;
    }
  }

  ",
                [Function],
                ";

  .TextBox__error {
    display: flex;
    flex-direction: row;
    padding-bottom: ",
                [Function],
                ";
  }
  .warning-icon {
    background: transparent url('",
                [Function],
                "') no-repeat 0
      0;
    background-size: contain;
    border: none;
    height: 14px;
    width: 16px;
    margin-right: 7px;
    flex-shrink: 0;
  }

  .custom-icon {
    display: none;
    background-size: contain;
    border: none;
    height: ",
                [Function],
                ";
    width: ",
                [Function],
                ";
    margin-right: 7px;
    flex-shrink: 0;
    position: absolute;
    top: 22%;
    right: -",
                [Function],
                ";
  }

  .custom-search-icon {
    display: block;
    background: transparent url('",
                [Function],
                "') no-repeat 0 0;
  }

  .input-right-err-icon {
    background: transparent url('",
                [Function],
                "') no-repeat
      0 0;
    background-size: contain;
    border: none;
    height: 16px;
    width: 16px;
    margin-right: 7px;
    flex-shrink: 0;
    position: absolute;
    top: 25%;
    right: -7%;
  }

  .hide-err {
    display: none;
  }

  .TextBox_view {
    border: 1px solid gray;
    border-radius: 4px;
    height: 140px;
    width: 100%;
    margin-bottom: 10px;
  }
  .TextBox_view_border {
    border: 1px solid red;
    border-radius: 4px;
    height: 140px;
    width: 100%;
    margin-bottom: 10px;
  }
  .TextBox__input[type='hidden'] ~ .checkmark-container {
    display: none;
  }
",
                ";
",
              ],
              "staticRulesId": "",
            },
            "foldedComponentIds": Array [],
            "render": [Function],
            "shouldForwardProp": undefined,
            "styledComponentId": "sc-egiyK",
            "target": [Function],
            "toString": [Function],
            "warnTooManyClasses": [Function],
            "withComponent": [Function],
          }
        }
        data-locator="plcc_last_name"
        id="lastName"
        maxLength="15"
        name="lastName"
        placeholder="Last Name"
        title="Last Name"
      />
    </Styled(Col)>
  </Styled(Row)>
  <Styled(Row)
    fullBleed={true}
  >
    <Styled(Col)
      className="contact_information_form columnWrapper"
      colSize={
        Object {
          "large": 5,
          "medium": 4,
          "small": 6,
        }
      }
      key="contact_information_form"
    >
      <Field
        apiFields="address_components"
        className="field mapbox"
        component={[Function]}
        componentRestrictions={
          Object {
            "country": Array [
              undefined,
            ],
          }
        }
        dataLocator="plcc_address_1"
        id="addressLine1"
        mapboxAutocompleteTypesParam=""
        maxLength="30"
        name="addressLine1"
        normalize={[Function]}
        onPlaceSelected={[Function]}
        placeholder="Address Line 1"
      />
    </Styled(Col)>
    <Styled(Col)
      className="contact_information_form columnWrapper"
      colSize={
        Object {
          "large": 5,
          "medium": 4,
          "small": 6,
        }
      }
    >
      <Field
        className="field"
        component={
          Object {
            "$$typeof": Symbol(react.forward_ref),
            "attrs": Array [],
            "componentStyle": e {
              "baseHash": -225017612,
              "baseStyle": undefined,
              "componentId": "sc-egiyK",
              "isStatic": false,
              "rules": Array [
                "
  ",
                "
  position: relative;
  display: ",
                [Function],
                ";
  width: ",
                [Function],
                ";

  &.input-fields-wrapper {
    ",
                [Function],
                "
  }

  .TextBox__label {
    font-size: ",
                [Function],
                ";
    padding: 0;
    position: absolute;
    top: ",
                [Function],
                ";
    ",
                [Function],
                "
    left: ",
                [Function],
                ";
    &.nonActive {
      ",
                [Function],
                ";
    }
  }
  .TextBox__placeholder {
    color: ",
                [Function],
                ";
  }

  .TextBox__view {
    font-size: 16px;
    position: absolute;
    top: 10px;
    padding: 5px;
    color: ",
                [Function],
                ";
  }
  .TextBox__input {
    margin: 0;
    outline: 0;
    font-size: ",
                [Function],
                "px;
    color: ",
                [Function],
                ";
    width: ",
                [Function],
                ";
    background-position: left top;
    background-repeat: no-repeat;
    background-size: contain;
    margin-bottom: ",
                [Function],
                ";

    ",
                [Function],
                "

    ",
                [Function],
                ";

    ",
                [Function],
                "

    ",
                [Function],
                "

    ",
                [Function],
                ";

    &:focus ~ .TextBox__label {
      font-weight: ",
                [Function],
                ";
      ",
                [Function],
                ";
    }
    &:focus {
      border-color: ",
                [Function],
                ";

      ",
                [Function],
                "
    }
  }

  &.textbox_validation_success .checkmark-container {
    ",
                [Function],
                "
  }

  .success__checkmark {
    display: none;
  }
  &.textbox_validation_success .TextBox__input {
    ",
                [Function],
                ";
  }

  &.textbox_validation_success .success__checkmark {
    display: ",
                [Function],
                ";
    width: 15px;
    height: 8px;
    margin-left: ",
                [Function],
                ";
    transform: rotate(-45deg);
    transform-origin: left;
    position: absolute;
    right: ",
                [Function],
                ";
    top: ",
                [Function],
                ";

    &:before {
      content: '';
      position: absolute;
      width: 3px;
      height: 100%;
      background-color: ",
                [Function],
                ";
    }

    &:after {
      content: '';
      position: absolute;
      width: 100%;
      height: 3px;
      background-color: ",
                [Function],
                ";
      bottom: 0;
    }

    &.success__checkmark--date {
      right: 25px;
      top: 35px;
    }
  }

  ",
                [Function],
                ";

  .TextBox__error {
    display: flex;
    flex-direction: row;
    padding-bottom: ",
                [Function],
                ";
  }
  .warning-icon {
    background: transparent url('",
                [Function],
                "') no-repeat 0
      0;
    background-size: contain;
    border: none;
    height: 14px;
    width: 16px;
    margin-right: 7px;
    flex-shrink: 0;
  }

  .custom-icon {
    display: none;
    background-size: contain;
    border: none;
    height: ",
                [Function],
                ";
    width: ",
                [Function],
                ";
    margin-right: 7px;
    flex-shrink: 0;
    position: absolute;
    top: 22%;
    right: -",
                [Function],
                ";
  }

  .custom-search-icon {
    display: block;
    background: transparent url('",
                [Function],
                "') no-repeat 0 0;
  }

  .input-right-err-icon {
    background: transparent url('",
                [Function],
                "') no-repeat
      0 0;
    background-size: contain;
    border: none;
    height: 16px;
    width: 16px;
    margin-right: 7px;
    flex-shrink: 0;
    position: absolute;
    top: 25%;
    right: -7%;
  }

  .hide-err {
    display: none;
  }

  .TextBox_view {
    border: 1px solid gray;
    border-radius: 4px;
    height: 140px;
    width: 100%;
    margin-bottom: 10px;
  }
  .TextBox_view_border {
    border: 1px solid red;
    border-radius: 4px;
    height: 140px;
    width: 100%;
    margin-bottom: 10px;
  }
  .TextBox__input[type='hidden'] ~ .checkmark-container {
    display: none;
  }
",
                ";
",
              ],
              "staticRulesId": "",
            },
            "foldedComponentIds": Array [],
            "render": [Function],
            "shouldForwardProp": undefined,
            "styledComponentId": "sc-egiyK",
            "target": [Function],
            "toString": [Function],
            "warnTooManyClasses": [Function],
            "withComponent": [Function],
          }
        }
        dataLocator="plcc_address_2"
        id="addressLine2"
        maxLength="30"
        name="addressLine2"
        normalize={[Function]}
        placeholder="Address Line 2"
      />
    </Styled(Col)>
  </Styled(Row)>
  <Styled(Row)
    className="fieldWrapper"
    fullBleed={true}
  >
    <Styled(Col)
      className="contact_information_form columnWrapper"
      colSize={
        Object {
          "large": 5,
          "medium": 4,
          "small": 6,
        }
      }
      key="container_city"
    >
      <Field
        className="field"
        component={
          Object {
            "$$typeof": Symbol(react.forward_ref),
            "attrs": Array [],
            "componentStyle": e {
              "baseHash": -225017612,
              "baseStyle": undefined,
              "componentId": "sc-egiyK",
              "isStatic": false,
              "rules": Array [
                "
  ",
                "
  position: relative;
  display: ",
                [Function],
                ";
  width: ",
                [Function],
                ";

  &.input-fields-wrapper {
    ",
                [Function],
                "
  }

  .TextBox__label {
    font-size: ",
                [Function],
                ";
    padding: 0;
    position: absolute;
    top: ",
                [Function],
                ";
    ",
                [Function],
                "
    left: ",
                [Function],
                ";
    &.nonActive {
      ",
                [Function],
                ";
    }
  }
  .TextBox__placeholder {
    color: ",
                [Function],
                ";
  }

  .TextBox__view {
    font-size: 16px;
    position: absolute;
    top: 10px;
    padding: 5px;
    color: ",
                [Function],
                ";
  }
  .TextBox__input {
    margin: 0;
    outline: 0;
    font-size: ",
                [Function],
                "px;
    color: ",
                [Function],
                ";
    width: ",
                [Function],
                ";
    background-position: left top;
    background-repeat: no-repeat;
    background-size: contain;
    margin-bottom: ",
                [Function],
                ";

    ",
                [Function],
                "

    ",
                [Function],
                ";

    ",
                [Function],
                "

    ",
                [Function],
                "

    ",
                [Function],
                ";

    &:focus ~ .TextBox__label {
      font-weight: ",
                [Function],
                ";
      ",
                [Function],
                ";
    }
    &:focus {
      border-color: ",
                [Function],
                ";

      ",
                [Function],
                "
    }
  }

  &.textbox_validation_success .checkmark-container {
    ",
                [Function],
                "
  }

  .success__checkmark {
    display: none;
  }
  &.textbox_validation_success .TextBox__input {
    ",
                [Function],
                ";
  }

  &.textbox_validation_success .success__checkmark {
    display: ",
                [Function],
                ";
    width: 15px;
    height: 8px;
    margin-left: ",
                [Function],
                ";
    transform: rotate(-45deg);
    transform-origin: left;
    position: absolute;
    right: ",
                [Function],
                ";
    top: ",
                [Function],
                ";

    &:before {
      content: '';
      position: absolute;
      width: 3px;
      height: 100%;
      background-color: ",
                [Function],
                ";
    }

    &:after {
      content: '';
      position: absolute;
      width: 100%;
      height: 3px;
      background-color: ",
                [Function],
                ";
      bottom: 0;
    }

    &.success__checkmark--date {
      right: 25px;
      top: 35px;
    }
  }

  ",
                [Function],
                ";

  .TextBox__error {
    display: flex;
    flex-direction: row;
    padding-bottom: ",
                [Function],
                ";
  }
  .warning-icon {
    background: transparent url('",
                [Function],
                "') no-repeat 0
      0;
    background-size: contain;
    border: none;
    height: 14px;
    width: 16px;
    margin-right: 7px;
    flex-shrink: 0;
  }

  .custom-icon {
    display: none;
    background-size: contain;
    border: none;
    height: ",
                [Function],
                ";
    width: ",
                [Function],
                ";
    margin-right: 7px;
    flex-shrink: 0;
    position: absolute;
    top: 22%;
    right: -",
                [Function],
                ";
  }

  .custom-search-icon {
    display: block;
    background: transparent url('",
                [Function],
                "') no-repeat 0 0;
  }

  .input-right-err-icon {
    background: transparent url('",
                [Function],
                "') no-repeat
      0 0;
    background-size: contain;
    border: none;
    height: 16px;
    width: 16px;
    margin-right: 7px;
    flex-shrink: 0;
    position: absolute;
    top: 25%;
    right: -7%;
  }

  .hide-err {
    display: none;
  }

  .TextBox_view {
    border: 1px solid gray;
    border-radius: 4px;
    height: 140px;
    width: 100%;
    margin-bottom: 10px;
  }
  .TextBox_view_border {
    border: 1px solid red;
    border-radius: 4px;
    height: 140px;
    width: 100%;
    margin-bottom: 10px;
  }
  .TextBox__input[type='hidden'] ~ .checkmark-container {
    display: none;
  }
",
                ";
",
              ],
              "staticRulesId": "",
            },
            "foldedComponentIds": Array [],
            "render": [Function],
            "shouldForwardProp": undefined,
            "styledComponentId": "sc-egiyK",
            "target": [Function],
            "toString": [Function],
            "warnTooManyClasses": [Function],
            "withComponent": [Function],
          }
        }
        dataLocator="plcc_city"
        id="city"
        name="city"
        placeholder="city"
      />
    </Styled(Col)>
    <Styled(Col)
      className="columnWrapper"
      colSize={
        Object {
          "large": 5,
          "medium": 4,
          "small": 6,
        }
      }
    >
      <Styled(Row)
        fullBleed={true}
      >
        <Styled(Col)
          className="contact_information_form"
          colSize={
            Object {
              "large": 6,
              "medium": 4,
              "small": 3,
            }
          }
          key="container_state"
        >
          <Field
            aria-label="state"
            className="field stateField"
            component={
              Object {
                "$$typeof": Symbol(react.forward_ref),
                "attrs": Array [],
                "componentStyle": e {
                  "baseHash": -1947125077,
                  "baseStyle": undefined,
                  "componentId": "sc-ksdxgE",
                  "isStatic": false,
                  "rules": Array [
                    "
  ",
                    "
  position: relative;
  display: block;
  height: ",
                    [Function],
                    ";

  .select__input {
    appearance: none;
    background: url('",
                    [Function],
                    "') no-repeat right
      ",
                    [Function],
                    " bottom
      ",
                    [Function],
                    ";
    border: 0;
    border-bottom: 1px solid ",
                    [Function],
                    ";
    ",
                    [Function],
                    ";
    border-radius: 0;
    color: ",
                    [Function],
                    ";
    margin: 0;
    margin-bottom: ",
                    [Function],
                    ";
    outline: 0;
    padding: ",
                    "26px",
                    " 0 6px;
    width: 100%;

    ",
                    [Function],
                    ";

    font-size: ",
                    [Function],
                    ";
  }

  .select__label {
    font-size: ",
                    [Function],
                    "px;
    font-weight: ",
                    [Function],
                    ";
    padding: 0;
    position: absolute;
    top: 0;
  }

  .SelectBox__error {
    display: flex;
    flex-direction: row;
    padding-bottom: ",
                    [Function],
                    ";
  }

  .warning-icon {
    background: transparent url('",
                    [Function],
                    "') no-repeat 0
      0;
    background-size: contain;
    border: none;
    height: 14px;
    width: 16px;
    margin-right: 7px;
    flex-shrink: 0;
  }

  ",
                    [Function],
                    ";
",
                    ";
",
                  ],
                  "staticRulesId": "",
                },
                "foldedComponentIds": Array [],
                "render": [Function],
                "shouldForwardProp": undefined,
                "styledComponentId": "sc-ksdxgE",
                "target": [Function],
                "toString": [Function],
                "warnTooManyClasses": [Function],
                "withComponent": [Function],
              }
            }
            dataLocator="plcc_state"
            id="statewocountry"
            name="statewocountry"
            options={
              Array [
                Object {
                  "displayName": "BC",
                  "fullName": "British Columbia",
                  "id": "BC",
                },
                Object {
                  "displayName": "ON",
                  "fullName": "Ontario",
                  "id": "ON",
                },
                Object {
                  "displayName": "NL",
                  "fullName": "Newfoundland and Labrador",
                  "id": "NL",
                },
                Object {
                  "displayName": "NS",
                  "fullName": "Nova Scotia",
                  "id": "NS",
                },
                Object {
                  "displayName": "PE",
                  "fullName": "Prince Edward Island",
                  "id": "PE",
                },
                Object {
                  "displayName": "NB",
                  "fullName": "New Brunswick",
                  "id": "NB",
                },
                Object {
                  "displayName": "QC",
                  "fullName": "Quebec",
                  "id": "QC",
                },
                Object {
                  "displayName": "MB",
                  "fullName": "Manitoba",
                  "id": "MB",
                },
                Object {
                  "displayName": "SK",
                  "fullName": "Saskatchewan",
                  "id": "SK",
                },
                Object {
                  "displayName": "AB",
                  "fullName": "Alberta",
                  "id": "AB",
                },
                Object {
                  "displayName": "NT",
                  "fullName": "Northwest Territories",
                  "id": "NT",
                },
                Object {
                  "displayName": "NU",
                  "fullName": "Nunavut",
                  "id": "NU",
                },
                Object {
                  "displayName": "YT",
                  "fullName": "Yukon",
                  "id": "YT",
                },
              ]
            }
            placeholder="state"
            title="state"
          />
        </Styled(Col)>
        <Styled(Col)
          className="contact_information_form"
          colSize={
            Object {
              "large": 6,
              "medium": 4,
              "small": 3,
            }
          }
          key="container_zip"
        >
          <Field
            className="field"
            component={
              Object {
                "$$typeof": Symbol(react.forward_ref),
                "attrs": Array [],
                "componentStyle": e {
                  "baseHash": -225017612,
                  "baseStyle": undefined,
                  "componentId": "sc-egiyK",
                  "isStatic": false,
                  "rules": Array [
                    "
  ",
                    "
  position: relative;
  display: ",
                    [Function],
                    ";
  width: ",
                    [Function],
                    ";

  &.input-fields-wrapper {
    ",
                    [Function],
                    "
  }

  .TextBox__label {
    font-size: ",
                    [Function],
                    ";
    padding: 0;
    position: absolute;
    top: ",
                    [Function],
                    ";
    ",
                    [Function],
                    "
    left: ",
                    [Function],
                    ";
    &.nonActive {
      ",
                    [Function],
                    ";
    }
  }
  .TextBox__placeholder {
    color: ",
                    [Function],
                    ";
  }

  .TextBox__view {
    font-size: 16px;
    position: absolute;
    top: 10px;
    padding: 5px;
    color: ",
                    [Function],
                    ";
  }
  .TextBox__input {
    margin: 0;
    outline: 0;
    font-size: ",
                    [Function],
                    "px;
    color: ",
                    [Function],
                    ";
    width: ",
                    [Function],
                    ";
    background-position: left top;
    background-repeat: no-repeat;
    background-size: contain;
    margin-bottom: ",
                    [Function],
                    ";

    ",
                    [Function],
                    "

    ",
                    [Function],
                    ";

    ",
                    [Function],
                    "

    ",
                    [Function],
                    "

    ",
                    [Function],
                    ";

    &:focus ~ .TextBox__label {
      font-weight: ",
                    [Function],
                    ";
      ",
                    [Function],
                    ";
    }
    &:focus {
      border-color: ",
                    [Function],
                    ";

      ",
                    [Function],
                    "
    }
  }

  &.textbox_validation_success .checkmark-container {
    ",
                    [Function],
                    "
  }

  .success__checkmark {
    display: none;
  }
  &.textbox_validation_success .TextBox__input {
    ",
                    [Function],
                    ";
  }

  &.textbox_validation_success .success__checkmark {
    display: ",
                    [Function],
                    ";
    width: 15px;
    height: 8px;
    margin-left: ",
                    [Function],
                    ";
    transform: rotate(-45deg);
    transform-origin: left;
    position: absolute;
    right: ",
                    [Function],
                    ";
    top: ",
                    [Function],
                    ";

    &:before {
      content: '';
      position: absolute;
      width: 3px;
      height: 100%;
      background-color: ",
                    [Function],
                    ";
    }

    &:after {
      content: '';
      position: absolute;
      width: 100%;
      height: 3px;
      background-color: ",
                    [Function],
                    ";
      bottom: 0;
    }

    &.success__checkmark--date {
      right: 25px;
      top: 35px;
    }
  }

  ",
                    [Function],
                    ";

  .TextBox__error {
    display: flex;
    flex-direction: row;
    padding-bottom: ",
                    [Function],
                    ";
  }
  .warning-icon {
    background: transparent url('",
                    [Function],
                    "') no-repeat 0
      0;
    background-size: contain;
    border: none;
    height: 14px;
    width: 16px;
    margin-right: 7px;
    flex-shrink: 0;
  }

  .custom-icon {
    display: none;
    background-size: contain;
    border: none;
    height: ",
                    [Function],
                    ";
    width: ",
                    [Function],
                    ";
    margin-right: 7px;
    flex-shrink: 0;
    position: absolute;
    top: 22%;
    right: -",
                    [Function],
                    ";
  }

  .custom-search-icon {
    display: block;
    background: transparent url('",
                    [Function],
                    "') no-repeat 0 0;
  }

  .input-right-err-icon {
    background: transparent url('",
                    [Function],
                    "') no-repeat
      0 0;
    background-size: contain;
    border: none;
    height: 16px;
    width: 16px;
    margin-right: 7px;
    flex-shrink: 0;
    position: absolute;
    top: 25%;
    right: -7%;
  }

  .hide-err {
    display: none;
  }

  .TextBox_view {
    border: 1px solid gray;
    border-radius: 4px;
    height: 140px;
    width: 100%;
    margin-bottom: 10px;
  }
  .TextBox_view_border {
    border: 1px solid red;
    border-radius: 4px;
    height: 140px;
    width: 100%;
    margin-bottom: 10px;
  }
  .TextBox__input[type='hidden'] ~ .checkmark-container {
    display: none;
  }
",
                    ";
",
                  ],
                  "staticRulesId": "",
                },
                "foldedComponentIds": Array [],
                "render": [Function],
                "shouldForwardProp": undefined,
                "styledComponentId": "sc-egiyK",
                "target": [Function],
                "toString": [Function],
                "warnTooManyClasses": [Function],
                "withComponent": [Function],
              }
            }
            dataLocator="plcc_zip_code"
            id="noCountryZip"
            maxLength={5}
            name="noCountryZip"
            placeholder="zipcode"
          />
        </Styled(Col)>
      </Styled(Row)>
    </Styled(Col)>
  </Styled(Row)>
  <Styled(Row)
    fullBleed={true}
  >
    <Styled(Col)
      className="contact_information_form columnWrapper"
      colSize={
        Object {
          "large": 5,
          "medium": 4,
          "small": 6,
        }
      }
      key="container_phone"
    >
      <Field
        className="field"
        component={
          Object {
            "$$typeof": Symbol(react.forward_ref),
            "attrs": Array [],
            "componentStyle": e {
              "baseHash": -225017612,
              "baseStyle": undefined,
              "componentId": "sc-egiyK",
              "isStatic": false,
              "rules": Array [
                "
  ",
                "
  position: relative;
  display: ",
                [Function],
                ";
  width: ",
                [Function],
                ";

  &.input-fields-wrapper {
    ",
                [Function],
                "
  }

  .TextBox__label {
    font-size: ",
                [Function],
                ";
    padding: 0;
    position: absolute;
    top: ",
                [Function],
                ";
    ",
                [Function],
                "
    left: ",
                [Function],
                ";
    &.nonActive {
      ",
                [Function],
                ";
    }
  }
  .TextBox__placeholder {
    color: ",
                [Function],
                ";
  }

  .TextBox__view {
    font-size: 16px;
    position: absolute;
    top: 10px;
    padding: 5px;
    color: ",
                [Function],
                ";
  }
  .TextBox__input {
    margin: 0;
    outline: 0;
    font-size: ",
                [Function],
                "px;
    color: ",
                [Function],
                ";
    width: ",
                [Function],
                ";
    background-position: left top;
    background-repeat: no-repeat;
    background-size: contain;
    margin-bottom: ",
                [Function],
                ";

    ",
                [Function],
                "

    ",
                [Function],
                ";

    ",
                [Function],
                "

    ",
                [Function],
                "

    ",
                [Function],
                ";

    &:focus ~ .TextBox__label {
      font-weight: ",
                [Function],
                ";
      ",
                [Function],
                ";
    }
    &:focus {
      border-color: ",
                [Function],
                ";

      ",
                [Function],
                "
    }
  }

  &.textbox_validation_success .checkmark-container {
    ",
                [Function],
                "
  }

  .success__checkmark {
    display: none;
  }
  &.textbox_validation_success .TextBox__input {
    ",
                [Function],
                ";
  }

  &.textbox_validation_success .success__checkmark {
    display: ",
                [Function],
                ";
    width: 15px;
    height: 8px;
    margin-left: ",
                [Function],
                ";
    transform: rotate(-45deg);
    transform-origin: left;
    position: absolute;
    right: ",
                [Function],
                ";
    top: ",
                [Function],
                ";

    &:before {
      content: '';
      position: absolute;
      width: 3px;
      height: 100%;
      background-color: ",
                [Function],
                ";
    }

    &:after {
      content: '';
      position: absolute;
      width: 100%;
      height: 3px;
      background-color: ",
                [Function],
                ";
      bottom: 0;
    }

    &.success__checkmark--date {
      right: 25px;
      top: 35px;
    }
  }

  ",
                [Function],
                ";

  .TextBox__error {
    display: flex;
    flex-direction: row;
    padding-bottom: ",
                [Function],
                ";
  }
  .warning-icon {
    background: transparent url('",
                [Function],
                "') no-repeat 0
      0;
    background-size: contain;
    border: none;
    height: 14px;
    width: 16px;
    margin-right: 7px;
    flex-shrink: 0;
  }

  .custom-icon {
    display: none;
    background-size: contain;
    border: none;
    height: ",
                [Function],
                ";
    width: ",
                [Function],
                ";
    margin-right: 7px;
    flex-shrink: 0;
    position: absolute;
    top: 22%;
    right: -",
                [Function],
                ";
  }

  .custom-search-icon {
    display: block;
    background: transparent url('",
                [Function],
                "') no-repeat 0 0;
  }

  .input-right-err-icon {
    background: transparent url('",
                [Function],
                "') no-repeat
      0 0;
    background-size: contain;
    border: none;
    height: 16px;
    width: 16px;
    margin-right: 7px;
    flex-shrink: 0;
    position: absolute;
    top: 25%;
    right: -7%;
  }

  .hide-err {
    display: none;
  }

  .TextBox_view {
    border: 1px solid gray;
    border-radius: 4px;
    height: 140px;
    width: 100%;
    margin-bottom: 10px;
  }
  .TextBox_view_border {
    border: 1px solid red;
    border-radius: 4px;
    height: 140px;
    width: 100%;
    margin-bottom: 10px;
  }
  .TextBox__input[type='hidden'] ~ .checkmark-container {
    display: none;
  }
",
                ";
",
              ],
              "staticRulesId": "",
            },
            "foldedComponentIds": Array [],
            "render": [Function],
            "shouldForwardProp": undefined,
            "styledComponentId": "sc-egiyK",
            "target": [Function],
            "toString": [Function],
            "warnTooManyClasses": [Function],
            "withComponent": [Function],
          }
        }
        dataLocator="plc_mobile_no"
        id="phoneNumberWithAlt"
        name="phoneNumberWithAlt"
        normalize={[Function]}
        placeholder="mobile phone"
        type="tel"
      />
    </Styled(Col)>
    <Styled(Col)
      className="contact_information_form columnWrapper"
      colSize={
        Object {
          "large": 5,
          "medium": 4,
          "small": 6,
        }
      }
    >
      <Field
        className="field"
        component={
          Object {
            "$$typeof": Symbol(react.forward_ref),
            "attrs": Array [],
            "componentStyle": e {
              "baseHash": -225017612,
              "baseStyle": undefined,
              "componentId": "sc-egiyK",
              "isStatic": false,
              "rules": Array [
                "
  ",
                "
  position: relative;
  display: ",
                [Function],
                ";
  width: ",
                [Function],
                ";

  &.input-fields-wrapper {
    ",
                [Function],
                "
  }

  .TextBox__label {
    font-size: ",
                [Function],
                ";
    padding: 0;
    position: absolute;
    top: ",
                [Function],
                ";
    ",
                [Function],
                "
    left: ",
                [Function],
                ";
    &.nonActive {
      ",
                [Function],
                ";
    }
  }
  .TextBox__placeholder {
    color: ",
                [Function],
                ";
  }

  .TextBox__view {
    font-size: 16px;
    position: absolute;
    top: 10px;
    padding: 5px;
    color: ",
                [Function],
                ";
  }
  .TextBox__input {
    margin: 0;
    outline: 0;
    font-size: ",
                [Function],
                "px;
    color: ",
                [Function],
                ";
    width: ",
                [Function],
                ";
    background-position: left top;
    background-repeat: no-repeat;
    background-size: contain;
    margin-bottom: ",
                [Function],
                ";

    ",
                [Function],
                "

    ",
                [Function],
                ";

    ",
                [Function],
                "

    ",
                [Function],
                "

    ",
                [Function],
                ";

    &:focus ~ .TextBox__label {
      font-weight: ",
                [Function],
                ";
      ",
                [Function],
                ";
    }
    &:focus {
      border-color: ",
                [Function],
                ";

      ",
                [Function],
                "
    }
  }

  &.textbox_validation_success .checkmark-container {
    ",
                [Function],
                "
  }

  .success__checkmark {
    display: none;
  }
  &.textbox_validation_success .TextBox__input {
    ",
                [Function],
                ";
  }

  &.textbox_validation_success .success__checkmark {
    display: ",
                [Function],
                ";
    width: 15px;
    height: 8px;
    margin-left: ",
                [Function],
                ";
    transform: rotate(-45deg);
    transform-origin: left;
    position: absolute;
    right: ",
                [Function],
                ";
    top: ",
                [Function],
                ";

    &:before {
      content: '';
      position: absolute;
      width: 3px;
      height: 100%;
      background-color: ",
                [Function],
                ";
    }

    &:after {
      content: '';
      position: absolute;
      width: 100%;
      height: 3px;
      background-color: ",
                [Function],
                ";
      bottom: 0;
    }

    &.success__checkmark--date {
      right: 25px;
      top: 35px;
    }
  }

  ",
                [Function],
                ";

  .TextBox__error {
    display: flex;
    flex-direction: row;
    padding-bottom: ",
                [Function],
                ";
  }
  .warning-icon {
    background: transparent url('",
                [Function],
                "') no-repeat 0
      0;
    background-size: contain;
    border: none;
    height: 14px;
    width: 16px;
    margin-right: 7px;
    flex-shrink: 0;
  }

  .custom-icon {
    display: none;
    background-size: contain;
    border: none;
    height: ",
                [Function],
                ";
    width: ",
                [Function],
                ";
    margin-right: 7px;
    flex-shrink: 0;
    position: absolute;
    top: 22%;
    right: -",
                [Function],
                ";
  }

  .custom-search-icon {
    display: block;
    background: transparent url('",
                [Function],
                "') no-repeat 0 0;
  }

  .input-right-err-icon {
    background: transparent url('",
                [Function],
                "') no-repeat
      0 0;
    background-size: contain;
    border: none;
    height: 16px;
    width: 16px;
    margin-right: 7px;
    flex-shrink: 0;
    position: absolute;
    top: 25%;
    right: -7%;
  }

  .hide-err {
    display: none;
  }

  .TextBox_view {
    border: 1px solid gray;
    border-radius: 4px;
    height: 140px;
    width: 100%;
    margin-bottom: 10px;
  }
  .TextBox_view_border {
    border: 1px solid red;
    border-radius: 4px;
    height: 140px;
    width: 100%;
    margin-bottom: 10px;
  }
  .TextBox__input[type='hidden'] ~ .checkmark-container {
    display: none;
  }
",
                ";
",
              ],
              "staticRulesId": "",
            },
            "foldedComponentIds": Array [],
            "render": [Function],
            "shouldForwardProp": undefined,
            "styledComponentId": "sc-egiyK",
            "target": [Function],
            "toString": [Function],
            "warnTooManyClasses": [Function],
            "withComponent": [Function],
          }
        }
        dataLocator="plcc_alt_mobile_no"
        id="alternatePhone"
        name="altPhoneNumber"
        normalize={[Function]}
        placeholder="alternate phone"
      />
      <Styled(BodyCopy)
        className="columnWrapper plcc_min_phone"
        color="text.primary"
        component="p"
        customStyle={Object {}}
        fontFamily="secondary"
        fontSize="fs10"
        fontWeight="regular"
        id="plcc_min_phone"
        letterSpacing="normal"
        lineHeight="normal"
        link={null}
        textAlign="left"
      >
        min phone
      </Styled(BodyCopy)>
    </Styled(Col)>
  </Styled(Row)>
  <Styled(Row)
    fullBleed={true}
  >
    <Styled(Col)
      className="prescreen_code_link_container contact_information_form columnWrapper"
      colSize={
        Object {
          "large": 5,
          "medium": 4,
          "small": 6,
        }
      }
      data-locator="Prescreen_code_link"
      key="Prescreen_code_link"
    >
      <Field
        className="field"
        component={
          Object {
            "$$typeof": Symbol(react.forward_ref),
            "attrs": Array [],
            "componentStyle": e {
              "baseHash": -225017612,
              "baseStyle": undefined,
              "componentId": "sc-egiyK",
              "isStatic": false,
              "rules": Array [
                "
  ",
                "
  position: relative;
  display: ",
                [Function],
                ";
  width: ",
                [Function],
                ";

  &.input-fields-wrapper {
    ",
                [Function],
                "
  }

  .TextBox__label {
    font-size: ",
                [Function],
                ";
    padding: 0;
    position: absolute;
    top: ",
                [Function],
                ";
    ",
                [Function],
                "
    left: ",
                [Function],
                ";
    &.nonActive {
      ",
                [Function],
                ";
    }
  }
  .TextBox__placeholder {
    color: ",
                [Function],
                ";
  }

  .TextBox__view {
    font-size: 16px;
    position: absolute;
    top: 10px;
    padding: 5px;
    color: ",
                [Function],
                ";
  }
  .TextBox__input {
    margin: 0;
    outline: 0;
    font-size: ",
                [Function],
                "px;
    color: ",
                [Function],
                ";
    width: ",
                [Function],
                ";
    background-position: left top;
    background-repeat: no-repeat;
    background-size: contain;
    margin-bottom: ",
                [Function],
                ";

    ",
                [Function],
                "

    ",
                [Function],
                ";

    ",
                [Function],
                "

    ",
                [Function],
                "

    ",
                [Function],
                ";

    &:focus ~ .TextBox__label {
      font-weight: ",
                [Function],
                ";
      ",
                [Function],
                ";
    }
    &:focus {
      border-color: ",
                [Function],
                ";

      ",
                [Function],
                "
    }
  }

  &.textbox_validation_success .checkmark-container {
    ",
                [Function],
                "
  }

  .success__checkmark {
    display: none;
  }
  &.textbox_validation_success .TextBox__input {
    ",
                [Function],
                ";
  }

  &.textbox_validation_success .success__checkmark {
    display: ",
                [Function],
                ";
    width: 15px;
    height: 8px;
    margin-left: ",
                [Function],
                ";
    transform: rotate(-45deg);
    transform-origin: left;
    position: absolute;
    right: ",
                [Function],
                ";
    top: ",
                [Function],
                ";

    &:before {
      content: '';
      position: absolute;
      width: 3px;
      height: 100%;
      background-color: ",
                [Function],
                ";
    }

    &:after {
      content: '';
      position: absolute;
      width: 100%;
      height: 3px;
      background-color: ",
                [Function],
                ";
      bottom: 0;
    }

    &.success__checkmark--date {
      right: 25px;
      top: 35px;
    }
  }

  ",
                [Function],
                ";

  .TextBox__error {
    display: flex;
    flex-direction: row;
    padding-bottom: ",
                [Function],
                ";
  }
  .warning-icon {
    background: transparent url('",
                [Function],
                "') no-repeat 0
      0;
    background-size: contain;
    border: none;
    height: 14px;
    width: 16px;
    margin-right: 7px;
    flex-shrink: 0;
  }

  .custom-icon {
    display: none;
    background-size: contain;
    border: none;
    height: ",
                [Function],
                ";
    width: ",
                [Function],
                ";
    margin-right: 7px;
    flex-shrink: 0;
    position: absolute;
    top: 22%;
    right: -",
                [Function],
                ";
  }

  .custom-search-icon {
    display: block;
    background: transparent url('",
                [Function],
                "') no-repeat 0 0;
  }

  .input-right-err-icon {
    background: transparent url('",
                [Function],
                "') no-repeat
      0 0;
    background-size: contain;
    border: none;
    height: 16px;
    width: 16px;
    margin-right: 7px;
    flex-shrink: 0;
    position: absolute;
    top: 25%;
    right: -7%;
  }

  .hide-err {
    display: none;
  }

  .TextBox_view {
    border: 1px solid gray;
    border-radius: 4px;
    height: 140px;
    width: 100%;
    margin-bottom: 10px;
  }
  .TextBox_view_border {
    border: 1px solid red;
    border-radius: 4px;
    height: 140px;
    width: 100%;
    margin-bottom: 10px;
  }
  .TextBox__input[type='hidden'] ~ .checkmark-container {
    display: none;
  }
",
                ";
",
              ],
              "staticRulesId": "",
            },
            "foldedComponentIds": Array [],
            "render": [Function],
            "shouldForwardProp": undefined,
            "styledComponentId": "sc-egiyK",
            "target": [Function],
            "toString": [Function],
            "warnTooManyClasses": [Function],
            "withComponent": [Function],
          }
        }
        dataLocator="plcc_email"
        id="emailAddress"
        name="emailAddress"
        normalize={[Function]}
        placeholder="email"
      />
    </Styled(Col)>
  </Styled(Row)>
</styled.div>
`;
