// Jest Snapshot v1, https://goo.gl/fbAQLP

exports[`MyRewards should render correctly 1`] = `
<div
  className=""
>
  <div
    className="my-reward-styling "
  >
    <Styled(Row)
      fullBleed={true}
    >
      <Styled(Col)
        colSize={
          Object {
            "large": 12,
            "medium": 8,
            "small": 6,
          }
        }
        ignoreGutter={
          Object {
            "large": true,
            "medium": true,
            "small": true,
          }
        }
      >
        <Styled(BodyCopy)
          className="my-rewards-heading"
          color="text.primary"
          component="p"
          customStyle={Object {}}
          data-locator="my-rewards-heading"
          fontFamily="secondary"
          fontSize="fs16"
          fontWeight="semibold"
          letterSpacing="normal"
          lineHeight="normal"
          link={null}
          textAlign="left"
        >
          lbl_my_rewards_heading (undefined)
        </Styled(BodyCopy)>
      </Styled(Col)>
      <Styled(Col)
        colSize={
          Object {
            "large": 12,
            "medium": 8,
            "small": 6,
          }
        }
        ignoreGutter={
          Object {
            "large": true,
            "medium": true,
            "small": true,
          }
        }
      >
        <EmptyRewards
          labels={
            Object {
              "common": Object {},
              "placeRewards": Object {},
            }
          }
        />
      </Styled(Col)>
    </Styled(Row)>
  </div>
</div>
`;
