// Jest Snapshot v1, https://goo.gl/fbAQLP

exports[`EddComponent Component EddComponent should render 1`] = `
<Styled(View)>
  <Styled(BodyCopy)
    accessibilityText=""
    color="gray[800]"
    dataLocator=""
    fontFamily="secondary"
    fontSize="fs12"
    fontWeight="semibold"
    margin={null}
    numberOfLines={null}
    text="Arrives By"
    textDecoration={null}
  />
  <Styled(View)
    spacingStyles="margin-left-XXS"
  >
    <Styled(BodyCopy)
      accessibilityText=""
      color="gray[800]"
      dataLocator=""
      fontFamily="secondary"
      fontSize="fs12"
      fontWeight="extrabold"
      margin={null}
      numberOfLines={null}
      text="Sun, Oct 18"
      textDecoration={null}
    />
  </Styled(View)>
</Styled(View)>
`;

exports[`EddComponent Component EddComponent should render with Date Range 1`] = `
<Fragment>
  <Styled(BodyCopy)
    accessibilityText=""
    dataLocator=""
    fontFamily="secondary"
    fontSize="fs12"
    fontWeight="semibold"
    margin={null}
    numberOfLines={null}
    text=" - "
    textDecoration={null}
  />
  <Styled(BodyCopy)
    accessibilityText=""
    dataLocator=""
    fontFamily="secondary"
    fontSize="fs12"
    fontWeight="semibold"
    margin={null}
    numberOfLines={null}
    text=" "
    textDecoration={null}
  />
</Fragment>
`;

exports[`EddComponent Component EddComponent should render with Standard and express split scenario 1`] = `
<Styled(View)>
  <Styled(BodyCopy)
    accessibilityText=""
    color="gray[800]"
    dataLocator=""
    fontFamily="secondary"
    fontSize="fs12"
    fontWeight="semibold"
    margin={null}
    numberOfLines={null}
    text="Arrives By"
    textDecoration={null}
  />
  <Styled(View)
    spacingStyles="margin-left-XXS"
  >
    <Styled(BodyCopy)
      accessibilityText=""
      color="gray[800]"
      dataLocator=""
      fontFamily="secondary"
      fontSize="fs12"
      fontWeight="extrabold"
      margin={null}
      numberOfLines={null}
      text="Wed, Oct 21"
      textDecoration={null}
    />
  </Styled(View)>
</Styled(View)>
`;

exports[`EddComponent Component EddComponent should render with Standard and qty split scenario 1`] = `
<Styled(View)>
  <Styled(BodyCopy)
    accessibilityText=""
    color="gray[800]"
    dataLocator=""
    fontFamily="secondary"
    fontSize="fs12"
    fontWeight="semibold"
    margin={null}
    numberOfLines={null}
    text="Arrives By"
    textDecoration={null}
  />
  <Styled(View)
    spacingStyles="margin-left-XXS"
  >
    <Styled(BodyCopy)
      accessibilityText=""
      color="gray[800]"
      dataLocator=""
      fontFamily="secondary"
      fontSize="fs12"
      fontWeight="extrabold"
      margin={null}
      numberOfLines={null}
      text="Sun, Oct 18"
      textDecoration={null}
    />
  </Styled(View)>
</Styled(View)>
`;
