// Jest Snapshot v1, https://goo.gl/fbAQLP

exports[`ModuleEVanilla ModuleE V1 alt should render correctly 1`] = `
<Styled(View)
  style={Object {}}
>
  <View
    style={Object {}}
  >
    <View>
      <Styled(View)
        pos="bottom"
        style={Object {}}
      />
      <Styled(View)>
        <Styled(View)>
          <LinkText
            color="#a87db2"
            fontFamily="primary"
            fontWeight="black"
            headerStyle={
              Array [
                Object {},
                Object {},
              ]
            }
            headerText={
              Array [
                Object {
                  "icon": Object {
                    "icon": "",
                    "placement": "",
                  },
                  "link": Object {
                    "external": 0,
                    "target": "",
                    "text": "",
                    "title": "",
                    "url": "/node/pdp/<uuid>",
                  },
                  "textItems": Array [
                    Object {
                      "style": "large_text_black",
                      "text": "MATCHING FAMILY",
                    },
                  ],
                },
              ]
            }
            locator="moduleE_header_text"
            navigation={Object {}}
            renderComponentInNewLine={true}
            textAlign="center"
            type="heading"
            useStyle={true}
          />
        </Styled(View)>
        <View>
          <PromoBanner
            locator="moduleE_promobanner_text"
            navigation={Object {}}
            promoBanner={
              Array [
                Object {
                  "link": Object {
                    "external": 0,
                    "target": "",
                    "text": "",
                    "title": "",
                    "url": "/banner/url",
                  },
                  "textItems": Array [
                    Object {
                      "style": "spaced_text_only_mobile",
                      "text": "ALL SPRING DRESSES UP",
                    },
                    Object {
                      "style": "percentage_inline_promo_black",
                      "text": "40% OFF",
                    },
                  ],
                },
              ]
            }
            promoStyle={Object {}}
            showTextUnderLine={false}
            underLineStyle={Object {}}
          />
        </View>
      </Styled(View)>
    </View>
    <Styled(View)
      type="button"
    >
      <View>
        <Styled(Styled(Anchor))
          accessibilityLabel=""
          anchorVariation=""
          colorName={null}
          customStyle={Object {}}
          hitSlop={Object {}}
          justifyContent=""
          key="0"
          locator=""
          margins={null}
          navigation={Object {}}
          onPress={null}
          overrideStyle={Object {}}
          text=""
          url="http://www.childrensplace.com"
          visible={false}
        >
          <Styled(Styled(DamImage))
            alt="Promo Area"
            badgeConfig={Array []}
            cacheType="immutable"
            checkBrand=""
            crop=""
            customStyle={null}
            disableVideoClickHandler={false}
            dynamicBadgeOverlayQty={0}
            height="67px"
            host=""
            imgConfig="t_mod_E_promo_area_img_m"
            imgData={
              Object {
                "alt": "Promo Area",
                "crop_d": "",
                "crop_m": "",
                "crop_t": "",
                "title": "Promo Area",
                "url": "https://test5.childrensplace.com/image/upload/v1573246605/module-E-promo-area.jpg",
              }
            }
            isBackground={true}
            isBorderVideo={false}
            isFastImage={false}
            isHomePage={true}
            isNewReDesignEnabled={false}
            isOptimizedVideo={false}
            isProductImage={false}
            itemBrand=""
            link={null}
            navigation={null}
            onError={[Function]}
            onLoadStart={[Function]}
            onProgress={[Function]}
            overrideStyle={null}
            priority="normal"
            renderVideoAsImage={false}
            resizeMode="contain"
            source=""
            swatchConfig=""
            testID="undefined0"
            url=""
            videoData={null}
            width={750}
          />
        </Styled(Styled(Anchor))>
      </View>
    </Styled(View)>
  </View>
  <View
    style={Object {}}
  >
    <Styled(View)
      marginBottom="0"
      marginTop="5px"
    >
      <Connect(WithTheme(SnapCarousel))
        carouselConfig={
          Object {
            "autoplay": true,
          }
        }
        data={
          Array [
            Object {
              "image": Object {
                "alt": "Family Tees2",
                "crop_d": "",
                "crop_m": "",
                "crop_t": "",
                "title": "Family Tees2",
                "url": "https://test5.childrensplace.com/image/upload/v1573283582/module-E-test-large-1.jpg",
              },
              "singleCTAButton": Object {
                "external": 0,
                "target": "_blank",
                "text": "Shop The Collection",
                "title": "Shop The Collection",
                "url": "http://www.childrensplace.com",
              },
            },
            Object {
              "image": Object {
                "alt": "Family Tees",
                "crop_d": "",
                "crop_m": "",
                "crop_t": "",
                "title": "Family Tees",
                "url": "https://test5.childrensplace.com/image/upload/v1573239143/module-E-test-large-2.jpg",
              },
              "singleCTAButton": Object {
                "external": 0,
                "target": "_blank",
                "text": "Shop The Collection",
                "title": "Shop The Collection",
                "url": "http://www.childrensplace.com/2",
              },
            },
          ]
        }
        height={350}
        isModule={true}
        onSnapToItem={[Function]}
        overlap={true}
        renderItem={[Function]}
        showDots={true}
        width={750}
      />
    </Styled(View)>
    <Styled(View)
      marginTop="0"
    >
      <Styled(Styled(CustomButton))
        active={false}
        buttonVariation="fixed-width"
        color=""
        customBorderStyle=""
        customIconStyle={Object {}}
        customStyle={Object {}}
        customTextStyle={null}
        disableButton={false}
        fill=""
        fontFamily=""
        fontSize=""
        fontWeight=""
        fullWidth=""
        iconColor="gray.800"
        iconFirst={false}
        iconName="chevron-down"
        iconSize="fs12"
        locator=""
        navigation={Object {}}
        noBorderBottom={true}
        onPress={null}
        paddings="12px 32px 12px 32px"
        selected={false}
        selectedIcon="chevron-up"
        showIcon={false}
        text="Shop The Collection"
        theme={Object {}}
        url="http://www.childrensplace.com"
        useCustomFontStyle={false}
        withNoLineHeight={false}
      />
    </Styled(View)>
    <View>
      <ButtonList
        buttonListVariation="stackedCTAList"
        buttonsData={
          Array [
            Object {
              "button": Object {
                "external": 0,
                "target": "",
                "text": "Girl",
                "title": "Girl",
                "url": "/girl",
              },
            },
            Object {
              "button": Object {
                "external": 0,
                "target": "",
                "text": "Toddler Girl",
                "title": "Toddler Girl",
                "url": "/toddler-girl",
              },
            },
            Object {
              "button": Object {
                "external": 0,
                "target": "",
                "text": "Boy",
                "title": "Boy",
                "url": "/boy",
              },
            },
            Object {
              "button": Object {
                "external": 0,
                "target": "",
                "text": "Toddler Boy",
                "title": "Toddler Boy",
                "url": "/toddler-boy",
              },
            },
            Object {
              "button": Object {
                "external": 0,
                "target": "",
                "text": "Baby",
                "title": "Baby",
                "url": "/baby",
              },
            },
          ]
        }
        color="gray"
        isContainerModule={false}
        locator="moduleE_cta_button"
        navigation={Object {}}
        overrideStyle={Object {}}
      />
    </View>
    <Styled(View)>
      <Styled(View)>
        <LinkText
          color="#a87db2"
          fontFamily="primary"
          fontWeight="black"
          headerStyle={
            Array [
              Object {},
              Object {},
            ]
          }
          headerText={Array []}
          locator="moduleE_header_text"
          navigation={Object {}}
          renderComponentInNewLine={true}
          textAlign="center"
          type="heading"
          useStyle={true}
        />
      </Styled(View)>
    </Styled(View)>
    <Styled(View)
      headerText2={Array []}
    >
      <Styled(View)
        tileIndex={0}
      >
        <Styled(Styled(Anchor))
          accessibilityLabel=""
          anchorVariation=""
          colorName={null}
          customStyle={Object {}}
          hitSlop={Object {}}
          justifyContent=""
          key="0"
          locator=""
          margins={null}
          navigation={Object {}}
          onPress={null}
          overrideStyle={Object {}}
          text=""
          url="/link/url1"
          visible={false}
        >
          <Styled(Styled(DamImage))
            alt="Big & Little Sis"
            badgeConfig={Array []}
            cacheType="immutable"
            checkBrand=""
            crop=""
            customStyle={null}
            disableVideoClickHandler={false}
            dynamicBadgeOverlayQty={0}
            height="164px"
            host=""
            imgConfig="t_mod_E_small_img_m"
            imgData={null}
            isBackground={true}
            isBorderVideo={false}
            isFastImage={false}
            isHomePage={true}
            isNewReDesignEnabled={false}
            isOptimizedVideo={false}
            isProductImage={false}
            itemBrand=""
            link={null}
            navigation={null}
            onError={[Function]}
            onLoadStart={[Function]}
            onProgress={[Function]}
            overrideStyle={null}
            priority="normal"
            renderVideoAsImage={false}
            resizeMode="contain"
            source=""
            swatchConfig=""
            testID="undefined0"
            url="https://test5.childrensplace.com/image/upload/v1573193928/module-E-test-small-1.jpg"
            videoData={null}
            width="164px"
          />
        </Styled(Styled(Anchor))>
        <Styled(View)>
          <LinkText
            headerText={
              Array [
                Object {
                  "link": Object {
                    "external": 1,
                    "target": "_blank",
                    "text": "SHOP NOW",
                    "title": "SHOP NOW",
                    "url": "/link/url1",
                  },
                  "textItems": Array [
                    Object {
                      "style": "spaced_text_regular_black",
                      "text": "Big & Little Sis",
                    },
                  ],
                },
              ]
            }
            locator="moduleE_small_header_text"
            navigation={Object {}}
            renderComponentInNewLine={true}
            style={
              Object {
                "color": "#e96d97",
              }
            }
            type="heading"
            useStyle={true}
          />
        </Styled(View)>
        <Styled(Styled(CustomButton))
          active={false}
          buttonVariation="fixed-width"
          color=""
          customBorderStyle=""
          customIconStyle={Object {}}
          customStyle={Object {}}
          customTextStyle={null}
          disableButton={false}
          fill=""
          fontFamily=""
          fontSize=""
          fontWeight=""
          fullWidth=""
          iconColor="gray.800"
          iconFirst={false}
          iconName="chevron-down"
          iconSize="fs12"
          locator=""
          navigation={Object {}}
          onPress={null}
          paddings="12px 32px 12px 32px"
          selected={false}
          selectedIcon="chevron-up"
          showIcon={false}
          text="SHOP NOW"
          theme={Object {}}
          url="/link/url1"
          useCustomFontStyle={false}
          withNoLineHeight={false}
        />
      </Styled(View)>
      <Styled(View)
        tileIndex={1}
      >
        <Styled(Styled(Anchor))
          accessibilityLabel=""
          anchorVariation=""
          colorName={null}
          customStyle={Object {}}
          hitSlop={Object {}}
          justifyContent=""
          key="1"
          locator=""
          margins={null}
          navigation={Object {}}
          onPress={null}
          overrideStyle={Object {}}
          text=""
          url="/link/url2"
          visible={false}
        >
          <Styled(Styled(DamImage))
            alt="Big & Little Bro"
            badgeConfig={Array []}
            cacheType="immutable"
            checkBrand=""
            crop=""
            customStyle={null}
            disableVideoClickHandler={false}
            dynamicBadgeOverlayQty={0}
            height="164px"
            host=""
            imgConfig="t_mod_E_small_img_m"
            imgData={null}
            isBackground={true}
            isBorderVideo={false}
            isFastImage={false}
            isHomePage={true}
            isNewReDesignEnabled={false}
            isOptimizedVideo={false}
            isProductImage={false}
            itemBrand=""
            link={null}
            navigation={null}
            onError={[Function]}
            onLoadStart={[Function]}
            onProgress={[Function]}
            overrideStyle={null}
            priority="normal"
            renderVideoAsImage={false}
            resizeMode="contain"
            source=""
            swatchConfig=""
            testID="undefined1"
            url="https://test5.childrensplace.com/image/upload/v1573283630/module-E-test-large-2.jpg"
            videoData={null}
            width="164px"
          />
        </Styled(Styled(Anchor))>
        <Styled(View)>
          <LinkText
            headerText={
              Array [
                Object {
                  "link": Object {
                    "external": 1,
                    "target": "_blank",
                    "text": "SHOP NOW",
                    "title": "SHOP NOW",
                    "url": "/link/url2",
                  },
                  "textItems": Array [
                    Object {
                      "style": "spaced_text_regular_black",
                      "text": "Big & Little Bro",
                    },
                  ],
                },
              ]
            }
            locator="moduleE_small_header_text"
            navigation={Object {}}
            renderComponentInNewLine={true}
            style={
              Object {
                "color": "#2dc2f5",
              }
            }
            type="heading"
            useStyle={true}
          />
        </Styled(View)>
        <Styled(Styled(CustomButton))
          active={false}
          buttonVariation="fixed-width"
          color=""
          customBorderStyle=""
          customIconStyle={Object {}}
          customStyle={Object {}}
          customTextStyle={null}
          disableButton={false}
          fill=""
          fontFamily=""
          fontSize=""
          fontWeight=""
          fullWidth=""
          iconColor="gray.800"
          iconFirst={false}
          iconName="chevron-down"
          iconSize="fs12"
          locator=""
          navigation={Object {}}
          onPress={null}
          paddings="12px 32px 12px 32px"
          selected={false}
          selectedIcon="chevron-up"
          showIcon={false}
          text="SHOP NOW"
          theme={Object {}}
          url="/link/url2"
          useCustomFontStyle={false}
          withNoLineHeight={false}
        />
      </Styled(View)>
    </Styled(View)>
    <Styled(View)
      pos="top"
      style={Object {}}
    />
  </View>
</Styled(View)>
`;

exports[`ModuleEVanilla ModuleE V1 should render correctly 1`] = `
<Styled(View)
  style={Object {}}
>
  <View
    style={Object {}}
  >
    <View>
      <Styled(View)
        pos="bottom"
        style={Object {}}
      />
      <Styled(View)>
        <Styled(View)>
          <LinkText
            color="#a87db2"
            fontFamily="primary"
            fontWeight="black"
            headerStyle={
              Array [
                Object {},
                Object {},
              ]
            }
            headerText={
              Array [
                Object {
                  "icon": Object {
                    "icon": "",
                    "placement": "",
                  },
                  "link": Object {
                    "external": 0,
                    "target": "",
                    "text": "",
                    "title": "",
                    "url": "/node/pdp/<uuid>",
                  },
                  "textItems": Array [
                    Object {
                      "style": "large_text_black",
                      "text": "MATCHING FAMILY",
                    },
                  ],
                },
              ]
            }
            locator="moduleE_header_text"
            navigation={Object {}}
            renderComponentInNewLine={true}
            textAlign="center"
            type="heading"
            useStyle={true}
          />
        </Styled(View)>
        <View>
          <PromoBanner
            locator="moduleE_promobanner_text"
            navigation={Object {}}
            promoBanner={
              Array [
                Object {
                  "link": Object {
                    "external": 0,
                    "target": "",
                    "text": "",
                    "title": "",
                    "url": "/banner/url",
                  },
                  "textItems": Array [
                    Object {
                      "style": "spaced_text_only_mobile",
                      "text": "ALL SPRING DRESSES UP",
                    },
                    Object {
                      "style": "percentage_inline_promo_black",
                      "text": "40% OFF",
                    },
                  ],
                },
              ]
            }
            promoStyle={Object {}}
            showTextUnderLine={false}
            underLineStyle={Object {}}
          />
        </View>
      </Styled(View)>
    </View>
    <Styled(View)
      type="button"
    >
      <View>
        <Styled(Styled(Anchor))
          accessibilityLabel=""
          anchorVariation=""
          colorName={null}
          customStyle={Object {}}
          hitSlop={Object {}}
          justifyContent=""
          key="0"
          locator=""
          margins={null}
          navigation={Object {}}
          onPress={null}
          overrideStyle={Object {}}
          text=""
          url="http://www.childrensplace.com"
          visible={false}
        >
          <Styled(Styled(DamImage))
            alt="Promo Area"
            badgeConfig={Array []}
            cacheType="immutable"
            checkBrand=""
            crop=""
            customStyle={null}
            disableVideoClickHandler={false}
            dynamicBadgeOverlayQty={0}
            height="67px"
            host=""
            imgConfig="t_mod_E_promo_area_img_m"
            imgData={
              Object {
                "alt": "Promo Area",
                "crop_d": "",
                "crop_m": "",
                "crop_t": "",
                "title": "Promo Area",
                "url": "https://test5.childrensplace.com/image/upload/v1573246605/module-E-promo-area.jpg",
              }
            }
            isBackground={true}
            isBorderVideo={false}
            isFastImage={false}
            isHomePage={true}
            isNewReDesignEnabled={false}
            isOptimizedVideo={false}
            isProductImage={false}
            itemBrand=""
            link={null}
            navigation={null}
            onError={[Function]}
            onLoadStart={[Function]}
            onProgress={[Function]}
            overrideStyle={null}
            priority="normal"
            renderVideoAsImage={false}
            resizeMode="contain"
            source=""
            swatchConfig=""
            testID="undefined0"
            url=""
            videoData={null}
            width={750}
          />
        </Styled(Styled(Anchor))>
      </View>
    </Styled(View)>
  </View>
  <View
    style={Object {}}
  >
    <Styled(View)
      marginBottom="0"
      marginTop="5px"
    >
      <Connect(WithTheme(SnapCarousel))
        carouselConfig={
          Object {
            "autoplay": true,
          }
        }
        data={
          Array [
            Object {
              "image": Object {
                "alt": "Family Tees2",
                "crop_d": "",
                "crop_m": "",
                "crop_t": "",
                "title": "Family Tees2",
                "url": "https://test5.childrensplace.com/image/upload/v1573283582/module-E-test-large-1.jpg",
              },
              "singleCTAButton": Object {
                "external": 0,
                "target": "_blank",
                "text": "Shop The Collection",
                "title": "Shop The Collection",
                "url": "http://www.childrensplace.com",
              },
            },
            Object {
              "image": Object {
                "alt": "Family Tees",
                "crop_d": "",
                "crop_m": "",
                "crop_t": "",
                "title": "Family Tees",
                "url": "https://test5.childrensplace.com/image/upload/v1573239143/module-E-test-large-2.jpg",
              },
              "singleCTAButton": Object {
                "external": 0,
                "target": "_blank",
                "text": "Shop The Collection",
                "title": "Shop The Collection",
                "url": "http://www.childrensplace.com/2",
              },
            },
          ]
        }
        height={350}
        isModule={true}
        onSnapToItem={[Function]}
        overlap={true}
        renderItem={[Function]}
        showDots={true}
        width={750}
      />
    </Styled(View)>
    <Styled(View)
      marginTop="0"
    >
      <Styled(Styled(CustomButton))
        active={false}
        buttonVariation="fixed-width"
        color=""
        customBorderStyle=""
        customIconStyle={Object {}}
        customStyle={Object {}}
        customTextStyle={null}
        disableButton={false}
        fill=""
        fontFamily=""
        fontSize=""
        fontWeight=""
        fullWidth=""
        iconColor="gray.800"
        iconFirst={false}
        iconName="chevron-down"
        iconSize="fs12"
        locator=""
        navigation={Object {}}
        noBorderBottom={true}
        onPress={null}
        paddings="12px 32px 12px 32px"
        selected={false}
        selectedIcon="chevron-up"
        showIcon={false}
        text="Shop The Collection"
        theme={Object {}}
        url="http://www.childrensplace.com"
        useCustomFontStyle={false}
        withNoLineHeight={false}
      />
    </Styled(View)>
    <View>
      <ButtonList
        buttonListVariation="stackedCTAList"
        buttonsData={
          Array [
            Object {
              "button": Object {
                "external": 0,
                "target": "",
                "text": "Girl",
                "title": "Girl",
                "url": "/girl",
              },
            },
            Object {
              "button": Object {
                "external": 0,
                "target": "",
                "text": "Toddler Girl",
                "title": "Toddler Girl",
                "url": "/toddler-girl",
              },
            },
            Object {
              "button": Object {
                "external": 0,
                "target": "",
                "text": "Boy",
                "title": "Boy",
                "url": "/boy",
              },
            },
            Object {
              "button": Object {
                "external": 0,
                "target": "",
                "text": "Toddler Boy",
                "title": "Toddler Boy",
                "url": "/toddler-boy",
              },
            },
            Object {
              "button": Object {
                "external": 0,
                "target": "",
                "text": "Baby",
                "title": "Baby",
                "url": "/baby",
              },
            },
          ]
        }
        color="gray"
        isContainerModule={false}
        locator="moduleE_cta_button"
        navigation={Object {}}
        overrideStyle={Object {}}
      />
    </View>
    <Styled(View)>
      <Styled(View)>
        <LinkText
          color="#a87db2"
          fontFamily="primary"
          fontWeight="black"
          headerStyle={
            Array [
              Object {},
              Object {},
            ]
          }
          headerText={Array []}
          locator="moduleE_header_text"
          navigation={Object {}}
          renderComponentInNewLine={true}
          textAlign="center"
          type="heading"
          useStyle={true}
        />
      </Styled(View)>
    </Styled(View)>
    <Styled(View)
      headerText2={Array []}
    >
      <Styled(View)
        tileIndex={0}
      >
        <Styled(Styled(Anchor))
          accessibilityLabel=""
          anchorVariation=""
          colorName={null}
          customStyle={Object {}}
          hitSlop={Object {}}
          justifyContent=""
          key="0"
          locator=""
          margins={null}
          navigation={Object {}}
          onPress={null}
          overrideStyle={Object {}}
          text=""
          url="/link/url1"
          visible={false}
        >
          <Styled(Styled(DamImage))
            alt="Big & Little Sis"
            badgeConfig={Array []}
            cacheType="immutable"
            checkBrand=""
            crop=""
            customStyle={null}
            disableVideoClickHandler={false}
            dynamicBadgeOverlayQty={0}
            height="164px"
            host=""
            imgConfig="t_mod_E_small_img_m"
            imgData={null}
            isBackground={true}
            isBorderVideo={false}
            isFastImage={false}
            isHomePage={true}
            isNewReDesignEnabled={false}
            isOptimizedVideo={false}
            isProductImage={false}
            itemBrand=""
            link={null}
            navigation={null}
            onError={[Function]}
            onLoadStart={[Function]}
            onProgress={[Function]}
            overrideStyle={null}
            priority="normal"
            renderVideoAsImage={false}
            resizeMode="contain"
            source=""
            swatchConfig=""
            testID="undefined0"
            url="https://test5.childrensplace.com/image/upload/v1573193928/module-E-test-small-1.jpg"
            videoData={null}
            width="164px"
          />
        </Styled(Styled(Anchor))>
        <Styled(View)>
          <LinkText
            headerText={
              Array [
                Object {
                  "link": Object {
                    "external": 1,
                    "target": "_blank",
                    "text": "SHOP NOW",
                    "title": "SHOP NOW",
                    "url": "/link/url1",
                  },
                  "textItems": Array [
                    Object {
                      "style": "spaced_text_regular_black",
                      "text": "Big & Little Sis",
                    },
                  ],
                },
              ]
            }
            locator="moduleE_small_header_text"
            navigation={Object {}}
            renderComponentInNewLine={true}
            style={
              Object {
                "color": "#e96d97",
              }
            }
            type="heading"
            useStyle={true}
          />
        </Styled(View)>
        <Styled(Styled(CustomButton))
          active={false}
          buttonVariation="fixed-width"
          color=""
          customBorderStyle=""
          customIconStyle={Object {}}
          customStyle={Object {}}
          customTextStyle={null}
          disableButton={false}
          fill=""
          fontFamily=""
          fontSize=""
          fontWeight=""
          fullWidth=""
          iconColor="gray.800"
          iconFirst={false}
          iconName="chevron-down"
          iconSize="fs12"
          locator=""
          navigation={Object {}}
          onPress={null}
          paddings="12px 32px 12px 32px"
          selected={false}
          selectedIcon="chevron-up"
          showIcon={false}
          text="SHOP NOW"
          theme={Object {}}
          url="/link/url1"
          useCustomFontStyle={false}
          withNoLineHeight={false}
        />
      </Styled(View)>
      <Styled(View)
        tileIndex={1}
      >
        <Styled(Styled(Anchor))
          accessibilityLabel=""
          anchorVariation=""
          colorName={null}
          customStyle={Object {}}
          hitSlop={Object {}}
          justifyContent=""
          key="1"
          locator=""
          margins={null}
          navigation={Object {}}
          onPress={null}
          overrideStyle={Object {}}
          text=""
          url="/link/url2"
          visible={false}
        >
          <Styled(Styled(DamImage))
            alt="Big & Little Bro"
            badgeConfig={Array []}
            cacheType="immutable"
            checkBrand=""
            crop=""
            customStyle={null}
            disableVideoClickHandler={false}
            dynamicBadgeOverlayQty={0}
            height="164px"
            host=""
            imgConfig="t_mod_E_small_img_m"
            imgData={null}
            isBackground={true}
            isBorderVideo={false}
            isFastImage={false}
            isHomePage={true}
            isNewReDesignEnabled={false}
            isOptimizedVideo={false}
            isProductImage={false}
            itemBrand=""
            link={null}
            navigation={null}
            onError={[Function]}
            onLoadStart={[Function]}
            onProgress={[Function]}
            overrideStyle={null}
            priority="normal"
            renderVideoAsImage={false}
            resizeMode="contain"
            source=""
            swatchConfig=""
            testID="undefined1"
            url="https://test5.childrensplace.com/image/upload/v1573283630/module-E-test-large-2.jpg"
            videoData={null}
            width="164px"
          />
        </Styled(Styled(Anchor))>
        <Styled(View)>
          <LinkText
            headerText={
              Array [
                Object {
                  "link": Object {
                    "external": 1,
                    "target": "_blank",
                    "text": "SHOP NOW",
                    "title": "SHOP NOW",
                    "url": "/link/url2",
                  },
                  "textItems": Array [
                    Object {
                      "style": "spaced_text_regular_black",
                      "text": "Big & Little Bro",
                    },
                  ],
                },
              ]
            }
            locator="moduleE_small_header_text"
            navigation={Object {}}
            renderComponentInNewLine={true}
            style={
              Object {
                "color": "#2dc2f5",
              }
            }
            type="heading"
            useStyle={true}
          />
        </Styled(View)>
        <Styled(Styled(CustomButton))
          active={false}
          buttonVariation="fixed-width"
          color=""
          customBorderStyle=""
          customIconStyle={Object {}}
          customStyle={Object {}}
          customTextStyle={null}
          disableButton={false}
          fill=""
          fontFamily=""
          fontSize=""
          fontWeight=""
          fullWidth=""
          iconColor="gray.800"
          iconFirst={false}
          iconName="chevron-down"
          iconSize="fs12"
          locator=""
          navigation={Object {}}
          onPress={null}
          paddings="12px 32px 12px 32px"
          selected={false}
          selectedIcon="chevron-up"
          showIcon={false}
          text="SHOP NOW"
          theme={Object {}}
          url="/link/url2"
          useCustomFontStyle={false}
          withNoLineHeight={false}
        />
      </Styled(View)>
    </Styled(View)>
    <Styled(View)
      pos="top"
      style={Object {}}
    />
  </View>
</Styled(View)>
`;

exports[`ModuleEVanilla ModuleE V1 should render correctly when isHpLayoutEnabled is true 1`] = `
<Styled(View)
  style={Object {}}
>
  <View
    style={Object {}}
  >
    <View>
      <Styled(View)
        pos="bottom"
        style={Object {}}
      />
      <Styled(View)>
        <Styled(View)>
          <LinkText
            color="#a87db2"
            fontFamily="primary"
            fontWeight="black"
            headerStyle={
              Array [
                Object {},
                Object {},
              ]
            }
            headerText={
              Array [
                Object {
                  "icon": Object {
                    "icon": "",
                    "placement": "",
                  },
                  "link": Object {
                    "external": 0,
                    "target": "",
                    "text": "",
                    "title": "",
                    "url": "/node/pdp/<uuid>",
                  },
                  "textItems": Array [
                    Object {
                      "style": "large_text_black",
                      "text": "MATCHING FAMILY",
                    },
                  ],
                },
              ]
            }
            locator="moduleE_header_text"
            navigation={Object {}}
            renderComponentInNewLine={true}
            textAlign="center"
            type="heading"
            useStyle={true}
          />
        </Styled(View)>
        <View>
          <PromoBanner
            locator="moduleE_promobanner_text"
            navigation={Object {}}
            promoBanner={
              Array [
                Object {
                  "link": Object {
                    "external": 0,
                    "target": "",
                    "text": "",
                    "title": "",
                    "url": "/banner/url",
                  },
                  "textItems": Array [
                    Object {
                      "style": "spaced_text_only_mobile",
                      "text": "ALL SPRING DRESSES UP",
                    },
                    Object {
                      "style": "percentage_inline_promo_black",
                      "text": "40% OFF",
                    },
                  ],
                },
              ]
            }
            promoStyle={Object {}}
            showTextUnderLine={false}
            underLineStyle={Object {}}
          />
        </View>
      </Styled(View)>
    </View>
    <Styled(View)
      type="link"
    >
      <View>
        <Styled(Styled(Anchor))
          accessibilityLabel=""
          anchorVariation=""
          colorName={null}
          customStyle={Object {}}
          hitSlop={Object {}}
          justifyContent=""
          key="0"
          locator=""
          margins={null}
          navigation={Object {}}
          onPress={null}
          overrideStyle={Object {}}
          text=""
          url="http://www.childrensplace.com"
          visible={false}
        >
          <Styled(Styled(DamImage))
            alt="Promo Area"
            badgeConfig={Array []}
            cacheType="immutable"
            checkBrand=""
            crop=""
            customStyle={null}
            disableVideoClickHandler={false}
            dynamicBadgeOverlayQty={0}
            height="67px"
            host=""
            imgConfig="t_mod_E_promo_area_img_m"
            imgData={
              Object {
                "alt": "Promo Area",
                "crop_d": "",
                "crop_m": "",
                "crop_t": "",
                "title": "Promo Area",
                "url": "https://test5.childrensplace.com/image/upload/v1573246605/module-E-promo-area.jpg",
              }
            }
            isBackground={true}
            isBorderVideo={false}
            isFastImage={false}
            isHomePage={true}
            isNewReDesignEnabled={false}
            isOptimizedVideo={false}
            isProductImage={false}
            itemBrand=""
            link={null}
            navigation={null}
            onError={[Function]}
            onLoadStart={[Function]}
            onProgress={[Function]}
            overrideStyle={null}
            priority="normal"
            renderVideoAsImage={false}
            resizeMode="contain"
            source=""
            swatchConfig=""
            testID="undefined0"
            url=""
            videoData={null}
            width={750}
          />
        </Styled(Styled(Anchor))>
      </View>
    </Styled(View)>
  </View>
  <View
    style={Object {}}
  >
    <Styled(View)
      marginBottom="0"
      marginTop="5px"
    >
      <Connect(WithTheme(SnapCarousel))
        carouselConfig={
          Object {
            "autoplay": true,
          }
        }
        data={
          Array [
            Object {
              "image": Object {
                "alt": "Family Tees2",
                "crop_d": "",
                "crop_m": "",
                "crop_t": "",
                "title": "Family Tees2",
                "url": "https://test5.childrensplace.com/image/upload/v1573283582/module-E-test-large-1.jpg",
              },
              "singleCTAButton": Object {
                "external": 0,
                "target": "_blank",
                "text": "Shop The Collection",
                "title": "Shop The Collection",
                "url": "https://google.com/u/shop-the-collection",
              },
            },
            Object {
              "image": Object {
                "alt": "Family Tees",
                "crop_d": "",
                "crop_m": "",
                "crop_t": "",
                "title": "Family Tees",
                "url": "https://test5.childrensplace.com/image/upload/v1573239143/module-E-test-large-2.jpg",
              },
              "singleCTAButton": Object {
                "external": 0,
                "target": "_blank",
                "text": "Shop The Collection",
                "title": "Shop The Collection",
                "url": "https://google.com/u/shop-the-collection-2",
              },
            },
          ]
        }
        height={350}
        isModule={true}
        onSnapToItem={[Function]}
        overlap={true}
        renderItem={[Function]}
        showDots={true}
        width={750}
      />
    </Styled(View)>
    <View>
      <ButtonList
        buttonListVariation="stackedCTAList"
        buttonsData={
          Array [
            Object {
              "button": Object {
                "external": 0,
                "target": "",
                "text": "Girl",
                "title": "Girl",
                "url": "/girl",
              },
            },
            Object {
              "button": Object {
                "external": 0,
                "target": "",
                "text": "Toddler Girl",
                "title": "Toddler Girl",
                "url": "/toddler-girl",
              },
            },
            Object {
              "button": Object {
                "external": 0,
                "target": "",
                "text": "Boy",
                "title": "Boy",
                "url": "/boy",
              },
            },
            Object {
              "button": Object {
                "external": 0,
                "target": "",
                "text": "Toddler Boy",
                "title": "Toddler Boy",
                "url": "/toddler-boy",
              },
            },
            Object {
              "button": Object {
                "external": 0,
                "target": "",
                "text": "Baby",
                "title": "Baby",
                "url": "/baby",
              },
            },
          ]
        }
        color="gray"
        isContainerModule={false}
        locator="moduleE_cta_button"
        navigation={Object {}}
        overrideStyle={Object {}}
      />
    </View>
    <Styled(View)>
      <Styled(View)>
        <LinkText
          color="#a87db2"
          fontFamily="primary"
          fontWeight="black"
          headerStyle={
            Array [
              Object {},
              Object {},
            ]
          }
          headerText={Array []}
          locator="moduleE_header_text"
          navigation={Object {}}
          renderComponentInNewLine={true}
          textAlign="center"
          type="heading"
          useStyle={true}
        />
      </Styled(View)>
    </Styled(View)>
    <Styled(View)
      headerText2={Array []}
    >
      <Styled(View)
        tileIndex={0}
      >
        <Styled(Styled(Anchor))
          accessibilityLabel=""
          anchorVariation=""
          colorName={null}
          customStyle={Object {}}
          hitSlop={Object {}}
          justifyContent=""
          key="0"
          locator=""
          margins={null}
          navigation={Object {}}
          onPress={null}
          overrideStyle={Object {}}
          text=""
          url="/test/link/url1"
          visible={false}
        >
          <Styled(Styled(DamImage))
            alt="Big & Little Sis"
            badgeConfig={Array []}
            cacheType="immutable"
            checkBrand=""
            crop=""
            customStyle={null}
            disableVideoClickHandler={false}
            dynamicBadgeOverlayQty={0}
            height="164px"
            host=""
            imgConfig="t_mod_E_small_img_m"
            imgData={null}
            isBackground={true}
            isBorderVideo={false}
            isFastImage={false}
            isHomePage={true}
            isNewReDesignEnabled={false}
            isOptimizedVideo={false}
            isProductImage={false}
            itemBrand=""
            link={null}
            navigation={null}
            onError={[Function]}
            onLoadStart={[Function]}
            onProgress={[Function]}
            overrideStyle={null}
            priority="normal"
            renderVideoAsImage={false}
            resizeMode="contain"
            source=""
            swatchConfig=""
            testID="undefined0"
            url="https://test5.childrensplace.com/image/upload/v1573193928/module-E-test-small-1.jpg"
            videoData={null}
            width="164px"
          />
        </Styled(Styled(Anchor))>
        <Styled(View)>
          <LinkText
            headerText={
              Array [
                Object {
                  "link": Object {
                    "external": 1,
                    "target": "_blank",
                    "text": "SHOP NOW",
                    "title": "SHOP NOW",
                    "url": "/test/link/url1",
                  },
                  "textItems": Array [
                    Object {
                      "style": "spaced_text_regular_black",
                      "text": "Big & Little Sis",
                    },
                  ],
                },
              ]
            }
            locator="moduleE_small_header_text"
            navigation={Object {}}
            renderComponentInNewLine={true}
            style={
              Object {
                "color": "#e96d97",
              }
            }
            type="heading"
            useStyle={true}
          />
        </Styled(View)>
        <Styled(Styled(CustomButton))
          active={false}
          buttonVariation="fixed-width"
          color=""
          customBorderStyle=""
          customIconStyle={Object {}}
          customStyle={Object {}}
          customTextStyle={null}
          disableButton={false}
          fill=""
          fontFamily=""
          fontSize=""
          fontWeight=""
          fullWidth=""
          iconColor="gray.800"
          iconFirst={false}
          iconName="chevron-down"
          iconSize="fs12"
          locator=""
          navigation={Object {}}
          onPress={null}
          paddings="12px 32px 12px 32px"
          selected={false}
          selectedIcon="chevron-up"
          showIcon={false}
          text="SHOP NOW"
          theme={Object {}}
          url="/test/link/url1"
          useCustomFontStyle={false}
          withNoLineHeight={false}
        />
      </Styled(View)>
      <Styled(View)
        tileIndex={1}
      >
        <Styled(Styled(Anchor))
          accessibilityLabel=""
          anchorVariation=""
          colorName={null}
          customStyle={Object {}}
          hitSlop={Object {}}
          justifyContent=""
          key="1"
          locator=""
          margins={null}
          navigation={Object {}}
          onPress={null}
          overrideStyle={Object {}}
          text=""
          url="/test/link/url2"
          visible={false}
        >
          <Styled(Styled(DamImage))
            alt="Big & Little Bro"
            badgeConfig={Array []}
            cacheType="immutable"
            checkBrand=""
            crop=""
            customStyle={null}
            disableVideoClickHandler={false}
            dynamicBadgeOverlayQty={0}
            height="164px"
            host=""
            imgConfig="t_mod_E_small_img_m"
            imgData={null}
            isBackground={true}
            isBorderVideo={false}
            isFastImage={false}
            isHomePage={true}
            isNewReDesignEnabled={false}
            isOptimizedVideo={false}
            isProductImage={false}
            itemBrand=""
            link={null}
            navigation={null}
            onError={[Function]}
            onLoadStart={[Function]}
            onProgress={[Function]}
            overrideStyle={null}
            priority="normal"
            renderVideoAsImage={false}
            resizeMode="contain"
            source=""
            swatchConfig=""
            testID="undefined1"
            url="https://test5.childrensplace.com/image/upload/v1573283630/module-E-test-large-2.jpg"
            videoData={null}
            width="164px"
          />
        </Styled(Styled(Anchor))>
        <Styled(View)>
          <LinkText
            headerText={
              Array [
                Object {
                  "link": Object {
                    "external": 1,
                    "target": "_blank",
                    "text": "SHOP NOW",
                    "title": "SHOP NOW",
                    "url": "/test/link/url2",
                  },
                  "textItems": Array [
                    Object {
                      "style": "spaced_text_regular_black",
                      "text": "Big & Little Bro",
                    },
                  ],
                },
              ]
            }
            locator="moduleE_small_header_text"
            navigation={Object {}}
            renderComponentInNewLine={true}
            style={
              Object {
                "color": "#2dc2f5",
              }
            }
            type="heading"
            useStyle={true}
          />
        </Styled(View)>
        <Styled(Styled(CustomButton))
          active={false}
          buttonVariation="fixed-width"
          color=""
          customBorderStyle=""
          customIconStyle={Object {}}
          customStyle={Object {}}
          customTextStyle={null}
          disableButton={false}
          fill=""
          fontFamily=""
          fontSize=""
          fontWeight=""
          fullWidth=""
          iconColor="gray.800"
          iconFirst={false}
          iconName="chevron-down"
          iconSize="fs12"
          locator=""
          navigation={Object {}}
          onPress={null}
          paddings="12px 32px 12px 32px"
          selected={false}
          selectedIcon="chevron-up"
          showIcon={false}
          text="SHOP NOW"
          theme={Object {}}
          url="/test/link/url2"
          useCustomFontStyle={false}
          withNoLineHeight={false}
        />
      </Styled(View)>
    </Styled(View)>
    <Styled(View)
      pos="top"
      style={Object {}}
    />
  </View>
</Styled(View)>
`;

exports[`ModuleEVanilla ModuleE V2 should render correctly 1`] = `
<Styled(View)
  style={Object {}}
>
  <View
    style={Object {}}
  >
    <View>
      <Styled(View)
        pos="bottom"
        style={Object {}}
      />
      <Styled(View)>
        <Styled(View)>
          <LinkText
            color="#a87db2"
            fontFamily="primary"
            fontWeight="black"
            headerStyle={
              Array [
                Object {},
                Object {},
              ]
            }
            headerText={
              Array [
                Object {
                  "icon": Object {
                    "icon": "",
                    "placement": "",
                  },
                  "link": Object {
                    "external": 0,
                    "target": "",
                    "text": "",
                    "title": "",
                    "url": "/node/pdp/<uuid>",
                  },
                  "textItems": Array [
                    Object {
                      "style": "large_text_black",
                      "text": "MATCHING FAMILY",
                    },
                  ],
                },
              ]
            }
            locator="moduleE_header_text"
            navigation={Object {}}
            renderComponentInNewLine={true}
            textAlign="center"
            type="heading"
            useStyle={true}
          />
        </Styled(View)>
        <View>
          <PromoBanner
            locator="moduleE_promobanner_text"
            navigation={Object {}}
            promoBanner={
              Array [
                Object {
                  "link": Object {
                    "external": 0,
                    "target": "",
                    "text": "",
                    "title": "",
                    "url": "/banner/url",
                  },
                  "textItems": Array [
                    Object {
                      "style": "spaced_text_only_mobile",
                      "text": "ALL SPRING DRESSES UP",
                    },
                    Object {
                      "style": "percentage_inline_promo_black",
                      "text": "40% OFF",
                    },
                  ],
                },
              ]
            }
            promoStyle={Object {}}
            showTextUnderLine={false}
            underLineStyle={Object {}}
          />
        </View>
      </Styled(View)>
    </View>
    <Styled(View)
      type="button"
    >
      <View>
        <Styled(Styled(Anchor))
          accessibilityLabel=""
          anchorVariation=""
          colorName={null}
          customStyle={Object {}}
          hitSlop={Object {}}
          justifyContent=""
          key="0"
          locator=""
          margins={null}
          navigation={Object {}}
          onPress={null}
          overrideStyle={Object {}}
          text=""
          url="http://www.childrensplace.com"
          visible={false}
        >
          <Styled(Styled(DamImage))
            alt="Promo Area"
            badgeConfig={Array []}
            cacheType="immutable"
            checkBrand=""
            crop=""
            customStyle={null}
            disableVideoClickHandler={false}
            dynamicBadgeOverlayQty={0}
            height="67px"
            host=""
            imgConfig="t_mod_E_promo_area_img_m"
            imgData={
              Object {
                "alt": "Promo Area",
                "crop_d": "",
                "crop_m": "",
                "crop_t": "",
                "title": "Promo Area",
                "url": "https://test5.childrensplace.com/image/upload/v1573246605/module-E-promo-area.jpg",
              }
            }
            isBackground={true}
            isBorderVideo={false}
            isFastImage={false}
            isHomePage={true}
            isNewReDesignEnabled={false}
            isOptimizedVideo={false}
            isProductImage={false}
            itemBrand=""
            link={null}
            navigation={null}
            onError={[Function]}
            onLoadStart={[Function]}
            onProgress={[Function]}
            overrideStyle={null}
            priority="normal"
            renderVideoAsImage={false}
            resizeMode="contain"
            source=""
            swatchConfig=""
            testID="undefined0"
            url=""
            videoData={null}
            width={750}
          />
        </Styled(Styled(Anchor))>
      </View>
    </Styled(View)>
  </View>
  <View
    style={Object {}}
  >
    <Styled(View)
      marginBottom="0"
      marginTop="5px"
    >
      <Connect(WithTheme(SnapCarousel))
        carouselConfig={
          Object {
            "autoplay": true,
          }
        }
        data={
          Array [
            Object {
              "image": Object {
                "alt": "Family Tees2",
                "crop_d": "",
                "crop_m": "",
                "crop_t": "",
                "title": "Family Tees2",
                "url": "https://test5.childrensplace.com/image/upload/v1573283582/module-E-test-large-1.jpg",
              },
              "singleCTAButton": Object {
                "external": 0,
                "target": "_blank",
                "text": "Shop The Collection",
                "title": "Shop The Collection",
                "url": "http://www.childrensplace.com",
              },
            },
            Object {
              "image": Object {
                "alt": "Family Tees",
                "crop_d": "",
                "crop_m": "",
                "crop_t": "",
                "title": "Family Tees",
                "url": "https://test5.childrensplace.com/image/upload/v1573239143/module-E-test-large-2.jpg",
              },
              "singleCTAButton": Object {
                "external": 0,
                "target": "_blank",
                "text": "Shop The Collection",
                "title": "Shop The Collection",
                "url": "http://www.childrensplace.com/2",
              },
            },
          ]
        }
        height={350}
        isModule={true}
        onSnapToItem={[Function]}
        overlap={true}
        renderItem={[Function]}
        showDots={true}
        width={750}
      />
    </Styled(View)>
    <Styled(View)
      marginTop="0"
    >
      <Styled(Styled(CustomButton))
        active={false}
        buttonVariation="fixed-width"
        color=""
        customBorderStyle=""
        customIconStyle={Object {}}
        customStyle={Object {}}
        customTextStyle={null}
        disableButton={false}
        fill=""
        fontFamily=""
        fontSize=""
        fontWeight=""
        fullWidth=""
        iconColor="gray.800"
        iconFirst={false}
        iconName="chevron-down"
        iconSize="fs12"
        locator=""
        navigation={Object {}}
        noBorderBottom={true}
        onPress={null}
        paddings="12px 32px 12px 32px"
        selected={false}
        selectedIcon="chevron-up"
        showIcon={false}
        text="Shop The Collection"
        theme={Object {}}
        url="http://www.childrensplace.com"
        useCustomFontStyle={false}
        withNoLineHeight={false}
      />
    </Styled(View)>
    <View>
      <ButtonList
        buttonListVariation="stackedCTAList"
        buttonsData={
          Array [
            Object {
              "button": Object {
                "external": 0,
                "target": "",
                "text": "Girl",
                "title": "Girl",
                "url": "/girl",
              },
            },
            Object {
              "button": Object {
                "external": 0,
                "target": "",
                "text": "Toddler Girl",
                "title": "Toddler Girl",
                "url": "/toddler-girl",
              },
            },
            Object {
              "button": Object {
                "external": 0,
                "target": "",
                "text": "Boy",
                "title": "Boy",
                "url": "/boy",
              },
            },
            Object {
              "button": Object {
                "external": 0,
                "target": "",
                "text": "Toddler Boy",
                "title": "Toddler Boy",
                "url": "/toddler-boy",
              },
            },
            Object {
              "button": Object {
                "external": 0,
                "target": "",
                "text": "Baby",
                "title": "Baby",
                "url": "/baby",
              },
            },
          ]
        }
        color="gray"
        isContainerModule={false}
        locator="moduleE_cta_button"
        navigation={Object {}}
        overrideStyle={Object {}}
      />
    </View>
    <Styled(View)>
      <Styled(View)>
        <LinkText
          color="#a87db2"
          fontFamily="primary"
          fontWeight="black"
          headerStyle={
            Array [
              Object {},
              Object {},
            ]
          }
          headerText={Array []}
          locator="moduleE_header_text"
          navigation={Object {}}
          renderComponentInNewLine={true}
          textAlign="center"
          type="heading"
          useStyle={true}
        />
      </Styled(View)>
    </Styled(View)>
    <Styled(View)
      headerText2={Array []}
    >
      <Styled(View)
        tileIndex={0}
      >
        <Styled(Styled(Anchor))
          accessibilityLabel=""
          anchorVariation=""
          colorName={null}
          customStyle={Object {}}
          hitSlop={Object {}}
          justifyContent=""
          key="0"
          locator=""
          margins={null}
          navigation={Object {}}
          onPress={null}
          overrideStyle={Object {}}
          text=""
          url="/link/url1"
          visible={false}
        >
          <Styled(Styled(DamImage))
            alt="Big & Little Sis"
            badgeConfig={Array []}
            cacheType="immutable"
            checkBrand=""
            crop=""
            customStyle={null}
            disableVideoClickHandler={false}
            dynamicBadgeOverlayQty={0}
            height="164px"
            host=""
            imgConfig="t_mod_E_small_img_m"
            imgData={null}
            isBackground={true}
            isBorderVideo={false}
            isFastImage={false}
            isHomePage={true}
            isNewReDesignEnabled={false}
            isOptimizedVideo={false}
            isProductImage={false}
            itemBrand=""
            link={null}
            navigation={null}
            onError={[Function]}
            onLoadStart={[Function]}
            onProgress={[Function]}
            overrideStyle={null}
            priority="normal"
            renderVideoAsImage={false}
            resizeMode="contain"
            source=""
            swatchConfig=""
            testID="undefined0"
            url="https://test5.childrensplace.com/image/upload/v1573193928/module-E-test-small-1.jpg"
            videoData={null}
            width="164px"
          />
        </Styled(Styled(Anchor))>
        <Styled(View)>
          <LinkText
            headerText={
              Array [
                Object {
                  "link": Object {
                    "external": 1,
                    "target": "_blank",
                    "text": "SHOP NOW",
                    "title": "SHOP NOW",
                    "url": "/link/url1",
                  },
                  "textItems": Array [
                    Object {
                      "style": "spaced_text_regular_black",
                      "text": "Big & Little Sis",
                    },
                  ],
                },
              ]
            }
            locator="moduleE_small_header_text"
            navigation={Object {}}
            renderComponentInNewLine={true}
            style={
              Object {
                "color": "#e96d97",
              }
            }
            type="heading"
            useStyle={true}
          />
        </Styled(View)>
        <Styled(Styled(CustomButton))
          active={false}
          buttonVariation="fixed-width"
          color=""
          customBorderStyle=""
          customIconStyle={Object {}}
          customStyle={Object {}}
          customTextStyle={null}
          disableButton={false}
          fill=""
          fontFamily=""
          fontSize=""
          fontWeight=""
          fullWidth=""
          iconColor="gray.800"
          iconFirst={false}
          iconName="chevron-down"
          iconSize="fs12"
          locator=""
          navigation={Object {}}
          onPress={null}
          paddings="12px 32px 12px 32px"
          selected={false}
          selectedIcon="chevron-up"
          showIcon={false}
          text="SHOP NOW"
          theme={Object {}}
          url="/link/url1"
          useCustomFontStyle={false}
          withNoLineHeight={false}
        />
      </Styled(View)>
      <Styled(View)
        tileIndex={1}
      >
        <Styled(Styled(Anchor))
          accessibilityLabel=""
          anchorVariation=""
          colorName={null}
          customStyle={Object {}}
          hitSlop={Object {}}
          justifyContent=""
          key="1"
          locator=""
          margins={null}
          navigation={Object {}}
          onPress={null}
          overrideStyle={Object {}}
          text=""
          url="/link/url2"
          visible={false}
        >
          <Styled(Styled(DamImage))
            alt="Big & Little Bro"
            badgeConfig={Array []}
            cacheType="immutable"
            checkBrand=""
            crop=""
            customStyle={null}
            disableVideoClickHandler={false}
            dynamicBadgeOverlayQty={0}
            height="164px"
            host=""
            imgConfig="t_mod_E_small_img_m"
            imgData={null}
            isBackground={true}
            isBorderVideo={false}
            isFastImage={false}
            isHomePage={true}
            isNewReDesignEnabled={false}
            isOptimizedVideo={false}
            isProductImage={false}
            itemBrand=""
            link={null}
            navigation={null}
            onError={[Function]}
            onLoadStart={[Function]}
            onProgress={[Function]}
            overrideStyle={null}
            priority="normal"
            renderVideoAsImage={false}
            resizeMode="contain"
            source=""
            swatchConfig=""
            testID="undefined1"
            url="https://test5.childrensplace.com/image/upload/v1573283630/module-E-test-large-2.jpg"
            videoData={null}
            width="164px"
          />
        </Styled(Styled(Anchor))>
        <Styled(View)>
          <LinkText
            headerText={
              Array [
                Object {
                  "link": Object {
                    "external": 1,
                    "target": "_blank",
                    "text": "SHOP NOW",
                    "title": "SHOP NOW",
                    "url": "/link/url2",
                  },
                  "textItems": Array [
                    Object {
                      "style": "spaced_text_regular_black",
                      "text": "Big & Little Bro",
                    },
                  ],
                },
              ]
            }
            locator="moduleE_small_header_text"
            navigation={Object {}}
            renderComponentInNewLine={true}
            style={
              Object {
                "color": "#2dc2f5",
              }
            }
            type="heading"
            useStyle={true}
          />
        </Styled(View)>
        <Styled(Styled(CustomButton))
          active={false}
          buttonVariation="fixed-width"
          color=""
          customBorderStyle=""
          customIconStyle={Object {}}
          customStyle={Object {}}
          customTextStyle={null}
          disableButton={false}
          fill=""
          fontFamily=""
          fontSize=""
          fontWeight=""
          fullWidth=""
          iconColor="gray.800"
          iconFirst={false}
          iconName="chevron-down"
          iconSize="fs12"
          locator=""
          navigation={Object {}}
          onPress={null}
          paddings="12px 32px 12px 32px"
          selected={false}
          selectedIcon="chevron-up"
          showIcon={false}
          text="SHOP NOW"
          theme={Object {}}
          url="/link/url2"
          useCustomFontStyle={false}
          withNoLineHeight={false}
        />
      </Styled(View)>
    </Styled(View)>
    <Styled(View)
      pos="top"
      style={Object {}}
    />
  </View>
</Styled(View)>
`;

exports[`ModuleEVanilla ModuleE V2 should render correctly when isHpLayoutEnabled is true 1`] = `
<Styled(View)
  style={Object {}}
>
  <View
    style={Object {}}
  >
    <View>
      <View>
        <Styled(View)>
          <Styled(Styled(DamImage))
            alt=""
            badgeConfig={Array []}
            cacheType="immutable"
            checkBrand=""
            crop=""
            customStyle={null}
            disableVideoClickHandler={false}
            dynamicBadgeOverlayQty={0}
            height={18}
            host=""
            imgConfig="t_mod_E_eyebrow_img_m"
            imgData={null}
            isBackground={true}
            isBorderVideo={false}
            isFastImage={false}
            isHomePage={true}
            isNewReDesignEnabled={false}
            isOptimizedVideo={false}
            isProductImage={false}
            itemBrand=""
            link={null}
            navigation={null}
            onError={[Function]}
            onLoadStart={[Function]}
            onProgress={[Function]}
            overrideStyle={null}
            priority="normal"
            renderVideoAsImage={false}
            resizeMode="contain"
            source=""
            swatchConfig=""
            url="https://test5.childrensplace.com/image/upload/v1573194405/moduleE-eyebrow-image.jpg"
            videoData={null}
            width={117}
          />
          <Styled(View)
            width={516}
          >
            <PromoBanner
              naviagtion={Object {}}
              promoBanner={
                Array [
                  Object {
                    "link": Object {
                      "target": "",
                      "text": "",
                      "title": "",
                      "url": "/banner/url",
                    },
                    "textItems": Array [
                      Object {
                        "style": "small_text_normal",
                        "text": "Cue the photos",
                      },
                    ],
                  },
                ]
              }
              promoStyle={Object {}}
              showTextUnderLine={false}
              underLineStyle={Object {}}
            />
          </Styled(View)>
          <Styled(Styled(DamImage))
            alt=""
            badgeConfig={Array []}
            cacheType="immutable"
            checkBrand=""
            crop=""
            customStyle={null}
            disableVideoClickHandler={false}
            dynamicBadgeOverlayQty={0}
            height={18}
            host=""
            imgConfig="t_mod_E_eyebrow_img_m"
            imgData={null}
            isBackground={true}
            isBorderVideo={false}
            isFastImage={false}
            isHomePage={true}
            isNewReDesignEnabled={false}
            isOptimizedVideo={false}
            isProductImage={false}
            itemBrand=""
            link={null}
            navigation={null}
            onError={[Function]}
            onLoadStart={[Function]}
            onProgress={[Function]}
            overrideStyle={null}
            priority="normal"
            renderVideoAsImage={false}
            resizeMode="contain"
            source=""
            swatchConfig=""
            url="https://test5.childrensplace.com/image/upload/v1573194405/moduleE-eyebrow-image.jpg"
            videoData={null}
            width={117}
          />
        </Styled(View)>
      </View>
      <Styled(View)>
        <Styled(View)>
          <LinkText
            color="#a87db2"
            fontFamily="primary"
            fontWeight="black"
            headerStyle={
              Array [
                Object {},
                Object {},
              ]
            }
            headerText={
              Array [
                Object {
                  "icon": Object {
                    "icon": "",
                    "placement": "",
                  },
                  "link": Object {
                    "external": 0,
                    "target": "",
                    "text": "",
                    "title": "",
                    "url": "/node/pdp/<uuid>",
                  },
                  "textItems": Array [
                    Object {
                      "style": "medium_text_black",
                      "text": "THE DRESS UP SHOP",
                    },
                  ],
                },
              ]
            }
            locator="moduleE_header_text"
            navigation={Object {}}
            renderComponentInNewLine={true}
            textAlign="center"
            type="heading"
            useStyle={true}
          />
        </Styled(View)>
        <View>
          <PromoBanner
            locator="moduleE_promobanner_text"
            navigation={Object {}}
            promoBanner={
              Array [
                Object {
                  "link": Object {
                    "external": 0,
                    "target": "",
                    "text": "",
                    "title": "",
                    "url": "/banner/url",
                  },
                  "textItems": Array [
                    Object {
                      "style": "spaced_text_regular_black",
                      "text": "ALL MATCHING FAMILY",
                    },
                    Object {
                      "style": "percentage_all_wrapped_normal_tab",
                      "text": "60 % OFF",
                    },
                  ],
                },
              ]
            }
            promoStyle={Object {}}
            showTextUnderLine={false}
            underLineStyle={Object {}}
          />
        </View>
      </Styled(View)>
    </View>
  </View>
  <View
    style={Object {}}
  >
    <Styled(View)
      marginBottom="0"
      marginTop="5px"
    >
      <Connect(WithTheme(SnapCarousel))
        carouselConfig={
          Object {
            "autoplay": true,
          }
        }
        data={
          Array [
            Object {
              "image": Object {
                "alt": "Family Tees2",
                "crop_d": "",
                "crop_m": "",
                "crop_t": "",
                "title": "Family Tees2",
                "url": "https://test5.childrensplace.com/image/upload/v1573283582/module-E-test-large-1.jpg",
              },
              "singleCTAButton": Object {
                "external": 0,
                "target": "_blank",
                "text": "Shop The Collection",
                "title": "Shop The Collection",
                "url": "http://www.childrensplace.com",
              },
            },
            Object {
              "image": Object {
                "alt": "Family Tees",
                "crop_d": "",
                "crop_m": "",
                "crop_t": "",
                "title": "Family Tees",
                "url": "https://test5.childrensplace.com/image/upload/v1573239143/module-E-test-large-2.jpg",
              },
              "singleCTAButton": Object {
                "external": 0,
                "target": "_blank",
                "text": "Shop The Collection",
                "title": "Shop The Collection",
                "url": "http://www.childrensplace.com/2",
              },
            },
          ]
        }
        height={350}
        isModule={true}
        onSnapToItem={[Function]}
        overlap={true}
        renderItem={[Function]}
        showDots={true}
        width={750}
      />
    </Styled(View)>
    <Styled(View)
      marginTop="0"
    >
      <Styled(Styled(CustomButton))
        active={false}
        buttonVariation="fixed-width"
        color=""
        customBorderStyle=""
        customIconStyle={Object {}}
        customStyle={Object {}}
        customTextStyle={null}
        disableButton={false}
        fill=""
        fontFamily=""
        fontSize=""
        fontWeight=""
        fullWidth=""
        iconColor="gray.800"
        iconFirst={false}
        iconName="chevron-down"
        iconSize="fs12"
        locator=""
        navigation={Object {}}
        noBorderBottom={true}
        onPress={null}
        paddings="12px 32px 12px 32px"
        selected={false}
        selectedIcon="chevron-up"
        showIcon={false}
        text="Shop The Collection"
        theme={Object {}}
        url="http://www.childrensplace.com"
        useCustomFontStyle={false}
        withNoLineHeight={false}
      />
    </Styled(View)>
    <View>
      <ButtonList
        buttonListVariation="stackedCTAList"
        buttonsData={
          Array [
            Object {
              "button": Object {
                "external": 0,
                "target": "",
                "text": "Girl",
                "title": "Girl",
                "url": "/girl",
              },
            },
            Object {
              "button": Object {
                "external": 0,
                "target": "",
                "text": "Toddler Girl",
                "title": "Toddler Girl",
                "url": "/toddler-girl",
              },
            },
            Object {
              "button": Object {
                "external": 0,
                "target": "",
                "text": "Boy",
                "title": "Boy",
                "url": "/boy",
              },
            },
            Object {
              "button": Object {
                "external": 0,
                "target": "",
                "text": "Toddler Boy",
                "title": "Toddler Boy",
                "url": "/toddler-boy",
              },
            },
            Object {
              "button": Object {
                "external": 0,
                "target": "",
                "text": "Baby",
                "title": "Baby",
                "url": "/baby",
              },
            },
          ]
        }
        color="gray"
        isContainerModule={false}
        locator="moduleE_cta_button"
        navigation={Object {}}
        overrideStyle={Object {}}
      />
    </View>
    <Styled(View)>
      <Styled(View)>
        <LinkText
          color="#a87db2"
          fontFamily="primary"
          fontWeight="black"
          headerStyle={
            Array [
              Object {},
              Object {},
            ]
          }
          headerText={Array []}
          locator="moduleE_header_text"
          navigation={Object {}}
          renderComponentInNewLine={true}
          textAlign="center"
          type="heading"
          useStyle={true}
        />
      </Styled(View)>
    </Styled(View)>
    <Styled(View)
      headerText2={Array []}
    >
      <Styled(View)
        tileIndex={0}
      >
        <Styled(Styled(Anchor))
          accessibilityLabel=""
          anchorVariation=""
          colorName={null}
          customStyle={Object {}}
          hitSlop={Object {}}
          justifyContent=""
          key="0"
          locator=""
          margins={null}
          navigation={Object {}}
          onPress={null}
          overrideStyle={Object {}}
          text=""
          url="/link/url1"
          visible={false}
        >
          <Styled(Styled(DamImage))
            alt="Big & Little Sis"
            badgeConfig={Array []}
            cacheType="immutable"
            checkBrand=""
            crop=""
            customStyle={null}
            disableVideoClickHandler={false}
            dynamicBadgeOverlayQty={0}
            height="164px"
            host=""
            imgConfig="t_mod_E_small_img_m"
            imgData={null}
            isBackground={true}
            isBorderVideo={false}
            isFastImage={false}
            isHomePage={true}
            isNewReDesignEnabled={false}
            isOptimizedVideo={false}
            isProductImage={false}
            itemBrand=""
            link={null}
            navigation={null}
            onError={[Function]}
            onLoadStart={[Function]}
            onProgress={[Function]}
            overrideStyle={null}
            priority="normal"
            renderVideoAsImage={false}
            resizeMode="contain"
            source=""
            swatchConfig=""
            testID="undefined0"
            url="https://test5.childrensplace.com/image/upload/v1573193928/module-E-test-small-1.jpg"
            videoData={null}
            width="164px"
          />
        </Styled(Styled(Anchor))>
        <Styled(View)>
          <LinkText
            headerText={
              Array [
                Object {
                  "link": Object {
                    "external": 1,
                    "target": "_blank",
                    "text": "SHOP NOW",
                    "title": "SHOP NOW",
                    "url": "/link/url1",
                  },
                  "textItems": Array [
                    Object {
                      "style": "spaced_text_regular_black",
                      "text": "Big & Little Sis",
                    },
                  ],
                },
              ]
            }
            locator="moduleE_small_header_text"
            navigation={Object {}}
            renderComponentInNewLine={true}
            style={
              Object {
                "color": "#e96d97",
              }
            }
            type="heading"
            useStyle={true}
          />
        </Styled(View)>
        <Styled(Styled(CustomButton))
          active={false}
          buttonVariation="fixed-width"
          color=""
          customBorderStyle=""
          customIconStyle={Object {}}
          customStyle={Object {}}
          customTextStyle={null}
          disableButton={false}
          fill=""
          fontFamily=""
          fontSize=""
          fontWeight=""
          fullWidth=""
          iconColor="gray.800"
          iconFirst={false}
          iconName="chevron-down"
          iconSize="fs12"
          locator=""
          navigation={Object {}}
          onPress={null}
          paddings="12px 32px 12px 32px"
          selected={false}
          selectedIcon="chevron-up"
          showIcon={false}
          text="SHOP NOW"
          theme={Object {}}
          url="/link/url1"
          useCustomFontStyle={false}
          withNoLineHeight={false}
        />
      </Styled(View)>
      <Styled(View)
        tileIndex={1}
      >
        <Styled(Styled(Anchor))
          accessibilityLabel=""
          anchorVariation=""
          colorName={null}
          customStyle={Object {}}
          hitSlop={Object {}}
          justifyContent=""
          key="1"
          locator=""
          margins={null}
          navigation={Object {}}
          onPress={null}
          overrideStyle={Object {}}
          text=""
          url="/link/url2"
          visible={false}
        >
          <Styled(Styled(DamImage))
            alt="Big & Little Bro"
            badgeConfig={Array []}
            cacheType="immutable"
            checkBrand=""
            crop=""
            customStyle={null}
            disableVideoClickHandler={false}
            dynamicBadgeOverlayQty={0}
            height="164px"
            host=""
            imgConfig="t_mod_E_small_img_m"
            imgData={null}
            isBackground={true}
            isBorderVideo={false}
            isFastImage={false}
            isHomePage={true}
            isNewReDesignEnabled={false}
            isOptimizedVideo={false}
            isProductImage={false}
            itemBrand=""
            link={null}
            navigation={null}
            onError={[Function]}
            onLoadStart={[Function]}
            onProgress={[Function]}
            overrideStyle={null}
            priority="normal"
            renderVideoAsImage={false}
            resizeMode="contain"
            source=""
            swatchConfig=""
            testID="undefined1"
            url="https://test5.childrensplace.com/image/upload/v1573283630/module-E-test-large-2.jpg"
            videoData={null}
            width="164px"
          />
        </Styled(Styled(Anchor))>
        <Styled(View)>
          <LinkText
            headerText={
              Array [
                Object {
                  "link": Object {
                    "external": 1,
                    "target": "_blank",
                    "text": "SHOP NOW",
                    "title": "SHOP NOW",
                    "url": "/link/url2",
                  },
                  "textItems": Array [
                    Object {
                      "style": "spaced_text_regular_black",
                      "text": "Big & Little Bro",
                    },
                  ],
                },
              ]
            }
            locator="moduleE_small_header_text"
            navigation={Object {}}
            renderComponentInNewLine={true}
            style={
              Object {
                "color": "#2dc2f5",
              }
            }
            type="heading"
            useStyle={true}
          />
        </Styled(View)>
        <Styled(Styled(CustomButton))
          active={false}
          buttonVariation="fixed-width"
          color=""
          customBorderStyle=""
          customIconStyle={Object {}}
          customStyle={Object {}}
          customTextStyle={null}
          disableButton={false}
          fill=""
          fontFamily=""
          fontSize=""
          fontWeight=""
          fullWidth=""
          iconColor="gray.800"
          iconFirst={false}
          iconName="chevron-down"
          iconSize="fs12"
          locator=""
          navigation={Object {}}
          onPress={null}
          paddings="12px 32px 12px 32px"
          selected={false}
          selectedIcon="chevron-up"
          showIcon={false}
          text="SHOP NOW"
          theme={Object {}}
          url="/link/url2"
          useCustomFontStyle={false}
          withNoLineHeight={false}
        />
      </Styled(View)>
    </Styled(View)>
  </View>
</Styled(View)>
`;
