// Jest Snapshot v1, https://goo.gl/fbAQLP

exports[`ReasonCodeWithIcon Template should render ReasonCodeWithIcon Template 1`] = `
<Styled(Col)
  className=" "
  colSize={
    Object {
      "large": 4,
      "medium": 4,
      "small": 6,
    }
  }
  id=""
  ignoreGutter={Object {}}
>
  <div
    className="reason-code-rectangle reason-code-container "
    onClick={[Function]}
    onKeyDown={[Function]}
    role="button"
    tabIndex={0}
  >
    <Styled(Image)
      alt="reason-code-icon"
      className="elem-pl-MED reason-code-icon"
      height="28px"
      src=""
      width="28px"
    />
    <div
      className="reason-code-text-container"
      id="top-lvl-reason-codes"
    >
      <Styled(BodyCopy)
        className="elem-pl-MED elem-mb-XXS"
        color="black"
        component="p"
        customStyle={Object {}}
        fontFamily="secondary"
        fontSize="fs14"
        fontWeight="bold"
        letterSpacing="normal"
        lineHeight="normal"
        link={null}
        textAlign="left"
      >
        An Existing Order
      </Styled(BodyCopy)>
      <Styled(BodyCopy)
        className="elem-pl-MED elem-pr-MED"
        color="text.dark"
        component="p"
        customStyle={Object {}}
        fontFamily="secondary"
        fontSize="fs12"
        fontWeight="semibold"
        letterSpacing="normal"
        lineHeight="normal"
        link={null}
        textAlign="left"
      >
        An Existing Order
      </Styled(BodyCopy)>
    </div>
  </div>
</Styled(Col)>
`;
