// Jest Snapshot v1, https://goo.gl/fbAQLP

exports[`Component Component should render correctly 1`] = `
<View
  style={
    Object {
      "height": 1334,
    }
  }
>
  <View
    style={
      Object {
        "alignSelf": "center",
        "borderRadius": 2,
        "flexDirection": "row",
        "height": 4,
        "marginTop": 50,
        "paddingHorizontal": 24,
        "width": "100%",
      }
    }
  >
    <View
      style={
        Object {
          "backgroundColor": "#f3f3f3",
          "borderColor": "#595959",
          "borderRadius": 7,
          "borderWidth": 0,
          "flex": 1,
          "height": 6,
          "marginRight": 4,
          "marginTop": 6,
        }
      }
    />
    <View
      style={
        Object {
          "backgroundColor": "#f3f3f3",
          "borderColor": "#595959",
          "borderRadius": 7,
          "borderWidth": 0,
          "flex": 1,
          "height": 6,
          "marginRight": 4,
          "marginTop": 6,
        }
      }
    />
    <View
      style={
        Object {
          "backgroundColor": "#f3f3f3",
          "borderColor": "#595959",
          "borderRadius": 7,
          "borderWidth": 0,
          "flex": 1,
          "height": 6,
          "marginRight": 4,
          "marginTop": 6,
        }
      }
    />
    <View
      style={
        Object {
          "backgroundColor": "#f3f3f3",
          "borderColor": "#595959",
          "borderRadius": 7,
          "borderWidth": 0,
          "flex": 1,
          "height": 6,
          "marginRight": 4,
          "marginTop": 6,
        }
      }
    />
    <View
      style={
        Object {
          "backgroundColor": "#f3f3f3",
          "borderColor": "#595959",
          "borderRadius": 7,
          "borderWidth": 0,
          "flex": 1,
          "height": 6,
          "marginRight": 4,
          "marginTop": 6,
        }
      }
    />
    <View
      style={
        Object {
          "backgroundColor": "#f3f3f3",
          "borderColor": "#595959",
          "borderRadius": 7,
          "borderWidth": 0,
          "flex": 1,
          "height": 6,
          "marginRight": 4,
          "marginTop": 6,
        }
      }
    />
  </View>
  <View
    style={
      Object {
        "flexDirection": "row",
        "justifyContent": "space-between",
        "paddingHorizontal": 24,
      }
    }
  >
    <ForwardRef
      accessibilityRole="button"
      onPress={[Function]}
      style={
        Object {
          "height": 30,
          "marginTop": 23,
          "width": 30,
        }
      }
    >
      <Component
        source={
          Object {
            "testUri": "../../../src/assets/images/shopByProfile/elements/icons-elements-carets-medium-medium-left_2020-10-15/icons-elements-carets-medium-medium-left.png",
          }
        }
        style={
          Object {
            "height": 18,
            "width": 10,
          }
        }
      />
    </ForwardRef>
    <ForwardRef
      accessibilityRole="button"
      onPress={[Function]}
      style={
        Object {
          "marginTop": 20,
        }
      }
    >
      <Component
        style={
          Object {
            "color": "#1a1a1a",
            "fontFamily": "Nunito-SemiBold",
            "fontSize": 12,
            "fontWeight": "600",
          }
        }
      >
        FINISH LATER
      </Component>
    </ForwardRef>
  </View>
  <View
    style={
      Object {
        "height": 20,
        "position": "absolute",
        "top": "12%",
        "width": "100%",
        "zIndex": 100,
      }
    }
  >
    <LinearGradient
      colors={
        Array [
          "rgba(255,255,255, 0.98)",
          "rgba(255,255,255, 0.92)",
          "rgba(255,255,255, 0.82)",
        ]
      }
      end={
        Object {
          "x": 1,
          "y": 0,
        }
      }
      start={
        Object {
          "x": 0,
          "y": 0,
        }
      }
      style={
        Object {
          "height": "100%",
          "width": "100%",
        }
      }
    />
  </View>
  <ScrollViewMock
    onContentSizeChange={[Function]}
    scrollEnabled={false}
    showsVerticalScrollIndicator={false}
    style={
      Array [
        Object {
          "padding": 32,
        },
        Object {
          "paddingTop": 0,
        },
      ]
    }
  >
    <Component
      style={
        Object {
          "color": "#1a1a1a",
          "fontFamily": "Tofino-Bold",
          "fontSize": 34,
          "fontWeight": "bold",
          "lineHeight": 45,
          "marginTop": 25,
        }
      }
    />
    <Component
      style={
        Object {
          "color": "#1a1a1a",
          "fontFamily": "Nunito-SemiBold",
          "fontSize": 14,
          "fontWeight": "600",
          "marginBottom": 25,
          "marginTop": 15,
        }
      }
    >
      Sub title
    </Component>
    <View
      style={
        Object {
          "height": 250,
        }
      }
    />
  </ScrollViewMock>
  <LinearGradient
    colors={
      Array [
        "rgba(255,255,255, 0)",
        "rgba(255,255,255, 0)",
      ]
    }
    end={
      Object {
        "x": 1,
        "y": 0,
      }
    }
    start={
      Object {
        "x": 0.5,
        "y": 0.2,
      }
    }
    style={
      Object {
        "alignItems": "flex-end",
        "backgroundColor": "transparent",
        "flexDirection": "row",
        "height": 105,
        "justifyContent": "flex-end",
        "padding": 20,
        "position": "absolute",
        "top": 1229,
        "width": "100%",
      }
    }
  >
    <Component
      style={
        Array [
          Object {
            "bottom": 21,
            "color": "#1a1a1a",
            "fontFamily": "Nunito-ExtraBold",
            "fontSize": 18,
            "fontWeight": "bold",
            "marginRight": 14,
          },
          Object {
            "marginBottom": -5,
            "opacity": 1,
          },
        ]
      }
    >
      NEXT
    </Component>
    <ForwardRef
      accessibilityRole="button"
      disabled={false}
      onPress={[Function]}
      style={
        Array [
          Object {
            "alignItems": "center",
            "backgroundColor": "#1a1a1a",
            "borderRadius": 70,
            "height": 70,
            "justifyContent": "center",
            "marginRight": 10,
            "width": 70,
          },
          Object {
            "marginBottom": -5,
            "opacity": 1,
          },
        ]
      }
    >
      <Component
        source={
          Object {
            "testUri": "../../../src/assets/images/shopByProfile/elements/group-2-3x.png",
          }
        }
        style={
          Object {
            "height": 75,
            "width": 75,
          }
        }
      />
    </ForwardRef>
  </LinearGradient>
  <View
    style={
      Array [
        Object {
          "backgroundColor": "#ffffff",
        },
        Object {
          "height": 100,
          "width": "100%",
          "zIndex": -20,
        },
      ]
    }
  />
  <Toast
    fadeInDuration={550}
    fadeOutDuration={900}
    opacity={0.9}
    position="top"
    positionValue={80}
    style={
      Object {
        "backgroundColor": "#1a1a1a",
      }
    }
    textStyle={
      Object {
        "color": "#ffffff",
        "fontFamily": "Nunito-Regular",
        "fontSize": 16,
      }
    }
  />
</View>
`;

exports[`Component Component should render correctly for all routes 1`] = `
<View
  style={
    Object {
      "height": 1334,
    }
  }
>
  <View
    style={
      Object {
        "alignSelf": "center",
        "borderRadius": 2,
        "flexDirection": "row",
        "height": 4,
        "marginTop": 50,
        "paddingHorizontal": 24,
        "width": "100%",
      }
    }
  >
    <View
      style={
        Object {
          "backgroundColor": "#f3f3f3",
          "borderColor": "#595959",
          "borderRadius": 7,
          "borderWidth": 0,
          "flex": 1,
          "height": 6,
          "marginRight": 4,
          "marginTop": 6,
        }
      }
    />
    <View
      style={
        Object {
          "backgroundColor": "#f3f3f3",
          "borderColor": "#595959",
          "borderRadius": 7,
          "borderWidth": 0,
          "flex": 1,
          "height": 6,
          "marginRight": 4,
          "marginTop": 6,
        }
      }
    />
    <View
      style={
        Object {
          "backgroundColor": "#f3f3f3",
          "borderColor": "#595959",
          "borderRadius": 7,
          "borderWidth": 0,
          "flex": 1,
          "height": 6,
          "marginRight": 4,
          "marginTop": 6,
        }
      }
    />
    <View
      style={
        Object {
          "backgroundColor": "#f3f3f3",
          "borderColor": "#595959",
          "borderRadius": 7,
          "borderWidth": 0,
          "flex": 1,
          "height": 6,
          "marginRight": 4,
          "marginTop": 6,
        }
      }
    />
    <View
      style={
        Object {
          "backgroundColor": "#f3f3f3",
          "borderColor": "#595959",
          "borderRadius": 7,
          "borderWidth": 0,
          "flex": 1,
          "height": 6,
          "marginRight": 4,
          "marginTop": 6,
        }
      }
    />
    <View
      style={
        Object {
          "backgroundColor": "#f3f3f3",
          "borderColor": "#595959",
          "borderRadius": 7,
          "borderWidth": 0,
          "flex": 1,
          "height": 6,
          "marginRight": 4,
          "marginTop": 6,
        }
      }
    />
  </View>
  <View
    style={
      Object {
        "flexDirection": "row",
        "justifyContent": "space-between",
        "paddingHorizontal": 24,
      }
    }
  >
    <ForwardRef
      accessibilityRole="button"
      onPress={[Function]}
      style={
        Object {
          "height": 30,
          "marginTop": 23,
          "width": 30,
        }
      }
    >
      <Component
        source={
          Object {
            "testUri": "../../../src/assets/images/shopByProfile/elements/icons-elements-carets-medium-medium-left_2020-10-15/icons-elements-carets-medium-medium-left.png",
          }
        }
        style={
          Object {
            "height": 18,
            "width": 10,
          }
        }
      />
    </ForwardRef>
    <ForwardRef
      accessibilityRole="button"
      onPress={[Function]}
      style={
        Object {
          "marginTop": 20,
        }
      }
    >
      <Component
        style={
          Object {
            "color": "#1a1a1a",
            "fontFamily": "Nunito-SemiBold",
            "fontSize": 12,
            "fontWeight": "600",
          }
        }
      >
        FINISH LATER
      </Component>
    </ForwardRef>
  </View>
  <View
    style={
      Object {
        "height": 20,
        "position": "absolute",
        "top": "12%",
        "width": "100%",
        "zIndex": 100,
      }
    }
  >
    <LinearGradient
      colors={
        Array [
          "rgba(255,255,255, 0.98)",
          "rgba(255,255,255, 0.92)",
          "rgba(255,255,255, 0.82)",
        ]
      }
      end={
        Object {
          "x": 1,
          "y": 0,
        }
      }
      start={
        Object {
          "x": 0,
          "y": 0,
        }
      }
      style={
        Object {
          "height": "100%",
          "width": "100%",
        }
      }
    />
  </View>
  <ScrollViewMock
    onContentSizeChange={[Function]}
    scrollEnabled={false}
    showsVerticalScrollIndicator={false}
    style={
      Array [
        Object {
          "padding": 32,
        },
        Object {
          "paddingTop": 0,
        },
      ]
    }
  >
    <Component
      style={
        Object {
          "color": "#1a1a1a",
          "fontFamily": "Tofino-Bold",
          "fontSize": 34,
          "fontWeight": "bold",
          "lineHeight": 45,
          "marginTop": 25,
        }
      }
    />
    <Component
      style={
        Object {
          "color": "#1a1a1a",
          "fontFamily": "Nunito-SemiBold",
          "fontSize": 14,
          "fontWeight": "600",
          "marginBottom": 25,
          "marginTop": 15,
        }
      }
    >
      Sub title
    </Component>
    <View
      style={
        Object {
          "height": 250,
        }
      }
    />
  </ScrollViewMock>
  <LinearGradient
    colors={
      Array [
        "rgba(255,255,255, 0)",
        "rgba(255,255,255, 0)",
      ]
    }
    end={
      Object {
        "x": 1,
        "y": 0,
      }
    }
    start={
      Object {
        "x": 0.5,
        "y": 0.2,
      }
    }
    style={
      Object {
        "alignItems": "flex-end",
        "backgroundColor": "transparent",
        "flexDirection": "row",
        "height": 105,
        "justifyContent": "flex-end",
        "padding": 20,
        "position": "absolute",
        "top": 1229,
        "width": "100%",
      }
    }
  >
    <Component
      style={
        Array [
          Object {
            "bottom": 21,
            "color": "#1a1a1a",
            "fontFamily": "Nunito-ExtraBold",
            "fontSize": 18,
            "fontWeight": "bold",
            "marginRight": 14,
          },
          Object {
            "marginBottom": -5,
            "opacity": 1,
          },
        ]
      }
    >
      NEXT
    </Component>
    <ForwardRef
      accessibilityRole="button"
      disabled={false}
      onPress={[Function]}
      style={
        Array [
          Object {
            "alignItems": "center",
            "backgroundColor": "#1a1a1a",
            "borderRadius": 70,
            "height": 70,
            "justifyContent": "center",
            "marginRight": 10,
            "width": 70,
          },
          Object {
            "marginBottom": -5,
            "opacity": 1,
          },
        ]
      }
    >
      <Component
        source={
          Object {
            "testUri": "../../../src/assets/images/shopByProfile/elements/group-2-3x.png",
          }
        }
        style={
          Object {
            "height": 75,
            "width": 75,
          }
        }
      />
    </ForwardRef>
  </LinearGradient>
  <View
    style={
      Array [
        Object {
          "backgroundColor": "#ffffff",
        },
        Object {
          "height": 100,
          "width": "100%",
          "zIndex": -20,
        },
      ]
    }
  />
  <Toast
    fadeInDuration={550}
    fadeOutDuration={900}
    opacity={0.9}
    position="top"
    positionValue={80}
    style={
      Object {
        "backgroundColor": "#1a1a1a",
      }
    }
    textStyle={
      Object {
        "color": "#ffffff",
        "fontFamily": "Nunito-Regular",
        "fontSize": 16,
      }
    }
  />
</View>
`;

exports[`Component Component should render correctly for all routes 2`] = `
<View
  style={
    Object {
      "height": 1334,
    }
  }
>
  <View
    style={
      Object {
        "alignSelf": "center",
        "borderRadius": 2,
        "flexDirection": "row",
        "height": 4,
        "marginTop": 50,
        "paddingHorizontal": 24,
        "width": "100%",
      }
    }
  >
    <View
      style={
        Object {
          "backgroundColor": "#f3f3f3",
          "borderColor": "#595959",
          "borderRadius": 7,
          "borderWidth": 0,
          "flex": 1,
          "height": 6,
          "marginRight": 4,
          "marginTop": 6,
        }
      }
    />
    <View
      style={
        Object {
          "backgroundColor": "#f3f3f3",
          "borderColor": "#595959",
          "borderRadius": 7,
          "borderWidth": 0,
          "flex": 1,
          "height": 6,
          "marginRight": 4,
          "marginTop": 6,
        }
      }
    />
    <View
      style={
        Object {
          "backgroundColor": "#f3f3f3",
          "borderColor": "#595959",
          "borderRadius": 7,
          "borderWidth": 0,
          "flex": 1,
          "height": 6,
          "marginRight": 4,
          "marginTop": 6,
        }
      }
    />
    <View
      style={
        Object {
          "backgroundColor": "#f3f3f3",
          "borderColor": "#595959",
          "borderRadius": 7,
          "borderWidth": 0,
          "flex": 1,
          "height": 6,
          "marginRight": 4,
          "marginTop": 6,
        }
      }
    />
    <View
      style={
        Object {
          "backgroundColor": "#f3f3f3",
          "borderColor": "#595959",
          "borderRadius": 7,
          "borderWidth": 0,
          "flex": 1,
          "height": 6,
          "marginRight": 4,
          "marginTop": 6,
        }
      }
    />
    <View
      style={
        Object {
          "backgroundColor": "#f3f3f3",
          "borderColor": "#595959",
          "borderRadius": 7,
          "borderWidth": 0,
          "flex": 1,
          "height": 6,
          "marginRight": 4,
          "marginTop": 6,
        }
      }
    />
  </View>
  <View
    style={
      Object {
        "flexDirection": "row",
        "justifyContent": "space-between",
        "paddingHorizontal": 24,
      }
    }
  >
    <ForwardRef
      accessibilityRole="button"
      onPress={[Function]}
      style={
        Object {
          "height": 30,
          "marginTop": 23,
          "width": 30,
        }
      }
    >
      <Component
        source={
          Object {
            "testUri": "../../../src/assets/images/shopByProfile/elements/icons-elements-carets-medium-medium-left_2020-10-15/icons-elements-carets-medium-medium-left.png",
          }
        }
        style={
          Object {
            "height": 18,
            "width": 10,
          }
        }
      />
    </ForwardRef>
    <ForwardRef
      accessibilityRole="button"
      onPress={[Function]}
      style={
        Object {
          "marginTop": 20,
        }
      }
    >
      <Component
        style={
          Object {
            "color": "#1a1a1a",
            "fontFamily": "Nunito-SemiBold",
            "fontSize": 12,
            "fontWeight": "600",
          }
        }
      >
        FINISH LATER
      </Component>
    </ForwardRef>
  </View>
  <View
    style={
      Object {
        "height": 20,
        "position": "absolute",
        "top": "12%",
        "width": "100%",
        "zIndex": 100,
      }
    }
  >
    <LinearGradient
      colors={
        Array [
          "rgba(255,255,255, 0.98)",
          "rgba(255,255,255, 0.92)",
          "rgba(255,255,255, 0.82)",
        ]
      }
      end={
        Object {
          "x": 1,
          "y": 0,
        }
      }
      start={
        Object {
          "x": 0,
          "y": 0,
        }
      }
      style={
        Object {
          "height": "100%",
          "width": "100%",
        }
      }
    />
  </View>
  <ScrollViewMock
    onContentSizeChange={[Function]}
    scrollEnabled={false}
    showsVerticalScrollIndicator={false}
    style={
      Array [
        Object {
          "padding": 32,
        },
        Object {
          "paddingTop": 0,
        },
      ]
    }
  >
    <Component
      style={
        Object {
          "color": "#1a1a1a",
          "fontFamily": "Tofino-Bold",
          "fontSize": 34,
          "fontWeight": "bold",
          "lineHeight": 45,
          "marginTop": 25,
        }
      }
    />
    <Component
      style={
        Object {
          "color": "#1a1a1a",
          "fontFamily": "Nunito-SemiBold",
          "fontSize": 14,
          "fontWeight": "600",
          "marginBottom": 25,
          "marginTop": 15,
        }
      }
    >
      Sub title
    </Component>
    <View
      style={
        Object {
          "height": 250,
        }
      }
    />
  </ScrollViewMock>
  <LinearGradient
    colors={
      Array [
        "rgba(255,255,255, 0)",
        "rgba(255,255,255, 0)",
      ]
    }
    end={
      Object {
        "x": 1,
        "y": 0,
      }
    }
    start={
      Object {
        "x": 0.5,
        "y": 0.2,
      }
    }
    style={
      Object {
        "alignItems": "flex-end",
        "backgroundColor": "transparent",
        "flexDirection": "row",
        "height": 105,
        "justifyContent": "flex-end",
        "padding": 20,
        "position": "absolute",
        "top": 1229,
        "width": "100%",
      }
    }
  >
    <Component
      style={
        Array [
          Object {
            "bottom": 21,
            "color": "#1a1a1a",
            "fontFamily": "Nunito-ExtraBold",
            "fontSize": 18,
            "fontWeight": "bold",
            "marginRight": 14,
          },
          Object {
            "marginBottom": -5,
            "opacity": 1,
          },
        ]
      }
    >
      NEXT
    </Component>
    <ForwardRef
      accessibilityRole="button"
      disabled={false}
      onPress={[Function]}
      style={
        Array [
          Object {
            "alignItems": "center",
            "backgroundColor": "#1a1a1a",
            "borderRadius": 70,
            "height": 70,
            "justifyContent": "center",
            "marginRight": 10,
            "width": 70,
          },
          Object {
            "marginBottom": -5,
            "opacity": 1,
          },
        ]
      }
    >
      <Component
        source={
          Object {
            "testUri": "../../../src/assets/images/shopByProfile/elements/group-2-3x.png",
          }
        }
        style={
          Object {
            "height": 75,
            "width": 75,
          }
        }
      />
    </ForwardRef>
  </LinearGradient>
  <View
    style={
      Array [
        Object {
          "backgroundColor": "#ffffff",
        },
        Object {
          "height": 100,
          "width": "100%",
          "zIndex": -20,
        },
      ]
    }
  />
  <Toast
    fadeInDuration={550}
    fadeOutDuration={900}
    opacity={0.9}
    position="top"
    positionValue={80}
    style={
      Object {
        "backgroundColor": "#1a1a1a",
      }
    }
    textStyle={
      Object {
        "color": "#ffffff",
        "fontFamily": "Nunito-Regular",
        "fontSize": 16,
      }
    }
  />
</View>
`;

exports[`Component Component should render correctly for all routes 3`] = `
<View
  style={
    Object {
      "height": 1334,
    }
  }
>
  <View
    style={
      Object {
        "alignSelf": "center",
        "borderRadius": 2,
        "flexDirection": "row",
        "height": 4,
        "marginTop": 50,
        "paddingHorizontal": 24,
        "width": "100%",
      }
    }
  >
    <View
      style={
        Object {
          "backgroundColor": "#f3f3f3",
          "borderColor": "#595959",
          "borderRadius": 7,
          "borderWidth": 0,
          "flex": 1,
          "height": 6,
          "marginRight": 4,
          "marginTop": 6,
        }
      }
    />
    <View
      style={
        Object {
          "backgroundColor": "#f3f3f3",
          "borderColor": "#595959",
          "borderRadius": 7,
          "borderWidth": 0,
          "flex": 1,
          "height": 6,
          "marginRight": 4,
          "marginTop": 6,
        }
      }
    />
    <View
      style={
        Object {
          "backgroundColor": "#f3f3f3",
          "borderColor": "#595959",
          "borderRadius": 7,
          "borderWidth": 0,
          "flex": 1,
          "height": 6,
          "marginRight": 4,
          "marginTop": 6,
        }
      }
    />
    <View
      style={
        Object {
          "backgroundColor": "#f3f3f3",
          "borderColor": "#595959",
          "borderRadius": 7,
          "borderWidth": 0,
          "flex": 1,
          "height": 6,
          "marginRight": 4,
          "marginTop": 6,
        }
      }
    />
    <View
      style={
        Object {
          "backgroundColor": "#f3f3f3",
          "borderColor": "#595959",
          "borderRadius": 7,
          "borderWidth": 0,
          "flex": 1,
          "height": 6,
          "marginRight": 4,
          "marginTop": 6,
        }
      }
    />
    <View
      style={
        Object {
          "backgroundColor": "#f3f3f3",
          "borderColor": "#595959",
          "borderRadius": 7,
          "borderWidth": 0,
          "flex": 1,
          "height": 6,
          "marginRight": 4,
          "marginTop": 6,
        }
      }
    />
  </View>
  <View
    style={
      Object {
        "flexDirection": "row",
        "justifyContent": "space-between",
        "paddingHorizontal": 24,
      }
    }
  >
    <ForwardRef
      accessibilityRole="button"
      onPress={[Function]}
      style={
        Object {
          "height": 30,
          "marginTop": 23,
          "width": 30,
        }
      }
    >
      <Component
        source={
          Object {
            "testUri": "../../../src/assets/images/shopByProfile/elements/icons-elements-carets-medium-medium-left_2020-10-15/icons-elements-carets-medium-medium-left.png",
          }
        }
        style={
          Object {
            "height": 18,
            "width": 10,
          }
        }
      />
    </ForwardRef>
    <ForwardRef
      accessibilityRole="button"
      onPress={[Function]}
      style={
        Object {
          "marginTop": 20,
        }
      }
    >
      <Component
        style={
          Object {
            "color": "#1a1a1a",
            "fontFamily": "Nunito-SemiBold",
            "fontSize": 12,
            "fontWeight": "600",
          }
        }
      >
        FINISH LATER
      </Component>
    </ForwardRef>
  </View>
  <View
    style={
      Object {
        "height": 20,
        "position": "absolute",
        "top": "12%",
        "width": "100%",
        "zIndex": 100,
      }
    }
  >
    <LinearGradient
      colors={
        Array [
          "rgba(255,255,255, 0.98)",
          "rgba(255,255,255, 0.92)",
          "rgba(255,255,255, 0.82)",
        ]
      }
      end={
        Object {
          "x": 1,
          "y": 0,
        }
      }
      start={
        Object {
          "x": 0,
          "y": 0,
        }
      }
      style={
        Object {
          "height": "100%",
          "width": "100%",
        }
      }
    />
  </View>
  <ScrollViewMock
    onContentSizeChange={[Function]}
    scrollEnabled={false}
    showsVerticalScrollIndicator={false}
    style={
      Array [
        Object {
          "padding": 32,
        },
        Object {
          "paddingTop": 0,
        },
      ]
    }
  >
    <Component
      style={
        Object {
          "color": "#1a1a1a",
          "fontFamily": "Tofino-Bold",
          "fontSize": 34,
          "fontWeight": "bold",
          "lineHeight": 45,
          "marginTop": 25,
        }
      }
    />
    <Component
      style={
        Object {
          "color": "#1a1a1a",
          "fontFamily": "Nunito-SemiBold",
          "fontSize": 14,
          "fontWeight": "600",
          "marginBottom": 25,
          "marginTop": 15,
        }
      }
    >
      Sub title
    </Component>
    <View
      style={
        Object {
          "height": 250,
        }
      }
    />
  </ScrollViewMock>
  <LinearGradient
    colors={
      Array [
        "rgba(255,255,255, 0)",
        "rgba(255,255,255, 0)",
      ]
    }
    end={
      Object {
        "x": 1,
        "y": 0,
      }
    }
    start={
      Object {
        "x": 0.5,
        "y": 0.2,
      }
    }
    style={
      Object {
        "alignItems": "flex-end",
        "backgroundColor": "transparent",
        "flexDirection": "row",
        "height": 105,
        "justifyContent": "flex-end",
        "padding": 20,
        "position": "absolute",
        "top": 1229,
        "width": "100%",
      }
    }
  >
    <Component
      style={
        Array [
          Object {
            "bottom": 21,
            "color": "#1a1a1a",
            "fontFamily": "Nunito-ExtraBold",
            "fontSize": 18,
            "fontWeight": "bold",
            "marginRight": 14,
          },
          Object {
            "marginBottom": -5,
            "opacity": 1,
          },
        ]
      }
    >
      NEXT
    </Component>
    <ForwardRef
      accessibilityRole="button"
      disabled={false}
      onPress={[Function]}
      style={
        Array [
          Object {
            "alignItems": "center",
            "backgroundColor": "#1a1a1a",
            "borderRadius": 70,
            "height": 70,
            "justifyContent": "center",
            "marginRight": 10,
            "width": 70,
          },
          Object {
            "marginBottom": -5,
            "opacity": 1,
          },
        ]
      }
    >
      <Component
        source={
          Object {
            "testUri": "../../../src/assets/images/shopByProfile/elements/group-2-3x.png",
          }
        }
        style={
          Object {
            "height": 75,
            "width": 75,
          }
        }
      />
    </ForwardRef>
  </LinearGradient>
  <View
    style={
      Array [
        Object {
          "backgroundColor": "#ffffff",
        },
        Object {
          "height": 100,
          "width": "100%",
          "zIndex": -20,
        },
      ]
    }
  />
  <Toast
    fadeInDuration={550}
    fadeOutDuration={900}
    opacity={0.9}
    position="top"
    positionValue={80}
    style={
      Object {
        "backgroundColor": "#1a1a1a",
      }
    }
    textStyle={
      Object {
        "color": "#ffffff",
        "fontFamily": "Nunito-Regular",
        "fontSize": 16,
      }
    }
  />
</View>
`;

exports[`Component Component should render correctly for all routes 4`] = `
<View
  style={
    Object {
      "height": 1334,
    }
  }
>
  <View
    style={
      Object {
        "alignSelf": "center",
        "borderRadius": 2,
        "flexDirection": "row",
        "height": 4,
        "marginTop": 50,
        "paddingHorizontal": 24,
        "width": "100%",
      }
    }
  >
    <View
      style={
        Object {
          "backgroundColor": "#f3f3f3",
          "borderColor": "#595959",
          "borderRadius": 7,
          "borderWidth": 0,
          "flex": 1,
          "height": 6,
          "marginRight": 4,
          "marginTop": 6,
        }
      }
    />
    <View
      style={
        Object {
          "backgroundColor": "#f3f3f3",
          "borderColor": "#595959",
          "borderRadius": 7,
          "borderWidth": 0,
          "flex": 1,
          "height": 6,
          "marginRight": 4,
          "marginTop": 6,
        }
      }
    />
    <View
      style={
        Object {
          "backgroundColor": "#f3f3f3",
          "borderColor": "#595959",
          "borderRadius": 7,
          "borderWidth": 0,
          "flex": 1,
          "height": 6,
          "marginRight": 4,
          "marginTop": 6,
        }
      }
    />
    <View
      style={
        Object {
          "backgroundColor": "#f3f3f3",
          "borderColor": "#595959",
          "borderRadius": 7,
          "borderWidth": 0,
          "flex": 1,
          "height": 6,
          "marginRight": 4,
          "marginTop": 6,
        }
      }
    />
    <View
      style={
        Object {
          "backgroundColor": "#f3f3f3",
          "borderColor": "#595959",
          "borderRadius": 7,
          "borderWidth": 0,
          "flex": 1,
          "height": 6,
          "marginRight": 4,
          "marginTop": 6,
        }
      }
    />
    <View
      style={
        Object {
          "backgroundColor": "#f3f3f3",
          "borderColor": "#595959",
          "borderRadius": 7,
          "borderWidth": 0,
          "flex": 1,
          "height": 6,
          "marginRight": 4,
          "marginTop": 6,
        }
      }
    />
  </View>
  <View
    style={
      Object {
        "flexDirection": "row",
        "justifyContent": "space-between",
        "paddingHorizontal": 24,
      }
    }
  >
    <ForwardRef
      accessibilityRole="button"
      onPress={[Function]}
      style={
        Object {
          "height": 30,
          "marginTop": 23,
          "width": 30,
        }
      }
    >
      <Component
        source={
          Object {
            "testUri": "../../../src/assets/images/shopByProfile/elements/icons-elements-carets-medium-medium-left_2020-10-15/icons-elements-carets-medium-medium-left.png",
          }
        }
        style={
          Object {
            "height": 18,
            "width": 10,
          }
        }
      />
    </ForwardRef>
    <ForwardRef
      accessibilityRole="button"
      onPress={[Function]}
      style={
        Object {
          "marginTop": 20,
        }
      }
    >
      <Component
        style={
          Object {
            "color": "#1a1a1a",
            "fontFamily": "Nunito-SemiBold",
            "fontSize": 12,
            "fontWeight": "600",
          }
        }
      >
        FINISH LATER
      </Component>
    </ForwardRef>
  </View>
  <View
    style={
      Object {
        "height": 20,
        "position": "absolute",
        "top": "12%",
        "width": "100%",
        "zIndex": 100,
      }
    }
  >
    <LinearGradient
      colors={
        Array [
          "rgba(255,255,255, 0.98)",
          "rgba(255,255,255, 0.92)",
          "rgba(255,255,255, 0.82)",
        ]
      }
      end={
        Object {
          "x": 1,
          "y": 0,
        }
      }
      start={
        Object {
          "x": 0,
          "y": 0,
        }
      }
      style={
        Object {
          "height": "100%",
          "width": "100%",
        }
      }
    />
  </View>
  <ScrollViewMock
    onContentSizeChange={[Function]}
    scrollEnabled={false}
    showsVerticalScrollIndicator={false}
    style={
      Array [
        Object {
          "padding": 32,
        },
        Object {
          "paddingTop": 0,
        },
      ]
    }
  >
    <Component
      style={
        Object {
          "color": "#1a1a1a",
          "fontFamily": "Tofino-Bold",
          "fontSize": 34,
          "fontWeight": "bold",
          "lineHeight": 45,
          "marginTop": 25,
        }
      }
    />
    <Component
      style={
        Object {
          "color": "#1a1a1a",
          "fontFamily": "Nunito-SemiBold",
          "fontSize": 14,
          "fontWeight": "600",
          "marginBottom": 25,
          "marginTop": 15,
        }
      }
    >
      Sub title
    </Component>
    <View
      style={
        Object {
          "height": 250,
        }
      }
    />
  </ScrollViewMock>
  <LinearGradient
    colors={
      Array [
        "rgba(255,255,255, 0)",
        "rgba(255,255,255, 0)",
      ]
    }
    end={
      Object {
        "x": 1,
        "y": 0,
      }
    }
    start={
      Object {
        "x": 0.5,
        "y": 0.2,
      }
    }
    style={
      Object {
        "alignItems": "flex-end",
        "backgroundColor": "transparent",
        "flexDirection": "row",
        "height": 105,
        "justifyContent": "flex-end",
        "padding": 20,
        "position": "absolute",
        "top": 1229,
        "width": "100%",
      }
    }
  >
    <Component
      style={
        Array [
          Object {
            "bottom": 21,
            "color": "#1a1a1a",
            "fontFamily": "Nunito-ExtraBold",
            "fontSize": 18,
            "fontWeight": "bold",
            "marginRight": 14,
          },
          Object {
            "marginBottom": -5,
            "opacity": 1,
          },
        ]
      }
    >
      NEXT
    </Component>
    <ForwardRef
      accessibilityRole="button"
      disabled={false}
      onPress={[Function]}
      style={
        Array [
          Object {
            "alignItems": "center",
            "backgroundColor": "#1a1a1a",
            "borderRadius": 70,
            "height": 70,
            "justifyContent": "center",
            "marginRight": 10,
            "width": 70,
          },
          Object {
            "marginBottom": -5,
            "opacity": 1,
          },
        ]
      }
    >
      <Component
        source={
          Object {
            "testUri": "../../../src/assets/images/shopByProfile/elements/group-2-3x.png",
          }
        }
        style={
          Object {
            "height": 75,
            "width": 75,
          }
        }
      />
    </ForwardRef>
  </LinearGradient>
  <View
    style={
      Array [
        Object {
          "backgroundColor": "#ffffff",
        },
        Object {
          "height": 100,
          "width": "100%",
          "zIndex": -20,
        },
      ]
    }
  />
  <Toast
    fadeInDuration={550}
    fadeOutDuration={900}
    opacity={0.9}
    position="top"
    positionValue={80}
    style={
      Object {
        "backgroundColor": "#1a1a1a",
      }
    }
    textStyle={
      Object {
        "color": "#ffffff",
        "fontFamily": "Nunito-Regular",
        "fontSize": 16,
      }
    }
  />
</View>
`;

exports[`Component Component should render correctly for all routes 5`] = `
<View
  style={
    Object {
      "height": 1334,
    }
  }
>
  <View
    style={
      Object {
        "alignSelf": "center",
        "borderRadius": 2,
        "flexDirection": "row",
        "height": 4,
        "marginTop": 50,
        "paddingHorizontal": 24,
        "width": "100%",
      }
    }
  >
    <View
      style={
        Object {
          "backgroundColor": "#f3f3f3",
          "borderColor": "#595959",
          "borderRadius": 7,
          "borderWidth": 0,
          "flex": 1,
          "height": 6,
          "marginRight": 4,
          "marginTop": 6,
        }
      }
    />
    <View
      style={
        Object {
          "backgroundColor": "#f3f3f3",
          "borderColor": "#595959",
          "borderRadius": 7,
          "borderWidth": 0,
          "flex": 1,
          "height": 6,
          "marginRight": 4,
          "marginTop": 6,
        }
      }
    />
    <View
      style={
        Object {
          "backgroundColor": "#f3f3f3",
          "borderColor": "#595959",
          "borderRadius": 7,
          "borderWidth": 0,
          "flex": 1,
          "height": 6,
          "marginRight": 4,
          "marginTop": 6,
        }
      }
    />
    <View
      style={
        Object {
          "backgroundColor": "#f3f3f3",
          "borderColor": "#595959",
          "borderRadius": 7,
          "borderWidth": 0,
          "flex": 1,
          "height": 6,
          "marginRight": 4,
          "marginTop": 6,
        }
      }
    />
    <View
      style={
        Object {
          "backgroundColor": "#f3f3f3",
          "borderColor": "#595959",
          "borderRadius": 7,
          "borderWidth": 0,
          "flex": 1,
          "height": 6,
          "marginRight": 4,
          "marginTop": 6,
        }
      }
    />
    <View
      style={
        Object {
          "backgroundColor": "#f3f3f3",
          "borderColor": "#595959",
          "borderRadius": 7,
          "borderWidth": 0,
          "flex": 1,
          "height": 6,
          "marginRight": 4,
          "marginTop": 6,
        }
      }
    />
  </View>
  <View
    style={
      Object {
        "flexDirection": "row",
        "justifyContent": "space-between",
        "paddingHorizontal": 24,
      }
    }
  >
    <ForwardRef
      accessibilityRole="button"
      onPress={[Function]}
      style={
        Object {
          "height": 30,
          "marginTop": 23,
          "width": 30,
        }
      }
    >
      <Component
        source={
          Object {
            "testUri": "../../../src/assets/images/shopByProfile/elements/icons-elements-carets-medium-medium-left_2020-10-15/icons-elements-carets-medium-medium-left.png",
          }
        }
        style={
          Object {
            "height": 18,
            "width": 10,
          }
        }
      />
    </ForwardRef>
    <ForwardRef
      accessibilityRole="button"
      onPress={[Function]}
      style={
        Object {
          "marginTop": 20,
        }
      }
    >
      <Component
        style={
          Object {
            "color": "#1a1a1a",
            "fontFamily": "Nunito-SemiBold",
            "fontSize": 12,
            "fontWeight": "600",
          }
        }
      >
        FINISH LATER
      </Component>
    </ForwardRef>
  </View>
  <View
    style={
      Object {
        "height": 20,
        "position": "absolute",
        "top": "12%",
        "width": "100%",
        "zIndex": 100,
      }
    }
  >
    <LinearGradient
      colors={
        Array [
          "rgba(255,255,255, 0.98)",
          "rgba(255,255,255, 0.92)",
          "rgba(255,255,255, 0.82)",
        ]
      }
      end={
        Object {
          "x": 1,
          "y": 0,
        }
      }
      start={
        Object {
          "x": 0,
          "y": 0,
        }
      }
      style={
        Object {
          "height": "100%",
          "width": "100%",
        }
      }
    />
  </View>
  <ScrollViewMock
    onContentSizeChange={[Function]}
    scrollEnabled={false}
    showsVerticalScrollIndicator={false}
    style={
      Array [
        Object {
          "padding": 32,
        },
        Object {
          "paddingTop": 0,
        },
      ]
    }
  >
    <Component
      style={
        Object {
          "color": "#1a1a1a",
          "fontFamily": "Tofino-Bold",
          "fontSize": 34,
          "fontWeight": "bold",
          "lineHeight": 45,
          "marginTop": 25,
        }
      }
    />
    <Component
      style={
        Object {
          "color": "#1a1a1a",
          "fontFamily": "Nunito-SemiBold",
          "fontSize": 14,
          "fontWeight": "600",
          "marginBottom": 25,
          "marginTop": 15,
        }
      }
    >
      Sub title
    </Component>
    <View
      style={
        Object {
          "height": 250,
        }
      }
    />
  </ScrollViewMock>
  <LinearGradient
    colors={
      Array [
        "rgba(255,255,255, 0)",
        "rgba(255,255,255, 0)",
      ]
    }
    end={
      Object {
        "x": 1,
        "y": 0,
      }
    }
    start={
      Object {
        "x": 0.5,
        "y": 0.2,
      }
    }
    style={
      Object {
        "alignItems": "flex-end",
        "backgroundColor": "transparent",
        "flexDirection": "row",
        "height": 105,
        "justifyContent": "flex-end",
        "padding": 20,
        "position": "absolute",
        "top": 1229,
        "width": "100%",
      }
    }
  >
    <Component
      style={
        Array [
          Object {
            "bottom": 21,
            "color": "#1a1a1a",
            "fontFamily": "Nunito-ExtraBold",
            "fontSize": 18,
            "fontWeight": "bold",
            "marginRight": 14,
          },
          Object {
            "marginBottom": -5,
            "opacity": 1,
          },
        ]
      }
    >
      NEXT
    </Component>
    <ForwardRef
      accessibilityRole="button"
      disabled={false}
      onPress={[Function]}
      style={
        Array [
          Object {
            "alignItems": "center",
            "backgroundColor": "#1a1a1a",
            "borderRadius": 70,
            "height": 70,
            "justifyContent": "center",
            "marginRight": 10,
            "width": 70,
          },
          Object {
            "marginBottom": -5,
            "opacity": 1,
          },
        ]
      }
    >
      <Component
        source={
          Object {
            "testUri": "../../../src/assets/images/shopByProfile/elements/group-2-3x.png",
          }
        }
        style={
          Object {
            "height": 75,
            "width": 75,
          }
        }
      />
    </ForwardRef>
  </LinearGradient>
  <View
    style={
      Array [
        Object {
          "backgroundColor": "#ffffff",
        },
        Object {
          "height": 100,
          "width": "100%",
          "zIndex": -20,
        },
      ]
    }
  />
  <Toast
    fadeInDuration={550}
    fadeOutDuration={900}
    opacity={0.9}
    position="top"
    positionValue={80}
    style={
      Object {
        "backgroundColor": "#1a1a1a",
      }
    }
    textStyle={
      Object {
        "color": "#ffffff",
        "fontFamily": "Nunito-Regular",
        "fontSize": 16,
      }
    }
  />
</View>
`;

exports[`Component Component should render correctly for all routes 6`] = `
<View
  style={
    Object {
      "height": 1334,
    }
  }
>
  <View
    style={
      Object {
        "alignSelf": "center",
        "borderRadius": 2,
        "flexDirection": "row",
        "height": 4,
        "marginTop": 50,
        "paddingHorizontal": 24,
        "width": "100%",
      }
    }
  >
    <View
      style={
        Object {
          "backgroundColor": "#f3f3f3",
          "borderColor": "#595959",
          "borderRadius": 7,
          "borderWidth": 0,
          "flex": 1,
          "height": 6,
          "marginRight": 4,
          "marginTop": 6,
        }
      }
    />
    <View
      style={
        Object {
          "backgroundColor": "#f3f3f3",
          "borderColor": "#595959",
          "borderRadius": 7,
          "borderWidth": 0,
          "flex": 1,
          "height": 6,
          "marginRight": 4,
          "marginTop": 6,
        }
      }
    />
    <View
      style={
        Object {
          "backgroundColor": "#f3f3f3",
          "borderColor": "#595959",
          "borderRadius": 7,
          "borderWidth": 0,
          "flex": 1,
          "height": 6,
          "marginRight": 4,
          "marginTop": 6,
        }
      }
    />
    <View
      style={
        Object {
          "backgroundColor": "#f3f3f3",
          "borderColor": "#595959",
          "borderRadius": 7,
          "borderWidth": 0,
          "flex": 1,
          "height": 6,
          "marginRight": 4,
          "marginTop": 6,
        }
      }
    />
    <View
      style={
        Object {
          "backgroundColor": "#f3f3f3",
          "borderColor": "#595959",
          "borderRadius": 7,
          "borderWidth": 0,
          "flex": 1,
          "height": 6,
          "marginRight": 4,
          "marginTop": 6,
        }
      }
    />
    <View
      style={
        Object {
          "backgroundColor": "#f3f3f3",
          "borderColor": "#595959",
          "borderRadius": 7,
          "borderWidth": 0,
          "flex": 1,
          "height": 6,
          "marginRight": 4,
          "marginTop": 6,
        }
      }
    />
  </View>
  <View
    style={
      Object {
        "flexDirection": "row",
        "justifyContent": "space-between",
        "paddingHorizontal": 24,
      }
    }
  >
    <ForwardRef
      accessibilityRole="button"
      onPress={[Function]}
      style={
        Object {
          "height": 30,
          "marginTop": 23,
          "width": 30,
        }
      }
    >
      <Component
        source={
          Object {
            "testUri": "../../../src/assets/images/shopByProfile/elements/icons-elements-carets-medium-medium-left_2020-10-15/icons-elements-carets-medium-medium-left.png",
          }
        }
        style={
          Object {
            "height": 18,
            "width": 10,
          }
        }
      />
    </ForwardRef>
    <ForwardRef
      accessibilityRole="button"
      onPress={[Function]}
      style={
        Object {
          "marginTop": 20,
        }
      }
    >
      <Component
        style={
          Object {
            "color": "#1a1a1a",
            "fontFamily": "Nunito-SemiBold",
            "fontSize": 12,
            "fontWeight": "600",
          }
        }
      >
        FINISH LATER
      </Component>
    </ForwardRef>
  </View>
  <View
    style={
      Object {
        "height": 20,
        "position": "absolute",
        "top": "12%",
        "width": "100%",
        "zIndex": 100,
      }
    }
  >
    <LinearGradient
      colors={
        Array [
          "rgba(255,255,255, 0.98)",
          "rgba(255,255,255, 0.92)",
          "rgba(255,255,255, 0.82)",
        ]
      }
      end={
        Object {
          "x": 1,
          "y": 0,
        }
      }
      start={
        Object {
          "x": 0,
          "y": 0,
        }
      }
      style={
        Object {
          "height": "100%",
          "width": "100%",
        }
      }
    />
  </View>
  <ScrollViewMock
    onContentSizeChange={[Function]}
    scrollEnabled={false}
    showsVerticalScrollIndicator={false}
    style={
      Array [
        Object {
          "padding": 32,
        },
        Object {
          "paddingTop": 0,
        },
      ]
    }
  >
    <Component
      style={
        Object {
          "color": "#1a1a1a",
          "fontFamily": "Tofino-Bold",
          "fontSize": 34,
          "fontWeight": "bold",
          "lineHeight": 45,
          "marginTop": 25,
        }
      }
    />
    <Component
      style={
        Object {
          "color": "#1a1a1a",
          "fontFamily": "Nunito-SemiBold",
          "fontSize": 14,
          "fontWeight": "600",
          "marginBottom": 25,
          "marginTop": 15,
        }
      }
    >
      Sub title
    </Component>
    <View
      style={
        Object {
          "height": 250,
        }
      }
    />
  </ScrollViewMock>
  <LinearGradient
    colors={
      Array [
        "rgba(255,255,255, 0)",
        "rgba(255,255,255, 0)",
      ]
    }
    end={
      Object {
        "x": 1,
        "y": 0,
      }
    }
    start={
      Object {
        "x": 0.5,
        "y": 0.2,
      }
    }
    style={
      Object {
        "alignItems": "flex-end",
        "backgroundColor": "transparent",
        "flexDirection": "row",
        "height": 105,
        "justifyContent": "flex-end",
        "padding": 20,
        "position": "absolute",
        "top": 1229,
        "width": "100%",
      }
    }
  >
    <Component
      style={
        Array [
          Object {
            "bottom": 21,
            "color": "#1a1a1a",
            "fontFamily": "Nunito-ExtraBold",
            "fontSize": 18,
            "fontWeight": "bold",
            "marginRight": 14,
          },
          Object {
            "marginBottom": -5,
            "opacity": 1,
          },
        ]
      }
    >
      NEXT
    </Component>
    <ForwardRef
      accessibilityRole="button"
      disabled={false}
      onPress={[Function]}
      style={
        Array [
          Object {
            "alignItems": "center",
            "backgroundColor": "#1a1a1a",
            "borderRadius": 70,
            "height": 70,
            "justifyContent": "center",
            "marginRight": 10,
            "width": 70,
          },
          Object {
            "marginBottom": -5,
            "opacity": 1,
          },
        ]
      }
    >
      <Component
        source={
          Object {
            "testUri": "../../../src/assets/images/shopByProfile/elements/group-2-3x.png",
          }
        }
        style={
          Object {
            "height": 75,
            "width": 75,
          }
        }
      />
    </ForwardRef>
  </LinearGradient>
  <View
    style={
      Array [
        Object {
          "backgroundColor": "#ffffff",
        },
        Object {
          "height": 100,
          "width": "100%",
          "zIndex": -20,
        },
      ]
    }
  />
  <Toast
    fadeInDuration={550}
    fadeOutDuration={900}
    opacity={0.9}
    position="top"
    positionValue={80}
    style={
      Object {
        "backgroundColor": "#1a1a1a",
      }
    }
    textStyle={
      Object {
        "color": "#ffffff",
        "fontFamily": "Nunito-Regular",
        "fontSize": 16,
      }
    }
  />
</View>
`;

exports[`Component Component should render correctly for editing 1`] = `
<View
  style={
    Object {
      "height": 1334,
    }
  }
>
  <View
    style={
      Object {
        "alignSelf": "center",
        "borderRadius": 2,
        "flexDirection": "row",
        "height": 4,
        "marginTop": 50,
        "paddingHorizontal": 24,
        "width": "100%",
      }
    }
  >
    <View
      style={
        Object {
          "backgroundColor": "#f3f3f3",
          "borderColor": "#595959",
          "borderRadius": 7,
          "borderWidth": 0,
          "flex": 1,
          "height": 6,
          "marginRight": 4,
          "marginTop": 6,
        }
      }
    />
    <View
      style={
        Object {
          "backgroundColor": "#f3f3f3",
          "borderColor": "#595959",
          "borderRadius": 7,
          "borderWidth": 0,
          "flex": 1,
          "height": 6,
          "marginRight": 4,
          "marginTop": 6,
        }
      }
    />
    <View
      style={
        Object {
          "backgroundColor": "#f3f3f3",
          "borderColor": "#595959",
          "borderRadius": 7,
          "borderWidth": 0,
          "flex": 1,
          "height": 6,
          "marginRight": 4,
          "marginTop": 6,
        }
      }
    />
    <View
      style={
        Object {
          "backgroundColor": "#f3f3f3",
          "borderColor": "#595959",
          "borderRadius": 7,
          "borderWidth": 0,
          "flex": 1,
          "height": 6,
          "marginRight": 4,
          "marginTop": 6,
        }
      }
    />
    <View
      style={
        Object {
          "backgroundColor": "#f3f3f3",
          "borderColor": "#595959",
          "borderRadius": 7,
          "borderWidth": 0,
          "flex": 1,
          "height": 6,
          "marginRight": 4,
          "marginTop": 6,
        }
      }
    />
    <View
      style={
        Object {
          "backgroundColor": "#f3f3f3",
          "borderColor": "#595959",
          "borderRadius": 7,
          "borderWidth": 0,
          "flex": 1,
          "height": 6,
          "marginRight": 4,
          "marginTop": 6,
        }
      }
    />
  </View>
  <View
    style={
      Object {
        "flexDirection": "row",
        "justifyContent": "space-between",
        "paddingHorizontal": 24,
      }
    }
  >
    <ForwardRef
      accessibilityRole="button"
      onPress={[Function]}
      style={
        Object {
          "height": 30,
          "marginTop": 23,
          "width": 30,
        }
      }
    >
      <Component
        source={
          Object {
            "testUri": "../../../src/assets/images/shopByProfile/elements/icons-elements-carets-medium-medium-left_2020-10-15/icons-elements-carets-medium-medium-left.png",
          }
        }
        style={
          Object {
            "height": 18,
            "width": 10,
          }
        }
      />
    </ForwardRef>
    <ForwardRef
      accessibilityRole="button"
      onPress={[Function]}
      style={
        Object {
          "marginTop": 20,
        }
      }
    >
      <Component
        style={
          Object {
            "color": "#1a1a1a",
            "fontFamily": "Nunito-SemiBold",
            "fontSize": 12,
            "fontWeight": "600",
          }
        }
      >
        FINISH LATER
      </Component>
    </ForwardRef>
  </View>
  <View
    style={
      Object {
        "height": 20,
        "position": "absolute",
        "top": "12%",
        "width": "100%",
        "zIndex": 100,
      }
    }
  >
    <LinearGradient
      colors={
        Array [
          "rgba(255,255,255, 0.98)",
          "rgba(255,255,255, 0.92)",
          "rgba(255,255,255, 0.82)",
        ]
      }
      end={
        Object {
          "x": 1,
          "y": 0,
        }
      }
      start={
        Object {
          "x": 0,
          "y": 0,
        }
      }
      style={
        Object {
          "height": "100%",
          "width": "100%",
        }
      }
    />
  </View>
  <ScrollViewMock
    onContentSizeChange={[Function]}
    scrollEnabled={false}
    showsVerticalScrollIndicator={false}
    style={
      Array [
        Object {
          "padding": 32,
        },
        Object {
          "paddingTop": 0,
        },
      ]
    }
  >
    <Component
      style={
        Object {
          "color": "#1a1a1a",
          "fontFamily": "Tofino-Bold",
          "fontSize": 34,
          "fontWeight": "bold",
          "lineHeight": 45,
          "marginTop": 25,
        }
      }
    />
    <Component
      style={
        Object {
          "color": "#1a1a1a",
          "fontFamily": "Nunito-SemiBold",
          "fontSize": 14,
          "fontWeight": "600",
          "marginBottom": 25,
          "marginTop": 15,
        }
      }
    >
      Sub title
    </Component>
    <View
      style={
        Object {
          "height": 250,
        }
      }
    />
  </ScrollViewMock>
  <LinearGradient
    colors={
      Array [
        "rgba(255,255,255, 0)",
        "rgba(255,255,255, 0)",
      ]
    }
    end={
      Object {
        "x": 1,
        "y": 0,
      }
    }
    start={
      Object {
        "x": 0.5,
        "y": 0.2,
      }
    }
    style={
      Object {
        "alignItems": "flex-end",
        "backgroundColor": "transparent",
        "flexDirection": "row",
        "height": 105,
        "justifyContent": "flex-end",
        "padding": 20,
        "position": "absolute",
        "top": 1229,
        "width": "100%",
      }
    }
  >
    <Component
      style={
        Array [
          Object {
            "bottom": 21,
            "color": "#1a1a1a",
            "fontFamily": "Nunito-ExtraBold",
            "fontSize": 18,
            "fontWeight": "bold",
            "marginRight": 14,
          },
          Object {
            "marginBottom": -5,
            "opacity": 1,
          },
        ]
      }
    >
      NEXT
    </Component>
    <ForwardRef
      accessibilityRole="button"
      disabled={false}
      onPress={[Function]}
      style={
        Array [
          Object {
            "alignItems": "center",
            "backgroundColor": "#1a1a1a",
            "borderRadius": 70,
            "height": 70,
            "justifyContent": "center",
            "marginRight": 10,
            "width": 70,
          },
          Object {
            "marginBottom": -5,
            "opacity": 1,
          },
        ]
      }
    >
      <Component
        source={
          Object {
            "testUri": "../../../src/assets/images/shopByProfile/elements/group-2-3x.png",
          }
        }
        style={
          Object {
            "height": 75,
            "width": 75,
          }
        }
      />
    </ForwardRef>
  </LinearGradient>
  <View
    style={
      Array [
        Object {
          "backgroundColor": "#ffffff",
        },
        Object {
          "height": 100,
          "width": "100%",
          "zIndex": -20,
        },
      ]
    }
  />
  <Toast
    fadeInDuration={550}
    fadeOutDuration={900}
    opacity={0.9}
    position="top"
    positionValue={80}
    style={
      Object {
        "backgroundColor": "#1a1a1a",
      }
    }
    textStyle={
      Object {
        "color": "#ffffff",
        "fontFamily": "Nunito-Regular",
        "fontSize": 16,
      }
    }
  />
</View>
`;

exports[`Component Component should render correctly for editing 2`] = `
<View
  style={
    Object {
      "height": 1334,
    }
  }
>
  <View
    style={
      Object {
        "alignSelf": "center",
        "borderRadius": 2,
        "flexDirection": "row",
        "height": 4,
        "marginTop": 50,
        "paddingHorizontal": 24,
        "width": "100%",
      }
    }
  >
    <View
      style={
        Object {
          "backgroundColor": "#f3f3f3",
          "borderColor": "#595959",
          "borderRadius": 7,
          "borderWidth": 0,
          "flex": 1,
          "height": 6,
          "marginRight": 4,
          "marginTop": 6,
        }
      }
    />
    <View
      style={
        Object {
          "backgroundColor": "#f3f3f3",
          "borderColor": "#595959",
          "borderRadius": 7,
          "borderWidth": 0,
          "flex": 1,
          "height": 6,
          "marginRight": 4,
          "marginTop": 6,
        }
      }
    />
    <View
      style={
        Object {
          "backgroundColor": "#f3f3f3",
          "borderColor": "#595959",
          "borderRadius": 7,
          "borderWidth": 0,
          "flex": 1,
          "height": 6,
          "marginRight": 4,
          "marginTop": 6,
        }
      }
    />
    <View
      style={
        Object {
          "backgroundColor": "#f3f3f3",
          "borderColor": "#595959",
          "borderRadius": 7,
          "borderWidth": 0,
          "flex": 1,
          "height": 6,
          "marginRight": 4,
          "marginTop": 6,
        }
      }
    />
    <View
      style={
        Object {
          "backgroundColor": "#f3f3f3",
          "borderColor": "#595959",
          "borderRadius": 7,
          "borderWidth": 0,
          "flex": 1,
          "height": 6,
          "marginRight": 4,
          "marginTop": 6,
        }
      }
    />
    <View
      style={
        Object {
          "backgroundColor": "#f3f3f3",
          "borderColor": "#595959",
          "borderRadius": 7,
          "borderWidth": 0,
          "flex": 1,
          "height": 6,
          "marginRight": 4,
          "marginTop": 6,
        }
      }
    />
  </View>
  <View
    style={
      Object {
        "flexDirection": "row",
        "justifyContent": "space-between",
        "paddingHorizontal": 24,
      }
    }
  >
    <ForwardRef
      accessibilityRole="button"
      onPress={[Function]}
      style={
        Object {
          "height": 30,
          "marginTop": 23,
          "width": 30,
        }
      }
    >
      <Component
        source={
          Object {
            "testUri": "../../../src/assets/images/shopByProfile/elements/icons-elements-carets-medium-medium-left_2020-10-15/icons-elements-carets-medium-medium-left.png",
          }
        }
        style={
          Object {
            "height": 18,
            "width": 10,
          }
        }
      />
    </ForwardRef>
    <ForwardRef
      accessibilityRole="button"
      onPress={[Function]}
      style={
        Object {
          "marginTop": 20,
        }
      }
    >
      <Component
        style={
          Object {
            "color": "#1a1a1a",
            "fontFamily": "Nunito-SemiBold",
            "fontSize": 12,
            "fontWeight": "600",
          }
        }
      >
        FINISH LATER
      </Component>
    </ForwardRef>
  </View>
  <View
    style={
      Object {
        "height": 20,
        "position": "absolute",
        "top": "12%",
        "width": "100%",
        "zIndex": 100,
      }
    }
  >
    <LinearGradient
      colors={
        Array [
          "rgba(255,255,255, 0.98)",
          "rgba(255,255,255, 0.92)",
          "rgba(255,255,255, 0.82)",
        ]
      }
      end={
        Object {
          "x": 1,
          "y": 0,
        }
      }
      start={
        Object {
          "x": 0,
          "y": 0,
        }
      }
      style={
        Object {
          "height": "100%",
          "width": "100%",
        }
      }
    />
  </View>
  <ScrollViewMock
    onContentSizeChange={[Function]}
    scrollEnabled={false}
    showsVerticalScrollIndicator={false}
    style={
      Array [
        Object {
          "padding": 32,
        },
        Object {
          "paddingTop": 0,
        },
      ]
    }
  >
    <Component
      style={
        Object {
          "color": "#1a1a1a",
          "fontFamily": "Tofino-Bold",
          "fontSize": 34,
          "fontWeight": "bold",
          "lineHeight": 45,
          "marginTop": 25,
        }
      }
    />
    <Component
      style={
        Object {
          "color": "#1a1a1a",
          "fontFamily": "Nunito-SemiBold",
          "fontSize": 14,
          "fontWeight": "600",
          "marginBottom": 25,
          "marginTop": 15,
        }
      }
    >
      Sub title
    </Component>
    <View
      style={
        Object {
          "height": 250,
        }
      }
    />
  </ScrollViewMock>
  <LinearGradient
    colors={
      Array [
        "rgba(255,255,255, 0)",
        "rgba(255,255,255, 0)",
      ]
    }
    end={
      Object {
        "x": 1,
        "y": 0,
      }
    }
    start={
      Object {
        "x": 0.5,
        "y": 0.2,
      }
    }
    style={
      Object {
        "alignItems": "flex-end",
        "backgroundColor": "transparent",
        "flexDirection": "row",
        "height": 105,
        "justifyContent": "flex-end",
        "padding": 20,
        "position": "absolute",
        "top": 1229,
        "width": "100%",
      }
    }
  >
    <Component
      style={
        Array [
          Object {
            "bottom": 21,
            "color": "#1a1a1a",
            "fontFamily": "Nunito-ExtraBold",
            "fontSize": 18,
            "fontWeight": "bold",
            "marginRight": 14,
          },
          Object {
            "marginBottom": -5,
            "opacity": 1,
          },
        ]
      }
    >
      NEXT
    </Component>
    <ForwardRef
      accessibilityRole="button"
      disabled={false}
      onPress={[Function]}
      style={
        Array [
          Object {
            "alignItems": "center",
            "backgroundColor": "#1a1a1a",
            "borderRadius": 70,
            "height": 70,
            "justifyContent": "center",
            "marginRight": 10,
            "width": 70,
          },
          Object {
            "marginBottom": -5,
            "opacity": 1,
          },
        ]
      }
    >
      <Component
        source={
          Object {
            "testUri": "../../../src/assets/images/shopByProfile/elements/group-2-3x.png",
          }
        }
        style={
          Object {
            "height": 75,
            "width": 75,
          }
        }
      />
    </ForwardRef>
  </LinearGradient>
  <View
    style={
      Array [
        Object {
          "backgroundColor": "#ffffff",
        },
        Object {
          "height": 100,
          "width": "100%",
          "zIndex": -20,
        },
      ]
    }
  />
  <Toast
    fadeInDuration={550}
    fadeOutDuration={900}
    opacity={0.9}
    position="top"
    positionValue={80}
    style={
      Object {
        "backgroundColor": "#1a1a1a",
      }
    }
    textStyle={
      Object {
        "color": "#ffffff",
        "fontFamily": "Nunito-Regular",
        "fontSize": 16,
      }
    }
  />
</View>
`;
