// Jest Snapshot v1, https://goo.gl/fbAQLP

exports[`RegisteredShippingForm should call getBtnDisabledState 1`] = `
<Fragment>
  <FormSection
    name="address"
  >
    <Styled(View)>
      <AddressFields
        address={null}
        addressLine1=""
        addressPhoneNo={null}
        cartOrderItems={Array []}
        createRefParent={[Function]}
        currentOrderId=""
        disableCountry={true}
        eddAllowedStatesArr={Array []}
        formName="checkoutShipping"
        formSection="address"
        getZipCodeSuggestedAddress={[Function]}
        initialValues={Object {}}
        isEDD={false}
        isEditing={false}
        isGuest={true}
        mapboxAutocompleteTypesParam=""
        mapboxSwitch={true}
        resetShippingEddData={[Function]}
        setAddressLine1={[Function]}
        showDefaultCheckbox={false}
        showEmailAddress={true}
        showPhoneNumber={true}
        showUserName={true}
        state=""
        updateEdd={[Function]}
        zipCodeABTestEnabled={false}
        zipCodeFirst={true}
      />
    </Styled(View)>
  </FormSection>
  <Styled(View)>
    <Field
      component={[Function]}
      fontSize="fs16"
      isChecked={false}
      name="saveToAddressBook"
      onChange={[Function]}
      rightText="lbl_shipping_saveToAccount"
      showDefaultCheckbox={false}
    />
  </Styled(View)>
  <Styled(View)>
    <Field
      component={[Function]}
      disabled={true}
      fontSize="fs16"
      isChecked={false}
      name="defaultShipping"
      rightText="lbl_shipping_defaultShipping"
      showDefaultCheckbox={false}
    />
  </Styled(View)>
</Fragment>
`;

exports[`RegisteredShippingForm should call renderActionBtns 1`] = `
<Fragment>
  <FormSection
    name="address"
  >
    <Styled(View)>
      <AddressFields
        address={null}
        addressLine1=""
        addressPhoneNo={null}
        cartOrderItems={Array []}
        createRefParent={[Function]}
        currentOrderId=""
        disableCountry={true}
        eddAllowedStatesArr={Array []}
        formName="checkoutShipping"
        formSection="address"
        getZipCodeSuggestedAddress={[Function]}
        initialValues={Object {}}
        isEDD={false}
        isEditing={false}
        isGuest={true}
        mapboxAutocompleteTypesParam=""
        mapboxSwitch={true}
        resetShippingEddData={[Function]}
        setAddressLine1={[Function]}
        showDefaultCheckbox={false}
        showEmailAddress={true}
        showPhoneNumber={true}
        showUserName={true}
        state=""
        updateEdd={[Function]}
        zipCodeABTestEnabled={false}
        zipCodeFirst={true}
      />
    </Styled(View)>
  </FormSection>
  <Styled(View)>
    <Field
      component={[Function]}
      fontSize="fs16"
      isChecked={false}
      name="saveToAddressBook"
      onChange={[Function]}
      rightText="lbl_shipping_saveToAccount"
      showDefaultCheckbox={false}
    />
  </Styled(View)>
  <Styled(View)>
    <Field
      component={[Function]}
      disabled={true}
      fontSize="fs16"
      isChecked={false}
      name="defaultShipping"
      rightText="lbl_shipping_defaultShipping"
      showDefaultCheckbox={false}
    />
  </Styled(View)>
</Fragment>
`;

exports[`RegisteredShippingForm should call save Btn click handler 1`] = `
<Fragment>
  <View
    pointerEvents="auto"
  >
    <Field
      addAddress={[Function]}
      component={[Function]}
      data={
        Array [
          Object {
            "content": Object {
              "addressId": "1234",
              "addressLine": Array [
                "addressline 1",
                "addressline 2",
              ],
              "city": "test city",
              "country": "test country",
              "firstName": "test",
              "lastName": "test",
              "phone1": "1234567890",
              "primary": "true",
            },
            "id": "1234",
            "label": "test test (Default)",
            "primary": true,
          },
          Object {
            "content": "",
            "id": "",
            "label": "lbl_shipping_addNewAddress",
            "primary": false,
          },
        ]
      }
      dataLocator="shipping-address"
      dropDownStyle={
        Object {
          "borderBottomWidth": 1,
          "height": 30,
          "marginTop": 25,
        }
      }
      id="onFileAddressKey"
      itemStyle={
        Object {
          "height": 90,
          "paddingLeft": 16,
        }
      }
      labels={
        Object {
          "common": Object {
            "lbl_common_tapClose": "close",
          },
        }
      }
      name="onFileAddressKey"
      onValueChange={[Function]}
      selectListTitle="Select from address book"
      selectedValue="12345"
      variation="secondary"
    />
  </View>
  <FormSection
    name="address"
  >
    <Styled(View)>
      <AddressFields
        address={null}
        addressLine1=""
        addressPhoneNo={null}
        cartOrderItems={Array []}
        createRefParent={[Function]}
        currentOrderId=""
        disableCountry={true}
        dispatch={[MockFunction]}
        eddAllowedStatesArr={Array []}
        formName="checkoutShipping"
        formSection="address"
        getZipCodeSuggestedAddress={[Function]}
        initialValues={Object {}}
        isEDD={false}
        isEditing={false}
        isGuest={false}
        mapboxAutocompleteTypesParam=""
        mapboxSwitch={true}
        resetShippingEddData={[Function]}
        setAddressLine1={[Function]}
        showDefaultCheckbox={false}
        showEmailAddress={true}
        showPhoneNumber={true}
        showUserName={true}
        state=""
        updateEdd={[Function]}
        zipCodeABTestEnabled={false}
        zipCodeFirst={true}
      />
    </Styled(View)>
  </FormSection>
  <Styled(View)>
    <Field
      component={[Function]}
      fontSize="fs16"
      isChecked={true}
      name="saveToAddressBook"
      onChange={[Function]}
      rightText="lbl_shipping_saveToAccount"
      showDefaultCheckbox={false}
    />
  </Styled(View)>
  <Styled(View)>
    <Field
      component={[Function]}
      disabled={false}
      fontSize="fs16"
      isChecked={false}
      name="defaultShipping"
      rightText="lbl_shipping_defaultShipping"
      showDefaultCheckbox={false}
    />
  </Styled(View)>
</Fragment>
`;

exports[`RegisteredShippingForm should call save to account change 1`] = `
<Fragment>
  <View
    pointerEvents="auto"
  >
    <Field
      addAddress={[Function]}
      component={[Function]}
      data={
        Array [
          Object {
            "content": Object {
              "addressId": "1234",
              "addressLine": Array [
                "addressline 1",
                "addressline 2",
              ],
              "city": "test city",
              "country": "test country",
              "firstName": "test",
              "lastName": "test",
              "phone1": "1234567890",
              "primary": "true",
            },
            "id": "1234",
            "label": "test test (Default)",
            "primary": true,
          },
          Object {
            "content": "",
            "id": "",
            "label": "lbl_shipping_addNewAddress",
            "primary": false,
          },
        ]
      }
      dataLocator="shipping-address"
      dropDownStyle={
        Object {
          "borderBottomWidth": 1,
          "height": 30,
          "marginTop": 25,
        }
      }
      id="onFileAddressKey"
      itemStyle={
        Object {
          "height": 90,
          "paddingLeft": 16,
        }
      }
      labels={
        Object {
          "common": Object {
            "lbl_common_tapClose": "close",
          },
        }
      }
      name="onFileAddressKey"
      onValueChange={[Function]}
      selectListTitle="Select from address book"
      selectedValue="12345"
      variation="secondary"
    />
  </View>
  <FormSection
    name="address"
  >
    <Styled(View)>
      <AddressFields
        address={null}
        addressLine1=""
        addressPhoneNo={null}
        cartOrderItems={Array []}
        createRefParent={[Function]}
        currentOrderId=""
        disableCountry={true}
        dispatch={
          [MockFunction] {
            "calls": Array [
              Array [
                Object {
                  "meta": Object {
                    "field": "saveToAddressBook",
                    "form": "checkoutShipping",
                    "persistentSubmitErrors": undefined,
                    "touch": undefined,
                  },
                  "payload": false,
                  "type": "@@redux-form/CHANGE",
                },
              ],
              Array [
                Object {
                  "meta": Object {
                    "field": "defaultShipping",
                    "form": "checkoutShipping",
                    "persistentSubmitErrors": undefined,
                    "touch": undefined,
                  },
                  "payload": false,
                  "type": "@@redux-form/CHANGE",
                },
              ],
            ],
            "results": Array [
              Object {
                "type": "return",
                "value": undefined,
              },
              Object {
                "type": "return",
                "value": undefined,
              },
            ],
          }
        }
        eddAllowedStatesArr={Array []}
        formName="checkoutShipping"
        formSection="address"
        getZipCodeSuggestedAddress={[Function]}
        initialValues={Object {}}
        isEDD={false}
        isEditing={false}
        isGuest={false}
        mapboxAutocompleteTypesParam=""
        mapboxSwitch={true}
        resetShippingEddData={[Function]}
        setAddressLine1={[Function]}
        showDefaultCheckbox={false}
        showEmailAddress={true}
        showPhoneNumber={true}
        showUserName={true}
        state=""
        updateEdd={[Function]}
        zipCodeABTestEnabled={false}
        zipCodeFirst={true}
      />
    </Styled(View)>
  </FormSection>
  <Styled(View)>
    <Field
      component={[Function]}
      fontSize="fs16"
      isChecked={true}
      name="saveToAddressBook"
      onChange={[Function]}
      rightText="lbl_shipping_saveToAccount"
      showDefaultCheckbox={false}
    />
  </Styled(View)>
  <Styled(View)>
    <Field
      component={[Function]}
      disabled={false}
      fontSize="fs16"
      isChecked={false}
      name="defaultShipping"
      rightText="lbl_shipping_defaultShipping"
      showDefaultCheckbox={false}
    />
  </Styled(View)>
</Fragment>
`;

exports[`RegisteredShippingForm should call save to account change with user Addresses 1`] = `
<Fragment>
  <FormSection
    name="address"
  >
    <Styled(View)>
      <AddressFields
        address={null}
        addressLine1=""
        addressPhoneNo={null}
        cartOrderItems={Array []}
        createRefParent={[Function]}
        currentOrderId=""
        disableCountry={true}
        dispatch={
          [MockFunction] {
            "calls": Array [
              Array [
                Object {
                  "meta": Object {
                    "field": "saveToAddressBook",
                    "form": "checkoutShipping",
                    "persistentSubmitErrors": undefined,
                    "touch": undefined,
                  },
                  "payload": false,
                  "type": "@@redux-form/CHANGE",
                },
              ],
              Array [
                Object {
                  "meta": Object {
                    "field": "defaultShipping",
                    "form": "checkoutShipping",
                    "persistentSubmitErrors": undefined,
                    "touch": undefined,
                  },
                  "payload": false,
                  "type": "@@redux-form/CHANGE",
                },
              ],
            ],
            "results": Array [
              Object {
                "type": "return",
                "value": undefined,
              },
              Object {
                "type": "return",
                "value": undefined,
              },
            ],
          }
        }
        eddAllowedStatesArr={Array []}
        formName="checkoutShipping"
        formSection="address"
        getZipCodeSuggestedAddress={[Function]}
        initialValues={Object {}}
        isEDD={false}
        isEditing={false}
        isGuest={false}
        mapboxAutocompleteTypesParam=""
        mapboxSwitch={true}
        resetShippingEddData={[Function]}
        setAddressLine1={[Function]}
        showDefaultCheckbox={false}
        showEmailAddress={true}
        showPhoneNumber={true}
        showUserName={true}
        state=""
        updateEdd={[Function]}
        zipCodeABTestEnabled={false}
        zipCodeFirst={true}
      />
    </Styled(View)>
  </FormSection>
  <Styled(View)>
    <Field
      component={[Function]}
      fontSize="fs16"
      isChecked={true}
      name="saveToAddressBook"
      onChange={[Function]}
      rightText="lbl_shipping_saveToAccount"
      showDefaultCheckbox={false}
    />
  </Styled(View)>
  <Styled(View)>
    <Field
      component={[Function]}
      disabled={false}
      fontSize="fs16"
      isChecked={false}
      name="defaultShipping"
      rightText="lbl_shipping_defaultShipping"
      showDefaultCheckbox={false}
    />
  </Styled(View)>
</Fragment>
`;

exports[`RegisteredShippingForm should call shoe default options 1`] = `
<Fragment>
  <FormSection
    name="address"
  >
    <Styled(View)>
      <AddressFields
        address={null}
        addressLine1=""
        addressPhoneNo={null}
        cartOrderItems={Array []}
        createRefParent={[Function]}
        currentOrderId=""
        disableCountry={true}
        dispatch={[MockFunction]}
        eddAllowedStatesArr={Array []}
        formName="checkoutShipping"
        formSection="address"
        getZipCodeSuggestedAddress={[Function]}
        initialValues={Object {}}
        isEDD={false}
        isEditing={false}
        isGuest={false}
        mapboxAutocompleteTypesParam=""
        mapboxSwitch={true}
        resetShippingEddData={[Function]}
        setAddressLine1={[Function]}
        showDefaultCheckbox={false}
        showEmailAddress={true}
        showPhoneNumber={true}
        showUserName={true}
        state=""
        updateEdd={[Function]}
        zipCodeABTestEnabled={false}
        zipCodeFirst={true}
      />
    </Styled(View)>
  </FormSection>
  <Styled(View)>
    <Field
      component={[Function]}
      fontSize="fs16"
      isChecked={false}
      name="saveToAddressBook"
      onChange={[Function]}
      rightText="lbl_shipping_saveToAccount"
      showDefaultCheckbox={false}
    />
  </Styled(View)>
  <Styled(View)>
    <Field
      component={[Function]}
      disabled={true}
      fontSize="fs16"
      isChecked={false}
      name="defaultShipping"
      rightText="lbl_shipping_defaultShipping"
      showDefaultCheckbox={false}
    />
  </Styled(View)>
</Fragment>
`;

exports[`RegisteredShippingForm should call shoe default options with modal type edit 1`] = `
<Fragment>
  <FormSection
    name="address"
  >
    <Styled(View)>
      <AddressFields
        address={null}
        addressLine1=""
        addressPhoneNo={null}
        cartOrderItems={Array []}
        createRefParent={[Function]}
        currentOrderId=""
        disableCountry={true}
        dispatch={[MockFunction]}
        eddAllowedStatesArr={Array []}
        formName="checkoutShipping"
        formSection="address"
        getZipCodeSuggestedAddress={[Function]}
        initialValues={
          Object {
            "address": Object {
              "addressLine1": null,
            },
          }
        }
        isEDD={false}
        isEditing={false}
        isGuest={false}
        mapboxAutocompleteTypesParam=""
        mapboxSwitch={true}
        resetShippingEddData={[Function]}
        setAddressLine1={[Function]}
        showDefaultCheckbox={false}
        showEmailAddress={true}
        showPhoneNumber={true}
        showUserName={true}
        state=""
        updateEdd={[Function]}
        zipCodeABTestEnabled={false}
        zipCodeFirst={true}
      />
    </Styled(View)>
  </FormSection>
</Fragment>
`;

exports[`RegisteredShippingForm should render correctly  1`] = `
<Fragment>
  <View
    pointerEvents="auto"
  >
    <Field
      addAddress={[Function]}
      component={[Function]}
      data={
        Array [
          Object {
            "content": Object {
              "addressLine": Array [
                "addressline 155",
                "addressline 222",
              ],
              "city": "test city",
              "country": "test countryyy",
              "firstName": "test",
              "lastName": "test",
              "phone1": "1234567890",
              "primary": "true",
            },
            "id": undefined,
            "label": "test test (Default)",
            "primary": true,
          },
          Object {
            "content": "",
            "id": "",
            "label": "lbl_shipping_addNewAddress",
            "primary": false,
          },
        ]
      }
      dataLocator="shipping-address"
      dropDownStyle={
        Object {
          "borderBottomWidth": 1,
          "height": 30,
          "marginTop": 25,
        }
      }
      id="onFileAddressKey"
      itemStyle={
        Object {
          "height": 90,
          "paddingLeft": 16,
        }
      }
      labels={
        Object {
          "common": Object {
            "lbl_common_tapClose": "close",
          },
        }
      }
      name="onFileAddressKey"
      onValueChange={[Function]}
      selectListTitle="Select from address book"
      selectedValue={null}
      variation="secondary"
    />
  </View>
  <Styled(View)>
    <Address
      address={
        Object {
          "addressLine": Array [
            "addressline 155",
            "addressline 222",
          ],
          "city": "test city",
          "country": "test countryyy",
          "firstName": "test",
          "lastName": "test",
          "phone1": "1234567890",
          "primary": "true",
        }
      }
      className="elem-mb-SM"
      customStyle={
        Object {
          "fontSize": "fs14",
          "fontWeight": "regular",
        }
      }
      dataLocatorPrefix="address"
      fontSize="fs14"
      regularName={false}
      showCountry={false}
      showDefaultText={false}
      showName={true}
      showPhone={false}
      showWarning={0}
    />
    <Styled(Anchor)
      accessibilityLabel=""
      anchorVariation="primary"
      colorName={null}
      customStyle={Object {}}
      dataLocator="shipping-edit-contact-anchor"
      fontSizeVariation="medium"
      hitSlop={Object {}}
      href="#"
      justifyContent=""
      locator=""
      margins={null}
      noLink={true}
      onPress={[Function]}
      overrideStyle={Object {}}
      target="_blank"
      text="lbl_shipping_edit"
      underline={true}
      visible={false}
    />
  </Styled(View)>
</Fragment>
`;

exports[`RegisteredShippingForm should render correctly with  addresses and call toggleModal 1`] = `
<Fragment>
  <View
    pointerEvents="auto"
  >
    <Field
      addAddress={[Function]}
      component={[Function]}
      data={
        Array [
          Object {
            "content": Object {
              "addressLine": Array [
                "addressline 1111",
                "addressline 25",
              ],
              "city": "test city",
              "country": "test country is",
              "firstName": "test",
              "lastName": "test",
              "phone1": "1234567890",
              "primary": "true",
            },
            "id": undefined,
            "label": "test test (Default)",
            "primary": true,
          },
          Object {
            "content": "",
            "id": "",
            "label": "lbl_shipping_addNewAddress",
            "primary": false,
          },
        ]
      }
      dataLocator="shipping-address"
      dropDownStyle={
        Object {
          "borderBottomWidth": 1,
          "height": 30,
          "marginTop": 25,
        }
      }
      id="onFileAddressKey"
      itemStyle={
        Object {
          "height": 90,
          "paddingLeft": 16,
        }
      }
      labels={
        Object {
          "common": Object {
            "lbl_common_tapClose": "close",
          },
        }
      }
      name="onFileAddressKey"
      onValueChange={[Function]}
      selectListTitle="Select from address book"
      selectedValue={null}
      variation="secondary"
    />
  </View>
  <AddEditShippingAddress
    actionButtons={[Function]}
    addressFields={[Function]}
    defaultOptions={[Function]}
    modalState={true}
    modalType="edit"
  />
  <Styled(View) />
</Fragment>
`;

exports[`RegisteredShippingForm should render correctly with  addresses and call toggleModal if it has onFileAddressKey 1`] = `
<Fragment>
  <View
    pointerEvents="auto"
  >
    <Field
      addAddress={[Function]}
      component={[Function]}
      data={
        Array [
          Object {
            "content": Object {
              "addressId": "1234",
              "addressLine": Array [
                "addressline 156",
                "addressline 290",
              ],
              "city": "test city",
              "country": "test count",
              "firstName": "test",
              "lastName": "test",
              "phone1": "1234567890",
              "primary": "true",
            },
            "id": "1234",
            "label": "test test (Default)",
            "primary": true,
          },
          Object {
            "content": "",
            "id": "",
            "label": "lbl_shipping_addNewAddress",
            "primary": false,
          },
        ]
      }
      dataLocator="shipping-address"
      dropDownStyle={
        Object {
          "borderBottomWidth": 1,
          "height": 30,
          "marginTop": 25,
        }
      }
      id="onFileAddressKey"
      itemStyle={
        Object {
          "height": 90,
          "paddingLeft": 16,
        }
      }
      labels={
        Object {
          "common": Object {
            "lbl_common_tapClose": "close",
          },
        }
      }
      name="onFileAddressKey"
      onValueChange={[Function]}
      selectListTitle="Select from address book"
      selectedValue="1234"
      variation="secondary"
    />
  </View>
  <AddEditShippingAddress
    actionButtons={[Function]}
    addressFields={[Function]}
    defaultOptions={[Function]}
    modalState={true}
    modalType="edit"
  />
  <Styled(View) />
</Fragment>
`;

exports[`RegisteredShippingForm should render correctly with  addresses and call toggleModal if it has onFileAddressKey but does not match 1`] = `
<Fragment>
  <View
    pointerEvents="auto"
  >
    <Field
      addAddress={[Function]}
      component={[Function]}
      data={
        Array [
          Object {
            "content": Object {
              "addressId": "1234",
              "addressLine": Array [
                "addressline 190",
                "addressline 52",
              ],
              "city": "test city",
              "country": "test ",
              "firstName": "test",
              "lastName": "test",
              "phone1": "1234567890",
              "primary": "true",
            },
            "id": "1234",
            "label": "test test (Default)",
            "primary": true,
          },
          Object {
            "content": "",
            "id": "",
            "label": "lbl_shipping_addNewAddress",
            "primary": false,
          },
        ]
      }
      dataLocator="shipping-address"
      dropDownStyle={
        Object {
          "borderBottomWidth": 1,
          "height": 30,
          "marginTop": 25,
        }
      }
      id="onFileAddressKey"
      itemStyle={
        Object {
          "height": 90,
          "paddingLeft": 16,
        }
      }
      labels={
        Object {
          "common": Object {
            "lbl_common_tapClose": "close",
          },
        }
      }
      name="onFileAddressKey"
      onValueChange={[Function]}
      selectListTitle="Select from address book"
      selectedValue="12345"
      variation="secondary"
    />
  </View>
  <AddEditShippingAddress
    actionButtons={[Function]}
    addressFields={[Function]}
    defaultOptions={[Function]}
    modalState={true}
    modalType="edit"
  />
  <Styled(View) />
</Fragment>
`;

exports[`RegisteredShippingForm should render correctly with no addresses and call toggleAddressModal 1`] = `
<Fragment>
  <FormSection
    name="address"
  >
    <Styled(View)>
      <AddressFields
        address={null}
        addressLine1=""
        addressPhoneNo={null}
        cartOrderItems={Array []}
        createRefParent={[Function]}
        currentOrderId=""
        disableCountry={true}
        dispatch={
          [MockFunction] {
            "calls": Array [
              Array [
                Object {
                  "meta": Object {
                    "field": "address.phoneNumber",
                    "form": "checkoutShipping",
                    "persistentSubmitErrors": undefined,
                    "touch": undefined,
                  },
                  "payload": "",
                  "type": "@@redux-form/CHANGE",
                },
              ],
              Array [
                Object {
                  "meta": Object {
                    "field": "saveToAddressBook",
                    "form": "checkoutShipping",
                    "persistentSubmitErrors": undefined,
                    "touch": undefined,
                  },
                  "payload": true,
                  "type": "@@redux-form/CHANGE",
                },
              ],
              Array [
                Object {
                  "meta": Object {
                    "field": "defaultShipping",
                    "form": "checkoutShipping",
                    "persistentSubmitErrors": undefined,
                    "touch": undefined,
                  },
                  "payload": true,
                  "type": "@@redux-form/CHANGE",
                },
              ],
            ],
            "results": Array [
              Object {
                "type": "return",
                "value": undefined,
              },
              Object {
                "type": "return",
                "value": undefined,
              },
              Object {
                "type": "return",
                "value": undefined,
              },
            ],
          }
        }
        eddAllowedStatesArr={Array []}
        formName="checkoutShipping"
        formSection="address"
        getZipCodeSuggestedAddress={[Function]}
        initialValues={Object {}}
        isEDD={false}
        isEditing={false}
        isGuest={false}
        mapboxAutocompleteTypesParam=""
        mapboxSwitch={true}
        resetShippingEddData={[Function]}
        setAddressLine1={[Function]}
        showDefaultCheckbox={false}
        showEmailAddress={true}
        showPhoneNumber={true}
        showUserName={true}
        state=""
        updateEdd={[Function]}
        zipCodeABTestEnabled={false}
        zipCodeFirst={true}
      />
    </Styled(View)>
  </FormSection>
  <Styled(View)>
    <Field
      component={[Function]}
      fontSize="fs16"
      isChecked={false}
      name="saveToAddressBook"
      onChange={[Function]}
      rightText="lbl_shipping_saveToAccount"
      showDefaultCheckbox={false}
    />
  </Styled(View)>
  <Styled(View)>
    <Field
      component={[Function]}
      disabled={true}
      fontSize="fs16"
      isChecked={false}
      name="defaultShipping"
      rightText="lbl_shipping_defaultShipping"
      showDefaultCheckbox={false}
    />
  </Styled(View)>
</Fragment>
`;
