// Jest Snapshot v1, https://goo.gl/fbAQLP

exports[`TellUsMore Template should render TellUsMore Template 1`] = `
<TellUsMore
  cancelResolutionModuleXContent={[Function]}
  className="sc-fvxzrP dRDVjR"
  clearReturnMethod={[Function]}
  clearSelectedOrderItems={[Function]}
  clickAnalyticsData={Object {}}
  cshForMonthsToDisplay={3}
  cshReturnItemOlderDays={3}
  fetchResolutionModuleX={[Function]}
  fetchTransitHelpModuleX={Object {}}
  filteredItems={Array []}
  getRefundStatus={[Function]}
  helpstep1=""
  isFetchingOrderItems={true}
  isLiveChatEnabled={false}
  isOrderStatusTransit={false}
  isPaidNExpediteRefundEnable={false}
  labels={Object {}}
  orderDetailsData={
    Object {
      "orderDate": "123",
      "orderNumber": "123123",
      "summary": Object {
        "currencySymbol": "$",
        "grandTotal": "7.29",
      },
    }
  }
  orderItems={
    Array [
      Object {
        "productInfo": Object {
          "imagePath": "path",
        },
      },
    ]
  }
  orderLabels={Object {}}
  orderLookUpAPISwitch={false}
  preReasonFlag={true}
  reasonCodes={
    Array [
      Object {
        "label": [Function],
      },
    ]
  }
  refundData={Object {}}
  resetCustomerHelpReducer={[Function]}
  resolutionContentId={Object {}}
  resolutionModuleXContent={[Function]}
  selectedOrderArriveDeliveredReasonCode={null}
  selectedOrderItems={Object {}}
  selectedResolution=""
  selectedReturnMethod=""
  selectedShipmentCard=""
  selectedWrongItemResolution={[Function]}
  setActiveSection={[Function]}
  setFilteredList={[Function]}
  setLoader={false}
  setOrderStatusInTransit={[Function]}
  setReturnItemDisplay={[Function]}
  setReturnMethod={[Function]}
  setSelectedOrderArriveDeliveredReasonCode={[Function]}
  setSelectedShipmentCard={[Function]}
  setToggleCards={[Function]}
  setWrongItemData={[Function]}
  shipmentData={Object {}}
  toggleCards={false}
  trackAnalyticsClick={[Function]}
  trackAnalyticsPageView={[Function]}
  transitHelpModuleXContent={Object {}}
  updateHelpstep1={[Function]}
  wrongItemData={[Function]}
/>
`;

exports[`TellUsMore Template should render TellUsMore Template with ReasonCode COUPON_ISSUE and Kill switch off 1`] = `
<TellUsMore
  cancelResolutionModuleXContent={[Function]}
  className="sc-fvxzrP dRDVjR"
  clearReturnMethod={[Function]}
  clearSelectedOrderItems={[Function]}
  clickAnalyticsData={Object {}}
  cshForMonthsToDisplay={3}
  cshReturnItemOlderDays={3}
  fetchResolutionModuleX={[Function]}
  fetchTransitHelpModuleX={Object {}}
  filteredItems={Array []}
  getRefundStatus={[Function]}
  helpstep1=""
  isCannotApplyCouponEnabled={false}
  isFetchingOrderItems={true}
  isLiveChatEnabled={false}
  isOrderStatusTransit={false}
  isPaidNExpediteRefundEnable={false}
  labels={Object {}}
  orderDetailsData={
    Object {
      "orderDate": "123",
      "orderNumber": "123123",
      "summary": Object {
        "currencySymbol": "$",
        "grandTotal": "7.29",
      },
    }
  }
  orderItems={
    Array [
      Object {
        "productInfo": Object {
          "imagePath": "path",
        },
      },
    ]
  }
  orderLabels={Object {}}
  orderLookUpAPISwitch={false}
  preReasonFlag={true}
  reasonCodes={
    Array [
      Object {
        "label": [Function],
      },
    ]
  }
  refundData={Object {}}
  resetCustomerHelpReducer={[Function]}
  resolutionContentId={Object {}}
  resolutionModuleXContent={[Function]}
  selectedOrderArriveDeliveredReasonCode={null}
  selectedOrderItems={Object {}}
  selectedReasonCode={
    Object {
      "action": "COUPON_ISSUE",
      "label": "1001",
    }
  }
  selectedResolution=""
  selectedReturnMethod=""
  selectedShipmentCard=""
  selectedWrongItemResolution={[Function]}
  setActiveSection={[Function]}
  setFilteredList={[Function]}
  setLoader={false}
  setOrderStatusInTransit={[Function]}
  setReturnItemDisplay={[Function]}
  setReturnMethod={[Function]}
  setSelectedOrderArriveDeliveredReasonCode={[Function]}
  setSelectedShipmentCard={[Function]}
  setToggleCards={[Function]}
  setWrongItemData={[Function]}
  shipmentData={Object {}}
  toggleCards={false}
  trackAnalyticsClick={[Function]}
  trackAnalyticsPageView={[Function]}
  transitHelpModuleXContent={Object {}}
  updateHelpstep1={[Function]}
  wrongItemData={[Function]}
/>
`;

exports[`TellUsMore Template should render TellUsMore Template with ReasonCode COUPON_ISSUE and Kill switch on 1`] = `
<TellUsMore
  cancelResolutionModuleXContent={[Function]}
  className="sc-fvxzrP dRDVjR"
  clearReturnMethod={[Function]}
  clearSelectedOrderItems={[Function]}
  clickAnalyticsData={Object {}}
  cshForMonthsToDisplay={3}
  cshReturnItemOlderDays={3}
  fetchResolutionModuleX={[Function]}
  fetchTransitHelpModuleX={Object {}}
  filteredItems={Array []}
  getRefundStatus={[Function]}
  helpstep1=""
  isCannotApplyCouponEnabled={true}
  isFetchingOrderItems={true}
  isLiveChatEnabled={false}
  isOrderStatusTransit={false}
  isPaidNExpediteRefundEnable={false}
  labels={Object {}}
  orderDetailsData={
    Object {
      "orderDate": "123",
      "orderNumber": "123123",
      "summary": Object {
        "currencySymbol": "$",
        "grandTotal": "7.29",
      },
    }
  }
  orderItems={
    Array [
      Object {
        "productInfo": Object {
          "imagePath": "path",
        },
      },
    ]
  }
  orderLabels={Object {}}
  orderLookUpAPISwitch={false}
  preReasonFlag={true}
  reasonCodes={
    Array [
      Object {
        "label": [Function],
      },
    ]
  }
  refundData={Object {}}
  resetCustomerHelpReducer={[Function]}
  resolutionContentId={Object {}}
  resolutionModuleXContent={[Function]}
  selectedOrderArriveDeliveredReasonCode={null}
  selectedOrderItems={Object {}}
  selectedReasonCode={
    Object {
      "action": "COUPON_ISSUE",
      "label": "1001",
    }
  }
  selectedResolution=""
  selectedReturnMethod=""
  selectedShipmentCard=""
  selectedWrongItemResolution={[Function]}
  setActiveSection={[Function]}
  setFilteredList={[Function]}
  setLoader={false}
  setOrderStatusInTransit={[Function]}
  setReturnItemDisplay={[Function]}
  setReturnMethod={[Function]}
  setSelectedOrderArriveDeliveredReasonCode={[Function]}
  setSelectedShipmentCard={[Function]}
  setToggleCards={[Function]}
  setWrongItemData={[Function]}
  shipmentData={Object {}}
  toggleCards={false}
  trackAnalyticsClick={[Function]}
  trackAnalyticsPageView={[Function]}
  transitHelpModuleXContent={Object {}}
  updateHelpstep1={[Function]}
  wrongItemData={[Function]}
/>
`;

exports[`TellUsMore Template should render TellUsMore Template with ReasonCode LOST_ORDER 1`] = `
<TellUsMore
  cancelResolutionModuleXContent={[Function]}
  className="sc-fvxzrP dRDVjR"
  clearReturnMethod={[Function]}
  clearSelectedOrderItems={[Function]}
  clickAnalyticsData={Object {}}
  cshForMonthsToDisplay={3}
  cshReturnItemOlderDays={3}
  fetchResolutionModuleX={[Function]}
  fetchTransitHelpModuleX={Object {}}
  filteredItems={Array []}
  getRefundStatus={[Function]}
  helpstep1=""
  isFetchingOrderItems={true}
  isLiveChatEnabled={false}
  isOrderStatusTransit={false}
  isPaidNExpediteRefundEnable={false}
  labels={Object {}}
  orderDetailsData={
    Object {
      "orderDate": "123",
      "orderNumber": "123123",
      "summary": Object {
        "currencySymbol": "$",
        "grandTotal": "7.29",
      },
    }
  }
  orderItems={
    Array [
      Object {
        "productInfo": Object {
          "imagePath": "path",
        },
      },
    ]
  }
  orderLabels={Object {}}
  orderLookUpAPISwitch={false}
  preReasonFlag={true}
  reasonCodes={
    Array [
      Object {
        "label": [Function],
      },
    ]
  }
  refundData={Object {}}
  resetCustomerHelpReducer={[Function]}
  resolutionContentId={Object {}}
  resolutionModuleXContent={[Function]}
  selectedOrderArriveDeliveredReasonCode={null}
  selectedOrderItems={Object {}}
  selectedReasonCode={
    Object {
      "action": "LOST_ORDER",
      "label": "1001",
    }
  }
  selectedResolution=""
  selectedReturnMethod=""
  selectedShipmentCard=""
  selectedWrongItemResolution={[Function]}
  setActiveSection={[Function]}
  setFilteredList={[Function]}
  setLoader={false}
  setOrderStatusInTransit={[Function]}
  setReturnItemDisplay={[Function]}
  setReturnMethod={[Function]}
  setSelectedOrderArriveDeliveredReasonCode={[Function]}
  setSelectedShipmentCard={[Function]}
  setToggleCards={[Function]}
  setWrongItemData={[Function]}
  shipmentData={Object {}}
  toggleCards={false}
  trackAnalyticsClick={[Function]}
  trackAnalyticsPageView={[Function]}
  transitHelpModuleXContent={Object {}}
  updateHelpstep1={[Function]}
  wrongItemData={[Function]}
/>
`;

exports[`TellUsMore Template should render TellUsMore Template with ReasonCode MISSING_ORDER 1`] = `
<TellUsMore
  cancelResolutionModuleXContent={[Function]}
  className="sc-fvxzrP dRDVjR"
  clearReturnMethod={[Function]}
  clearSelectedOrderItems={[Function]}
  clickAnalyticsData={Object {}}
  cshForMonthsToDisplay={3}
  cshReturnItemOlderDays={3}
  fetchResolutionModuleX={[Function]}
  fetchTransitHelpModuleX={Object {}}
  filteredItems={Array []}
  getRefundStatus={[Function]}
  helpstep1=""
  isFetchingOrderItems={true}
  isLiveChatEnabled={false}
  isOrderStatusTransit={false}
  isPaidNExpediteRefundEnable={false}
  labels={Object {}}
  orderDetailsData={
    Object {
      "orderDate": "123",
      "orderNumber": "123123",
      "summary": Object {
        "currencySymbol": "$",
        "grandTotal": "7.29",
      },
    }
  }
  orderItems={
    Array [
      Object {
        "productInfo": Object {
          "imagePath": "path",
        },
      },
    ]
  }
  orderLabels={Object {}}
  orderLookUpAPISwitch={false}
  preReasonFlag={true}
  reasonCodes={
    Array [
      Object {
        "label": [Function],
      },
    ]
  }
  refundData={Object {}}
  resetCustomerHelpReducer={[Function]}
  resolutionContentId={Object {}}
  resolutionModuleXContent={[Function]}
  selectedOrderArriveDeliveredReasonCode={null}
  selectedOrderItems={Object {}}
  selectedReasonCode={
    Object {
      "action": "MISSING_ORDER",
      "label": "1001",
    }
  }
  selectedResolution=""
  selectedReturnMethod=""
  selectedShipmentCard=""
  selectedWrongItemResolution={[Function]}
  setActiveSection={[Function]}
  setFilteredList={[Function]}
  setLoader={false}
  setOrderStatusInTransit={[Function]}
  setReturnItemDisplay={[Function]}
  setReturnMethod={[Function]}
  setSelectedOrderArriveDeliveredReasonCode={[Function]}
  setSelectedShipmentCard={[Function]}
  setToggleCards={[Function]}
  setWrongItemData={[Function]}
  shipmentData={Object {}}
  toggleCards={false}
  trackAnalyticsClick={[Function]}
  trackAnalyticsPageView={[Function]}
  transitHelpModuleXContent={Object {}}
  updateHelpstep1={[Function]}
  wrongItemData={[Function]}
/>
`;

exports[`TellUsMore Template should render TellUsMore Template with ReasonCode SHIPMENT_DELAYED 1`] = `
<TellUsMore
  cancelResolutionModuleXContent={[Function]}
  className="sc-fvxzrP dRDVjR"
  clearReturnMethod={[Function]}
  clearSelectedOrderItems={[Function]}
  clickAnalyticsData={Object {}}
  cshForMonthsToDisplay={3}
  cshReturnItemOlderDays={3}
  fetchResolutionModuleX={[Function]}
  fetchTransitHelpModuleX={Object {}}
  filteredItems={Array []}
  getRefundStatus={[Function]}
  helpstep1=""
  isFetchingOrderItems={true}
  isLiveChatEnabled={false}
  isOrderStatusTransit={false}
  isPaidNExpediteRefundEnable={false}
  labels={Object {}}
  orderDetailsData={
    Object {
      "orderDate": "123",
      "orderNumber": "123123",
      "summary": Object {
        "currencySymbol": "$",
        "grandTotal": "7.29",
      },
    }
  }
  orderItems={
    Array [
      Object {
        "productInfo": Object {
          "imagePath": "path",
        },
      },
    ]
  }
  orderLabels={Object {}}
  orderLookUpAPISwitch={false}
  preReasonFlag={true}
  reasonCodes={
    Array [
      Object {
        "label": [Function],
      },
    ]
  }
  refundData={Object {}}
  resetCustomerHelpReducer={[Function]}
  resolutionContentId={Object {}}
  resolutionModuleXContent={[Function]}
  selectedOrderArriveDeliveredReasonCode={null}
  selectedOrderItems={Object {}}
  selectedReasonCode={
    Object {
      "action": "SHIPMENT_DELAYED",
      "label": "1001",
    }
  }
  selectedResolution=""
  selectedReturnMethod=""
  selectedShipmentCard=""
  selectedWrongItemResolution={[Function]}
  setActiveSection={[Function]}
  setFilteredList={[Function]}
  setLoader={false}
  setOrderStatusInTransit={[Function]}
  setReturnItemDisplay={[Function]}
  setReturnMethod={[Function]}
  setSelectedOrderArriveDeliveredReasonCode={[Function]}
  setSelectedShipmentCard={[Function]}
  setToggleCards={[Function]}
  setWrongItemData={[Function]}
  shipmentData={Object {}}
  toggleCards={false}
  trackAnalyticsClick={[Function]}
  trackAnalyticsPageView={[Function]}
  transitHelpModuleXContent={Object {}}
  updateHelpstep1={[Function]}
  wrongItemData={[Function]}
/>
`;

exports[`TellUsMore Template should render TellUsMore Template with Selected ReasonCode 1`] = `
<TellUsMore
  cancelResolutionModuleXContent={[Function]}
  className="sc-fvxzrP dRDVjR"
  clearReturnMethod={[Function]}
  clearSelectedOrderItems={[Function]}
  clickAnalyticsData={Object {}}
  cshForMonthsToDisplay={3}
  cshReturnItemOlderDays={3}
  fetchResolutionModuleX={[Function]}
  fetchTransitHelpModuleX={Object {}}
  filteredItems={Array []}
  getRefundStatus={[Function]}
  helpstep1=""
  isFetchingOrderItems={true}
  isLiveChatEnabled={false}
  isOrderStatusTransit={false}
  isPaidNExpediteRefundEnable={false}
  labels={Object {}}
  orderDetailsData={
    Object {
      "orderDate": "123",
      "orderNumber": "123123",
      "summary": Object {
        "currencySymbol": "$",
        "grandTotal": "7.29",
      },
    }
  }
  orderItems={
    Array [
      Object {
        "productInfo": Object {
          "imagePath": "path",
        },
      },
    ]
  }
  orderLabels={Object {}}
  orderLookUpAPISwitch={false}
  preReasonFlag={true}
  reasonCodes={
    Array [
      Object {
        "label": [Function],
      },
    ]
  }
  refundData={Object {}}
  resetCustomerHelpReducer={[Function]}
  resolutionContentId={Object {}}
  resolutionModuleXContent={[Function]}
  selectedOrderArriveDeliveredReasonCode={null}
  selectedOrderItems={Object {}}
  selectedReasonCode={
    Object {
      "label": "1001",
    }
  }
  selectedResolution=""
  selectedReturnMethod=""
  selectedShipmentCard=""
  selectedWrongItemResolution={[Function]}
  setActiveSection={[Function]}
  setFilteredList={[Function]}
  setLoader={false}
  setOrderStatusInTransit={[Function]}
  setReturnItemDisplay={[Function]}
  setReturnMethod={[Function]}
  setSelectedOrderArriveDeliveredReasonCode={[Function]}
  setSelectedShipmentCard={[Function]}
  setToggleCards={[Function]}
  setWrongItemData={[Function]}
  shipmentData={Object {}}
  toggleCards={false}
  trackAnalyticsClick={[Function]}
  trackAnalyticsPageView={[Function]}
  transitHelpModuleXContent={Object {}}
  updateHelpstep1={[Function]}
  wrongItemData={[Function]}
/>
`;
