// Jest Snapshot v1, https://goo.gl/fbAQLP

exports[`Review Template should render Review Template 1`] = `
<div
  className=""
>
  <div
    className="review-table-background"
  >
    <Styled(Row)
      fullBleed={true}
    >
      <Styled(Col)
        colSize={
          Object {
            "large": 8,
            "medium": 4,
            "small": 6,
          }
        }
      >
        <div
          className="row-background review-details"
        >
          <Styled(BodyCopy)
            className=""
            color="text.primary"
            component="div"
            customStyle={Object {}}
            fontFamily="primary"
            fontSize={12}
            fontWeight="regular"
            letterSpacing="normal"
            lineHeight="normal"
            link={null}
            textAlign="left"
          >
            <div
              className="return-method-heading-container"
              id="return-method-heading-container"
            >
              <Styled(BodyCopy)
                className="elem-mb-XS"
                color="black"
                component="p"
                customStyle={Object {}}
                fontFamily="secondary"
                fontSize={
                  Array [
                    "fs14",
                    "fs14",
                    "fs16",
                  ]
                }
                fontWeight="extrabold"
                letterSpacing="normal"
                lineHeight="normal"
                link={null}
                textAlign="left"
              >
                lbl_review_by_mail_heading
              </Styled(BodyCopy)>
            </div>
            <Styled(BodyCopy)
              className=" title-underline"
              color="text.primary"
              component="p"
              customStyle={Object {}}
              fontFamily="primary"
              fontSize={12}
              fontWeight="regular"
              letterSpacing="normal"
              lineHeight="normal"
              link={null}
              textAlign="left"
            />
            <Styled(BodyCopy)
              className={null}
              color="text.dark"
              component="div"
              customStyle={Object {}}
              fontFamily="secondary"
              fontSize="fs14"
              fontWeight="semibold"
              letterSpacing="normal"
              lineHeight="normal"
              link={null}
              textAlign="left"
            >
              lbl_review_by_mail_desc
            </Styled(BodyCopy)>
            <div
              className="return-instructions-container"
            >
              <Styled(BodyCopy)
                className={null}
                color="text.primary"
                component="div"
                customStyle={Object {}}
                fontFamily="primary"
                fontSize={12}
                fontWeight="regular"
                letterSpacing="normal"
                lineHeight="normal"
                link={null}
                textAlign="left"
              >
                <ModuleX
                  isNativeView={false}
                  loyaltyLocation=""
                  moduleClassName=""
                  richTextList={
                    Array [
                      Object {
                        "text": "<style> 
  li{font-family: Nunito; font-size: 14px; 
    font-weight:600;line-height: normal;}
  .list-container{color: #1a1a1a;background-color:#f3f3f3;padding-top:10px;padding-bottom:10px;padding-left:1.7em;padding-right:5px;margin:12px 0 2px 0;border-radius:4px;}
  .list-container li{ margin: 7px 0px;}</style>  
  <ol class='list-container'>
  <li style='list-style-type:decimal;'>Fill out the packing slip or print your receipt</li>
  <li style='list-style-type:decimal;'>Pack it with th...",
                      },
                    ]
                  }
                />
              </Styled(BodyCopy)>
            </div>
          </Styled(BodyCopy)>
        </div>
        <div
          className="row-background row-margin"
        >
          <Styled(BodyCopy)
            className="elem-mb-XS"
            color="black"
            component="p"
            customStyle={Object {}}
            fontFamily="secondary"
            fontSize="fs16"
            fontWeight="extrabold"
            letterSpacing="normal"
            lineHeight="normal"
            link={null}
            textAlign="left"
          >
            lbl_items_to_be_returned
          </Styled(BodyCopy)>
          <Styled(BodyCopy)
            className="title-underline underline-bottom-margin"
            color="text.primary"
            component="p"
            customStyle={Object {}}
            fontFamily="primary"
            fontSize={12}
            fontWeight="regular"
            letterSpacing="normal"
            lineHeight="normal"
            link={null}
            textAlign="left"
          />
          <Styled(BodyCopy)
            className="elem-mb-XXS"
            color="text.primary"
            component="p"
            customStyle={Object {}}
            fontFamily="secondary"
            fontSize="fs14"
            fontWeight="semibold"
            letterSpacing="normal"
            lineHeight="normal"
            link={null}
            textAlign="left"
          >
            lbl_review_order_no344069007
          </Styled(BodyCopy)>
          <ReviewItemsList
            action="RETURN_ITEMS"
            className=""
            isEcol={true}
            items={
              Array [
                Object {
                  "isReturnedItem": false,
                  "itemInfo": Object {
                    "itemBrand": "TCP",
                    "linePrice": 79.8,
                    "listPrice": 19.95,
                    "offerPrice": 19.95,
                    "quantity": 4,
                    "quantityCanceled": 0,
                    "quantityOOS": 0,
                    "quantityReturned": 0,
                    "quantityShipped": 4,
                    "taxUnitPrice": 1.4,
                  },
                  "itemStatus": "Delivered",
                  "lineNumber": "1517870001_7NW64107Y600304266_1_4",
                  "orderItemStatus": "Delivered",
                  "productInfo": Object {
                    "appeasementApplied": false,
                    "color": Object {
                      "imagePath": "3016287/3016287_7R_swatch.jpg",
                      "name": "REDWOOD",
                    },
                    "fit": null,
                    "imagePath": "https://test1.theplace.com/image/upload/ecom/assets/products/tcp/3016287/3016287_7R.jpg",
                    "lineNumber": "1517870001",
                    "name": "Boys Active Fleece Jogger Pants",
                    "pdpUrl": "http://uatlive1.childrensplace.com/us/p/Boys-Active-Fleece-Jogger-Pants-3016287-7R",
                    "size": "S (5/6)",
                    "thumbnailImgPath": "3016287/3016287_7R.jpg",
                    "upc": "00194936100764",
                    "variantNo": "3016287008",
                  },
                  "quantity": 4,
                  "trackingInfo": Array [
                    Object {
                      "actualDeliveryDate": "2021-10-01 16:19:00",
                      "appeasement": 0,
                      "carrier": "UPS",
                      "carrierDeliveryDate": null,
                      "isCSHReturn": null,
                      "quantity": 4,
                      "refundAmount": 0,
                      "refundDate": null,
                      "returnInitiatedDate": null,
                      "shipDate": "9/20/21 00:00",
                      "shipVia": "UGNR",
                      "status": "Delivered",
                      "trackingNbr": "7NW64107Y600304266_1",
                      "trackingUrl": "https://childrensplace.narvar.com/childrensplace/tracking/ups?tracking_numbers=7NW64107Y600304266_1&service=UG&ozip=35968&dzip=46350&locale=en_US&order_number=344069001&order_date=2021-09-29T07:56:00.000-04:00&ship_date=2021-09-30T06:41:30.000-04:00",
                    },
                  ],
                },
              ]
            }
            key="0"
            labels={Object {}}
            orderStatus="lbl_items_to_be_returned"
            selectedOrderItems={
              Object {
                "1517870010_7NW64107Y600304405_4": 1,
              }
            }
          />
        </div>
      </Styled(Col)>
      <Styled(Col)
        className="inner-summary"
        colSize={
          Object {
            "large": 4,
            "medium": 4,
            "small": 6,
          }
        }
      >
        <div
          className="row-background"
        >
          <Styled(BodyCopy)
            className={null}
            color="text.primary"
            component="div"
            customStyle={Object {}}
            fontFamily="primary"
            fontSize={12}
            fontWeight="regular"
            letterSpacing="normal"
            lineHeight="normal"
            link={null}
            textAlign="left"
          >
            <div
              className="return-method-heading-container"
            >
              <Styled(BodyCopy)
                className="elem-mb-XS"
                color="black"
                component="p"
                customStyle={Object {}}
                fontFamily="secondary"
                fontSize="fs16"
                fontWeight="extrabold"
                letterSpacing="normal"
                lineHeight="normal"
                link={null}
                textAlign="left"
              >
                lbl_review_return_method
              </Styled(BodyCopy)>
            </div>
            <Styled(BodyCopy)
              className=" title-underline"
              color="text.primary"
              component="p"
              customStyle={Object {}}
              fontFamily="primary"
              fontSize={12}
              fontWeight="regular"
              letterSpacing="normal"
              lineHeight="normal"
              link={null}
              textAlign="left"
            />
          </Styled(BodyCopy)>
          <IconWithText
            image="fast-shipping"
            title="lbl_returns_by_mail_title"
          />
          <div
            className="elem-ml-XXL elem-mt-XXXS elem-mb-SM"
          >
            <IconWithText
              image="place-bucks"
              imgWidth="22px"
              textSpacing="elem-pl-XS"
              title="lbl_returns_by_mail_fees_apply"
              titleFontSize="fs12"
            />
          </div>
          <IconWithText
            descAsHTML={true}
            description="lbl_returns_mailing_address_us"
            image="marker-icon"
            imgSpacing="elem-pt-XXS elem-mr-XXXS elem-ml-XXXS"
            imgWidth="22px"
            title="lbl_returns_mailing_address"
          />
        </div>
        <div
          className="row-background row-margin"
        >
          <Styled(PaymentDetails)
            labels={Object {}}
            orderDetailsData={
              Object {
                "bossMaxDate": null,
                "bossMinDate": null,
                "emailAddress": "SANT.HOTA99@GMAIL.COM",
                "encryptedEmailAddress": "heAL2XJwMyghv0AMtl9iXCOY487kfb3p",
                "estimatedDeliveryDate": "",
                "isBopisOrder": false,
                "isBossOrder": false,
                "orderDate": "2021-09-29 08:11:30.914",
                "orderItems": Array [
                  Object {
                    "items": Array [
                      Object {
                        "isReturnedItem": false,
                        "itemInfo": Object {
                          "itemBrand": "TCP",
                          "linePrice": 79.8,
                          "listPrice": 19.95,
                          "offerPrice": 19.95,
                          "quantity": 4,
                          "quantityCanceled": 0,
                          "quantityOOS": 0,
                          "quantityReturned": 0,
                          "quantityShipped": 4,
                          "taxUnitPrice": 1.4,
                        },
                        "itemStatus": "Delivered",
                        "lineNumber": "1517870001_7NW64107Y600304266_1_4",
                        "orderItemStatus": "Delivered",
                        "productInfo": Object {
                          "appeasementApplied": false,
                          "color": Object {
                            "imagePath": "3016287/3016287_7R_swatch.jpg",
                            "name": "REDWOOD",
                          },
                          "fit": null,
                          "imagePath": "https://test1.theplace.com/image/upload/ecom/assets/products/tcp/3016287/3016287_7R.jpg",
                          "lineNumber": "1517870001",
                          "name": "Boys Active Fleece Jogger Pants",
                          "pdpUrl": "http://uatlive1.childrensplace.com/us/p/Boys-Active-Fleece-Jogger-Pants-3016287-7R",
                          "size": "S (5/6)",
                          "thumbnailImgPath": "3016287/3016287_7R.jpg",
                          "upc": "00194936100764",
                          "variantNo": "3016287008",
                        },
                        "quantity": 4,
                        "trackingInfo": Array [
                          Object {
                            "actualDeliveryDate": "2021-10-01 16:19:00",
                            "appeasement": 0,
                            "carrier": "UPS",
                            "carrierDeliveryDate": null,
                            "isCSHReturn": null,
                            "quantity": 4,
                            "refundAmount": 0,
                            "refundDate": null,
                            "returnInitiatedDate": null,
                            "shipDate": "9/20/21 00:00",
                            "shipVia": "UGNR",
                            "status": "Delivered",
                            "trackingNbr": "7NW64107Y600304266_1",
                            "trackingUrl": "https://childrensplace.narvar.com/childrensplace/tracking/ups?tracking_numbers=7NW64107Y600304266_1&service=UG&ozip=35968&dzip=46350&locale=en_US&order_number=344069001&order_date=2021-09-29T07:56:00.000-04:00&ship_date=2021-09-30T06:41:30.000-04:00",
                          },
                        ],
                      },
                    ],
                    "orderStatus": "Delivered",
                    "shippedDate": "9/20/21 00:00",
                    "trackingNumber": "7NW64107Y600304266_1",
                    "trackingUrl": "https://childrensplace.narvar.com/childrensplace/tracking/ups?tracking_numbers=7NW64107Y600304266_1&service=UG&ozip=35968&dzip=46350&locale=en_US&order_number=344069001&order_date=2021-09-29T07:56:00.000-04:00&ship_date=2021-09-30T06:41:30.000-04:00",
                  },
                ],
                "orderLabels": Object {
                  "orders": Object {},
                },
                "orderNumber": "344069007",
                "orderStatus": "order shipped",
                "orderType": "ECOM",
                "pickUpExpirationDate": null,
                "pickedUpDate": "2021-09-30 02:10:00",
                "shippedDate": "2021-09-30 02:10:00",
                "shippingMethod": "Express",
                "status": "lbl_orders_statusOrderShipped",
                "trackingNumber": null,
                "trackingUrl": null,
              }
            }
            orderStatus="lbl_payment_details_msg"
            returnMethod="BY_MAIL"
            showCardDetails={false}
          />
        </div>
      </Styled(Col)>
    </Styled(Row)>
  </div>
  <div
    className=""
  >
    <Styled(Row)
      fullBleed={true}
    >
      <Styled(Col)
        colSize={
          Object {
            "large": 12,
            "medium": 8,
            "small": 6,
          }
        }
      >
        <div
          className="review-button"
        >
          <div
            className="review-submit-align back-btn"
          >
            <Styled(Button)
              buttonVariation="variable-width"
              className="footer-button review-footer"
              fill="WHITE"
              fontSize="fs14"
              fontWeight="extrabold"
              onClick={[Function]}
            >
              lbl_orderDetails_back
            </Styled(Button)>
          </div>
          <div
            className="review-submit-align"
          >
            <Styled(Button)
              buttonVariation="variable-width"
              className="footer-button review-footer"
              fill="BLUE"
              fontSize="fs14"
              fontWeight="extrabold"
              onClick={[Function]}
            >
              lbl_returns_initiate_return
            </Styled(Button)>
          </div>
        </div>
      </Styled(Col)>
    </Styled(Row)>
  </div>
</div>
`;
