// Jest Snapshot v1, https://goo.gl/fbAQLP

exports[`HomePageViewVanilla should render correctly 1`] = `
<Fragment>
  <withRouter(HomePageWrapper)
    compProps={
      Object {
        "appType": "tcp",
        "getBootstrapData": [MockFunction],
        "labels": Object {
          "recentlyViewed": "",
        },
        "loadNavigationData": [Function],
        "name": null,
        "navigation": Object {
          "getParam": [Function],
        },
        "router": Object {
          "components": Object {
            "/index": Object {
              "props": Object {
                "isServer": true,
              },
            },
          },
        },
        "slot_1": Object {
          "className": "moduleD",
        },
        "slot_2": Object {
          "className": "moduleH",
        },
      }
    }
  >
    <styled.div>
      <PageSlots
        isHomePage={true}
        modules={
          Object {
            "module2columns": Object {
              "$$typeof": Symbol(react.forward_ref),
              "render": [Function],
            },
            "moduleA": Object {
              "$$typeof": Symbol(react.forward_ref),
              "render": [Function],
            },
            "moduleB": Object {
              "$$typeof": Symbol(react.forward_ref),
              "render": [Function],
            },
            "moduleD": Object {
              "$$typeof": Symbol(react.forward_ref),
              "render": [Function],
            },
            "moduleDynamic": Object {
              "$$typeof": Symbol(react.forward_ref),
              "render": [Function],
            },
            "moduleE": Object {
              "$$typeof": Symbol(react.forward_ref),
              "render": [Function],
            },
            "moduleFont": Object {
              "$$typeof": Symbol(react.forward_ref),
              "render": [Function],
            },
            "moduleG": Object {
              "$$typeof": Symbol(react.forward_ref),
              "render": [Function],
            },
            "moduleJ": Object {
              "$$typeof": Symbol(react.forward_ref),
              "render": [Function],
            },
            "moduleL": Object {
              "$$typeof": Symbol(react.forward_ref),
              "render": [Function],
            },
            "moduleM": Object {
              "$$typeof": Symbol(react.forward_ref),
              "render": [Function],
            },
            "moduleN": Object {
              "$$typeof": Symbol(react.forward_ref),
              "render": [Function],
            },
            "moduleQ": Object {
              "$$typeof": Symbol(react.forward_ref),
              "render": [Function],
            },
            "moduleT": Object {
              "$$typeof": Symbol(react.forward_ref),
              "render": [Function],
            },
            "moduleX": Object {
              "$$typeof": Symbol(react.forward_ref),
              "render": [Function],
            },
            "module_container": Object {
              "$$typeof": Symbol(react.forward_ref),
              "render": [Function],
            },
            "outfitCarousel": Object {
              "$$typeof": Symbol(react.forward_ref),
              "render": [Function],
            },
          }
        }
        page="home page"
      />
    </styled.div>
    <Styled(SeoCopy) />
  </withRouter(HomePageWrapper)>
</Fragment>
`;

exports[`HomePageViewVanilla should render correctly with CSR Enabled 1`] = `
<Fragment>
  <withRouter(HomePageWrapper)
    compProps={
      Object {
        "appType": "tcp",
        "getBootstrapData": [MockFunction],
        "labels": Object {
          "recentlyViewed": "",
        },
        "loadNavigationData": [Function],
        "name": null,
        "navigation": Object {
          "getParam": [Function],
        },
        "router": Object {
          "components": Object {
            "/index": Object {
              "props": Object {
                "isServer": true,
              },
            },
          },
        },
        "slot_1": Object {
          "className": "moduleD",
        },
        "slot_2": Object {
          "className": "moduleH",
        },
      }
    }
  >
    <styled.div>
      <PageSlots
        isHomePage={true}
        modules={
          Object {
            "module2columns": Object {
              "$$typeof": Symbol(react.forward_ref),
              "render": [Function],
            },
            "moduleA": Object {
              "$$typeof": Symbol(react.forward_ref),
              "render": [Function],
            },
            "moduleB": Object {
              "$$typeof": Symbol(react.forward_ref),
              "render": [Function],
            },
            "moduleD": Object {
              "$$typeof": Symbol(react.forward_ref),
              "render": [Function],
            },
            "moduleDynamic": Object {
              "$$typeof": Symbol(react.forward_ref),
              "render": [Function],
            },
            "moduleE": Object {
              "$$typeof": Symbol(react.forward_ref),
              "render": [Function],
            },
            "moduleFont": Object {
              "$$typeof": Symbol(react.forward_ref),
              "render": [Function],
            },
            "moduleG": Object {
              "$$typeof": Symbol(react.forward_ref),
              "render": [Function],
            },
            "moduleJ": Object {
              "$$typeof": Symbol(react.forward_ref),
              "render": [Function],
            },
            "moduleL": Object {
              "$$typeof": Symbol(react.forward_ref),
              "render": [Function],
            },
            "moduleM": Object {
              "$$typeof": Symbol(react.forward_ref),
              "render": [Function],
            },
            "moduleN": Object {
              "$$typeof": Symbol(react.forward_ref),
              "render": [Function],
            },
            "moduleQ": Object {
              "$$typeof": Symbol(react.forward_ref),
              "render": [Function],
            },
            "moduleT": Object {
              "$$typeof": Symbol(react.forward_ref),
              "render": [Function],
            },
            "moduleX": Object {
              "$$typeof": Symbol(react.forward_ref),
              "render": [Function],
            },
            "module_container": Object {
              "$$typeof": Symbol(react.forward_ref),
              "render": [Function],
            },
            "outfitCarousel": Object {
              "$$typeof": Symbol(react.forward_ref),
              "render": [Function],
            },
          }
        }
        page="home page"
      />
    </styled.div>
    <Styled(SeoCopy) />
  </withRouter(HomePageWrapper)>
</Fragment>
`;
