// Jest Snapshot v1, https://goo.gl/fbAQLP

exports[`YourStore YourStore should render correctly 1`] = `
<Styled(Component)
  onPress={[Function]}
>
  <Styled(View)>
    <Styled(Component)>
      ABC
    </Styled(Component)>
    <Styled(Component)
      onPress={[Function]}
    >
      <Styled(Component)>
        Details
      </Styled(Component)>
      <Styled(Component)
        resizeMode="contain"
        source={
          Object {
            "testUri": "../../../src/assets/images/carrot-small-rights.png",
          }
        }
      />
    </Styled(Component)>
  </Styled(View)>
  <Styled(View)>
    <Styled(View)>
      <Styled(Component)
        resizeMode="contain"
        source={
          Object {
            "testUri": "../../../src/assets/images/store_locator.png",
          }
        }
      />
    </Styled(View)>
    <Styled(View)>
      <Styled(Component) />
      <Styled(Component) />
    </Styled(View)>
  </Styled(View)>
</Styled(Component)>
`;
