// Jest Snapshot v1, https://goo.gl/fbAQLP

exports[`EmptyOrderTile should render correctly 1`] = `
<Fragment>
  <Styled(BodyCopy)
    accessibilityText=""
    data-locator="no_rewards_msg"
    dataLocator=""
    fontFamily="secondary"
    fontSize="fs14"
    fontWeight="semibold"
    margin={null}
    numberOfLines={null}
    text="shop now"
    textDecoration={null}
  />
  <Styled(View)
    spacingStyles="margin-top-LRG"
  >
    <Styled(CustomButton)
      active={false}
      buttonVariation="fixed-width"
      color="gray"
      customBorderStyle=""
      customIconStyle={Object {}}
      customStyle={Object {}}
      customTextStyle={null}
      data-locator="orders-shop-now-btn"
      disableButton={false}
      fill="WHITE"
      fontFamily=""
      fontSize=""
      fontWeight=""
      fullWidth=""
      iconColor="gray.800"
      iconFirst={false}
      iconName="chevron-down"
      iconSize="fs12"
      locator=""
      navigation={Object {}}
      onPress={[Function]}
      paddings="12px 32px 12px 32px"
      selected={false}
      selectedIcon="chevron-up"
      showIcon={false}
      text="msg"
      theme={Object {}}
      url=""
      useCustomFontStyle={false}
      withNoLineHeight={false}
    />
  </Styled(View)>
</Fragment>
`;
