// Jest Snapshot v1, https://goo.gl/fbAQLP

exports[`Promo Text Banner component renders correctly 1`] = `
<BodyCopy
  className="sc-gsDKAQ hXWujm"
  color="text.primary"
  component="div"
  customStyle={Object {}}
  fontFamily="primary"
  fontSize={12}
  fontWeight="regular"
  isModBOverlay={false}
  letterSpacing="normal"
  lineHeight="normal"
  link={null}
  textAlign="left"
>
  <Connect(Component)
    as={
      Object {
        "$$typeof": Symbol(react.forward_ref),
        "attrs": Array [],
        "componentStyle": e {
          "baseHash": -578376589,
          "baseStyle": undefined,
          "componentId": "sc-bdvvtL",
          "isStatic": false,
          "rules": Array [
            "
  ",
            "
  font-family: ",
            [Function],
            ";
  color: inherit;

  ",
            [Function],
            ";
  ",
            [Function],
            ";
  ",
            [Function],
            ";
  ",
            [Function],
            ";
  ",
            [Function],
            ";
  ",
            [Function],
            ";
  ",
            [Function],
            ";
  ",
            [Function],
            ";
  ",
            [Function],
            ";
  ",
            [Function],
            ";
  ",
            [Function],
            ";
  ",
            [Function],
            ";
  ",
            [Function],
            ";
  ",
            [Function],
            ";
  ",
            [Function],
            ";
  ",
            [Function],
            ";
  ",
            [Function],
            ";
  ",
            [Function],
            ";

  .left-arrow {
    border: solid ",
            [Function],
            ";
    border-width: 0 2px 2px 0;
    display: inline-block;
    padding: 5px;
    transform: rotate(135deg);
  }
",
            ";
",
          ],
          "staticRulesId": "",
        },
        "foldedComponentIds": Array [],
        "render": [Function],
        "shouldForwardProp": undefined,
        "styledComponentId": "sc-bdvvtL",
        "target": [Function],
        "toString": [Function],
        "warnTooManyClasses": [Function],
        "withComponent": [Function],
      }
    }
    asPath="http://example.com235"
    className="promo-text-link"
    clickData={
      Object {
        "customEvents": Array [
          "event80",
          "event81",
        ],
        "internalCampaignId": "aboveheader_na_na_mpr_120118_mprc",
      }
    }
    external={0}
    target=""
    title=""
    to="http://example.com235"
    url="http://example.com235"
  >
    <styled.span
      className="promo-text style1"
      customStyle=""
      style={Object {}}
    >
      alL DINOS
    </styled.span>
    <styled.span
      className="promo-text style2"
      customStyle=""
      style={Object {}}
    >
       50% OFF
    </styled.span>
  </Connect(Component)>
</BodyCopy>
`;
