// Jest Snapshot v1, https://goo.gl/fbAQLP

exports[`GiftCardList Component renders correctly 1`] = `
<Styled(View)>
  <Styled(View)>
    <Styled(DamImage)
      accessibilityLabel="Boys Basic Skinny Jeans"
      alt=""
      badgeConfig={Array []}
      cacheType="immutable"
      checkBrand=""
      crop=""
      customStyle={null}
      disableVideoClickHandler={false}
      dynamicBadgeOverlayQty={0}
      height={100}
      host=""
      imgConfig=""
      imgData={null}
      isBackground={true}
      isBorderVideo={false}
      isFastImage={true}
      isHomePage={false}
      isNewReDesignEnabled={false}
      isOptimizedVideo={false}
      isProductImage={true}
      itemBrand=""
      link={null}
      navigation={null}
      onError={[Function]}
      onLoadStart={[Function]}
      onProgress={[Function]}
      overrideStyle={null}
      priority="normal"
      renderVideoAsImage={false}
      resizeMode="contain"
      source=""
      swatchConfig=""
      url=""
      videoData={null}
      width={80}
    />
  </Styled(View)>
  <Styled(View)>
    <Styled(View)>
      <Styled(BodyCopy)
        accessibilityText=""
        dataLocator=""
        fontSize="fs12"
        fontWeight={
          Array [
            "semibold",
          ]
        }
        margin={null}
        numberOfLines={null}
        text="Boys Basic Skinny Jeans"
        textDecoration={null}
      />
    </Styled(View)>
    <Styled(View)>
      <Styled(View)>
        <Styled(View)>
          <Styled(BodyCopy)
            accessibilityText=""
            dataLocator=""
            fontSize="fs12"
            fontWeight={
              Array [
                "semibold",
              ]
            }
            margin={null}
            numberOfLines={null}
            text="Color: "
            textAlign="left"
            textDecoration={null}
          />
        </Styled(View)>
        <Styled(BodyCopy)
          accessibilityText=""
          dataLocator=""
          fontSize="fs12"
          margin={null}
          numberOfLines={null}
          textDecoration={null}
        />
      </Styled(View)>
      <Styled(View)>
        <Styled(View)>
          <Styled(BodyCopy)
            accessibilityText=""
            dataLocator=""
            fontSize="fs12"
            fontWeight={
              Array [
                "semibold",
              ]
            }
            margin={null}
            numberOfLines={null}
            text="Size: "
            textAlign="left"
            textDecoration={null}
          />
        </Styled(View)>
        <Styled(BodyCopy)
          accessibilityText=""
          dataLocator=""
          fontSize="fs12"
          margin={null}
          numberOfLines={null}
          text="M "
          textDecoration={null}
        />
        <Styled(BodyCopy)
          accessibilityText=""
          dataLocator=""
          fontSize="fs12"
          margin={null}
          numberOfLines={null}
          text="slim"
          textDecoration={null}
        />
      </Styled(View)>
      <Styled(View)>
        <Styled(View)>
          <Styled(BodyCopy)
            accessibilityText=""
            dataLocator=""
            fontSize="fs12"
            fontWeight={
              Array [
                "semibold",
              ]
            }
            margin={null}
            numberOfLines={null}
            text="Qty: "
            textAlign="left"
            textDecoration={null}
          />
        </Styled(View)>
        <Styled(BodyCopy)
          accessibilityText=""
          dataLocator=""
          fontSize="fs12"
          margin={null}
          numberOfLines={null}
          text="1"
          textDecoration={null}
        />
      </Styled(View)>
    </Styled(View)>
  </Styled(View)>
</Styled(View)>
`;

exports[`GiftCardList Component renders correctly with new experience 1`] = `
<Styled(View)>
  <Styled(View)>
    <Styled(DamImage)
      accessibilityLabel="Boys Basic Skinny Jeans"
      alt=""
      badgeConfig={Array []}
      cacheType="immutable"
      checkBrand=""
      crop=""
      customStyle={null}
      disableVideoClickHandler={false}
      dynamicBadgeOverlayQty={0}
      height={100}
      host=""
      imgConfig=""
      imgData={null}
      isBackground={true}
      isBorderVideo={false}
      isFastImage={true}
      isHomePage={false}
      isNewReDesignEnabled={false}
      isOptimizedVideo={false}
      isProductImage={true}
      itemBrand=""
      link={null}
      navigation={null}
      onError={[Function]}
      onLoadStart={[Function]}
      onProgress={[Function]}
      overrideStyle={null}
      priority="normal"
      renderVideoAsImage={false}
      resizeMode="contain"
      source=""
      swatchConfig=""
      url=""
      videoData={null}
      width={80}
    />
  </Styled(View)>
  <Styled(View)>
    <Styled(View)>
      <Styled(BodyCopy)
        accessibilityText=""
        dataLocator=""
        fontSize="fs12"
        fontWeight={
          Array [
            "semibold",
          ]
        }
        margin={null}
        numberOfLines={null}
        text="Boys Basic Skinny Jeans"
        textDecoration={null}
      />
    </Styled(View)>
    <Styled(View)>
      <Styled(View)>
        <Styled(View)>
          <Styled(BodyCopy)
            accessibilityText=""
            dataLocator=""
            fontSize="fs12"
            fontWeight={
              Array [
                "semibold",
              ]
            }
            margin={null}
            numberOfLines={null}
            text="Color: "
            textAlign="left"
            textDecoration={null}
          />
        </Styled(View)>
        <Styled(BodyCopy)
          accessibilityText=""
          dataLocator=""
          fontSize="fs12"
          margin={null}
          numberOfLines={null}
          textDecoration={null}
        />
      </Styled(View)>
      <Styled(View)>
        <Styled(View)>
          <Styled(BodyCopy)
            accessibilityText=""
            dataLocator=""
            fontSize="fs12"
            fontWeight={
              Array [
                "semibold",
              ]
            }
            margin={null}
            numberOfLines={null}
            text="Size: "
            textAlign="left"
            textDecoration={null}
          />
        </Styled(View)>
        <Styled(BodyCopy)
          accessibilityText=""
          dataLocator=""
          fontSize="fs12"
          margin={null}
          numberOfLines={null}
          text="M "
          textDecoration={null}
        />
        <Styled(BodyCopy)
          accessibilityText=""
          dataLocator=""
          fontSize="fs12"
          margin={null}
          numberOfLines={null}
          text="slim"
          textDecoration={null}
        />
      </Styled(View)>
      <Styled(View)>
        <Styled(View)>
          <Styled(BodyCopy)
            accessibilityText=""
            dataLocator=""
            fontSize="fs12"
            fontWeight={
              Array [
                "semibold",
              ]
            }
            margin={null}
            numberOfLines={null}
            text="Qty: "
            textAlign="left"
            textDecoration={null}
          />
        </Styled(View)>
        <Styled(BodyCopy)
          accessibilityText=""
          dataLocator=""
          fontSize="fs12"
          margin={null}
          numberOfLines={null}
          text="1"
          textDecoration={null}
        />
      </Styled(View)>
      <Styled(View)>
        <Styled(View)>
          <Styled(BodyCopy)
            accessibilityText=""
            dataLocator=""
            fontSize="fs12"
            fontWeight={
              Array [
                "semibold",
              ]
            }
            margin={null}
            numberOfLines={null}
            text="undefined: "
            textAlign="left"
            textDecoration={null}
          />
        </Styled(View)>
        <Styled(BodyCopy)
          accessibilityText=""
          dataLocator=""
          fontSize="fs12"
          margin={null}
          numberOfLines={null}
          text={
            <Connect(ErrorBoundary)
              price={NaN}
            />
          }
          textDecoration={null}
        />
      </Styled(View)>
    </Styled(View)>
  </Styled(View)>
</Styled(View)>
`;
