// Jest Snapshot v1, https://goo.gl/fbAQLP

exports[`GuestBillingFormVanilla should render correctly 1`] = `
<Fragment>
  <Styled(View)>
    <Styled(View)>
      <Styled(BodyCopy)
        accessibilityText=""
        className="elem-mb-XS elem-mt-MED"
        dataLocator="paymentMethodLbl"
        fontSize="fs26"
        fontWeight="regular"
        margin={null}
        mobileFontFamily="primary"
        numberOfLines={null}
        textDecoration={null}
      />
    </Styled(View)>
    <FormSection
      name="shipmentMethods"
    >
      <PaymentMethods
        appleId="applepay"
        formName="checkoutBilling"
        isAfterPayEnabled={false}
        isPayPalEnabled={false}
        isVenmoEnabled={false}
        labels={
          Object {
            "orderTotalThresholdMessage": "test",
          }
        }
        paymentMethods={
          Array [
            Object {
              "displayName": undefined,
              "id": "creditCard",
            },
            Object {
              "displayName": undefined,
              "id": "applepay",
            },
          ]
        }
        selectedPaymentId={null}
        venmoId="venmo"
      />
    </FormSection>
  </Styled(View)>
  <Connect(CnCCommonTemplate)
    backLinkText=""
    btnText=""
    getPayPalSettings={Object {}}
    isAfterPaySelected={false}
    isGuest={true}
    isPayPalWebViewEnable={false}
    onBackLinkPress={[Function]}
    onVenmoError={[Function]}
    pageCategory="guestBilling"
    pageName="checkout"
    pageSection="billing"
    routeToPage=""
    showAccordian={true}
    showPayPalButton={false}
    showVenmoSubmit={false}
    trackClickAfterPay={[Function]}
  />
</Fragment>
`;

exports[`GuestBillingFormVanilla should render correctly when props change 1`] = `
<Fragment>
  <Styled(View)>
    <Styled(View)>
      <Styled(BodyCopy)
        accessibilityText=""
        className="elem-mb-XS elem-mt-MED"
        dataLocator="paymentMethodLbl"
        fontSize="fs26"
        fontWeight="regular"
        margin={null}
        mobileFontFamily="primary"
        numberOfLines={null}
        textDecoration={null}
      />
    </Styled(View)>
    <FormSection
      name="shipmentMethods"
    >
      <PaymentMethods
        appleId="applepay"
        dispatch={
          [MockFunction] {
            "calls": Array [
              Array [
                Object {
                  "meta": Object {
                    "field": "cardType",
                    "form": "checkoutBilling",
                    "persistentSubmitErrors": undefined,
                    "touch": undefined,
                  },
                  "payload": "VISA",
                  "type": "@@redux-form/CHANGE",
                },
              ],
            ],
            "results": Array [
              Object {
                "type": "return",
                "value": undefined,
              },
            ],
          }
        }
        formName="checkoutBilling"
        isAfterPayEnabled={false}
        isPayPalEnabled={false}
        isVenmoEnabled={false}
        labels={
          Object {
            "orderTotalThresholdMessage": "test",
          }
        }
        paymentMethods={
          Array [
            Object {
              "displayName": undefined,
              "id": "creditCard",
            },
            Object {
              "displayName": undefined,
              "id": "applepay",
            },
          ]
        }
        selectedPaymentId="creditCard"
        venmoId="venmo"
      />
    </FormSection>
    <AddNewCCForm
      addNewCCState={false}
      billingData={Object {}}
      cardList={null}
      cardType="VISA"
      createRefParent={[Function]}
      creditFieldLabels={Object {}}
      cvvError="error"
      cvvInfo={
        <ReactTooltip
          autoHeight={false}
          backgroundColor="#fff"
          height={290}
          onClose={[Function]}
          onOpen={[Function]}
          overlayColor="rgba(250, 250, 250, 0.80)"
          popover={
            <RichText
              actionHandler={[Function]}
              domStorageEnabled={false}
              fromEspot={false}
              isApplyDeviceHeight={false}
              isNativeView={true}
              javaScriptEnabled={false}
              scrollEnabled={false}
              source=""
              thirdPartyCookiesEnabled={false}
            />
          }
          toggleOnPress={true}
          width={350}
          withOverlay={false}
          withPointer={true}
        >
          <ForwardRef(Styled(ImageComp))
            alt=""
            cacheType="immutable"
            height={15}
            host=""
            isFastImage={false}
            marginTop={17}
            onError={[Function]}
            onLoadStart={[Function]}
            onProgress={[Function]}
            priority="normal"
            resizeMode="contain"
            source={
              Object {
                "testUri": "../../../src/assets/images/info-icon.png",
              }
            }
            url=""
            width={15}
          />
        </ReactTooltip>
      }
      defaultSaveToAccount={false}
      dispatch={
        [MockFunction] {
          "calls": Array [
            Array [
              Object {
                "meta": Object {
                  "field": "cardType",
                  "form": "checkoutBilling",
                  "persistentSubmitErrors": undefined,
                  "touch": undefined,
                },
                "payload": "VISA",
                "type": "@@redux-form/CHANGE",
              },
            ],
          ],
          "results": Array [
            Object {
              "type": "return",
              "value": undefined,
            },
          ],
        }
      }
      dto={Object {}}
      editMode={false}
      formName="checkoutBilling"
      isExpirationRequired={true}
      isGuest={true}
      isPLCCEnabled={true}
      isSameAsShippingChecked={false}
      isSaveToAccountChecked={true}
      labels={
        Object {
          "orderTotalThresholdMessage": "test",
        }
      }
      selectedCard={null}
    />
    <Styled(CheckoutAddress)
      billingData={Object {}}
      createRefParent={[Function]}
      dispatch={
        [MockFunction] {
          "calls": Array [
            Array [
              Object {
                "meta": Object {
                  "field": "cardType",
                  "form": "checkoutBilling",
                  "persistentSubmitErrors": undefined,
                  "touch": undefined,
                },
                "payload": "VISA",
                "type": "@@redux-form/CHANGE",
              },
            ],
          ],
          "results": Array [
            Object {
              "type": "return",
              "value": undefined,
            },
          ],
        }
      }
      editMode={false}
      formName="checkoutBilling"
      getZipCodeSuggestedAddress={[Function]}
      isGuest={true}
      isSameAsShippingChecked={true}
      labels={
        Object {
          "orderTotalThresholdMessage": "test",
        }
      }
      mapboxAutocompleteTypesParam=""
      mapboxSwitch={true}
      onFileAddressId={null}
      orderHasShipping={true}
      selectedOnFileAddressId={null}
      shippingAddress={null}
      userAddresses={null}
      zipCodeABTestEnabled={false}
      zipCodeLoader={false}
    />
  </Styled(View)>
  <Connect(CnCCommonTemplate)
    backLinkText=""
    btnText=""
    getPayPalSettings={Object {}}
    isAfterPaySelected={false}
    isGuest={true}
    isPayPalWebViewEnable={false}
    onBackLinkPress={[Function]}
    onVenmoError={[Function]}
    pageCategory="guestBilling"
    pageName="checkout"
    pageSection="billing"
    routeToPage=""
    showAccordian={true}
    showPayPalButton={false}
    showVenmoSubmit={false}
    trackClickAfterPay={[Function]}
  />
</Fragment>
`;

exports[`GuestBillingFormVanilla should render correctly with afterpay 1`] = `
<Fragment>
  <Styled(View)>
    <Styled(View)>
      <Styled(BodyCopy)
        accessibilityText=""
        className="elem-mb-XS elem-mt-MED"
        dataLocator="paymentMethodLbl"
        fontSize="fs26"
        fontWeight="regular"
        margin={null}
        mobileFontFamily="primary"
        numberOfLines={null}
        textDecoration={null}
      />
    </Styled(View)>
    <FormSection
      name="shipmentMethods"
    >
      <PaymentMethods
        appleId="applepay"
        formName="checkoutBilling"
        isAfterPayEnabled={false}
        isPayPalEnabled={false}
        isVenmoEnabled={false}
        labels={
          Object {
            "orderTotalThresholdMessage": "test",
          }
        }
        paymentMethods={
          Array [
            Object {
              "displayName": undefined,
              "id": "creditCard",
            },
            Object {
              "displayName": undefined,
              "id": "applepay",
            },
          ]
        }
        selectedPaymentId="afterpay"
        venmoId="venmo"
      />
    </FormSection>
    <Styled(View)>
      <Styled(View)>
        <Styled(ImageComp)
          alt=""
          cacheType="immutable"
          height="25px"
          host=""
          isFastImage={false}
          onError={[Function]}
          onLoadStart={[Function]}
          onProgress={[Function]}
          priority="normal"
          resizeMode="contain"
          source={
            Object {
              "testUri": "../../../src/assets/images/triangle-warning.png",
            }
          }
          url=""
          width="25px"
        />
        <Styled(View)>
          <Styled(Styled(BodyCopy))
            accessibilityText=""
            dataLocator=""
            fontFamily="secondary"
            fontSize="fs16"
            fontWeight="extrabold"
            margin={null}
            numberOfLines={null}
            spacingStyles="margin-left-SM"
            text="test"
            textDecoration={null}
          />
        </Styled(View)>
      </Styled(View)>
    </Styled(View)>
  </Styled(View)>
  <Connect(CnCCommonTemplate)
    backLinkText=""
    btnText=""
    getPayPalSettings={Object {}}
    isAfterPaySelected={false}
    isGuest={true}
    isPayPalWebViewEnable={false}
    onBackLinkPress={[Function]}
    onVenmoError={[Function]}
    pageCategory="guestBilling"
    pageName="checkout"
    pageSection="billing"
    routeToPage=""
    showAccordian={true}
    showPayPalButton={false}
    showVenmoSubmit={false}
    trackClickAfterPay={[Function]}
  />
</Fragment>
`;
