// Jest Snapshot v1, https://goo.gl/fbAQLP

exports[`ModuleNVanilla ModuleN should render correctly 1`] = `
<Styled(View)
  style={
    Object {
      "marginBottom": 0,
      "marginTop": 0,
    }
  }
>
  <Styled(View)
    style={Object {}}
  >
    <Styled(View)>
      <Styled(View)>
        <LinkText
          color="white"
          fontFamily="quaternary"
          fontSize="fs32"
          fontWeight="black"
          headerStyle={
            Array [
              Object {},
              Object {},
            ]
          }
          headerText={
            Array [
              Object {
                "icon": Object {
                  "icon": "",
                  "placement": "",
                },
                "link": Object {
                  "target": "_blank",
                  "title": "ALL CLEARANCE",
                  "url": "https://www.childrensplace.com/us/search/all-clearance?icid=hp_s15_buttonnlivetext_searchall_070819_clearance",
                },
                "textItems": Array [
                  Object {
                    "style": "white_large_text_half",
                    "text": "Must-See Markdowns",
                  },
                ],
              },
            ]
          }
          letterSpacing="ls167"
          locator="moduleN_header_text"
          textAlign="center"
          type="heading"
        />
      </Styled(View)>
      <Styled(View)>
        <PromoBanner
          locator="moduleN_promobanner_text"
          promoBanner={
            Array [
              Object {
                "link": Object {
                  "title": "60-70 % OFF",
                  "url": "https://www.childrensplace.com/us/search/all-clearance?icid=hp_s15_buttonnlivetext_searchall_070819_clearance",
                },
                "textItems": Array [
                  Object {
                    "style": "percentage_inline_promo_half",
                    "text": "60-70 % OFF",
                  },
                ],
              },
            ]
          }
          promoStyle={Object {}}
          showTextUnderLine={false}
          underLineStyle={Object {}}
        />
      </Styled(View)>
    </Styled(View)>
  </Styled(View)>
  <Styled(View)>
    <ButtonList
      buttonColor={Object {}}
      buttonListVariation="stackedCTAList"
      buttonVariation="cautionary"
      buttonsData={
        Array [
          Object {
            "button": Object {
              "target": "_blank",
              "text": "GIRL",
              "title": "GIRL",
              "url": "/c/girls-clothing",
            },
            "image": Object {
              "alt": "Girl",
              "crop_d": "",
              "crop_m": "",
              "crop_t": "",
              "title": "Girl",
              "url": "https://res.cloudinary.com/tcp-dam-test/image/upload/q_auto:best/v1558543115/ecom/assets/content/tcp/us/home/moduled/US-HP-050519-MINIME1_h9cwcd.jpg",
            },
          },
          Object {
            "button": Object {
              "target": "_blank",
              "text": "BOY",
              "title": "BOY",
              "url": "https://test6.childrensplace.com/us/c/baby-clothes",
            },
            "image": Object {
              "alt": "Girl",
              "crop_d": "",
              "crop_m": "",
              "crop_t": "",
              "title": "Girl",
              "url": "https://res.cloudinary.com/tcp-dam-test/image/upload/q_auto:best/v1558543115/ecom/assets/content/tcp/us/home/moduled/US-HP-050519-MINIME1_h9cwcd.jpg",
            },
          },
          Object {
            "button": Object {
              "target": "_blank",
              "text": "TODDLER BOY",
              "title": "TODDLER BOY",
              "url": "https://test6.childrensplace.com/us/c/toddler-boy-clothes",
            },
            "image": Object {
              "alt": "Girl",
              "crop_d": "",
              "crop_m": "",
              "crop_t": "",
              "title": "Girl",
              "url": "https://res.cloudinary.com/tcp-dam-test/image/upload/q_auto:best/v1558543115/ecom/assets/content/tcp/us/home/moduled/US-HP-050519-MINIME1_h9cwcd.jpg",
            },
          },
          Object {
            "button": Object {
              "target": "_blank",
              "text": "TODDLER GIRL",
              "title": "TODDLER GIRL",
              "url": "https://test6.childrensplace.com/us/c/toddler-girl-clothes",
            },
            "image": Object {
              "alt": "Girl",
              "crop_d": "",
              "crop_m": "",
              "crop_t": "",
              "title": "Girl",
              "url": "https://res.cloudinary.com/tcp-dam-test/image/upload/q_auto:best/v1558543115/ecom/assets/content/tcp/us/home/moduled/US-HP-050519-MINIME1_h9cwcd.jpg",
            },
          },
        ]
      }
      color="red"
      isContainerModule={false}
      locator="moduleN_cta_links"
      overrideStyle={Object {}}
    />
  </Styled(View)>
</Styled(View)>
`;

exports[`ModuleNVanilla ModuleN should render correctly when isHpNewLayoutEnabled is true 1`] = `
<Styled(View)
  style={
    Object {
      "elevation": 5,
      "marginBottom": 0,
      "marginTop": 0,
      "shadowColor": "#979797",
      "shadowOffset": Object {
        "height": 1,
        "width": 0,
      },
      "shadowOpacity": 0.8,
      "shadowRadius": 5,
    }
  }
>
  <Styled(View)
    style={
      Object {
        "borderBottomLeftRadius": 0,
        "borderBottomRightRadius": 0,
        "borderTopLeftRadius": 0,
        "borderTopRightRadius": 0,
      }
    }
  >
    <Styled(View)>
      <Styled(View)>
        <LinkText
          color="white"
          fontFamily="quaternary"
          fontSize="fs32"
          fontWeight="black"
          headerStyle={
            Array [
              Object {},
              Object {},
            ]
          }
          headerText={
            Array [
              Object {
                "icon": Object {
                  "icon": "",
                  "placement": "",
                },
                "link": Object {
                  "target": "_blank",
                  "title": "ALL CLEARANCE",
                  "url": "https://www.childrensplace.com/us/search/all-clearance?icid=hp_s15_buttonnlivetext_searchall_070819_clearance",
                },
                "textItems": Array [
                  Object {
                    "style": "white_large_text_half",
                    "text": "Must-See Markdowns",
                  },
                ],
              },
            ]
          }
          letterSpacing="ls167"
          locator="moduleN_header_text"
          textAlign="center"
          type="heading"
        />
      </Styled(View)>
      <Styled(View)>
        <PromoBanner
          locator="moduleN_promobanner_text"
          promoBanner={
            Array [
              Object {
                "link": Object {
                  "title": "60-70 % OFF",
                  "url": "https://www.childrensplace.com/us/search/all-clearance?icid=hp_s15_buttonnlivetext_searchall_070819_clearance",
                },
                "textItems": Array [
                  Object {
                    "style": "percentage_inline_promo_half",
                    "text": "60-70 % OFF",
                  },
                ],
              },
            ]
          }
          promoStyle={Object {}}
          showTextUnderLine={false}
          underLineStyle={Object {}}
        />
      </Styled(View)>
    </Styled(View)>
  </Styled(View)>
  <Styled(View)>
    <ButtonList
      buttonColor={Object {}}
      buttonListVariation="stackedCTAList"
      buttonVariation="cautionary"
      buttonsData={
        Array [
          Object {
            "button": Object {
              "target": "_blank",
              "text": "GIRL",
              "title": "GIRL",
              "url": "/c/girls-clothing",
            },
            "image": Object {
              "alt": "Girl",
              "crop_d": "",
              "crop_m": "",
              "crop_t": "",
              "title": "Girl",
              "url": "https://res.cloudinary.com/tcp-dam-test/image/upload/q_auto:best/v1558543115/ecom/assets/content/tcp/us/home/moduled/US-HP-050519-MINIME1_h9cwcd.jpg",
            },
          },
          Object {
            "button": Object {
              "target": "_blank",
              "text": "BOY",
              "title": "BOY",
              "url": "https://test6.childrensplace.com/us/c/baby-clothes",
            },
            "image": Object {
              "alt": "Girl",
              "crop_d": "",
              "crop_m": "",
              "crop_t": "",
              "title": "Girl",
              "url": "https://res.cloudinary.com/tcp-dam-test/image/upload/q_auto:best/v1558543115/ecom/assets/content/tcp/us/home/moduled/US-HP-050519-MINIME1_h9cwcd.jpg",
            },
          },
          Object {
            "button": Object {
              "target": "_blank",
              "text": "TODDLER BOY",
              "title": "TODDLER BOY",
              "url": "https://test6.childrensplace.com/us/c/toddler-boy-clothes",
            },
            "image": Object {
              "alt": "Girl",
              "crop_d": "",
              "crop_m": "",
              "crop_t": "",
              "title": "Girl",
              "url": "https://res.cloudinary.com/tcp-dam-test/image/upload/q_auto:best/v1558543115/ecom/assets/content/tcp/us/home/moduled/US-HP-050519-MINIME1_h9cwcd.jpg",
            },
          },
          Object {
            "button": Object {
              "target": "_blank",
              "text": "TODDLER GIRL",
              "title": "TODDLER GIRL",
              "url": "https://test6.childrensplace.com/us/c/toddler-girl-clothes",
            },
            "image": Object {
              "alt": "Girl",
              "crop_d": "",
              "crop_m": "",
              "crop_t": "",
              "title": "Girl",
              "url": "https://res.cloudinary.com/tcp-dam-test/image/upload/q_auto:best/v1558543115/ecom/assets/content/tcp/us/home/moduled/US-HP-050519-MINIME1_h9cwcd.jpg",
            },
          },
        ]
      }
      color="red"
      isContainerModule={false}
      locator="moduleN_cta_links"
      overrideStyle={
        Object {
          "backgroundColor": "#ffffff",
          "borderBottomLeftRadius": 0,
          "borderBottomRightRadius": 0,
          "borderTopLeftRadius": 0,
          "borderTopRightRadius": 0,
          "borderTopWidth": 0,
          "borderWidth": 0.5,
        }
      }
    />
  </Styled(View)>
</Styled(View)>
`;
